solid OpenSCAD_Model
  facet normal 0.671556 -0.740954 0
    outer loop
      vertex 66.6611 1.38339 0
      vertex 67.4246 2.07538 2
      vertex 66.6611 1.38339 2
    endloop
  endfacet
  facet normal 0.671556 -0.740954 0
    outer loop
      vertex 67.4246 2.07538 2
      vertex 66.6611 1.38339 0
      vertex 67.4246 2.07538 0
    endloop
  endfacet
  facet normal 0.146746 0.989174 -0
    outer loop
      vertex 62.0484 19.7982 0
      vertex 61.0292 19.9494 2
      vertex 62.0484 19.7982 2
    endloop
  endfacet
  facet normal 0.146746 0.989174 0
    outer loop
      vertex 61.0292 19.9494 2
      vertex 62.0484 19.7982 0
      vertex 61.0292 19.9494 0
    endloop
  endfacet
  facet normal 0.336939 0.941527 -0
    outer loop
      vertex 64.0182 19.2007 0
      vertex 63.048 19.5479 2
      vertex 64.0182 19.2007 2
    endloop
  endfacet
  facet normal 0.336939 0.941527 0
    outer loop
      vertex 63.048 19.5479 2
      vertex 64.0182 19.2007 0
      vertex 63.048 19.5479 0
    endloop
  endfacet
  facet normal 0.0491051 0.998794 -0
    outer loop
      vertex 61.0292 19.9494 0
      vertex 60 20 2
      vertex 61.0292 19.9494 2
    endloop
  endfacet
  facet normal 0.0491051 0.998794 0
    outer loop
      vertex 60 20 2
      vertex 61.0292 19.9494 0
      vertex 60 20 0
    endloop
  endfacet
  facet normal -0.941536 0.336913 0
    outer loop
      vertex -10.0479 12.548 0
      vertex -9.70073 13.5182 2
      vertex -9.70073 13.5182 0
    endloop
  endfacet
  facet normal -0.941536 0.336913 0
    outer loop
      vertex -9.70073 13.5182 2
      vertex -10.0479 12.548 0
      vertex -10.0479 12.548 2
    endloop
  endfacet
  facet normal -0.998794 -0.049106 0
    outer loop
      vertex -10.4494 8.47082 0
      vertex -10.5 9.5 2
      vertex -10.5 9.5 0
    endloop
  endfacet
  facet normal -0.998794 -0.049106 0
    outer loop
      vertex -10.5 9.5 2
      vertex -10.4494 8.47082 0
      vertex -10.4494 8.47082 2
    endloop
  endfacet
  facet normal 0.671561 0.740949 -0
    outer loop
      vertex 67.4246 16.9246 0
      vertex 66.6611 17.6166 2
      vertex 67.4246 16.9246 2
    endloop
  endfacet
  facet normal 0.671561 0.740949 0
    outer loop
      vertex 66.6611 17.6166 2
      vertex 67.4246 16.9246 0
      vertex 66.6611 17.6166 0
    endloop
  endfacet
  facet normal 0 1 -0
    outer loop
      vertex 60 20 0
      vertex 0 20 2
      vertex 60 20 2
    endloop
  endfacet
  facet normal 0 1 0
    outer loop
      vertex 0 20 2
      vertex 60 20 0
      vertex 0 20 0
    endloop
  endfacet
  facet normal -0.146736 0.989176 0
    outer loop
      vertex -1.02918 19.9494 0
      vertex -2.04845 19.7982 2
      vertex -1.02918 19.9494 2
    endloop
  endfacet
  facet normal -0.146736 0.989176 0
    outer loop
      vertex -2.04845 19.7982 2
      vertex -1.02918 19.9494 0
      vertex -2.04845 19.7982 0
    endloop
  endfacet
  facet normal 0.857698 0.514153 0
    outer loop
      vertex 69.2602 14.4497 2
      vertex 68.7304 15.3335 0
      vertex 68.7304 15.3335 2
    endloop
  endfacet
  facet normal 0.857698 0.514153 0
    outer loop
      vertex 68.7304 15.3335 0
      vertex 69.2602 14.4497 2
      vertex 69.2602 14.4497 0
    endloop
  endfacet
  facet normal -0.74095 -0.671561 0
    outer loop
      vertex -7.42462 2.07538 0
      vertex -8.11661 2.83887 2
      vertex -8.11661 2.83887 0
    endloop
  endfacet
  facet normal -0.74095 -0.671561 0
    outer loop
      vertex -8.11661 2.83887 2
      vertex -7.42462 2.07538 0
      vertex -7.42462 2.07538 2
    endloop
  endfacet
  facet normal -0.970051 0.242901 0
    outer loop
      vertex -10.2982 11.5484 0
      vertex -10.0479 12.548 2
      vertex -10.0479 12.548 0
    endloop
  endfacet
  facet normal -0.970051 0.242901 0
    outer loop
      vertex -10.0479 12.548 2
      vertex -10.2982 11.5484 0
      vertex -10.2982 11.5484 2
    endloop
  endfacet
  facet normal -0.427506 0.904013 0
    outer loop
      vertex -4.01818 19.2007 0
      vertex -4.94967 18.7602 2
      vertex -4.01818 19.2007 2
    endloop
  endfacet
  facet normal -0.427506 0.904013 0
    outer loop
      vertex -4.94967 18.7602 2
      vertex -4.01818 19.2007 0
      vertex -4.94967 18.7602 0
    endloop
  endfacet
  facet normal 0.803217 -0.595687 0
    outer loop
      vertex 68.1166 2.83887 2
      vertex 68.7304 3.66651 0
      vertex 68.7304 3.66651 2
    endloop
  endfacet
  facet normal 0.803217 -0.595687 0
    outer loop
      vertex 68.7304 3.66651 0
      vertex 68.1166 2.83887 2
      vertex 68.1166 2.83887 0
    endloop
  endfacet
  facet normal -0.90399 -0.427554 0
    outer loop
      vertex -9.26017 4.55033 0
      vertex -9.70073 5.48182 2
      vertex -9.70073 5.48182 0
    endloop
  endfacet
  facet normal -0.90399 -0.427554 0
    outer loop
      vertex -9.70073 5.48182 2
      vertex -9.26017 4.55033 0
      vertex -9.26017 4.55033 2
    endloop
  endfacet
  facet normal -0.049106 0.998794 0
    outer loop
      vertex 0 20 0
      vertex -1.02918 19.9494 2
      vertex 0 20 2
    endloop
  endfacet
  facet normal -0.049106 0.998794 0
    outer loop
      vertex -1.02918 19.9494 2
      vertex 0 20 0
      vertex -1.02918 19.9494 0
    endloop
  endfacet
  facet normal 0.242967 -0.970035 0
    outer loop
      vertex 62.0484 -0.798245 0
      vertex 63.048 -0.547873 2
      vertex 62.0484 -0.798245 2
    endloop
  endfacet
  facet normal 0.242967 -0.970035 0
    outer loop
      vertex 63.048 -0.547873 2
      vertex 62.0484 -0.798245 0
      vertex 63.048 -0.547873 0
    endloop
  endfacet
  facet normal 0.427502 0.904014 -0
    outer loop
      vertex 64.9497 18.7602 0
      vertex 64.0182 19.2007 2
      vertex 64.9497 18.7602 2
    endloop
  endfacet
  facet normal 0.427502 0.904014 0
    outer loop
      vertex 64.0182 19.2007 2
      vertex 64.9497 18.7602 0
      vertex 64.0182 19.2007 0
    endloop
  endfacet
  facet normal 0.514153 0.857698 -0
    outer loop
      vertex 65.8335 18.2304 0
      vertex 64.9497 18.7602 2
      vertex 65.8335 18.2304 2
    endloop
  endfacet
  facet normal 0.514153 0.857698 0
    outer loop
      vertex 64.9497 18.7602 2
      vertex 65.8335 18.2304 0
      vertex 64.9497 18.7602 0
    endloop
  endfacet
  facet normal 0.336886 -0.941545 0
    outer loop
      vertex 63.048 -0.547873 0
      vertex 64.0182 -0.200734 2
      vertex 63.048 -0.547873 2
    endloop
  endfacet
  facet normal 0.336886 -0.941545 0
    outer loop
      vertex 64.0182 -0.200734 2
      vertex 63.048 -0.547873 0
      vertex 64.0182 -0.200734 0
    endloop
  endfacet
  facet normal 0 -1 0
    outer loop
      vertex 0 -1 0
      vertex 60 -1 2
      vertex 0 -1 2
    endloop
  endfacet
  facet normal 0 -1 -0
    outer loop
      vertex 60 -1 2
      vertex 0 -1 0
      vertex 60 -1 0
    endloop
  endfacet
  facet normal 0.970048 -0.242915 0
    outer loop
      vertex 70.0479 6.45201 2
      vertex 70.2982 7.45155 0
      vertex 70.2982 7.45155 2
    endloop
  endfacet
  facet normal 0.970048 -0.242915 0
    outer loop
      vertex 70.2982 7.45155 0
      vertex 70.0479 6.45201 2
      vertex 70.0479 6.45201 0
    endloop
  endfacet
  facet normal -0.514103 -0.857728 0
    outer loop
      vertex -5.83349 0.769568 0
      vertex -4.94967 0.239826 2
      vertex -5.83349 0.769568 2
    endloop
  endfacet
  facet normal -0.514103 -0.857728 -0
    outer loop
      vertex -4.94967 0.239826 2
      vertex -5.83349 0.769568 0
      vertex -4.94967 0.239826 0
    endloop
  endfacet
  facet normal 0.740945 -0.671566 0
    outer loop
      vertex 67.4246 2.07538 2
      vertex 68.1166 2.83887 0
      vertex 68.1166 2.83887 2
    endloop
  endfacet
  facet normal 0.740945 -0.671566 0
    outer loop
      vertex 68.1166 2.83887 0
      vertex 67.4246 2.07538 2
      vertex 67.4246 2.07538 0
    endloop
  endfacet
  facet normal -0.803207 -0.5957 0
    outer loop
      vertex -8.11661 2.83887 0
      vertex -8.73043 3.66651 2
      vertex -8.73043 3.66651 0
    endloop
  endfacet
  facet normal -0.803207 -0.5957 0
    outer loop
      vertex -8.73043 3.66651 2
      vertex -8.11661 2.83887 0
      vertex -8.11661 2.83887 2
    endloop
  endfacet
  facet normal -0.803194 0.595718 0
    outer loop
      vertex -8.73043 15.3335 0
      vertex -8.11661 16.1611 2
      vertex -8.11661 16.1611 0
    endloop
  endfacet
  facet normal -0.803194 0.595718 0
    outer loop
      vertex -8.11661 16.1611 2
      vertex -8.73043 15.3335 0
      vertex -8.73043 15.3335 2
    endloop
  endfacet
  facet normal -0.595687 0.803217 0
    outer loop
      vertex -5.83349 18.2304 0
      vertex -6.66113 17.6166 2
      vertex -5.83349 18.2304 2
    endloop
  endfacet
  facet normal -0.595687 0.803217 0
    outer loop
      vertex -6.66113 17.6166 2
      vertex -5.83349 18.2304 0
      vertex -6.66113 17.6166 0
    endloop
  endfacet
  facet normal -0.970048 -0.242915 0
    outer loop
      vertex -10.0479 6.45201 0
      vertex -10.2982 7.45155 2
      vertex -10.2982 7.45155 0
    endloop
  endfacet
  facet normal -0.970048 -0.242915 0
    outer loop
      vertex -10.2982 7.45155 2
      vertex -10.0479 6.45201 0
      vertex -10.0479 6.45201 2
    endloop
  endfacet
  facet normal 0.14674 -0.989175 0
    outer loop
      vertex 61.0292 -0.949439 0
      vertex 62.0484 -0.798245 2
      vertex 61.0292 -0.949439 2
    endloop
  endfacet
  facet normal 0.14674 -0.989175 0
    outer loop
      vertex 62.0484 -0.798245 2
      vertex 61.0292 -0.949439 0
      vertex 62.0484 -0.798245 0
    endloop
  endfacet
  facet normal 0.998794 -0.049106 0
    outer loop
      vertex 70.4494 8.47082 2
      vertex 70.5 9.5 0
      vertex 70.5 9.5 2
    endloop
  endfacet
  facet normal 0.998794 -0.049106 0
    outer loop
      vertex 70.5 9.5 0
      vertex 70.4494 8.47082 2
      vertex 70.4494 8.47082 0
    endloop
  endfacet
  facet normal -0.242915 0.970048 0
    outer loop
      vertex -2.04845 19.7982 0
      vertex -3.04799 19.5479 2
      vertex -2.04845 19.7982 2
    endloop
  endfacet
  facet normal -0.242915 0.970048 0
    outer loop
      vertex -3.04799 19.5479 2
      vertex -2.04845 19.7982 0
      vertex -3.04799 19.5479 0
    endloop
  endfacet
  facet normal -0.514145 0.857703 0
    outer loop
      vertex -4.94967 18.7602 0
      vertex -5.83349 18.2304 2
      vertex -4.94967 18.7602 2
    endloop
  endfacet
  facet normal -0.514145 0.857703 0
    outer loop
      vertex -5.83349 18.2304 2
      vertex -4.94967 18.7602 0
      vertex -5.83349 18.2304 0
    endloop
  endfacet
  facet normal -0.427554 -0.90399 0
    outer loop
      vertex -4.94967 0.239826 0
      vertex -4.01818 -0.200734 2
      vertex -4.94967 0.239826 2
    endloop
  endfacet
  facet normal -0.427554 -0.90399 -0
    outer loop
      vertex -4.01818 -0.200734 2
      vertex -4.94967 0.239826 0
      vertex -4.01818 -0.200734 0
    endloop
  endfacet
  facet normal 0.0490673 -0.998795 0
    outer loop
      vertex 60 -1 0
      vertex 61.0292 -0.949439 2
      vertex 60 -1 2
    endloop
  endfacet
  facet normal 0.0490673 -0.998795 0
    outer loop
      vertex 61.0292 -0.949439 2
      vertex 60 -1 0
      vertex 61.0292 -0.949439 0
    endloop
  endfacet
  facet normal -0.857729 -0.514102 0
    outer loop
      vertex -8.73043 3.66651 0
      vertex -9.26017 4.55033 2
      vertex -9.26017 4.55033 0
    endloop
  endfacet
  facet normal -0.857729 -0.514102 0
    outer loop
      vertex -9.26017 4.55033 2
      vertex -8.73043 3.66651 0
      vertex -8.73043 3.66651 2
    endloop
  endfacet
  facet normal -0.740954 0.671556 0
    outer loop
      vertex -8.11661 16.1611 0
      vertex -7.42462 16.9246 2
      vertex -7.42462 16.9246 0
    endloop
  endfacet
  facet normal -0.740954 0.671556 0
    outer loop
      vertex -7.42462 16.9246 2
      vertex -8.11661 16.1611 0
      vertex -8.11661 16.1611 2
    endloop
  endfacet
  facet normal 0.595719 -0.803193 0
    outer loop
      vertex 65.8335 0.769568 0
      vertex 66.6611 1.38339 2
      vertex 65.8335 0.769568 2
    endloop
  endfacet
  facet normal 0.595719 -0.803193 0
    outer loop
      vertex 66.6611 1.38339 2
      vertex 65.8335 0.769568 0
      vertex 66.6611 1.38339 0
    endloop
  endfacet
  facet normal -0.336889 -0.941544 0
    outer loop
      vertex -4.01818 -0.200734 0
      vertex -3.04799 -0.547873 2
      vertex -4.01818 -0.200734 2
    endloop
  endfacet
  facet normal -0.336889 -0.941544 -0
    outer loop
      vertex -3.04799 -0.547873 2
      vertex -4.01818 -0.200734 0
      vertex -3.04799 -0.547873 0
    endloop
  endfacet
  facet normal -0.903992 0.42755 0
    outer loop
      vertex -9.70073 13.5182 0
      vertex -9.26017 14.4497 2
      vertex -9.26017 14.4497 0
    endloop
  endfacet
  facet normal -0.903992 0.42755 0
    outer loop
      vertex -9.26017 14.4497 2
      vertex -9.70073 13.5182 0
      vertex -9.70073 13.5182 2
    endloop
  endfacet
  facet normal 0.42755 -0.903992 0
    outer loop
      vertex 64.0182 -0.200734 0
      vertex 64.9497 0.239826 2
      vertex 64.0182 -0.200734 2
    endloop
  endfacet
  facet normal 0.42755 -0.903992 0
    outer loop
      vertex 64.9497 0.239826 2
      vertex 64.0182 -0.200734 0
      vertex 64.9497 0.239826 0
    endloop
  endfacet
  facet normal 0.242901 0.970051 -0
    outer loop
      vertex 63.048 19.5479 0
      vertex 62.0484 19.7982 2
      vertex 63.048 19.5479 2
    endloop
  endfacet
  facet normal 0.242901 0.970051 0
    outer loop
      vertex 62.0484 19.7982 2
      vertex 63.048 19.5479 0
      vertex 62.0484 19.7982 0
    endloop
  endfacet
  facet normal 0.970051 0.242901 0
    outer loop
      vertex 70.2982 11.5484 2
      vertex 70.0479 12.548 0
      vertex 70.0479 12.548 2
    endloop
  endfacet
  facet normal 0.970051 0.242901 0
    outer loop
      vertex 70.0479 12.548 0
      vertex 70.2982 11.5484 2
      vertex 70.2982 11.5484 0
    endloop
  endfacet
  facet normal 0.989176 -0.146736 0
    outer loop
      vertex 70.2982 7.45155 2
      vertex 70.4494 8.47082 0
      vertex 70.4494 8.47082 2
    endloop
  endfacet
  facet normal 0.989176 -0.146736 0
    outer loop
      vertex 70.4494 8.47082 0
      vertex 70.2982 7.45155 2
      vertex 70.2982 7.45155 0
    endloop
  endfacet
  facet normal 0.941527 0.336939 0
    outer loop
      vertex 70.0479 12.548 2
      vertex 69.7007 13.5182 0
      vertex 69.7007 13.5182 2
    endloop
  endfacet
  facet normal 0.941527 0.336939 0
    outer loop
      vertex 69.7007 13.5182 0
      vertex 70.0479 12.548 2
      vertex 70.0479 12.548 0
    endloop
  endfacet
  facet normal 0.857703 -0.514145 0
    outer loop
      vertex 68.7304 3.66651 2
      vertex 69.2602 4.55033 0
      vertex 69.2602 4.55033 2
    endloop
  endfacet
  facet normal 0.857703 -0.514145 0
    outer loop
      vertex 69.2602 4.55033 0
      vertex 68.7304 3.66651 2
      vertex 68.7304 3.66651 0
    endloop
  endfacet
  facet normal -0.671566 0.740945 0
    outer loop
      vertex -6.66113 17.6166 0
      vertex -7.42462 16.9246 2
      vertex -6.66113 17.6166 2
    endloop
  endfacet
  facet normal -0.671566 0.740945 0
    outer loop
      vertex -7.42462 16.9246 2
      vertex -6.66113 17.6166 0
      vertex -7.42462 16.9246 0
    endloop
  endfacet
  facet normal -0.24298 -0.970031 0
    outer loop
      vertex -3.04799 -0.547873 0
      vertex -2.04845 -0.798245 2
      vertex -3.04799 -0.547873 2
    endloop
  endfacet
  facet normal -0.24298 -0.970031 -0
    outer loop
      vertex -2.04845 -0.798245 2
      vertex -3.04799 -0.547873 0
      vertex -2.04845 -0.798245 0
    endloop
  endfacet
  facet normal -0.989174 0.146746 0
    outer loop
      vertex -10.4494 10.5292 0
      vertex -10.2982 11.5484 2
      vertex -10.2982 11.5484 0
    endloop
  endfacet
  facet normal -0.989174 0.146746 0
    outer loop
      vertex -10.2982 11.5484 2
      vertex -10.4494 10.5292 0
      vertex -10.4494 10.5292 2
    endloop
  endfacet
  facet normal 0.904013 -0.427506 0
    outer loop
      vertex 69.2602 4.55033 2
      vertex 69.7007 5.48182 0
      vertex 69.7007 5.48182 2
    endloop
  endfacet
  facet normal 0.904013 -0.427506 0
    outer loop
      vertex 69.7007 5.48182 0
      vertex 69.2602 4.55033 2
      vertex 69.2602 4.55033 0
    endloop
  endfacet
  facet normal -0.998794 0.0491051 0
    outer loop
      vertex -10.5 9.5 0
      vertex -10.4494 10.5292 2
      vertex -10.4494 10.5292 0
    endloop
  endfacet
  facet normal -0.998794 0.0491051 0
    outer loop
      vertex -10.4494 10.5292 2
      vertex -10.5 9.5 0
      vertex -10.5 9.5 2
    endloop
  endfacet
  facet normal 0.904014 0.427502 0
    outer loop
      vertex 69.7007 13.5182 2
      vertex 69.2602 14.4497 0
      vertex 69.2602 14.4497 2
    endloop
  endfacet
  facet normal 0.904014 0.427502 0
    outer loop
      vertex 69.2602 14.4497 0
      vertex 69.7007 13.5182 2
      vertex 69.7007 13.5182 0
    endloop
  endfacet
  facet normal -0.336942 0.941525 0
    outer loop
      vertex -3.04799 19.5479 0
      vertex -4.01818 19.2007 2
      vertex -3.04799 19.5479 2
    endloop
  endfacet
  facet normal -0.336942 0.941525 0
    outer loop
      vertex -4.01818 19.2007 2
      vertex -3.04799 19.5479 0
      vertex -4.01818 19.2007 0
    endloop
  endfacet
  facet normal 0.998794 0.0491051 0
    outer loop
      vertex 70.5 9.5 2
      vertex 70.4494 10.5292 0
      vertex 70.4494 10.5292 2
    endloop
  endfacet
  facet normal 0.998794 0.0491051 0
    outer loop
      vertex 70.4494 10.5292 0
      vertex 70.5 9.5 2
      vertex 70.5 9.5 0
    endloop
  endfacet
  facet normal 0.941525 -0.336942 0
    outer loop
      vertex 69.7007 5.48182 2
      vertex 70.0479 6.45201 0
      vertex 70.0479 6.45201 2
    endloop
  endfacet
  facet normal 0.941525 -0.336942 0
    outer loop
      vertex 70.0479 6.45201 0
      vertex 69.7007 5.48182 2
      vertex 69.7007 5.48182 0
    endloop
  endfacet
  facet normal 0.803203 0.595706 0
    outer loop
      vertex 68.7304 15.3335 2
      vertex 68.1166 16.1611 0
      vertex 68.1166 16.1611 2
    endloop
  endfacet
  facet normal 0.803203 0.595706 0
    outer loop
      vertex 68.1166 16.1611 0
      vertex 68.7304 15.3335 2
      vertex 68.7304 15.3335 0
    endloop
  endfacet
  facet normal 0.740949 0.671561 0
    outer loop
      vertex 68.1166 16.1611 2
      vertex 67.4246 16.9246 0
      vertex 67.4246 16.9246 2
    endloop
  endfacet
  facet normal 0.740949 0.671561 0
    outer loop
      vertex 67.4246 16.9246 0
      vertex 68.1166 16.1611 2
      vertex 68.1166 16.1611 0
    endloop
  endfacet
  facet normal 0.514112 -0.857723 0
    outer loop
      vertex 64.9497 0.239826 0
      vertex 65.8335 0.769568 2
      vertex 64.9497 0.239826 2
    endloop
  endfacet
  facet normal 0.514112 -0.857723 0
    outer loop
      vertex 65.8335 0.769568 2
      vertex 64.9497 0.239826 0
      vertex 65.8335 0.769568 0
    endloop
  endfacet
  facet normal -0.857724 0.51411 0
    outer loop
      vertex -9.26017 14.4497 0
      vertex -8.73043 15.3335 2
      vertex -8.73043 15.3335 0
    endloop
  endfacet
  facet normal -0.857724 0.51411 0
    outer loop
      vertex -8.73043 15.3335 2
      vertex -9.26017 14.4497 0
      vertex -9.26017 14.4497 2
    endloop
  endfacet
  facet normal -0.671561 -0.74095 0
    outer loop
      vertex -7.42462 2.07538 0
      vertex -6.66113 1.38339 2
      vertex -7.42462 2.07538 2
    endloop
  endfacet
  facet normal -0.671561 -0.74095 -0
    outer loop
      vertex -6.66113 1.38339 2
      vertex -7.42462 2.07538 0
      vertex -6.66113 1.38339 0
    endloop
  endfacet
  facet normal 0.595706 0.803203 -0
    outer loop
      vertex 66.6611 17.6166 0
      vertex 65.8335 18.2304 2
      vertex 66.6611 17.6166 2
    endloop
  endfacet
  facet normal 0.595706 0.803203 0
    outer loop
      vertex 65.8335 18.2304 2
      vertex 66.6611 17.6166 0
      vertex 65.8335 18.2304 0
    endloop
  endfacet
  facet normal -0.595701 -0.803206 0
    outer loop
      vertex -6.66113 1.38339 0
      vertex -5.83349 0.769568 2
      vertex -6.66113 1.38339 2
    endloop
  endfacet
  facet normal -0.595701 -0.803206 -0
    outer loop
      vertex -5.83349 0.769568 2
      vertex -6.66113 1.38339 0
      vertex -5.83349 0.769568 0
    endloop
  endfacet
  facet normal -0.941535 -0.336916 0
    outer loop
      vertex -9.70073 5.48182 0
      vertex -10.0479 6.45201 2
      vertex -10.0479 6.45201 0
    endloop
  endfacet
  facet normal -0.941535 -0.336916 0
    outer loop
      vertex -10.0479 6.45201 2
      vertex -9.70073 5.48182 0
      vertex -9.70073 5.48182 2
    endloop
  endfacet
  facet normal -0.0490683 -0.998795 0
    outer loop
      vertex -1.02918 -0.949439 0
      vertex 0 -1 2
      vertex -1.02918 -0.949439 2
    endloop
  endfacet
  facet normal -0.0490683 -0.998795 -0
    outer loop
      vertex 0 -1 2
      vertex -1.02918 -0.949439 0
      vertex 0 -1 0
    endloop
  endfacet
  facet normal -0.989176 -0.146736 0
    outer loop
      vertex -10.2982 7.45155 0
      vertex -10.4494 8.47082 2
      vertex -10.4494 8.47082 0
    endloop
  endfacet
  facet normal -0.989176 -0.146736 0
    outer loop
      vertex -10.4494 8.47082 2
      vertex -10.2982 7.45155 0
      vertex -10.2982 7.45155 2
    endloop
  endfacet
  facet normal 0.989174 0.146746 0
    outer loop
      vertex 70.4494 10.5292 2
      vertex 70.2982 11.5484 0
      vertex 70.2982 11.5484 2
    endloop
  endfacet
  facet normal 0.989174 0.146746 0
    outer loop
      vertex 70.2982 11.5484 0
      vertex 70.4494 10.5292 2
      vertex 70.4494 10.5292 0
    endloop
  endfacet
  facet normal -0.14673 -0.989177 0
    outer loop
      vertex -2.04845 -0.798245 0
      vertex -1.02918 -0.949439 2
      vertex -2.04845 -0.798245 2
    endloop
  endfacet
  facet normal -0.14673 -0.989177 -0
    outer loop
      vertex -1.02918 -0.949439 2
      vertex -2.04845 -0.798245 0
      vertex -1.02918 -0.949439 0
    endloop
  endfacet
  facet normal 0 0 -1
    outer loop
      vertex 70.4494 8.47082 0
      vertex 70.4494 10.5292 0
      vertex 70.5 9.5 0
    endloop
  endfacet
  facet normal 0 0 -1
    outer loop
      vertex 70.2982 7.45155 0
      vertex 70.4494 10.5292 0
      vertex 70.4494 8.47082 0
    endloop
  endfacet
  facet normal 0 0 -1
    outer loop
      vertex 70.2982 7.45155 0
      vertex 70.2982 11.5484 0
      vertex 70.4494 10.5292 0
    endloop
  endfacet
  facet normal 0 0 -1
    outer loop
      vertex 70.0479 6.45201 0
      vertex 70.2982 11.5484 0
      vertex 70.2982 7.45155 0
    endloop
  endfacet
  facet normal 0 0 -1
    outer loop
      vertex 70.0479 6.45201 0
      vertex 70.0479 12.548 0
      vertex 70.2982 11.5484 0
    endloop
  endfacet
  facet normal 0 0 -1
    outer loop
      vertex 69.7007 5.48182 0
      vertex 70.0479 12.548 0
      vertex 70.0479 6.45201 0
    endloop
  endfacet
  facet normal 0 0 -1
    outer loop
      vertex 69.7007 5.48182 0
      vertex 69.7007 13.5182 0
      vertex 70.0479 12.548 0
    endloop
  endfacet
  facet normal 0 0 -1
    outer loop
      vertex 69.2602 4.55033 0
      vertex 69.7007 13.5182 0
      vertex 69.7007 5.48182 0
    endloop
  endfacet
  facet normal 0 0 -1
    outer loop
      vertex 69.2602 4.55033 0
      vertex 69.2602 14.4497 0
      vertex 69.7007 13.5182 0
    endloop
  endfacet
  facet normal 0 0 -1
    outer loop
      vertex 68.7304 3.66651 0
      vertex 69.2602 14.4497 0
      vertex 69.2602 4.55033 0
    endloop
  endfacet
  facet normal 0 0 -1
    outer loop
      vertex 68.7304 3.66651 0
      vertex 68.7304 15.3335 0
      vertex 69.2602 14.4497 0
    endloop
  endfacet
  facet normal 0 0 -1
    outer loop
      vertex 68.1166 2.83887 0
      vertex 68.7304 15.3335 0
      vertex 68.7304 3.66651 0
    endloop
  endfacet
  facet normal 0 0 -1
    outer loop
      vertex 68.1166 2.83887 0
      vertex 68.1166 16.1611 0
      vertex 68.7304 15.3335 0
    endloop
  endfacet
  facet normal 0 0 -1
    outer loop
      vertex 67.4246 2.07538 0
      vertex 68.1166 16.1611 0
      vertex 68.1166 2.83887 0
    endloop
  endfacet
  facet normal 0 0 -1
    outer loop
      vertex 67.4246 2.07538 0
      vertex 67.4246 16.9246 0
      vertex 68.1166 16.1611 0
    endloop
  endfacet
  facet normal 0 0 -1
    outer loop
      vertex 66.6611 1.38339 0
      vertex 67.4246 16.9246 0
      vertex 67.4246 2.07538 0
    endloop
  endfacet
  facet normal 0 0 -1
    outer loop
      vertex 66.6611 1.38339 0
      vertex 66.6611 17.6166 0
      vertex 67.4246 16.9246 0
    endloop
  endfacet
  facet normal 0 0 -1
    outer loop
      vertex 65.8335 0.769568 0
      vertex 66.6611 17.6166 0
      vertex 66.6611 1.38339 0
    endloop
  endfacet
  facet normal 0 0 -1
    outer loop
      vertex 65.8335 0.769568 0
      vertex 65.8335 18.2304 0
      vertex 66.6611 17.6166 0
    endloop
  endfacet
  facet normal 0 0 -1
    outer loop
      vertex 64.9497 0.239826 0
      vertex 65.8335 18.2304 0
      vertex 65.8335 0.769568 0
    endloop
  endfacet
  facet normal 0 0 -1
    outer loop
      vertex 64.9497 0.239826 0
      vertex 64.9497 18.7602 0
      vertex 65.8335 18.2304 0
    endloop
  endfacet
  facet normal 0 0 -1
    outer loop
      vertex 64.0182 -0.200734 0
      vertex 64.9497 18.7602 0
      vertex 64.9497 0.239826 0
    endloop
  endfacet
  facet normal 0 0 -1
    outer loop
      vertex 64.0182 -0.200734 0
      vertex 64.0182 19.2007 0
      vertex 64.9497 18.7602 0
    endloop
  endfacet
  facet normal 0 0 -1
    outer loop
      vertex 63.048 -0.547873 0
      vertex 64.0182 19.2007 0
      vertex 64.0182 -0.200734 0
    endloop
  endfacet
  facet normal 0 0 -1
    outer loop
      vertex 63.048 -0.547873 0
      vertex 63.048 19.5479 0
      vertex 64.0182 19.2007 0
    endloop
  endfacet
  facet normal 0 0 -1
    outer loop
      vertex 62.0484 -0.798245 0
      vertex 63.048 19.5479 0
      vertex 63.048 -0.547873 0
    endloop
  endfacet
  facet normal 0 0 -1
    outer loop
      vertex 62.0484 -0.798245 0
      vertex 62.0484 19.7982 0
      vertex 63.048 19.5479 0
    endloop
  endfacet
  facet normal 0 0 -1
    outer loop
      vertex 61.0292 -0.949439 0
      vertex 62.0484 19.7982 0
      vertex 62.0484 -0.798245 0
    endloop
  endfacet
  facet normal 0 0 -1
    outer loop
      vertex 61.0292 -0.949439 0
      vertex 61.0292 19.9494 0
      vertex 62.0484 19.7982 0
    endloop
  endfacet
  facet normal 0 0 -1
    outer loop
      vertex 60 -1 0
      vertex 61.0292 19.9494 0
      vertex 61.0292 -0.949439 0
    endloop
  endfacet
  facet normal 0 0 -1
    outer loop
      vertex 60 -1 0
      vertex 60 20 0
      vertex 61.0292 19.9494 0
    endloop
  endfacet
  facet normal 0 0 -1
    outer loop
      vertex 60 -1 0
      vertex 0.7 9.5 0
      vertex 60 20 0
    endloop
  endfacet
  facet normal 0 0 -1
    outer loop
      vertex 60 -1 0
      vertex 0.686998 9.23535 0
      vertex 0.7 9.5 0
    endloop
  endfacet
  facet normal 0 0 -1
    outer loop
      vertex 60 -1 0
      vertex 0.64812 8.97326 0
      vertex 0.686998 9.23535 0
    endloop
  endfacet
  facet normal 0 0 -1
    outer loop
      vertex 0 -1 0
      vertex 0.64812 8.97326 0
      vertex 60 -1 0
    endloop
  endfacet
  facet normal 0 0 -1
    outer loop
      vertex 0.64812 8.97326 0
      vertex 0 -1 0
      vertex 0.583738 8.71623 0
    endloop
  endfacet
  facet normal 0 0 -1
    outer loop
      vertex 0.583738 8.71623 0
      vertex 0 -1 0
      vertex 0.494474 8.46675 0
    endloop
  endfacet
  facet normal 0 0 -1
    outer loop
      vertex 0.494474 8.46675 0
      vertex 0 -1 0
      vertex 0.381186 8.22723 0
    endloop
  endfacet
  facet normal 0 0 -1
    outer loop
      vertex 0.381186 8.22723 0
      vertex 0 -1 0
      vertex 0.244967 7.99996 0
    endloop
  endfacet
  facet normal 0 0 -1
    outer loop
      vertex 0.244967 7.99996 0
      vertex 0 -1 0
      vertex 0.0871277 7.78714 0
    endloop
  endfacet
  facet normal 0 0 -1
    outer loop
      vertex 0 -1 0
      vertex -0.0908108 7.59081 0
      vertex 0.0871277 7.78714 0
    endloop
  endfacet
  facet normal 0 0 -1
    outer loop
      vertex 0 -1 0
      vertex -0.287138 7.41287 0
      vertex -0.0908108 7.59081 0
    endloop
  endfacet
  facet normal 0 0 -1
    outer loop
      vertex 0 -1 0
      vertex -0.49996 7.25503 0
      vertex -0.287138 7.41287 0
    endloop
  endfacet
  facet normal 0 0 -1
    outer loop
      vertex 0 -1 0
      vertex -0.727228 7.11881 0
      vertex -0.49996 7.25503 0
    endloop
  endfacet
  facet normal 0 0 -1
    outer loop
      vertex 0 -1 0
      vertex -0.966754 7.00552 0
      vertex -0.727228 7.11881 0
    endloop
  endfacet
  facet normal 0 0 -1
    outer loop
      vertex -1.21623 6.91626 0
      vertex 0 -1 0
      vertex -1.02918 -0.949439 0
    endloop
  endfacet
  facet normal 0 0 -1
    outer loop
      vertex 0 -1 0
      vertex -1.21623 6.91626 0
      vertex -0.966754 7.00552 0
    endloop
  endfacet
  facet normal 0 0 -1
    outer loop
      vertex -1.02918 -0.949439 0
      vertex -1.47326 6.85188 0
      vertex -1.21623 6.91626 0
    endloop
  endfacet
  facet normal 0 0 -1
    outer loop
      vertex -2.04845 -0.798245 0
      vertex -1.47326 6.85188 0
      vertex -1.02918 -0.949439 0
    endloop
  endfacet
  facet normal 0 0 -1
    outer loop
      vertex -1.47326 6.85188 0
      vertex -2.04845 -0.798245 0
      vertex -1.73535 6.813 0
    endloop
  endfacet
  facet normal 0 0 -1
    outer loop
      vertex -3.04799 -0.547873 0
      vertex -1.73535 6.813 0
      vertex -2.04845 -0.798245 0
    endloop
  endfacet
  facet normal 0 0 -1
    outer loop
      vertex -1.73535 6.813 0
      vertex -3.04799 -0.547873 0
      vertex -2 6.8 0
    endloop
  endfacet
  facet normal -0 0 -1
    outer loop
      vertex -2 6.8 0
      vertex -3.04799 -0.547873 0
      vertex -2.26465 6.813 0
    endloop
  endfacet
  facet normal 0 0 -1
    outer loop
      vertex -4.01818 -0.200734 0
      vertex -2.26465 6.813 0
      vertex -3.04799 -0.547873 0
    endloop
  endfacet
  facet normal -0 0 -1
    outer loop
      vertex -2.26465 6.813 0
      vertex -4.01818 -0.200734 0
      vertex -2.52674 6.85188 0
    endloop
  endfacet
  facet normal 0 0 -1
    outer loop
      vertex -4.94967 0.239826 0
      vertex -2.52674 6.85188 0
      vertex -4.01818 -0.200734 0
    endloop
  endfacet
  facet normal -0 0 -1
    outer loop
      vertex -2.52674 6.85188 0
      vertex -4.94967 0.239826 0
      vertex -2.78377 6.91626 0
    endloop
  endfacet
  facet normal 0 0 -1
    outer loop
      vertex -5.83349 0.769568 0
      vertex -2.78377 6.91626 0
      vertex -4.94967 0.239826 0
    endloop
  endfacet
  facet normal -0 0 -1
    outer loop
      vertex -2.78377 6.91626 0
      vertex -5.83349 0.769568 0
      vertex -3.03325 7.00552 0
    endloop
  endfacet
  facet normal 0 0 -1
    outer loop
      vertex -6.66113 1.38339 0
      vertex -3.03325 7.00552 0
      vertex -5.83349 0.769568 0
    endloop
  endfacet
  facet normal -0 0 -1
    outer loop
      vertex -3.03325 7.00552 0
      vertex -6.66113 1.38339 0
      vertex -3.27277 7.11881 0
    endloop
  endfacet
  facet normal 0 0 -1
    outer loop
      vertex -7.42462 2.07538 0
      vertex -3.27277 7.11881 0
      vertex -6.66113 1.38339 0
    endloop
  endfacet
  facet normal -0 0 -1
    outer loop
      vertex -3.27277 7.11881 0
      vertex -7.42462 2.07538 0
      vertex -3.50004 7.25503 0
    endloop
  endfacet
  facet normal 0 0 -1
    outer loop
      vertex -8.11661 2.83887 0
      vertex -3.50004 7.25503 0
      vertex -7.42462 2.07538 0
    endloop
  endfacet
  facet normal -0 0 -1
    outer loop
      vertex -3.50004 7.25503 0
      vertex -8.11661 2.83887 0
      vertex -3.71286 7.41287 0
    endloop
  endfacet
  facet normal 0 0 -1
    outer loop
      vertex -8.73043 3.66651 0
      vertex -3.71286 7.41287 0
      vertex -8.11661 2.83887 0
    endloop
  endfacet
  facet normal -0 0 -1
    outer loop
      vertex -3.71286 7.41287 0
      vertex -8.73043 3.66651 0
      vertex -3.90919 7.59081 0
    endloop
  endfacet
  facet normal -0 0 -1
    outer loop
      vertex -3.90919 7.59081 0
      vertex -8.73043 3.66651 0
      vertex -4.08713 7.78714 0
    endloop
  endfacet
  facet normal -0 0 -1
    outer loop
      vertex -4.08713 7.78714 0
      vertex -9.26017 4.55033 0
      vertex -4.24497 7.99996 0
    endloop
  endfacet
  facet normal 0 0 -1
    outer loop
      vertex -9.26017 4.55033 0
      vertex -4.08713 7.78714 0
      vertex -8.73043 3.66651 0
    endloop
  endfacet
  facet normal 0 0 -1
    outer loop
      vertex 0.686998 9.76465 0
      vertex 60 20 0
      vertex 0.7 9.5 0
    endloop
  endfacet
  facet normal 0 0 -1
    outer loop
      vertex 0.64812 10.0267 0
      vertex 60 20 0
      vertex 0.686998 9.76465 0
    endloop
  endfacet
  facet normal 0 0 -1
    outer loop
      vertex 0 20 0
      vertex 0.64812 10.0267 0
      vertex 0.583738 10.2838 0
    endloop
  endfacet
  facet normal 0 0 -1
    outer loop
      vertex 0 20 0
      vertex 0.583738 10.2838 0
      vertex 0.494474 10.5332 0
    endloop
  endfacet
  facet normal 0 0 -1
    outer loop
      vertex 0 20 0
      vertex 0.494474 10.5332 0
      vertex 0.381186 10.7728 0
    endloop
  endfacet
  facet normal 0 0 -1
    outer loop
      vertex 0 20 0
      vertex 0.381186 10.7728 0
      vertex 0.244967 11 0
    endloop
  endfacet
  facet normal 0 0 -1
    outer loop
      vertex 0 20 0
      vertex 0.244967 11 0
      vertex 0.0871277 11.2129 0
    endloop
  endfacet
  facet normal 0 0 -1
    outer loop
      vertex 0.64812 10.0267 0
      vertex 0 20 0
      vertex 60 20 0
    endloop
  endfacet
  facet normal 0 0 -1
    outer loop
      vertex -0.0908108 11.4092 0
      vertex 0 20 0
      vertex 0.0871277 11.2129 0
    endloop
  endfacet
  facet normal 0 0 -1
    outer loop
      vertex -0.287138 11.5871 0
      vertex 0 20 0
      vertex -0.0908108 11.4092 0
    endloop
  endfacet
  facet normal 0 0 -1
    outer loop
      vertex -0.49996 11.745 0
      vertex 0 20 0
      vertex -0.287138 11.5871 0
    endloop
  endfacet
  facet normal 0 0 -1
    outer loop
      vertex -0.727228 11.8812 0
      vertex 0 20 0
      vertex -0.49996 11.745 0
    endloop
  endfacet
  facet normal 0 0 -1
    outer loop
      vertex -0.966754 11.9945 0
      vertex 0 20 0
      vertex -0.727228 11.8812 0
    endloop
  endfacet
  facet normal 0 0 -1
    outer loop
      vertex -1.21623 12.0837 0
      vertex 0 20 0
      vertex -0.966754 11.9945 0
    endloop
  endfacet
  facet normal 0 0 -1
    outer loop
      vertex 0 20 0
      vertex -1.21623 12.0837 0
      vertex -1.02918 19.9494 0
    endloop
  endfacet
  facet normal 0 0 -1
    outer loop
      vertex -1.47326 12.1481 0
      vertex -1.02918 19.9494 0
      vertex -1.21623 12.0837 0
    endloop
  endfacet
  facet normal 0 0 -1
    outer loop
      vertex -2.04845 19.7982 0
      vertex -1.47326 12.1481 0
      vertex -1.73535 12.187 0
    endloop
  endfacet
  facet normal 0 0 -1
    outer loop
      vertex -3.04799 19.5479 0
      vertex -1.73535 12.187 0
      vertex -2 12.2 0
    endloop
  endfacet
  facet normal 0 0 -1
    outer loop
      vertex -1.47326 12.1481 0
      vertex -2.04845 19.7982 0
      vertex -1.02918 19.9494 0
    endloop
  endfacet
  facet normal 0 0 -1
    outer loop
      vertex -3.04799 19.5479 0
      vertex -2 12.2 0
      vertex -2.26465 12.187 0
    endloop
  endfacet
  facet normal 0 0 -1
    outer loop
      vertex -4.01818 19.2007 0
      vertex -2.26465 12.187 0
      vertex -2.52674 12.1481 0
    endloop
  endfacet
  facet normal 0 0 -1
    outer loop
      vertex -4.94967 18.7602 0
      vertex -2.52674 12.1481 0
      vertex -2.78377 12.0837 0
    endloop
  endfacet
  facet normal 0 0 -1
    outer loop
      vertex -5.83349 18.2304 0
      vertex -2.78377 12.0837 0
      vertex -3.03325 11.9945 0
    endloop
  endfacet
  facet normal 0 0 -1
    outer loop
      vertex -1.73535 12.187 0
      vertex -3.04799 19.5479 0
      vertex -2.04845 19.7982 0
    endloop
  endfacet
  facet normal 0 0 -1
    outer loop
      vertex -6.66113 17.6166 0
      vertex -3.03325 11.9945 0
      vertex -3.27277 11.8812 0
    endloop
  endfacet
  facet normal 0 0 -1
    outer loop
      vertex -7.42462 16.9246 0
      vertex -3.27277 11.8812 0
      vertex -3.50004 11.745 0
    endloop
  endfacet
  facet normal 0 0 -1
    outer loop
      vertex -8.11661 16.1611 0
      vertex -3.50004 11.745 0
      vertex -3.71286 11.5871 0
    endloop
  endfacet
  facet normal 0 0 -1
    outer loop
      vertex -8.73043 15.3335 0
      vertex -3.71286 11.5871 0
      vertex -3.90919 11.4092 0
    endloop
  endfacet
  facet normal 0 0 -1
    outer loop
      vertex -2.26465 12.187 0
      vertex -4.01818 19.2007 0
      vertex -3.04799 19.5479 0
    endloop
  endfacet
  facet normal 0 0 -1
    outer loop
      vertex -8.73043 15.3335 0
      vertex -3.90919 11.4092 0
      vertex -4.08713 11.2129 0
    endloop
  endfacet
  facet normal 0 0 -1
    outer loop
      vertex -9.26017 14.4497 0
      vertex -4.08713 11.2129 0
      vertex -4.24497 11 0
    endloop
  endfacet
  facet normal 0 0 -1
    outer loop
      vertex -9.70073 13.5182 0
      vertex -4.24497 11 0
      vertex -4.38119 10.7728 0
    endloop
  endfacet
  facet normal 0 0 -1
    outer loop
      vertex -10.0479 12.548 0
      vertex -4.38119 10.7728 0
      vertex -4.49447 10.5332 0
    endloop
  endfacet
  facet normal 0 0 -1
    outer loop
      vertex -10.0479 12.548 0
      vertex -4.49447 10.5332 0
      vertex -4.58374 10.2838 0
    endloop
  endfacet
  facet normal 0 0 -1
    outer loop
      vertex -10.2982 11.5484 0
      vertex -4.58374 10.2838 0
      vertex -4.64812 10.0267 0
    endloop
  endfacet
  facet normal 0 0 -1
    outer loop
      vertex -10.4494 10.5292 0
      vertex -4.64812 10.0267 0
      vertex -4.687 9.76465 0
    endloop
  endfacet
  facet normal 0 0 -1
    outer loop
      vertex -2.52674 12.1481 0
      vertex -4.94967 18.7602 0
      vertex -4.01818 19.2007 0
    endloop
  endfacet
  facet normal 0 0 -1
    outer loop
      vertex -10.5 9.5 0
      vertex -4.687 9.76465 0
      vertex -4.7 9.5 0
    endloop
  endfacet
  facet normal 0 0 -1
    outer loop
      vertex -9.70073 5.48182 0
      vertex -4.24497 7.99996 0
      vertex -9.26017 4.55033 0
    endloop
  endfacet
  facet normal -0 0 -1
    outer loop
      vertex -4.24497 7.99996 0
      vertex -9.70073 5.48182 0
      vertex -4.38119 8.22723 0
    endloop
  endfacet
  facet normal 0 0 -1
    outer loop
      vertex -2.78377 12.0837 0
      vertex -5.83349 18.2304 0
      vertex -4.94967 18.7602 0
    endloop
  endfacet
  facet normal 0 0 -1
    outer loop
      vertex -10.0479 6.45201 0
      vertex -4.38119 8.22723 0
      vertex -9.70073 5.48182 0
    endloop
  endfacet
  facet normal 0 0 -1
    outer loop
      vertex -3.03325 11.9945 0
      vertex -6.66113 17.6166 0
      vertex -5.83349 18.2304 0
    endloop
  endfacet
  facet normal -0 0 -1
    outer loop
      vertex -4.38119 8.22723 0
      vertex -10.0479 6.45201 0
      vertex -4.49447 8.46675 0
    endloop
  endfacet
  facet normal 0 0 -1
    outer loop
      vertex -3.27277 11.8812 0
      vertex -7.42462 16.9246 0
      vertex -6.66113 17.6166 0
    endloop
  endfacet
  facet normal -0 0 -1
    outer loop
      vertex -4.49447 8.46675 0
      vertex -10.0479 6.45201 0
      vertex -4.58374 8.71623 0
    endloop
  endfacet
  facet normal 0 0 -1
    outer loop
      vertex -3.50004 11.745 0
      vertex -8.11661 16.1611 0
      vertex -7.42462 16.9246 0
    endloop
  endfacet
  facet normal 0 0 -1
    outer loop
      vertex -10.2982 7.45155 0
      vertex -4.58374 8.71623 0
      vertex -10.0479 6.45201 0
    endloop
  endfacet
  facet normal 0 0 -1
    outer loop
      vertex -3.71286 11.5871 0
      vertex -8.73043 15.3335 0
      vertex -8.11661 16.1611 0
    endloop
  endfacet
  facet normal -0 0 -1
    outer loop
      vertex -4.58374 8.71623 0
      vertex -10.2982 7.45155 0
      vertex -4.64812 8.97326 0
    endloop
  endfacet
  facet normal 0 0 -1
    outer loop
      vertex -4.08713 11.2129 0
      vertex -9.26017 14.4497 0
      vertex -8.73043 15.3335 0
    endloop
  endfacet
  facet normal 0 0 -1
    outer loop
      vertex -10.4494 8.47082 0
      vertex -4.64812 8.97326 0
      vertex -10.2982 7.45155 0
    endloop
  endfacet
  facet normal 0 0 -1
    outer loop
      vertex -4.24497 11 0
      vertex -9.70073 13.5182 0
      vertex -9.26017 14.4497 0
    endloop
  endfacet
  facet normal -0 0 -1
    outer loop
      vertex -4.64812 8.97326 0
      vertex -10.4494 8.47082 0
      vertex -4.687 9.23535 0
    endloop
  endfacet
  facet normal 0 0 -1
    outer loop
      vertex -4.38119 10.7728 0
      vertex -10.0479 12.548 0
      vertex -9.70073 13.5182 0
    endloop
  endfacet
  facet normal 0 0 -1
    outer loop
      vertex -10.5 9.5 0
      vertex -4.687 9.23535 0
      vertex -10.4494 8.47082 0
    endloop
  endfacet
  facet normal 0 0 -1
    outer loop
      vertex -4.58374 10.2838 0
      vertex -10.2982 11.5484 0
      vertex -10.0479 12.548 0
    endloop
  endfacet
  facet normal 0 0 -1
    outer loop
      vertex -4.687 9.23535 0
      vertex -10.5 9.5 0
      vertex -4.7 9.5 0
    endloop
  endfacet
  facet normal 0 0 -1
    outer loop
      vertex -4.64812 10.0267 0
      vertex -10.4494 10.5292 0
      vertex -10.2982 11.5484 0
    endloop
  endfacet
  facet normal -0 0 -1
    outer loop
      vertex -4.687 9.76465 0
      vertex -10.5 9.5 0
      vertex -10.4494 10.5292 0
    endloop
  endfacet
  facet normal 0 0 1
    outer loop
      vertex 70.4494 10.5292 2
      vertex 70.4494 8.47082 2
      vertex 70.5 9.5 2
    endloop
  endfacet
  facet normal 0 0 1
    outer loop
      vertex 70.2982 11.5484 2
      vertex 70.4494 8.47082 2
      vertex 70.4494 10.5292 2
    endloop
  endfacet
  facet normal 0 0 1
    outer loop
      vertex 70.2982 11.5484 2
      vertex 70.2982 7.45155 2
      vertex 70.4494 8.47082 2
    endloop
  endfacet
  facet normal 0 0 1
    outer loop
      vertex 70.0479 12.548 2
      vertex 70.2982 7.45155 2
      vertex 70.2982 11.5484 2
    endloop
  endfacet
  facet normal 0 0 1
    outer loop
      vertex 70.0479 12.548 2
      vertex 70.0479 6.45201 2
      vertex 70.2982 7.45155 2
    endloop
  endfacet
  facet normal 0 0 1
    outer loop
      vertex 69.7007 13.5182 2
      vertex 70.0479 6.45201 2
      vertex 70.0479 12.548 2
    endloop
  endfacet
  facet normal 0 0 1
    outer loop
      vertex 69.7007 13.5182 2
      vertex 69.7007 5.48182 2
      vertex 70.0479 6.45201 2
    endloop
  endfacet
  facet normal 0 0 1
    outer loop
      vertex 69.2602 14.4497 2
      vertex 69.7007 5.48182 2
      vertex 69.7007 13.5182 2
    endloop
  endfacet
  facet normal 0 0 1
    outer loop
      vertex 69.2602 14.4497 2
      vertex 69.2602 4.55033 2
      vertex 69.7007 5.48182 2
    endloop
  endfacet
  facet normal 0 0 1
    outer loop
      vertex 68.7304 15.3335 2
      vertex 69.2602 4.55033 2
      vertex 69.2602 14.4497 2
    endloop
  endfacet
  facet normal 0 0 1
    outer loop
      vertex 68.7304 15.3335 2
      vertex 68.7304 3.66651 2
      vertex 69.2602 4.55033 2
    endloop
  endfacet
  facet normal 0 0 1
    outer loop
      vertex 68.1166 16.1611 2
      vertex 68.7304 3.66651 2
      vertex 68.7304 15.3335 2
    endloop
  endfacet
  facet normal 0 0 1
    outer loop
      vertex 68.1166 16.1611 2
      vertex 68.1166 2.83887 2
      vertex 68.7304 3.66651 2
    endloop
  endfacet
  facet normal 0 0 1
    outer loop
      vertex 67.4246 16.9246 2
      vertex 68.1166 2.83887 2
      vertex 68.1166 16.1611 2
    endloop
  endfacet
  facet normal 0 0 1
    outer loop
      vertex 67.4246 16.9246 2
      vertex 67.4246 2.07538 2
      vertex 68.1166 2.83887 2
    endloop
  endfacet
  facet normal 0 0 1
    outer loop
      vertex 66.6611 17.6166 2
      vertex 67.4246 2.07538 2
      vertex 67.4246 16.9246 2
    endloop
  endfacet
  facet normal 0 0 1
    outer loop
      vertex 66.6611 17.6166 2
      vertex 66.6611 1.38339 2
      vertex 67.4246 2.07538 2
    endloop
  endfacet
  facet normal 0 0 1
    outer loop
      vertex 65.8335 18.2304 2
      vertex 66.6611 1.38339 2
      vertex 66.6611 17.6166 2
    endloop
  endfacet
  facet normal 0 0 1
    outer loop
      vertex 65.8335 18.2304 2
      vertex 65.8335 0.769568 2
      vertex 66.6611 1.38339 2
    endloop
  endfacet
  facet normal 0 0 1
    outer loop
      vertex 64.9497 18.7602 2
      vertex 65.8335 0.769568 2
      vertex 65.8335 18.2304 2
    endloop
  endfacet
  facet normal 0 0 1
    outer loop
      vertex 64.9497 18.7602 2
      vertex 64.9497 0.239826 2
      vertex 65.8335 0.769568 2
    endloop
  endfacet
  facet normal 0 0 1
    outer loop
      vertex 64.0182 19.2007 2
      vertex 64.9497 0.239826 2
      vertex 64.9497 18.7602 2
    endloop
  endfacet
  facet normal 0 0 1
    outer loop
      vertex 64.0182 19.2007 2
      vertex 64.0182 -0.200734 2
      vertex 64.9497 0.239826 2
    endloop
  endfacet
  facet normal 0 0 1
    outer loop
      vertex 63.048 19.5479 2
      vertex 64.0182 -0.200734 2
      vertex 64.0182 19.2007 2
    endloop
  endfacet
  facet normal 0 0 1
    outer loop
      vertex 63.048 19.5479 2
      vertex 63.048 -0.547873 2
      vertex 64.0182 -0.200734 2
    endloop
  endfacet
  facet normal 0 0 1
    outer loop
      vertex 62.0484 19.7982 2
      vertex 63.048 -0.547873 2
      vertex 63.048 19.5479 2
    endloop
  endfacet
  facet normal 0 0 1
    outer loop
      vertex 62.0484 19.7982 2
      vertex 62.0484 -0.798245 2
      vertex 63.048 -0.547873 2
    endloop
  endfacet
  facet normal 0 0 1
    outer loop
      vertex 61.0292 19.9494 2
      vertex 62.0484 -0.798245 2
      vertex 62.0484 19.7982 2
    endloop
  endfacet
  facet normal 0 0 1
    outer loop
      vertex 61.0292 19.9494 2
      vertex 61.0292 -0.949439 2
      vertex 62.0484 -0.798245 2
    endloop
  endfacet
  facet normal 0 0 1
    outer loop
      vertex 60 20 2
      vertex 61.0292 -0.949439 2
      vertex 61.0292 19.9494 2
    endloop
  endfacet
  facet normal 0 0 1
    outer loop
      vertex 60 20 2
      vertex 60 -1 2
      vertex 61.0292 -0.949439 2
    endloop
  endfacet
  facet normal 0 0 1
    outer loop
      vertex 60 20 2
      vertex 0.7 9.5 2
      vertex 60 -1 2
    endloop
  endfacet
  facet normal 0 0 1
    outer loop
      vertex 60 20 2
      vertex 0.686998 9.76465 2
      vertex 0.7 9.5 2
    endloop
  endfacet
  facet normal 0 0 1
    outer loop
      vertex 60 20 2
      vertex 0.64812 10.0267 2
      vertex 0.686998 9.76465 2
    endloop
  endfacet
  facet normal -0 0 1
    outer loop
      vertex 0 20 2
      vertex 0.64812 10.0267 2
      vertex 60 20 2
    endloop
  endfacet
  facet normal 0 0 1
    outer loop
      vertex 0.64812 10.0267 2
      vertex 0 20 2
      vertex 0.583738 10.2838 2
    endloop
  endfacet
  facet normal 0 0 1
    outer loop
      vertex 0.583738 10.2838 2
      vertex 0 20 2
      vertex 0.494474 10.5332 2
    endloop
  endfacet
  facet normal 0 0 1
    outer loop
      vertex 0.494474 10.5332 2
      vertex 0 20 2
      vertex 0.381186 10.7728 2
    endloop
  endfacet
  facet normal 0 0 1
    outer loop
      vertex 0.381186 10.7728 2
      vertex 0 20 2
      vertex 0.244967 11 2
    endloop
  endfacet
  facet normal 0 0 1
    outer loop
      vertex 0.244967 11 2
      vertex 0 20 2
      vertex 0.0871277 11.2129 2
    endloop
  endfacet
  facet normal 0 0 1
    outer loop
      vertex 0 20 2
      vertex -0.0908108 11.4092 2
      vertex 0.0871277 11.2129 2
    endloop
  endfacet
  facet normal 0 0 1
    outer loop
      vertex 0 20 2
      vertex -0.287138 11.5871 2
      vertex -0.0908108 11.4092 2
    endloop
  endfacet
  facet normal 0 0 1
    outer loop
      vertex 0 20 2
      vertex -0.49996 11.745 2
      vertex -0.287138 11.5871 2
    endloop
  endfacet
  facet normal 0 0 1
    outer loop
      vertex 0 20 2
      vertex -0.727228 11.8812 2
      vertex -0.49996 11.745 2
    endloop
  endfacet
  facet normal 0 0 1
    outer loop
      vertex 0 20 2
      vertex -0.966754 11.9945 2
      vertex -0.727228 11.8812 2
    endloop
  endfacet
  facet normal 0 0 1
    outer loop
      vertex -1.21623 12.0837 2
      vertex 0 20 2
      vertex -1.02918 19.9494 2
    endloop
  endfacet
  facet normal 0 0 1
    outer loop
      vertex 0 20 2
      vertex -1.21623 12.0837 2
      vertex -0.966754 11.9945 2
    endloop
  endfacet
  facet normal 0 0 1
    outer loop
      vertex -1.02918 19.9494 2
      vertex -1.47326 12.1481 2
      vertex -1.21623 12.0837 2
    endloop
  endfacet
  facet normal -0 0 1
    outer loop
      vertex -2.04845 19.7982 2
      vertex -1.47326 12.1481 2
      vertex -1.02918 19.9494 2
    endloop
  endfacet
  facet normal 0 0 1
    outer loop
      vertex -1.47326 12.1481 2
      vertex -2.04845 19.7982 2
      vertex -1.73535 12.187 2
    endloop
  endfacet
  facet normal -0 0 1
    outer loop
      vertex -3.04799 19.5479 2
      vertex -1.73535 12.187 2
      vertex -2.04845 19.7982 2
    endloop
  endfacet
  facet normal 0 0 1
    outer loop
      vertex -1.73535 12.187 2
      vertex -3.04799 19.5479 2
      vertex -2 12.2 2
    endloop
  endfacet
  facet normal 0 0 1
    outer loop
      vertex -2 12.2 2
      vertex -3.04799 19.5479 2
      vertex -2.26465 12.187 2
    endloop
  endfacet
  facet normal -0 0 1
    outer loop
      vertex -4.01818 19.2007 2
      vertex -2.26465 12.187 2
      vertex -3.04799 19.5479 2
    endloop
  endfacet
  facet normal 0 0 1
    outer loop
      vertex -2.26465 12.187 2
      vertex -4.01818 19.2007 2
      vertex -2.52674 12.1481 2
    endloop
  endfacet
  facet normal -0 0 1
    outer loop
      vertex -4.94967 18.7602 2
      vertex -2.52674 12.1481 2
      vertex -4.01818 19.2007 2
    endloop
  endfacet
  facet normal 0 0 1
    outer loop
      vertex -2.52674 12.1481 2
      vertex -4.94967 18.7602 2
      vertex -2.78377 12.0837 2
    endloop
  endfacet
  facet normal -0 0 1
    outer loop
      vertex -5.83349 18.2304 2
      vertex -2.78377 12.0837 2
      vertex -4.94967 18.7602 2
    endloop
  endfacet
  facet normal 0 0 1
    outer loop
      vertex -2.78377 12.0837 2
      vertex -5.83349 18.2304 2
      vertex -3.03325 11.9945 2
    endloop
  endfacet
  facet normal -0 0 1
    outer loop
      vertex -6.66113 17.6166 2
      vertex -3.03325 11.9945 2
      vertex -5.83349 18.2304 2
    endloop
  endfacet
  facet normal 0 0 1
    outer loop
      vertex -3.03325 11.9945 2
      vertex -6.66113 17.6166 2
      vertex -3.27277 11.8812 2
    endloop
  endfacet
  facet normal -0 0 1
    outer loop
      vertex -7.42462 16.9246 2
      vertex -3.27277 11.8812 2
      vertex -6.66113 17.6166 2
    endloop
  endfacet
  facet normal 0 0 1
    outer loop
      vertex -3.27277 11.8812 2
      vertex -7.42462 16.9246 2
      vertex -3.50004 11.745 2
    endloop
  endfacet
  facet normal -0 0 1
    outer loop
      vertex -8.11661 16.1611 2
      vertex -3.50004 11.745 2
      vertex -7.42462 16.9246 2
    endloop
  endfacet
  facet normal 0 0 1
    outer loop
      vertex -3.50004 11.745 2
      vertex -8.11661 16.1611 2
      vertex -3.71286 11.5871 2
    endloop
  endfacet
  facet normal -0 0 1
    outer loop
      vertex -8.73043 15.3335 2
      vertex -3.71286 11.5871 2
      vertex -8.11661 16.1611 2
    endloop
  endfacet
  facet normal 0 0 1
    outer loop
      vertex -3.71286 11.5871 2
      vertex -8.73043 15.3335 2
      vertex -3.90919 11.4092 2
    endloop
  endfacet
  facet normal 0 0 1
    outer loop
      vertex -3.90919 11.4092 2
      vertex -8.73043 15.3335 2
      vertex -4.08713 11.2129 2
    endloop
  endfacet
  facet normal 0 0 1
    outer loop
      vertex -4.08713 11.2129 2
      vertex -9.26017 14.4497 2
      vertex -4.24497 11 2
    endloop
  endfacet
  facet normal -0 0 1
    outer loop
      vertex -9.26017 14.4497 2
      vertex -4.08713 11.2129 2
      vertex -8.73043 15.3335 2
    endloop
  endfacet
  facet normal -0 0 1
    outer loop
      vertex 0.686998 9.23535 2
      vertex 60 -1 2
      vertex 0.7 9.5 2
    endloop
  endfacet
  facet normal -0 0 1
    outer loop
      vertex 0.64812 8.97326 2
      vertex 60 -1 2
      vertex 0.686998 9.23535 2
    endloop
  endfacet
  facet normal 0 0 1
    outer loop
      vertex 0 -1 2
      vertex 0.64812 8.97326 2
      vertex 0.583738 8.71623 2
    endloop
  endfacet
  facet normal 0 0 1
    outer loop
      vertex 0 -1 2
      vertex 0.583738 8.71623 2
      vertex 0.494474 8.46675 2
    endloop
  endfacet
  facet normal 0 0 1
    outer loop
      vertex 0 -1 2
      vertex 0.494474 8.46675 2
      vertex 0.381186 8.22723 2
    endloop
  endfacet
  facet normal 0 0 1
    outer loop
      vertex 0 -1 2
      vertex 0.381186 8.22723 2
      vertex 0.244967 7.99996 2
    endloop
  endfacet
  facet normal 0 0 1
    outer loop
      vertex 0 -1 2
      vertex 0.244967 7.99996 2
      vertex 0.0871277 7.78714 2
    endloop
  endfacet
  facet normal 0 0 1
    outer loop
      vertex 0.64812 8.97326 2
      vertex 0 -1 2
      vertex 60 -1 2
    endloop
  endfacet
  facet normal -0 0 1
    outer loop
      vertex -0.0908108 7.59081 2
      vertex 0 -1 2
      vertex 0.0871277 7.78714 2
    endloop
  endfacet
  facet normal -0 0 1
    outer loop
      vertex -0.287138 7.41287 2
      vertex 0 -1 2
      vertex -0.0908108 7.59081 2
    endloop
  endfacet
  facet normal -0 0 1
    outer loop
      vertex -0.49996 7.25503 2
      vertex 0 -1 2
      vertex -0.287138 7.41287 2
    endloop
  endfacet
  facet normal -0 0 1
    outer loop
      vertex -0.727228 7.11881 2
      vertex 0 -1 2
      vertex -0.49996 7.25503 2
    endloop
  endfacet
  facet normal -0 0 1
    outer loop
      vertex -0.966754 7.00552 2
      vertex 0 -1 2
      vertex -0.727228 7.11881 2
    endloop
  endfacet
  facet normal -0 0 1
    outer loop
      vertex -1.21623 6.91626 2
      vertex 0 -1 2
      vertex -0.966754 7.00552 2
    endloop
  endfacet
  facet normal 0 0 1
    outer loop
      vertex 0 -1 2
      vertex -1.21623 6.91626 2
      vertex -1.02918 -0.949439 2
    endloop
  endfacet
  facet normal -0 0 1
    outer loop
      vertex -1.47326 6.85188 2
      vertex -1.02918 -0.949439 2
      vertex -1.21623 6.91626 2
    endloop
  endfacet
  facet normal 0 0 1
    outer loop
      vertex -2.04845 -0.798245 2
      vertex -1.47326 6.85188 2
      vertex -1.73535 6.813 2
    endloop
  endfacet
  facet normal 0 0 1
    outer loop
      vertex -3.04799 -0.547873 2
      vertex -1.73535 6.813 2
      vertex -2 6.8 2
    endloop
  endfacet
  facet normal 0 0 1
    outer loop
      vertex -1.47326 6.85188 2
      vertex -2.04845 -0.798245 2
      vertex -1.02918 -0.949439 2
    endloop
  endfacet
  facet normal 0 0 1
    outer loop
      vertex -3.04799 -0.547873 2
      vertex -2 6.8 2
      vertex -2.26465 6.813 2
    endloop
  endfacet
  facet normal 0 0 1
    outer loop
      vertex -4.01818 -0.200734 2
      vertex -2.26465 6.813 2
      vertex -2.52674 6.85188 2
    endloop
  endfacet
  facet normal 0 0 1
    outer loop
      vertex -4.94967 0.239826 2
      vertex -2.52674 6.85188 2
      vertex -2.78377 6.91626 2
    endloop
  endfacet
  facet normal 0 0 1
    outer loop
      vertex -5.83349 0.769568 2
      vertex -2.78377 6.91626 2
      vertex -3.03325 7.00552 2
    endloop
  endfacet
  facet normal 0 0 1
    outer loop
      vertex -1.73535 6.813 2
      vertex -3.04799 -0.547873 2
      vertex -2.04845 -0.798245 2
    endloop
  endfacet
  facet normal 0 0 1
    outer loop
      vertex -6.66113 1.38339 2
      vertex -3.03325 7.00552 2
      vertex -3.27277 7.11881 2
    endloop
  endfacet
  facet normal 0 0 1
    outer loop
      vertex -7.42462 2.07538 2
      vertex -3.27277 7.11881 2
      vertex -3.50004 7.25503 2
    endloop
  endfacet
  facet normal 0 0 1
    outer loop
      vertex -8.11661 2.83887 2
      vertex -3.50004 7.25503 2
      vertex -3.71286 7.41287 2
    endloop
  endfacet
  facet normal 0 0 1
    outer loop
      vertex -8.73043 3.66651 2
      vertex -3.71286 7.41287 2
      vertex -3.90919 7.59081 2
    endloop
  endfacet
  facet normal 0 0 1
    outer loop
      vertex -2.26465 6.813 2
      vertex -4.01818 -0.200734 2
      vertex -3.04799 -0.547873 2
    endloop
  endfacet
  facet normal 0 0 1
    outer loop
      vertex -8.73043 3.66651 2
      vertex -3.90919 7.59081 2
      vertex -4.08713 7.78714 2
    endloop
  endfacet
  facet normal 0 0 1
    outer loop
      vertex -9.26017 4.55033 2
      vertex -4.08713 7.78714 2
      vertex -4.24497 7.99996 2
    endloop
  endfacet
  facet normal 0 0 1
    outer loop
      vertex -9.70073 5.48182 2
      vertex -4.24497 7.99996 2
      vertex -4.38119 8.22723 2
    endloop
  endfacet
  facet normal 0 0 1
    outer loop
      vertex -10.0479 6.45201 2
      vertex -4.38119 8.22723 2
      vertex -4.49447 8.46675 2
    endloop
  endfacet
  facet normal 0 0 1
    outer loop
      vertex -10.0479 6.45201 2
      vertex -4.49447 8.46675 2
      vertex -4.58374 8.71623 2
    endloop
  endfacet
  facet normal 0 0 1
    outer loop
      vertex -10.2982 7.45155 2
      vertex -4.58374 8.71623 2
      vertex -4.64812 8.97326 2
    endloop
  endfacet
  facet normal 0 0 1
    outer loop
      vertex -10.4494 8.47082 2
      vertex -4.64812 8.97326 2
      vertex -4.687 9.23535 2
    endloop
  endfacet
  facet normal 0 0 1
    outer loop
      vertex -2.52674 6.85188 2
      vertex -4.94967 0.239826 2
      vertex -4.01818 -0.200734 2
    endloop
  endfacet
  facet normal -0 0 1
    outer loop
      vertex -10.5 9.5 2
      vertex -4.687 9.23535 2
      vertex -4.7 9.5 2
    endloop
  endfacet
  facet normal -0 0 1
    outer loop
      vertex -9.70073 13.5182 2
      vertex -4.24497 11 2
      vertex -9.26017 14.4497 2
    endloop
  endfacet
  facet normal 0 0 1
    outer loop
      vertex -4.24497 11 2
      vertex -9.70073 13.5182 2
      vertex -4.38119 10.7728 2
    endloop
  endfacet
  facet normal 0 0 1
    outer loop
      vertex -2.78377 6.91626 2
      vertex -5.83349 0.769568 2
      vertex -4.94967 0.239826 2
    endloop
  endfacet
  facet normal -0 0 1
    outer loop
      vertex -10.0479 12.548 2
      vertex -4.38119 10.7728 2
      vertex -9.70073 13.5182 2
    endloop
  endfacet
  facet normal 0 0 1
    outer loop
      vertex -3.03325 7.00552 2
      vertex -6.66113 1.38339 2
      vertex -5.83349 0.769568 2
    endloop
  endfacet
  facet normal 0 0 1
    outer loop
      vertex -4.38119 10.7728 2
      vertex -10.0479 12.548 2
      vertex -4.49447 10.5332 2
    endloop
  endfacet
  facet normal 0 0 1
    outer loop
      vertex -3.27277 7.11881 2
      vertex -7.42462 2.07538 2
      vertex -6.66113 1.38339 2
    endloop
  endfacet
  facet normal 0 0 1
    outer loop
      vertex -4.49447 10.5332 2
      vertex -10.0479 12.548 2
      vertex -4.58374 10.2838 2
    endloop
  endfacet
  facet normal 0 0 1
    outer loop
      vertex -3.50004 7.25503 2
      vertex -8.11661 2.83887 2
      vertex -7.42462 2.07538 2
    endloop
  endfacet
  facet normal -0 0 1
    outer loop
      vertex -10.2982 11.5484 2
      vertex -4.58374 10.2838 2
      vertex -10.0479 12.548 2
    endloop
  endfacet
  facet normal 0 0 1
    outer loop
      vertex -3.71286 7.41287 2
      vertex -8.73043 3.66651 2
      vertex -8.11661 2.83887 2
    endloop
  endfacet
  facet normal 0 0 1
    outer loop
      vertex -4.58374 10.2838 2
      vertex -10.2982 11.5484 2
      vertex -4.64812 10.0267 2
    endloop
  endfacet
  facet normal 0 0 1
    outer loop
      vertex -4.08713 7.78714 2
      vertex -9.26017 4.55033 2
      vertex -8.73043 3.66651 2
    endloop
  endfacet
  facet normal -0 0 1
    outer loop
      vertex -10.4494 10.5292 2
      vertex -4.64812 10.0267 2
      vertex -10.2982 11.5484 2
    endloop
  endfacet
  facet normal 0 0 1
    outer loop
      vertex -4.24497 7.99996 2
      vertex -9.70073 5.48182 2
      vertex -9.26017 4.55033 2
    endloop
  endfacet
  facet normal 0 0 1
    outer loop
      vertex -4.64812 10.0267 2
      vertex -10.4494 10.5292 2
      vertex -4.687 9.76465 2
    endloop
  endfacet
  facet normal 0 0 1
    outer loop
      vertex -4.38119 8.22723 2
      vertex -10.0479 6.45201 2
      vertex -9.70073 5.48182 2
    endloop
  endfacet
  facet normal 0 0 1
    outer loop
      vertex -10.5 9.5 2
      vertex -4.687 9.76465 2
      vertex -10.4494 10.5292 2
    endloop
  endfacet
  facet normal 0 0 1
    outer loop
      vertex -4.58374 8.71623 2
      vertex -10.2982 7.45155 2
      vertex -10.0479 6.45201 2
    endloop
  endfacet
  facet normal 0 0 1
    outer loop
      vertex -4.687 9.76465 2
      vertex -10.5 9.5 2
      vertex -4.7 9.5 2
    endloop
  endfacet
  facet normal 0 0 1
    outer loop
      vertex -4.64812 8.97326 2
      vertex -10.4494 8.47082 2
      vertex -10.2982 7.45155 2
    endloop
  endfacet
  facet normal 0 0 1
    outer loop
      vertex -4.687 9.23535 2
      vertex -10.5 9.5 2
      vertex -10.4494 8.47082 2
    endloop
  endfacet
  facet normal -0.514049 -0.857761 0
    outer loop
      vertex -0.727228 11.8812 0
      vertex -0.49996 11.745 2
      vertex -0.727228 11.8812 2
    endloop
  endfacet
  facet normal -0.514049 -0.857761 -0
    outer loop
      vertex -0.49996 11.745 2
      vertex -0.727228 11.8812 0
      vertex -0.49996 11.745 0
    endloop
  endfacet
  facet normal -0.989173 -0.146755 0
    outer loop
      vertex 0.686998 9.76465 0
      vertex 0.64812 10.0267 2
      vertex 0.64812 10.0267 0
    endloop
  endfacet
  facet normal -0.989173 -0.146755 0
    outer loop
      vertex 0.64812 10.0267 2
      vertex 0.686998 9.76465 0
      vertex 0.686998 9.76465 2
    endloop
  endfacet
  facet normal -0.998795 -0.0490699 0
    outer loop
      vertex 0.7 9.5 0
      vertex 0.686998 9.76465 2
      vertex 0.686998 9.76465 0
    endloop
  endfacet
  facet normal -0.998795 -0.0490699 0
    outer loop
      vertex 0.686998 9.76465 2
      vertex 0.7 9.5 0
      vertex 0.7 9.5 2
    endloop
  endfacet
  facet normal -0.970047 -0.242916 0
    outer loop
      vertex 0.64812 10.0267 0
      vertex 0.583738 10.2838 2
      vertex 0.583738 10.2838 0
    endloop
  endfacet
  facet normal -0.970047 -0.242916 0
    outer loop
      vertex 0.583738 10.2838 2
      vertex 0.64812 10.0267 0
      vertex 0.64812 10.0267 2
    endloop
  endfacet
  facet normal 0.989172 -0.146762 0
    outer loop
      vertex -4.687 9.76465 2
      vertex -4.64812 10.0267 0
      vertex -4.64812 10.0267 2
    endloop
  endfacet
  facet normal 0.989172 -0.146762 0
    outer loop
      vertex -4.64812 10.0267 0
      vertex -4.687 9.76465 2
      vertex -4.687 9.76465 0
    endloop
  endfacet
  facet normal 0.0490623 -0.998796 0
    outer loop
      vertex -2.26465 12.187 0
      vertex -2 12.2 2
      vertex -2.26465 12.187 2
    endloop
  endfacet
  facet normal 0.0490623 -0.998796 0
    outer loop
      vertex -2 12.2 2
      vertex -2.26465 12.187 0
      vertex -2 12.2 0
    endloop
  endfacet
  facet normal -0.998795 0.0490699 0
    outer loop
      vertex 0.686998 9.23535 0
      vertex 0.7 9.5 2
      vertex 0.7 9.5 0
    endloop
  endfacet
  facet normal -0.998795 0.0490699 0
    outer loop
      vertex 0.7 9.5 2
      vertex 0.686998 9.23535 0
      vertex 0.686998 9.23535 2
    endloop
  endfacet
  facet normal -0.336676 -0.941621 0
    outer loop
      vertex -1.21623 12.0837 0
      vertex -0.966754 11.9945 2
      vertex -1.21623 12.0837 2
    endloop
  endfacet
  facet normal -0.336676 -0.941621 -0
    outer loop
      vertex -0.966754 11.9945 2
      vertex -1.21623 12.0837 0
      vertex -0.966754 11.9945 0
    endloop
  endfacet
  facet normal -0.0490623 0.998796 0
    outer loop
      vertex -1.73535 6.813 0
      vertex -2 6.8 2
      vertex -1.73535 6.813 2
    endloop
  endfacet
  facet normal -0.0490623 0.998796 0
    outer loop
      vertex -2 6.8 2
      vertex -1.73535 6.813 0
      vertex -2 6.8 0
    endloop
  endfacet
  facet normal -0.514105 0.857727 0
    outer loop
      vertex -0.49996 7.25503 0
      vertex -0.727228 7.11881 2
      vertex -0.49996 7.25503 2
    endloop
  endfacet
  facet normal -0.514105 0.857727 0
    outer loop
      vertex -0.727228 7.11881 2
      vertex -0.49996 7.25503 0
      vertex -0.727228 7.11881 0
    endloop
  endfacet
  facet normal 0.803204 0.595704 0
    outer loop
      vertex -4.08713 7.78714 2
      vertex -4.24497 7.99996 0
      vertex -4.24497 7.99996 2
    endloop
  endfacet
  facet normal 0.803204 0.595704 0
    outer loop
      vertex -4.24497 7.99996 0
      vertex -4.08713 7.78714 2
      vertex -4.08713 7.78714 0
    endloop
  endfacet
  facet normal 0.59585 -0.803096 0
    outer loop
      vertex -3.71286 11.5871 0
      vertex -3.50004 11.745 2
      vertex -3.71286 11.5871 2
    endloop
  endfacet
  facet normal 0.59585 -0.803096 0
    outer loop
      vertex -3.50004 11.745 2
      vertex -3.71286 11.5871 0
      vertex -3.50004 11.745 0
    endloop
  endfacet
  facet normal -0.242971 0.970034 0
    outer loop
      vertex -1.21623 6.91626 0
      vertex -1.47326 6.85188 2
      vertex -1.21623 6.91626 2
    endloop
  endfacet
  facet normal -0.242971 0.970034 0
    outer loop
      vertex -1.47326 6.85188 2
      vertex -1.21623 6.91626 0
      vertex -1.47326 6.85188 0
    endloop
  endfacet
  facet normal 0.0490623 0.998796 -0
    outer loop
      vertex -2 6.8 0
      vertex -2.26465 6.813 2
      vertex -2 6.8 2
    endloop
  endfacet
  facet normal 0.0490623 0.998796 0
    outer loop
      vertex -2.26465 6.813 2
      vertex -2 6.8 0
      vertex -2.26465 6.813 0
    endloop
  endfacet
  facet normal 0.146814 -0.989164 0
    outer loop
      vertex -2.52674 12.1481 0
      vertex -2.26465 12.187 2
      vertex -2.52674 12.1481 2
    endloop
  endfacet
  facet normal 0.146814 -0.989164 0
    outer loop
      vertex -2.26465 12.187 2
      vertex -2.52674 12.1481 0
      vertex -2.26465 12.187 0
    endloop
  endfacet
  facet normal 0.243042 -0.970016 0
    outer loop
      vertex -2.78377 12.0837 0
      vertex -2.52674 12.1481 2
      vertex -2.78377 12.0837 2
    endloop
  endfacet
  facet normal 0.243042 -0.970016 0
    outer loop
      vertex -2.52674 12.1481 2
      vertex -2.78377 12.0837 0
      vertex -2.52674 12.1481 0
    endloop
  endfacet
  facet normal 0.242971 0.970034 -0
    outer loop
      vertex -2.52674 6.85188 0
      vertex -2.78377 6.91626 2
      vertex -2.52674 6.85188 2
    endloop
  endfacet
  facet normal 0.242971 0.970034 0
    outer loop
      vertex -2.78377 6.91626 2
      vertex -2.52674 6.85188 0
      vertex -2.78377 6.91626 0
    endloop
  endfacet
  facet normal -0.427563 0.903985 0
    outer loop
      vertex -0.727228 7.11881 0
      vertex -0.966754 7.00552 2
      vertex -0.727228 7.11881 2
    endloop
  endfacet
  facet normal -0.427563 0.903985 0
    outer loop
      vertex -0.966754 7.00552 2
      vertex -0.727228 7.11881 0
      vertex -0.966754 7.00552 0
    endloop
  endfacet
  facet normal -0.243042 -0.970016 0
    outer loop
      vertex -1.47326 12.1481 0
      vertex -1.21623 12.0837 2
      vertex -1.47326 12.1481 2
    endloop
  endfacet
  facet normal -0.243042 -0.970016 -0
    outer loop
      vertex -1.21623 12.0837 2
      vertex -1.47326 12.1481 0
      vertex -1.21623 12.0837 0
    endloop
  endfacet
  facet normal -0.803205 0.595702 0
    outer loop
      vertex 0.0871277 7.78714 0
      vertex 0.244967 7.99996 2
      vertex 0.244967 7.99996 0
    endloop
  endfacet
  facet normal -0.803205 0.595702 0
    outer loop
      vertex 0.244967 7.99996 2
      vertex 0.0871277 7.78714 0
      vertex 0.0871277 7.78714 2
    endloop
  endfacet
  facet normal 0.989175 0.14674 0
    outer loop
      vertex -4.64812 8.97326 2
      vertex -4.687 9.23535 0
      vertex -4.687 9.23535 2
    endloop
  endfacet
  facet normal 0.989175 0.14674 0
    outer loop
      vertex -4.687 9.23535 0
      vertex -4.64812 8.97326 2
      vertex -4.64812 8.97326 0
    endloop
  endfacet
  facet normal 0.427572 0.903981 -0
    outer loop
      vertex -3.03325 7.00552 0
      vertex -3.27277 7.11881 2
      vertex -3.03325 7.00552 2
    endloop
  endfacet
  facet normal 0.427572 0.903981 0
    outer loop
      vertex -3.27277 7.11881 2
      vertex -3.03325 7.00552 0
      vertex -3.27277 7.11881 0
    endloop
  endfacet
  facet normal 0.857659 -0.514218 0
    outer loop
      vertex -4.38119 10.7728 2
      vertex -4.24497 11 0
      vertex -4.24497 11 2
    endloop
  endfacet
  facet normal 0.857659 -0.514218 0
    outer loop
      vertex -4.24497 11 0
      vertex -4.38119 10.7728 2
      vertex -4.38119 10.7728 0
    endloop
  endfacet
  facet normal -0.970032 0.242978 0
    outer loop
      vertex 0.583738 8.71623 0
      vertex 0.64812 8.97326 2
      vertex 0.64812 8.97326 0
    endloop
  endfacet
  facet normal -0.970032 0.242978 0
    outer loop
      vertex 0.64812 8.97326 2
      vertex 0.583738 8.71623 0
      vertex 0.583738 8.71623 2
    endloop
  endfacet
  facet normal 0.803311 -0.59556 0
    outer loop
      vertex -4.24497 11 2
      vertex -4.08713 11.2129 0
      vertex -4.08713 11.2129 2
    endloop
  endfacet
  facet normal 0.803311 -0.59556 0
    outer loop
      vertex -4.08713 11.2129 0
      vertex -4.24497 11 2
      vertex -4.24497 11 0
    endloop
  endfacet
  facet normal -0.903984 0.427566 0
    outer loop
      vertex 0.381186 8.22723 0
      vertex 0.494474 8.46675 2
      vertex 0.494474 8.46675 0
    endloop
  endfacet
  facet normal -0.903984 0.427566 0
    outer loop
      vertex 0.494474 8.46675 2
      vertex 0.381186 8.22723 0
      vertex 0.381186 8.22723 2
    endloop
  endfacet
  facet normal -0.146814 -0.989164 0
    outer loop
      vertex -1.73535 12.187 0
      vertex -1.47326 12.1481 2
      vertex -1.73535 12.187 2
    endloop
  endfacet
  facet normal -0.146814 -0.989164 -0
    outer loop
      vertex -1.47326 12.1481 2
      vertex -1.73535 12.187 0
      vertex -1.47326 12.1481 0
    endloop
  endfacet
  facet normal -0.14674 0.989175 0
    outer loop
      vertex -1.47326 6.85188 0
      vertex -1.73535 6.813 2
      vertex -1.47326 6.85188 2
    endloop
  endfacet
  facet normal -0.14674 0.989175 0
    outer loop
      vertex -1.73535 6.813 2
      vertex -1.47326 6.85188 0
      vertex -1.73535 6.813 0
    endloop
  endfacet
  facet normal -0.595846 -0.803098 0
    outer loop
      vertex -0.49996 11.745 0
      vertex -0.287138 11.5871 2
      vertex -0.49996 11.745 2
    endloop
  endfacet
  facet normal -0.595846 -0.803098 -0
    outer loop
      vertex -0.287138 11.5871 2
      vertex -0.49996 11.745 0
      vertex -0.287138 11.5871 0
    endloop
  endfacet
  facet normal 0.14674 0.989175 -0
    outer loop
      vertex -2.26465 6.813 0
      vertex -2.52674 6.85188 2
      vertex -2.26465 6.813 2
    endloop
  endfacet
  facet normal 0.14674 0.989175 0
    outer loop
      vertex -2.52674 6.85188 2
      vertex -2.26465 6.813 0
      vertex -2.52674 6.85188 0
    endloop
  endfacet
  facet normal -0.803312 -0.595558 0
    outer loop
      vertex 0.244967 11 0
      vertex 0.0871277 11.2129 2
      vertex 0.0871277 11.2129 0
    endloop
  endfacet
  facet normal -0.803312 -0.595558 0
    outer loop
      vertex 0.0871277 11.2129 2
      vertex 0.244967 11 0
      vertex 0.244967 11 2
    endloop
  endfacet
  facet normal -0.0490623 -0.998796 0
    outer loop
      vertex -2 12.2 0
      vertex -1.73535 12.187 2
      vertex -2 12.2 2
    endloop
  endfacet
  facet normal -0.0490623 -0.998796 -0
    outer loop
      vertex -1.73535 12.187 2
      vertex -2 12.2 0
      vertex -1.73535 12.187 0
    endloop
  endfacet
  facet normal 0.336671 -0.941622 0
    outer loop
      vertex -3.03325 11.9945 0
      vertex -2.78377 12.0837 2
      vertex -3.03325 11.9945 2
    endloop
  endfacet
  facet normal 0.336671 -0.941622 0
    outer loop
      vertex -2.78377 12.0837 2
      vertex -3.03325 11.9945 0
      vertex -2.78377 12.0837 0
    endloop
  endfacet
  facet normal -0.336877 0.941549 0
    outer loop
      vertex -0.966754 7.00552 0
      vertex -1.21623 6.91626 2
      vertex -0.966754 7.00552 2
    endloop
  endfacet
  facet normal -0.336877 0.941549 0
    outer loop
      vertex -1.21623 6.91626 2
      vertex -0.966754 7.00552 0
      vertex -1.21623 6.91626 0
    endloop
  endfacet
  facet normal 0.998796 0.0490623 0
    outer loop
      vertex -4.687 9.23535 2
      vertex -4.7 9.5 0
      vertex -4.7 9.5 2
    endloop
  endfacet
  facet normal 0.998796 0.0490623 0
    outer loop
      vertex -4.7 9.5 0
      vertex -4.687 9.23535 2
      vertex -4.687 9.23535 0
    endloop
  endfacet
  facet normal -0.857731 0.514099 0
    outer loop
      vertex 0.244967 7.99996 0
      vertex 0.381186 8.22723 2
      vertex 0.381186 8.22723 0
    endloop
  endfacet
  facet normal -0.857731 0.514099 0
    outer loop
      vertex 0.381186 8.22723 2
      vertex 0.244967 7.99996 0
      vertex 0.244967 7.99996 2
    endloop
  endfacet
  facet normal 0.427603 -0.903967 0
    outer loop
      vertex -3.27277 11.8812 0
      vertex -3.03325 11.9945 2
      vertex -3.27277 11.8812 2
    endloop
  endfacet
  facet normal 0.427603 -0.903967 0
    outer loop
      vertex -3.03325 11.9945 2
      vertex -3.27277 11.8812 0
      vertex -3.03325 11.9945 0
    endloop
  endfacet
  facet normal -0.427594 -0.903971 0
    outer loop
      vertex -0.966754 11.9945 0
      vertex -0.727228 11.8812 2
      vertex -0.966754 11.9945 2
    endloop
  endfacet
  facet normal -0.427594 -0.903971 -0
    outer loop
      vertex -0.727228 11.8812 2
      vertex -0.966754 11.9945 0
      vertex -0.727228 11.8812 0
    endloop
  endfacet
  facet normal -0.941546 0.336885 0
    outer loop
      vertex 0.494474 8.46675 0
      vertex 0.583738 8.71623 2
      vertex 0.583738 8.71623 0
    endloop
  endfacet
  facet normal -0.941546 0.336885 0
    outer loop
      vertex 0.583738 8.71623 2
      vertex 0.494474 8.46675 0
      vertex 0.494474 8.46675 2
    endloop
  endfacet
  facet normal 0.595704 0.803204 -0
    outer loop
      vertex -3.50004 7.25503 0
      vertex -3.71286 7.41287 2
      vertex -3.50004 7.25503 2
    endloop
  endfacet
  facet normal 0.595704 0.803204 0
    outer loop
      vertex -3.71286 7.41287 2
      vertex -3.50004 7.25503 0
      vertex -3.71286 7.41287 0
    endloop
  endfacet
  facet normal -0.941511 -0.336981 0
    outer loop
      vertex 0.583738 10.2838 0
      vertex 0.494474 10.5332 2
      vertex 0.494474 10.5332 0
    endloop
  endfacet
  facet normal -0.941511 -0.336981 0
    outer loop
      vertex 0.494474 10.5332 2
      vertex 0.583738 10.2838 0
      vertex 0.583738 10.2838 2
    endloop
  endfacet
  facet normal 0.67147 -0.741032 0
    outer loop
      vertex -3.90919 11.4092 0
      vertex -3.71286 11.5871 2
      vertex -3.90919 11.4092 2
    endloop
  endfacet
  facet normal 0.67147 -0.741032 0
    outer loop
      vertex -3.71286 11.5871 2
      vertex -3.90919 11.4092 0
      vertex -3.71286 11.5871 0
    endloop
  endfacet
  facet normal -0.989176 0.146733 0
    outer loop
      vertex 0.64812 8.97326 0
      vertex 0.686998 9.23535 2
      vertex 0.686998 9.23535 0
    endloop
  endfacet
  facet normal -0.989176 0.146733 0
    outer loop
      vertex 0.686998 9.23535 2
      vertex 0.64812 8.97326 0
      vertex 0.64812 8.97326 2
    endloop
  endfacet
  facet normal -0.904039 -0.427449 0
    outer loop
      vertex 0.494474 10.5332 0
      vertex 0.381186 10.7728 2
      vertex 0.381186 10.7728 0
    endloop
  endfacet
  facet normal -0.904039 -0.427449 0
    outer loop
      vertex 0.381186 10.7728 2
      vertex 0.494474 10.5332 0
      vertex 0.494474 10.5332 2
    endloop
  endfacet
  facet normal -0.74096 0.671549 0
    outer loop
      vertex -0.0908108 7.59081 0
      vertex 0.0871277 7.78714 2
      vertex 0.0871277 7.78714 0
    endloop
  endfacet
  facet normal -0.74096 0.671549 0
    outer loop
      vertex 0.0871277 7.78714 2
      vertex -0.0908108 7.59081 0
      vertex -0.0908108 7.59081 2
    endloop
  endfacet
  facet normal -0.857661 -0.514215 0
    outer loop
      vertex 0.381186 10.7728 0
      vertex 0.244967 11 2
      vertex 0.244967 11 0
    endloop
  endfacet
  facet normal -0.857661 -0.514215 0
    outer loop
      vertex 0.244967 11 2
      vertex 0.381186 10.7728 0
      vertex 0.381186 10.7728 2
    endloop
  endfacet
  facet normal 0.941539 0.336905 0
    outer loop
      vertex -4.49447 8.46675 2
      vertex -4.58374 8.71623 0
      vertex -4.58374 8.71623 2
    endloop
  endfacet
  facet normal 0.941539 0.336905 0
    outer loop
      vertex -4.58374 8.71623 0
      vertex -4.49447 8.46675 2
      vertex -4.49447 8.46675 0
    endloop
  endfacet
  facet normal 0.336872 0.94155 -0
    outer loop
      vertex -2.78377 6.91626 0
      vertex -3.03325 7.00552 2
      vertex -2.78377 6.91626 2
    endloop
  endfacet
  facet normal 0.336872 0.94155 0
    outer loop
      vertex -3.03325 7.00552 2
      vertex -2.78377 6.91626 0
      vertex -3.03325 7.00552 0
    endloop
  endfacet
  facet normal 0.671552 0.740957 -0
    outer loop
      vertex -3.71286 7.41287 0
      vertex -3.90919 7.59081 2
      vertex -3.71286 7.41287 2
    endloop
  endfacet
  facet normal 0.671552 0.740957 0
    outer loop
      vertex -3.90919 7.59081 2
      vertex -3.71286 7.41287 0
      vertex -3.90919 7.59081 0
    endloop
  endfacet
  facet normal -0.740909 -0.671606 0
    outer loop
      vertex 0.0871277 11.2129 0
      vertex -0.0908108 11.4092 2
      vertex -0.0908108 11.4092 0
    endloop
  endfacet
  facet normal -0.740909 -0.671606 0
    outer loop
      vertex -0.0908108 11.4092 2
      vertex 0.0871277 11.2129 0
      vertex 0.0871277 11.2129 2
    endloop
  endfacet
  facet normal 0.740906 -0.671609 0
    outer loop
      vertex -4.08713 11.2129 2
      vertex -3.90919 11.4092 0
      vertex -3.90919 11.4092 2
    endloop
  endfacet
  facet normal 0.740906 -0.671609 0
    outer loop
      vertex -3.90919 11.4092 0
      vertex -4.08713 11.2129 2
      vertex -4.08713 11.2129 0
    endloop
  endfacet
  facet normal 0.970034 0.242971 0
    outer loop
      vertex -4.58374 8.71623 2
      vertex -4.64812 8.97326 0
      vertex -4.64812 8.97326 2
    endloop
  endfacet
  facet normal 0.970034 0.242971 0
    outer loop
      vertex -4.64812 8.97326 0
      vertex -4.58374 8.71623 2
      vertex -4.58374 8.71623 0
    endloop
  endfacet
  facet normal -0.5957 0.803207 0
    outer loop
      vertex -0.287138 7.41287 0
      vertex -0.49996 7.25503 2
      vertex -0.287138 7.41287 2
    endloop
  endfacet
  facet normal -0.5957 0.803207 0
    outer loop
      vertex -0.49996 7.25503 2
      vertex -0.287138 7.41287 0
      vertex -0.49996 7.25503 0
    endloop
  endfacet
  facet normal -0.671475 -0.741027 0
    outer loop
      vertex -0.287138 11.5871 0
      vertex -0.0908108 11.4092 2
      vertex -0.287138 11.5871 2
    endloop
  endfacet
  facet normal -0.671475 -0.741027 -0
    outer loop
      vertex -0.0908108 11.4092 2
      vertex -0.287138 11.5871 0
      vertex -0.0908108 11.4092 0
    endloop
  endfacet
  facet normal 0.514102 0.857729 -0
    outer loop
      vertex -3.27277 7.11881 0
      vertex -3.50004 7.25503 2
      vertex -3.27277 7.11881 2
    endloop
  endfacet
  facet normal 0.514102 0.857729 0
    outer loop
      vertex -3.50004 7.25503 2
      vertex -3.27277 7.11881 0
      vertex -3.50004 7.25503 0
    endloop
  endfacet
  facet normal 0.970049 -0.242908 0
    outer loop
      vertex -4.64812 10.0267 2
      vertex -4.58374 10.2838 0
      vertex -4.58374 10.2838 2
    endloop
  endfacet
  facet normal 0.970049 -0.242908 0
    outer loop
      vertex -4.58374 10.2838 0
      vertex -4.64812 10.0267 2
      vertex -4.64812 10.0267 0
    endloop
  endfacet
  facet normal -0.671558 0.740952 0
    outer loop
      vertex -0.0908108 7.59081 0
      vertex -0.287138 7.41287 2
      vertex -0.0908108 7.59081 2
    endloop
  endfacet
  facet normal -0.671558 0.740952 0
    outer loop
      vertex -0.287138 7.41287 2
      vertex -0.0908108 7.59081 0
      vertex -0.287138 7.41287 0
    endloop
  endfacet
  facet normal 0.514046 -0.857763 0
    outer loop
      vertex -3.50004 11.745 0
      vertex -3.27277 11.8812 2
      vertex -3.50004 11.745 2
    endloop
  endfacet
  facet normal 0.514046 -0.857763 0
    outer loop
      vertex -3.27277 11.8812 2
      vertex -3.50004 11.745 0
      vertex -3.27277 11.8812 0
    endloop
  endfacet
  facet normal 0.857729 0.514102 0
    outer loop
      vertex -4.24497 7.99996 2
      vertex -4.38119 8.22723 0
      vertex -4.38119 8.22723 2
    endloop
  endfacet
  facet normal 0.857729 0.514102 0
    outer loop
      vertex -4.38119 8.22723 0
      vertex -4.24497 7.99996 2
      vertex -4.24497 7.99996 0
    endloop
  endfacet
  facet normal 0.904051 -0.427424 0
    outer loop
      vertex -4.49447 10.5332 2
      vertex -4.38119 10.7728 0
      vertex -4.38119 10.7728 2
    endloop
  endfacet
  facet normal 0.904051 -0.427424 0
    outer loop
      vertex -4.38119 10.7728 0
      vertex -4.49447 10.5332 2
      vertex -4.49447 10.5332 0
    endloop
  endfacet
  facet normal 0.998796 -0.0490623 0
    outer loop
      vertex -4.7 9.5 2
      vertex -4.687 9.76465 0
      vertex -4.687 9.76465 2
    endloop
  endfacet
  facet normal 0.998796 -0.0490623 0
    outer loop
      vertex -4.687 9.76465 0
      vertex -4.7 9.5 2
      vertex -4.7 9.5 0
    endloop
  endfacet
  facet normal 0.740957 0.671552 0
    outer loop
      vertex -3.90919 7.59081 2
      vertex -4.08713 7.78714 0
      vertex -4.08713 7.78714 2
    endloop
  endfacet
  facet normal 0.740957 0.671552 0
    outer loop
      vertex -4.08713 7.78714 0
      vertex -3.90919 7.59081 2
      vertex -3.90919 7.59081 0
    endloop
  endfacet
  facet normal 0.903996 0.427541 0
    outer loop
      vertex -4.38119 8.22723 2
      vertex -4.49447 8.46675 0
      vertex -4.49447 8.46675 2
    endloop
  endfacet
  facet normal 0.903996 0.427541 0
    outer loop
      vertex -4.49447 8.46675 0
      vertex -4.38119 8.22723 2
      vertex -4.38119 8.22723 0
    endloop
  endfacet
  facet normal 0.941504 -0.337001 0
    outer loop
      vertex -4.58374 10.2838 2
      vertex -4.49447 10.5332 0
      vertex -4.49447 10.5332 2
    endloop
  endfacet
  facet normal 0.941504 -0.337001 0
    outer loop
      vertex -4.49447 10.5332 0
      vertex -4.58374 10.2838 2
      vertex -4.58374 10.2838 0
    endloop
  endfacet
endsolid OpenSCAD_Model
