solid OpenSCAD_Model
  facet normal 0 0 -1
    outer loop
      vertex 11.2551 38.644 0
      vertex 13.1602 40.048 0
      vertex 13.1602 38.644 0
    endloop
  endfacet
  facet normal -0 0 -1
    outer loop
      vertex 13.1602 40.048 0
      vertex 11.2551 38.644 0
      vertex 11.2551 40.048 0
    endloop
  endfacet
  facet normal 0 0 -1
    outer loop
      vertex 10.056 30 0
      vertex 4.92999 31.546 0
      vertex 10.056 31.546 0
    endloop
  endfacet
  facet normal 0 0 -1
    outer loop
      vertex 2.92899 30 0
      vertex 4.92999 31.546 0
      vertex 10.056 30 0
    endloop
  endfacet
  facet normal 0 0 -1
    outer loop
      vertex 2.92899 39.536 0
      vertex 4.92999 31.546 0
      vertex 2.92899 30 0
    endloop
  endfacet
  facet normal 0 0 -1
    outer loop
      vertex 4.92999 31.546 0
      vertex 2.92899 39.536 0
      vertex 4.92999 39.536 0
    endloop
  endfacet
  facet normal 0 0 -1
    outer loop
      vertex 11.2551 30 0
      vertex 13.1602 37.36 0
      vertex 13.1602 30 0
    endloop
  endfacet
  facet normal -0 0 -1
    outer loop
      vertex 13.1602 37.36 0
      vertex 11.2551 30 0
      vertex 11.2551 37.36 0
    endloop
  endfacet
  facet normal -0 0 -1
    outer loop
      vertex 21.7167 37.36 0
      vertex 19.4368 36.4827 0
      vertex 19.7227 37.36 0
    endloop
  endfacet
  facet normal 0 0 -1
    outer loop
      vertex 21.7167 37.36 0
      vertex 19.179 35.6902 0
      vertex 19.4368 36.4827 0
    endloop
  endfacet
  facet normal 0 0 -1
    outer loop
      vertex 18.7479 34.3598 0
      vertex 21.7167 37.36 0
      vertex 19.0107 30 0
    endloop
  endfacet
  facet normal 0 0 -1
    outer loop
      vertex 21.7167 37.36 0
      vertex 18.9494 34.9825 0
      vertex 19.179 35.6902 0
    endloop
  endfacet
  facet normal 0 0 -1
    outer loop
      vertex 21.7167 37.36 0
      vertex 18.7479 34.3598 0
      vertex 18.9494 34.9825 0
    endloop
  endfacet
  facet normal 0 0 -1
    outer loop
      vertex 19.0107 30 0
      vertex 18.5746 33.8219 0
      vertex 18.7479 34.3598 0
    endloop
  endfacet
  facet normal 0 0 -1
    outer loop
      vertex 19.0107 30 0
      vertex 18.4294 33.3689 0
      vertex 18.5746 33.8219 0
    endloop
  endfacet
  facet normal 0 0 -1
    outer loop
      vertex 19.0107 30 0
      vertex 18.3123 33.0007 0
      vertex 18.4294 33.3689 0
    endloop
  endfacet
  facet normal 0 0 -1
    outer loop
      vertex 19.0107 30 0
      vertex 18.2234 32.7174 0
      vertex 18.3123 33.0007 0
    endloop
  endfacet
  facet normal 0 0 -1
    outer loop
      vertex 19.0107 30 0
      vertex 18.1627 32.519 0
      vertex 18.2234 32.7174 0
    endloop
  endfacet
  facet normal 0 0 -1
    outer loop
      vertex 19.0107 30 0
      vertex 18.1178 32.3684 0
      vertex 18.1627 32.519 0
    endloop
  endfacet
  facet normal 0 0 -1
    outer loop
      vertex 19.0107 30 0
      vertex 18.0764 32.2283 0
      vertex 18.1178 32.3684 0
    endloop
  endfacet
  facet normal 0 0 -1
    outer loop
      vertex 19.0107 30 0
      vertex 18.0385 32.0985 0
      vertex 18.0764 32.2283 0
    endloop
  endfacet
  facet normal 0 0 -1
    outer loop
      vertex 19.0107 30 0
      vertex 18.0041 31.9792 0
      vertex 18.0385 32.0985 0
    endloop
  endfacet
  facet normal 0 0 -1
    outer loop
      vertex 19.0107 30 0
      vertex 17.9732 31.8703 0
      vertex 18.0041 31.9792 0
    endloop
  endfacet
  facet normal 0 0 -1
    outer loop
      vertex 19.0107 30 0
      vertex 17.9458 31.7719 0
      vertex 17.9732 31.8703 0
    endloop
  endfacet
  facet normal 0 0 -1
    outer loop
      vertex 19.0107 30 0
      vertex 17.9219 31.6838 0
      vertex 17.9458 31.7719 0
    endloop
  endfacet
  facet normal 0 0 -1
    outer loop
      vertex 19.0107 30 0
      vertex 17.9016 31.6062 0
      vertex 17.9219 31.6838 0
    endloop
  endfacet
  facet normal 0 0 -1
    outer loop
      vertex 19.0107 30 0
      vertex 17.8847 31.539 0
      vertex 17.9016 31.6062 0
    endloop
  endfacet
  facet normal 0 0 -1
    outer loop
      vertex 16.7327 30 0
      vertex 17.8037 31.829 0
      vertex 17.8847 31.539 0
    endloop
  endfacet
  facet normal -0 0 -1
    outer loop
      vertex 17.8037 31.829 0
      vertex 16.7327 30 0
      vertex 17.7296 32.0939 0
    endloop
  endfacet
  facet normal -0 0 -1
    outer loop
      vertex 17.7296 32.0939 0
      vertex 16.7327 30 0
      vertex 17.6624 32.3334 0
    endloop
  endfacet
  facet normal -0 0 -1
    outer loop
      vertex 17.6624 32.3334 0
      vertex 16.7327 30 0
      vertex 17.602 32.5478 0
    endloop
  endfacet
  facet normal -0 0 -1
    outer loop
      vertex 17.602 32.5478 0
      vertex 16.7327 30 0
      vertex 17.5486 32.7369 0
    endloop
  endfacet
  facet normal -0 0 -1
    outer loop
      vertex 17.5486 32.7369 0
      vertex 16.7327 30 0
      vertex 17.502 32.9008 0
    endloop
  endfacet
  facet normal -0 0 -1
    outer loop
      vertex 17.502 32.9008 0
      vertex 16.7327 30 0
      vertex 17.4624 33.0394 0
    endloop
  endfacet
  facet normal -0 0 -1
    outer loop
      vertex 17.4624 33.0394 0
      vertex 16.7327 30 0
      vertex 17.4296 33.1528 0
    endloop
  endfacet
  facet normal 0 0 -1
    outer loop
      vertex 16.7327 30 0
      vertex 17.8847 31.539 0
      vertex 19.0107 30 0
    endloop
  endfacet
  facet normal -0 0 -1
    outer loop
      vertex 17.4296 33.1528 0
      vertex 16.7327 30 0
      vertex 17.4037 33.241 0
    endloop
  endfacet
  facet normal 0 0 -1
    outer loop
      vertex 14.1077 37.36 0
      vertex 17.4037 33.241 0
      vertex 16.7327 30 0
    endloop
  endfacet
  facet normal 0 0 -1
    outer loop
      vertex 17.4037 33.241 0
      vertex 14.1077 37.36 0
      vertex 16.1217 37.36 0
    endloop
  endfacet
  facet normal -0 0 1
    outer loop
      vertex 11.2551 40.048 1.5
      vertex 13.1602 38.644 1.5
      vertex 13.1602 40.048 1.5
    endloop
  endfacet
  facet normal 0 0 1
    outer loop
      vertex 13.1602 38.644 1.5
      vertex 11.2551 40.048 1.5
      vertex 11.2551 38.644 1.5
    endloop
  endfacet
  facet normal 0 0 1
    outer loop
      vertex 4.92999 39.536 1.5
      vertex 2.92899 39.536 1.5
      vertex 4.92999 31.546 1.5
    endloop
  endfacet
  facet normal -0 0 1
    outer loop
      vertex 4.92999 31.546 1.5
      vertex 10.056 30 1.5
      vertex 10.056 31.546 1.5
    endloop
  endfacet
  facet normal 0 0 1
    outer loop
      vertex 4.92999 31.546 1.5
      vertex 2.92899 30 1.5
      vertex 10.056 30 1.5
    endloop
  endfacet
  facet normal 0 0 1
    outer loop
      vertex 2.92899 30 1.5
      vertex 4.92999 31.546 1.5
      vertex 2.92899 39.536 1.5
    endloop
  endfacet
  facet normal -0 0 1
    outer loop
      vertex 11.2551 37.36 1.5
      vertex 13.1602 30 1.5
      vertex 13.1602 37.36 1.5
    endloop
  endfacet
  facet normal 0 0 1
    outer loop
      vertex 13.1602 30 1.5
      vertex 11.2551 37.36 1.5
      vertex 11.2551 30 1.5
    endloop
  endfacet
  facet normal 0 0 1
    outer loop
      vertex 19.4368 36.4827 1.5
      vertex 21.7167 37.36 1.5
      vertex 19.7227 37.36 1.5
    endloop
  endfacet
  facet normal 0 0 1
    outer loop
      vertex 19.179 35.6902 1.5
      vertex 21.7167 37.36 1.5
      vertex 19.4368 36.4827 1.5
    endloop
  endfacet
  facet normal 0 0 1
    outer loop
      vertex 18.9494 34.9825 1.5
      vertex 21.7167 37.36 1.5
      vertex 19.179 35.6902 1.5
    endloop
  endfacet
  facet normal 0 0 1
    outer loop
      vertex 18.7479 34.3598 1.5
      vertex 21.7167 37.36 1.5
      vertex 18.9494 34.9825 1.5
    endloop
  endfacet
  facet normal 0 0 1
    outer loop
      vertex 21.7167 37.36 1.5
      vertex 18.7479 34.3598 1.5
      vertex 19.0107 30 1.5
    endloop
  endfacet
  facet normal -0 0 1
    outer loop
      vertex 18.5746 33.8219 1.5
      vertex 19.0107 30 1.5
      vertex 18.7479 34.3598 1.5
    endloop
  endfacet
  facet normal -0 0 1
    outer loop
      vertex 18.4294 33.3689 1.5
      vertex 19.0107 30 1.5
      vertex 18.5746 33.8219 1.5
    endloop
  endfacet
  facet normal -0 0 1
    outer loop
      vertex 18.3123 33.0007 1.5
      vertex 19.0107 30 1.5
      vertex 18.4294 33.3689 1.5
    endloop
  endfacet
  facet normal -0 0 1
    outer loop
      vertex 18.2234 32.7174 1.5
      vertex 19.0107 30 1.5
      vertex 18.3123 33.0007 1.5
    endloop
  endfacet
  facet normal -0 0 1
    outer loop
      vertex 18.1627 32.519 1.5
      vertex 19.0107 30 1.5
      vertex 18.2234 32.7174 1.5
    endloop
  endfacet
  facet normal -0 0 1
    outer loop
      vertex 18.1178 32.3684 1.5
      vertex 19.0107 30 1.5
      vertex 18.1627 32.519 1.5
    endloop
  endfacet
  facet normal -0 0 1
    outer loop
      vertex 18.0764 32.2283 1.5
      vertex 19.0107 30 1.5
      vertex 18.1178 32.3684 1.5
    endloop
  endfacet
  facet normal -0 0 1
    outer loop
      vertex 18.0385 32.0985 1.5
      vertex 19.0107 30 1.5
      vertex 18.0764 32.2283 1.5
    endloop
  endfacet
  facet normal -0 0 1
    outer loop
      vertex 18.0041 31.9792 1.5
      vertex 19.0107 30 1.5
      vertex 18.0385 32.0985 1.5
    endloop
  endfacet
  facet normal -0 0 1
    outer loop
      vertex 17.9732 31.8703 1.5
      vertex 19.0107 30 1.5
      vertex 18.0041 31.9792 1.5
    endloop
  endfacet
  facet normal -0 0 1
    outer loop
      vertex 17.9458 31.7719 1.5
      vertex 19.0107 30 1.5
      vertex 17.9732 31.8703 1.5
    endloop
  endfacet
  facet normal -0 0 1
    outer loop
      vertex 17.9219 31.6838 1.5
      vertex 19.0107 30 1.5
      vertex 17.9458 31.7719 1.5
    endloop
  endfacet
  facet normal -0 0 1
    outer loop
      vertex 17.9016 31.6062 1.5
      vertex 19.0107 30 1.5
      vertex 17.9219 31.6838 1.5
    endloop
  endfacet
  facet normal -0 0 1
    outer loop
      vertex 17.8847 31.539 1.5
      vertex 19.0107 30 1.5
      vertex 17.9016 31.6062 1.5
    endloop
  endfacet
  facet normal 0 0 1
    outer loop
      vertex 16.7327 30 1.5
      vertex 17.8037 31.829 1.5
      vertex 17.7296 32.0939 1.5
    endloop
  endfacet
  facet normal 0 0 1
    outer loop
      vertex 16.7327 30 1.5
      vertex 17.7296 32.0939 1.5
      vertex 17.6624 32.3334 1.5
    endloop
  endfacet
  facet normal 0 0 1
    outer loop
      vertex 16.7327 30 1.5
      vertex 17.6624 32.3334 1.5
      vertex 17.602 32.5478 1.5
    endloop
  endfacet
  facet normal 0 0 1
    outer loop
      vertex 16.7327 30 1.5
      vertex 17.602 32.5478 1.5
      vertex 17.5486 32.7369 1.5
    endloop
  endfacet
  facet normal 0 0 1
    outer loop
      vertex 16.7327 30 1.5
      vertex 17.5486 32.7369 1.5
      vertex 17.502 32.9008 1.5
    endloop
  endfacet
  facet normal 0 0 1
    outer loop
      vertex 16.7327 30 1.5
      vertex 17.502 32.9008 1.5
      vertex 17.4624 33.0394 1.5
    endloop
  endfacet
  facet normal 0 0 1
    outer loop
      vertex 16.7327 30 1.5
      vertex 17.4624 33.0394 1.5
      vertex 17.4296 33.1528 1.5
    endloop
  endfacet
  facet normal 0 0 1
    outer loop
      vertex 16.7327 30 1.5
      vertex 17.4296 33.1528 1.5
      vertex 17.4037 33.241 1.5
    endloop
  endfacet
  facet normal 0 0 1
    outer loop
      vertex 17.8847 31.539 1.5
      vertex 16.7327 30 1.5
      vertex 19.0107 30 1.5
    endloop
  endfacet
  facet normal 0 0 1
    outer loop
      vertex 17.8037 31.829 1.5
      vertex 16.7327 30 1.5
      vertex 17.8847 31.539 1.5
    endloop
  endfacet
  facet normal -0 0 1
    outer loop
      vertex 14.1077 37.36 1.5
      vertex 17.4037 33.241 1.5
      vertex 16.1217 37.36 1.5
    endloop
  endfacet
  facet normal 0 0 1
    outer loop
      vertex 17.4037 33.241 1.5
      vertex 14.1077 37.36 1.5
      vertex 16.7327 30 1.5
    endloop
  endfacet
  facet normal 0 1 -0
    outer loop
      vertex 13.1602 40.048 0
      vertex 11.2551 40.048 1.5
      vertex 13.1602 40.048 1.5
    endloop
  endfacet
  facet normal 0 1 0
    outer loop
      vertex 11.2551 40.048 1.5
      vertex 13.1602 40.048 0
      vertex 11.2551 40.048 0
    endloop
  endfacet
  facet normal -1 0 0
    outer loop
      vertex 11.2551 38.644 0
      vertex 11.2551 40.048 1.5
      vertex 11.2551 40.048 0
    endloop
  endfacet
  facet normal -1 -0 0
    outer loop
      vertex 11.2551 40.048 1.5
      vertex 11.2551 38.644 0
      vertex 11.2551 38.644 1.5
    endloop
  endfacet
  facet normal 0 -1 0
    outer loop
      vertex 11.2551 38.644 0
      vertex 13.1602 38.644 1.5
      vertex 11.2551 38.644 1.5
    endloop
  endfacet
  facet normal 0 -1 -0
    outer loop
      vertex 13.1602 38.644 1.5
      vertex 11.2551 38.644 0
      vertex 13.1602 38.644 0
    endloop
  endfacet
  facet normal 1 -0 0
    outer loop
      vertex 13.1602 38.644 1.5
      vertex 13.1602 40.048 0
      vertex 13.1602 40.048 1.5
    endloop
  endfacet
  facet normal 1 0 0
    outer loop
      vertex 13.1602 40.048 0
      vertex 13.1602 38.644 1.5
      vertex 13.1602 38.644 0
    endloop
  endfacet
  facet normal 0 1 -0
    outer loop
      vertex 10.056 31.546 0
      vertex 4.92999 31.546 1.5
      vertex 10.056 31.546 1.5
    endloop
  endfacet
  facet normal 0 1 0
    outer loop
      vertex 4.92999 31.546 1.5
      vertex 10.056 31.546 0
      vertex 4.92999 31.546 0
    endloop
  endfacet
  facet normal 1 -0 0
    outer loop
      vertex 4.92999 31.546 1.5
      vertex 4.92999 39.536 0
      vertex 4.92999 39.536 1.5
    endloop
  endfacet
  facet normal 1 0 0
    outer loop
      vertex 4.92999 39.536 0
      vertex 4.92999 31.546 1.5
      vertex 4.92999 31.546 0
    endloop
  endfacet
  facet normal 0 1 -0
    outer loop
      vertex 4.92999 39.536 0
      vertex 2.92899 39.536 1.5
      vertex 4.92999 39.536 1.5
    endloop
  endfacet
  facet normal 0 1 0
    outer loop
      vertex 2.92899 39.536 1.5
      vertex 4.92999 39.536 0
      vertex 2.92899 39.536 0
    endloop
  endfacet
  facet normal -1 0 0
    outer loop
      vertex 2.92899 30 0
      vertex 2.92899 39.536 1.5
      vertex 2.92899 39.536 0
    endloop
  endfacet
  facet normal -1 -0 0
    outer loop
      vertex 2.92899 39.536 1.5
      vertex 2.92899 30 0
      vertex 2.92899 30 1.5
    endloop
  endfacet
  facet normal 0 -1 0
    outer loop
      vertex 2.92899 30 0
      vertex 10.056 30 1.5
      vertex 2.92899 30 1.5
    endloop
  endfacet
  facet normal 0 -1 -0
    outer loop
      vertex 10.056 30 1.5
      vertex 2.92899 30 0
      vertex 10.056 30 0
    endloop
  endfacet
  facet normal 1 -0 0
    outer loop
      vertex 10.056 30 1.5
      vertex 10.056 31.546 0
      vertex 10.056 31.546 1.5
    endloop
  endfacet
  facet normal 1 0 0
    outer loop
      vertex 10.056 31.546 0
      vertex 10.056 30 1.5
      vertex 10.056 30 0
    endloop
  endfacet
  facet normal 0 1 -0
    outer loop
      vertex 13.1602 37.36 0
      vertex 11.2551 37.36 1.5
      vertex 13.1602 37.36 1.5
    endloop
  endfacet
  facet normal 0 1 0
    outer loop
      vertex 11.2551 37.36 1.5
      vertex 13.1602 37.36 0
      vertex 11.2551 37.36 0
    endloop
  endfacet
  facet normal -1 0 0
    outer loop
      vertex 11.2551 30 0
      vertex 11.2551 37.36 1.5
      vertex 11.2551 37.36 0
    endloop
  endfacet
  facet normal -1 -0 0
    outer loop
      vertex 11.2551 37.36 1.5
      vertex 11.2551 30 0
      vertex 11.2551 30 1.5
    endloop
  endfacet
  facet normal 0 -1 0
    outer loop
      vertex 11.2551 30 0
      vertex 13.1602 30 1.5
      vertex 11.2551 30 1.5
    endloop
  endfacet
  facet normal 0 -1 -0
    outer loop
      vertex 13.1602 30 1.5
      vertex 11.2551 30 0
      vertex 13.1602 30 0
    endloop
  endfacet
  facet normal 1 -0 0
    outer loop
      vertex 13.1602 30 1.5
      vertex 13.1602 37.36 0
      vertex 13.1602 37.36 1.5
    endloop
  endfacet
  facet normal 1 0 0
    outer loop
      vertex 13.1602 37.36 0
      vertex 13.1602 30 1.5
      vertex 13.1602 30 0
    endloop
  endfacet
  facet normal 0 1 -0
    outer loop
      vertex 21.7167 37.36 0
      vertex 19.7227 37.36 1.5
      vertex 21.7167 37.36 1.5
    endloop
  endfacet
  facet normal 0 1 0
    outer loop
      vertex 19.7227 37.36 1.5
      vertex 21.7167 37.36 0
      vertex 19.7227 37.36 0
    endloop
  endfacet
  facet normal -0.950786 0.309848 0
    outer loop
      vertex 19.4368 36.4827 0
      vertex 19.7227 37.36 1.5
      vertex 19.7227 37.36 0
    endloop
  endfacet
  facet normal -0.950786 0.309848 0
    outer loop
      vertex 19.7227 37.36 1.5
      vertex 19.4368 36.4827 0
      vertex 19.4368 36.4827 1.5
    endloop
  endfacet
  facet normal -0.95095 0.309344 0
    outer loop
      vertex 19.179 35.6902 0
      vertex 19.4368 36.4827 1.5
      vertex 19.4368 36.4827 0
    endloop
  endfacet
  facet normal -0.95095 0.309344 0
    outer loop
      vertex 19.4368 36.4827 1.5
      vertex 19.179 35.6902 0
      vertex 19.179 35.6902 1.5
    endloop
  endfacet
  facet normal -0.951193 0.308597 0
    outer loop
      vertex 18.9494 34.9825 0
      vertex 19.179 35.6902 1.5
      vertex 19.179 35.6902 0
    endloop
  endfacet
  facet normal -0.951193 0.308597 0
    outer loop
      vertex 19.179 35.6902 1.5
      vertex 18.9494 34.9825 0
      vertex 18.9494 34.9825 1.5
    endloop
  endfacet
  facet normal -0.951427 0.307873 0
    outer loop
      vertex 18.7479 34.3598 0
      vertex 18.9494 34.9825 1.5
      vertex 18.9494 34.9825 0
    endloop
  endfacet
  facet normal -0.951427 0.307873 0
    outer loop
      vertex 18.9494 34.9825 1.5
      vertex 18.7479 34.3598 0
      vertex 18.7479 34.3598 1.5
    endloop
  endfacet
  facet normal -0.95182 0.306656 0
    outer loop
      vertex 18.5746 33.8219 0
      vertex 18.7479 34.3598 1.5
      vertex 18.7479 34.3598 0
    endloop
  endfacet
  facet normal -0.95182 0.306656 0
    outer loop
      vertex 18.7479 34.3598 1.5
      vertex 18.5746 33.8219 0
      vertex 18.5746 33.8219 1.5
    endloop
  endfacet
  facet normal -0.952278 0.305233 0
    outer loop
      vertex 18.4294 33.3689 0
      vertex 18.5746 33.8219 1.5
      vertex 18.5746 33.8219 0
    endloop
  endfacet
  facet normal -0.952278 0.305233 0
    outer loop
      vertex 18.5746 33.8219 1.5
      vertex 18.4294 33.3689 0
      vertex 18.4294 33.3689 1.5
    endloop
  endfacet
  facet normal -0.952967 0.303075 0
    outer loop
      vertex 18.3123 33.0007 0
      vertex 18.4294 33.3689 1.5
      vertex 18.4294 33.3689 0
    endloop
  endfacet
  facet normal -0.952967 0.303075 0
    outer loop
      vertex 18.4294 33.3689 1.5
      vertex 18.3123 33.0007 0
      vertex 18.3123 33.0007 1.5
    endloop
  endfacet
  facet normal -0.954126 0.299406 0
    outer loop
      vertex 18.2234 32.7174 0
      vertex 18.3123 33.0007 1.5
      vertex 18.3123 33.0007 0
    endloop
  endfacet
  facet normal -0.954126 0.299406 0
    outer loop
      vertex 18.3123 33.0007 1.5
      vertex 18.2234 32.7174 0
      vertex 18.2234 32.7174 1.5
    endloop
  endfacet
  facet normal -0.956247 0.292561 0
    outer loop
      vertex 18.1627 32.519 0
      vertex 18.2234 32.7174 1.5
      vertex 18.2234 32.7174 0
    endloop
  endfacet
  facet normal -0.956247 0.292561 0
    outer loop
      vertex 18.2234 32.7174 1.5
      vertex 18.1627 32.519 0
      vertex 18.1627 32.519 1.5
    endloop
  endfacet
  facet normal -0.958315 0.285713 0
    outer loop
      vertex 18.1178 32.3684 0
      vertex 18.1627 32.519 1.5
      vertex 18.1627 32.519 0
    endloop
  endfacet
  facet normal -0.958315 0.285713 0
    outer loop
      vertex 18.1627 32.519 1.5
      vertex 18.1178 32.3684 0
      vertex 18.1178 32.3684 1.5
    endloop
  endfacet
  facet normal -0.959005 0.283389 0
    outer loop
      vertex 18.0764 32.2283 0
      vertex 18.1178 32.3684 1.5
      vertex 18.1178 32.3684 0
    endloop
  endfacet
  facet normal -0.959005 0.283389 0
    outer loop
      vertex 18.1178 32.3684 1.5
      vertex 18.0764 32.2283 0
      vertex 18.0764 32.2283 1.5
    endloop
  endfacet
  facet normal -0.959917 0.280284 0
    outer loop
      vertex 18.0385 32.0985 0
      vertex 18.0764 32.2283 1.5
      vertex 18.0764 32.2283 0
    endloop
  endfacet
  facet normal -0.959917 0.280284 0
    outer loop
      vertex 18.0764 32.2283 1.5
      vertex 18.0385 32.0985 0
      vertex 18.0385 32.0985 1.5
    endloop
  endfacet
  facet normal -0.960852 0.277061 0
    outer loop
      vertex 18.0041 31.9792 0
      vertex 18.0385 32.0985 1.5
      vertex 18.0385 32.0985 0
    endloop
  endfacet
  facet normal -0.960852 0.277061 0
    outer loop
      vertex 18.0385 32.0985 1.5
      vertex 18.0041 31.9792 0
      vertex 18.0041 31.9792 1.5
    endloop
  endfacet
  facet normal -0.962022 0.272971 0
    outer loop
      vertex 17.9732 31.8703 0
      vertex 18.0041 31.9792 1.5
      vertex 18.0041 31.9792 0
    endloop
  endfacet
  facet normal -0.962022 0.272971 0
    outer loop
      vertex 18.0041 31.9792 1.5
      vertex 17.9732 31.8703 0
      vertex 17.9732 31.8703 1.5
    endloop
  endfacet
  facet normal -0.963349 0.26825 0
    outer loop
      vertex 17.9458 31.7719 0
      vertex 17.9732 31.8703 1.5
      vertex 17.9732 31.8703 0
    endloop
  endfacet
  facet normal -0.963349 0.26825 0
    outer loop
      vertex 17.9732 31.8703 1.5
      vertex 17.9458 31.7719 0
      vertex 17.9458 31.7719 1.5
    endloop
  endfacet
  facet normal -0.965117 0.261819 0
    outer loop
      vertex 17.9219 31.6838 0
      vertex 17.9458 31.7719 1.5
      vertex 17.9458 31.7719 0
    endloop
  endfacet
  facet normal -0.965117 0.261819 0
    outer loop
      vertex 17.9458 31.7719 1.5
      vertex 17.9219 31.6838 0
      vertex 17.9219 31.6838 1.5
    endloop
  endfacet
  facet normal -0.967445 0.253082 0
    outer loop
      vertex 17.9016 31.6062 0
      vertex 17.9219 31.6838 1.5
      vertex 17.9219 31.6838 0
    endloop
  endfacet
  facet normal -0.967445 0.253082 0
    outer loop
      vertex 17.9219 31.6838 1.5
      vertex 17.9016 31.6062 0
      vertex 17.9016 31.6062 1.5
    endloop
  endfacet
  facet normal -0.969802 0.243894 0
    outer loop
      vertex 17.8847 31.539 0
      vertex 17.9016 31.6062 1.5
      vertex 17.9016 31.6062 0
    endloop
  endfacet
  facet normal -0.969802 0.243894 0
    outer loop
      vertex 17.9016 31.6062 1.5
      vertex 17.8847 31.539 0
      vertex 17.8847 31.539 1.5
    endloop
  endfacet
  facet normal 0.963136 0.269014 0
    outer loop
      vertex 17.8847 31.539 1.5
      vertex 17.8037 31.829 0
      vertex 17.8037 31.829 1.5
    endloop
  endfacet
  facet normal 0.963136 0.269014 0
    outer loop
      vertex 17.8037 31.829 0
      vertex 17.8847 31.539 1.5
      vertex 17.8847 31.539 0
    endloop
  endfacet
  facet normal 0.963032 0.269387 0
    outer loop
      vertex 17.8037 31.829 1.5
      vertex 17.7296 32.0939 0
      vertex 17.7296 32.0939 1.5
    endloop
  endfacet
  facet normal 0.963032 0.269387 0
    outer loop
      vertex 17.7296 32.0939 0
      vertex 17.8037 31.829 1.5
      vertex 17.8037 31.829 0
    endloop
  endfacet
  facet normal 0.962818 0.270152 0
    outer loop
      vertex 17.7296 32.0939 1.5
      vertex 17.6624 32.3334 0
      vertex 17.6624 32.3334 1.5
    endloop
  endfacet
  facet normal 0.962818 0.270152 0
    outer loop
      vertex 17.6624 32.3334 0
      vertex 17.7296 32.0939 1.5
      vertex 17.7296 32.0939 0
    endloop
  endfacet
  facet normal 0.962534 0.271162 0
    outer loop
      vertex 17.6624 32.3334 1.5
      vertex 17.602 32.5478 0
      vertex 17.602 32.5478 1.5
    endloop
  endfacet
  facet normal 0.962534 0.271162 0
    outer loop
      vertex 17.602 32.5478 0
      vertex 17.6624 32.3334 1.5
      vertex 17.6624 32.3334 0
    endloop
  endfacet
  facet normal 0.962364 0.271762 0
    outer loop
      vertex 17.602 32.5478 1.5
      vertex 17.5486 32.7369 0
      vertex 17.5486 32.7369 1.5
    endloop
  endfacet
  facet normal 0.962364 0.271762 0
    outer loop
      vertex 17.5486 32.7369 0
      vertex 17.602 32.5478 1.5
      vertex 17.602 32.5478 0
    endloop
  endfacet
  facet normal 0.961877 0.273481 0
    outer loop
      vertex 17.5486 32.7369 1.5
      vertex 17.502 32.9008 0
      vertex 17.502 32.9008 1.5
    endloop
  endfacet
  facet normal 0.961877 0.273481 0
    outer loop
      vertex 17.502 32.9008 0
      vertex 17.5486 32.7369 1.5
      vertex 17.5486 32.7369 0
    endloop
  endfacet
  facet normal 0.961524 0.274721 0
    outer loop
      vertex 17.502 32.9008 1.5
      vertex 17.4624 33.0394 0
      vertex 17.4624 33.0394 1.5
    endloop
  endfacet
  facet normal 0.961524 0.274721 0
    outer loop
      vertex 17.4624 33.0394 0
      vertex 17.502 32.9008 1.5
      vertex 17.502 32.9008 0
    endloop
  endfacet
  facet normal 0.960624 0.277852 0
    outer loop
      vertex 17.4624 33.0394 1.5
      vertex 17.4296 33.1528 0
      vertex 17.4296 33.1528 1.5
    endloop
  endfacet
  facet normal 0.960624 0.277852 0
    outer loop
      vertex 17.4296 33.1528 0
      vertex 17.4624 33.0394 1.5
      vertex 17.4624 33.0394 0
    endloop
  endfacet
  facet normal 0.959487 0.281754 0
    outer loop
      vertex 17.4296 33.1528 1.5
      vertex 17.4037 33.241 0
      vertex 17.4037 33.241 1.5
    endloop
  endfacet
  facet normal 0.959487 0.281754 0
    outer loop
      vertex 17.4037 33.241 0
      vertex 17.4296 33.1528 1.5
      vertex 17.4296 33.1528 0
    endloop
  endfacet
  facet normal 0.954822 0.297179 0
    outer loop
      vertex 17.4037 33.241 1.5
      vertex 16.1217 37.36 0
      vertex 16.1217 37.36 1.5
    endloop
  endfacet
  facet normal 0.954822 0.297179 0
    outer loop
      vertex 16.1217 37.36 0
      vertex 17.4037 33.241 1.5
      vertex 17.4037 33.241 0
    endloop
  endfacet
  facet normal 0 1 -0
    outer loop
      vertex 16.1217 37.36 0
      vertex 14.1077 37.36 1.5
      vertex 16.1217 37.36 1.5
    endloop
  endfacet
  facet normal 0 1 0
    outer loop
      vertex 14.1077 37.36 1.5
      vertex 16.1217 37.36 0
      vertex 14.1077 37.36 0
    endloop
  endfacet
  facet normal -0.941887 -0.335931 0
    outer loop
      vertex 16.7327 30 0
      vertex 14.1077 37.36 1.5
      vertex 14.1077 37.36 0
    endloop
  endfacet
  facet normal -0.941887 -0.335931 0
    outer loop
      vertex 14.1077 37.36 1.5
      vertex 16.7327 30 0
      vertex 16.7327 30 1.5
    endloop
  endfacet
  facet normal 0 -1 0
    outer loop
      vertex 16.7327 30 0
      vertex 19.0107 30 1.5
      vertex 16.7327 30 1.5
    endloop
  endfacet
  facet normal 0 -1 -0
    outer loop
      vertex 19.0107 30 1.5
      vertex 16.7327 30 0
      vertex 19.0107 30 0
    endloop
  endfacet
  facet normal 0.938574 -0.345079 0
    outer loop
      vertex 19.0107 30 1.5
      vertex 21.7167 37.36 0
      vertex 21.7167 37.36 1.5
    endloop
  endfacet
  facet normal 0.938574 -0.345079 0
    outer loop
      vertex 21.7167 37.36 0
      vertex 19.0107 30 1.5
      vertex 19.0107 30 0
    endloop
  endfacet
endsolid OpenSCAD_Model
