; Generated with MatterSlice 2.20.4
; filamentDiameter = 3
; extrusionWidth = 0.5
; firstLayerExtrusionWidth = 0.5
; layerThickness = 0.4
; firstLayerThickness = 0.3
; automatic settings before start_gcode
G21 ; set units to millimeters
M107 ; fan off
M140 S70 ; start heating the bed
M104 T0 S200 ; start heating T0
T0 ; set the active extruder to 0
; settings from start_gcode
G28 ; home all axes
G1 Z5 F5000
; automatic settings after start_gcode
M190 S70 ; wait for bed temperature to be reached
M109 T0 S200 ; Finish heating T0
T0 ; set the active extruder to 0
G90 ; use absolute coordinates
G92 E0 ; reset the expected extruder position
M82 ; use absolute distance for extrusion
; Layer count: 6
; Layer Change GCode
; LAYER:0
; LAYER_HEIGHT:0.3
; TYPE:FILL
M400
M107
G1 X0 Y0 Z0.3 F7800
G1 X65.47 Y87.82
G1 X66.51 Y92.18
; TYPE:SKIRT
G1 F1800
G1 X68.29 Y90.9 E0.046 F1080
G1 X70.1 Y90.28 E0.087
G1 X91.04 Y86.13 E0.54
G1 X99.41 Y86.12 E0.718
G1 X109.64 Y87.26 E0.936
G1 X125.87 Y89.23 E1.283
G1 X130.02 Y89.88 E1.372
G1 X132.1 Y90.67 E1.419
G1 X134 Y92.33 E1.473
G1 X135.05 Y93.97 E1.514
G1 X135.67 Y95.72 E1.554
G1 X135.83 Y97.82 E1.598
G1 X135.8 Y103.1 E1.71
G1 X135.19 Y105.43 E1.761
G1 X133.94 Y107.29 E1.809
G1 X132.3 Y108.64 E1.854
G1 X130.9 Y109.25 E1.887
G1 X129.02 Y109.87 E1.929
G1 X126.38 Y110.29 E1.985
G1 X109.65 Y112.53 E2.343
G1 X99.86 Y113.77 E2.553
G1 X98.78 Y113.87 E2.576
G1 X91.46 Y113.88 E2.731
G1 X70.79 Y110.17 E3.177
G1 X69.09 Y109.7 E3.214
G1 X67.49 Y108.81 E3.253
G1 X65.65 Y107.06 E3.307
G1 X64.63 Y104.96 E3.357
G1 X64.28 Y103.11 E3.397
G1 X64.12 Y99.05 E3.483
G1 X64.41 Y95.96 E3.549
G1 X65.19 Y93.85 E3.596
G1 X66.51 Y92.18 E3.642
G1 E2.642 F1800
G1 X70.74 Y96.58 F7800
G1 X82.28 Y94.57
G1 X90.48 Y93.51
G1 X91.03 Y92.83
; TYPE:WALL-OUTER
G1 E3.642 F1800
G1 X91.22 Y92.44 E3.651 F1080
G1 X91.33 Y91.8 E3.665
G1 X91.43 Y91.69 E3.668
G1 X91.6 Y91.63 E3.672
G1 X99.06 Y91.62 E3.83
G1 X99.29 Y91.73 E3.835
G1 X99.42 Y92.07 E3.843
G1 X99.51 Y92.53 E3.853
G1 X99.82 Y92.8 E3.862
G1 X109.02 Y92.73 E4.057
G1 X125.11 Y94.67 E4.401
G1 X128.6 Y95.22 E4.476
G1 X129.22 Y95.46 E4.49
G1 X129.79 Y95.96 E4.506
G1 X130.08 Y96.4 E4.517
G1 X130.24 Y96.86 E4.527
G1 X130.33 Y98 E4.552
G1 X130.31 Y102.38 E4.645
G1 X130.11 Y103.13 E4.661
G1 X129.82 Y103.55 E4.672
G1 X129.39 Y103.91 E4.684
G1 X128.93 Y104.11 E4.694
G1 X127.72 Y104.51 E4.721
G1 X125.59 Y104.85 E4.767
G1 X108.96 Y107.08 E5.123
G1 X100.25 Y107.07 E5.308
G1 X99.83 Y107.18 E5.317
G1 X99.48 Y108.08 E5.338
G1 X99.19 Y108.31 E5.346
G1 X98.51 Y108.37 E5.36
G1 X91.96 Y108.38 E5.499
G1 X91.54 Y108.27 E5.508
G1 X91.37 Y108.09 E5.514
G1 X91.17 Y107.49 E5.527
G1 X90.82 Y107.24 E5.536
G1 X77.37 Y105.56 E5.824
G1 X72 Y104.8 E5.939
G1 X71.18 Y104.57 E5.957
G1 X70.78 Y104.35 E5.967
G1 X70.16 Y103.76 E5.985
G1 X69.9 Y103.22 E5.997
G1 X69.76 Y102.48 E6.013
G1 X69.63 Y99.19 E6.083
G1 X69.81 Y97.2 E6.126
G1 X70.04 Y96.58 E6.14
G1 X70.35 Y96.19 E6.15
G1 X70.84 Y95.84 E6.163
G1 X71.53 Y95.61 E6.178
G1 X76.96 Y94.75 E6.295
G1 X87.49 Y93.36 E6.521
G1 X90.99 Y92.84 E6.596
G1 X91.03 Y92.83
G1 X91.22 Y92.44
G1 X91.33 Y91.8
G1 X91.43 Y91.69
G1 X91.6 Y91.63
G1 X93.19 Y91.63
G1 X91.37 Y93.29 F7800
; TYPE:WALL-INNER
G1 X91.7 Y92.6 E6.612 F1080
G1 X91.78 Y92.13 E6.622
G1 X98.91 Y92.12 E6.773
G1 X98.94 Y92.21 E6.775
G1 X99.06 Y92.79 E6.788
G1 X99.64 Y93.3 E6.804
G1 X108.99 Y93.23 E7.002
G1 X125.05 Y95.17 E7.346
G1 X128.48 Y95.71 E7.419
G1 X128.96 Y95.89 E7.43
G1 X129.4 Y96.28 E7.443
G1 X129.63 Y96.63 E7.451
G1 X129.74 Y96.96 E7.459
G1 X129.83 Y98.03 E7.482
G1 X129.81 Y102.32 E7.573
G1 X129.65 Y102.92 E7.586
G1 X129.45 Y103.21 E7.593
G1 X129.13 Y103.48 E7.602
G1 X128.75 Y103.64 E7.611
G1 X127.6 Y104.02 E7.637
G1 X125.5 Y104.35 E7.682
G1 X108.93 Y106.58 E8.037
G1 X100.19 Y106.57 E8.222
G1 X99.45 Y106.76 E8.238
G1 X99.06 Y107.77 E8.261
G1 X98.99 Y107.82 E8.263
G1 X98.49 Y107.87 E8.274
G1 X92.02 Y107.88 E8.411
G1 X91.81 Y107.83 E8.416
G1 X91.59 Y107.18 E8.43
G1 X91.01 Y106.76 E8.445
G1 X77.44 Y105.06 E8.735
G1 X72.1 Y104.31 E8.85
G1 X71.37 Y104.11 E8.866
G1 X71.08 Y103.94 E8.873
G1 X70.57 Y103.46 E8.888
G1 X70.38 Y103.06 E8.897
G1 X70.26 Y102.43 E8.911
G1 X70.13 Y99.21 E8.979
G1 X70.31 Y97.31 E9.02
G1 X70.48 Y96.83 E9.031
G1 X70.7 Y96.56 E9.038
G1 X71.07 Y96.29 E9.048
G1 X71.65 Y96.09 E9.061
G1 X77.03 Y95.25 E9.176
G1 X87.56 Y93.86 E9.402
G1 X91.32 Y93.3 E9.483
G1 X91.37 Y93.29
G1 E8.483 F1800
G1 X87.07 Y94.2 F7800
G1 X85.78 Y97.1
G1 X85.97 Y103.78
G1 X87.23 Y105.84
G1 X92.91 Y106.94
; TYPE:WALL-OUTER
G1 E9.483 F1800
G1 X97.42 Y107 E9.578 F1080
G1 X98.11 Y106.89 E9.593
G1 X98.31 Y106.49 E9.602
G1 X98.35 Y105.99 E9.613
G1 X98.48 Y105.78 E9.618
G1 X98.62 Y105.73 E9.622
G1 X111.74 Y105.68 E9.9
G1 X112.49 Y105.44 E9.917
G1 X112.94 Y104.34 E9.942
G1 X113.34 Y102.94 E9.973
G1 X113.59 Y101.46 E10.005
G1 X113.67 Y99.71 E10.042
G1 X113.54 Y98.12 E10.076
G1 X113.19 Y96.44 E10.112
G1 X112.78 Y95.27 E10.138
G1 X112.48 Y94.76 E10.151
G1 X111.86 Y94.23 E10.168
G1 X111.21 Y94.15 E10.182
G1 X98.58 Y94.14 E10.45
G1 X98.24 Y94 E10.458
G1 X98 Y93.58 E10.468
G1 X97.89 Y93.23 E10.476
G1 X97.72 Y93.05 E10.481
G1 X92.87 Y93.11 E10.584
G1 X92.57 Y93.34 E10.592
G1 X92.43 Y94.06 E10.608
G1 X92.29 Y94.19 E10.612
G1 X90.98 Y94.32 E10.64
G1 X88.08 Y94.36 E10.702
G1 X87.65 Y94.57 E10.712
G1 X87.11 Y95.33 E10.731
G1 X86.65 Y97.04 E10.769
G1 X86.44 Y98.28 E10.796
G1 X86.38 Y100.31 E10.839
G1 X86.62 Y102.68 E10.889
G1 X87.07 Y104.26 E10.924
G1 X87.52 Y105.4 E10.95
G1 X87.89 Y105.71 E10.96
G1 X89.19 Y105.79 E10.988
G1 X92.28 Y105.81 E11.054
G1 X92.5 Y105.88 E11.059
G1 X92.62 Y106.09 E11.064
G1 X92.66 Y106.37 E11.07
G1 X92.78 Y106.56 E11.075
G1 X92.89 Y106.89 E11.082
G1 X92.91 Y106.94
G1 X95.91 Y106.98
G1 X92.33 Y106.78 F7800
; TYPE:WALL-INNER
G1 X92.55 Y107.43 E11.097 F1080
G1 X97.45 Y107.51 E11.201
G1 X98.44 Y107.34 E11.222
G1 X98.8 Y106.63 E11.239
G1 X98.83 Y106.23 E11.247
G1 X111.82 Y106.18 E11.523
G1 X112.86 Y105.85 E11.546
G1 X113.41 Y104.51 E11.577
G1 X113.82 Y103.05 E11.609
G1 X114.09 Y101.51 E11.642
G1 X114.17 Y99.7 E11.681
G1 X114.04 Y98.05 E11.716
G1 X113.67 Y96.31 E11.754
G1 X113.24 Y95.05 E11.782
G1 X112.87 Y94.43 E11.797
G1 X112.07 Y93.75 E11.819
G1 X111.23 Y93.65 E11.837
G1 X98.68 Y93.64 E12.104
G1 X98.59 Y93.6 E12.106
G1 X98.46 Y93.38 E12.111
G1 X98.33 Y92.97 E12.12
G1 X97.93 Y92.55 E12.133
G1 X92.7 Y92.61 E12.244
G1 X92.11 Y93.05 E12.259
G1 X91.99 Y93.72 E12.274
G1 X90.95 Y93.82 E12.296
G1 X87.96 Y93.86 E12.359
G1 X87.32 Y94.18 E12.374
G1 X86.65 Y95.11 E12.399
G1 X86.16 Y96.94 E12.439
G1 X85.94 Y98.23 E12.467
G1 X85.88 Y100.33 E12.511
G1 X86.13 Y102.77 E12.563
G1 X86.6 Y104.42 E12.6
G1 X87.1 Y105.71 E12.629
G1 X87.69 Y106.2 E12.645
G1 X89.17 Y106.29 E12.677
G1 X92.14 Y106.31 E12.74
G1 X92.18 Y106.56 E12.745
G1 X92.3 Y106.74 E12.75
G1 X92.33 Y106.78
G1 X92.14 Y106.97 F7800
G1 X86.79 Y105.49
G1 X84.71 Y104.06
; TYPE:WALL-OUTER
G1 X84.85 Y103.59 E12.76 F1080
G1 X84.77 Y102.37 E12.786
G1 X84.66 Y101.49 E12.805
G1 X84.62 Y99.16 E12.855
G1 X84.79 Y96.75 E12.906
G1 X84.69 Y96.08 E12.92
G1 X84.2 Y95.6 E12.935
G1 X83.6 Y95.42 E12.948
G1 X83.06 Y95.38 E12.959
G1 X81.83 Y95.51 E12.986
G1 X72.1 Y97.08 E13.195
G1 X71.23 Y97.43 E13.215
G1 X71.04 Y97.85 E13.225
G1 X71.08 Y102.47 E13.323
G1 X71.57 Y103.13 E13.34
G1 X72.1 Y103.44 E13.353
G1 X78.42 Y104.27 E13.489
G1 X81.8 Y104.65 E13.561
G1 X83.4 Y104.62 E13.595
G1 X83.88 Y104.56 E13.605
G1 X84.67 Y104.08 E13.624
G1 X84.71 Y104.06
G1 X84.85 Y103.59
G1 X84.77 Y102.37
G1 X84.66 Y101.49
G1 X84.65 Y101.09
G1 X85.13 Y104.39 F7800
; TYPE:WALL-INNER
G1 X85.35 Y103.65 E13.641 F1080
G1 X85.27 Y102.33 E13.669
G1 X85.16 Y101.45 E13.688
G1 X85.12 Y99.18 E13.736
G1 X85.3 Y96.73 E13.788
G1 X85.16 Y95.84 E13.807
G1 X84.46 Y95.16 E13.828
G1 X83.69 Y94.92 E13.845
G1 X83.06 Y94.87 E13.858
G1 X81.77 Y95.02 E13.886
G1 X71.97 Y96.6 E14.097
G1 X70.85 Y97.04 E14.122
G1 X70.54 Y97.74 E14.138
G1 X70.58 Y102.63 E14.242
G1 X71.23 Y103.52 E14.265
G1 X71.94 Y103.93 E14.283
G1 X78.36 Y104.77 E14.42
G1 X81.78 Y105.15 E14.493
G1 X83.44 Y105.12 E14.528
G1 X84.05 Y105.04 E14.541
G1 X85.09 Y104.41 E14.567
G1 X85.13 Y104.39
G1 X85.86 Y103.71 F7800
G1 X85.56 Y104.71 E14.59 F1080
G1 X84.38 Y105.43 E14.619
G1 X86.56 Y105.7 E14.665
G1 X86.12 Y104.57 E14.691
G1 X85.87 Y103.7 E14.71
G1 X85.87 Y103.71 F7800
G1 X85.85 Y103.62 E14.712 F1080
G1 E13.712 F1800
G1 X87.23 Y105.84 F7800
G1 X92.17 Y106.7
G1 X93.9 Y107.44
G1 X98.32 Y107.04
G1 X101.76 Y106.32
G1 X111.7 Y106
G1 X113.45 Y105.01
G1 X114.42 Y99.7
G1 X114.38 Y97.03
G1 X115.17 Y95.89
; TYPE:WALL-OUTER
G1 E14.712 F1800
G1 X115.15 Y96.73 E14.73 F1080
G1 X115.48 Y99.44 E14.788
G1 X115.44 Y100.88 E14.818
G1 X115.21 Y103.27 E14.869
G1 X115.39 Y103.84 E14.882
G1 X115.75 Y104.2 E14.893
G1 X116.12 Y104.33 E14.901
G1 X117.87 Y104.36 E14.938
G1 X123.42 Y103.7 E15.057
G1 X127.88 Y103.03 E15.152
G1 X128.36 Y102.78 E15.164
G1 X128.73 Y102.32 E15.176
G1 X128.86 Y101.69 E15.19
G1 X128.83 Y97.32 E15.283
G1 X128.46 Y97.01 E15.293
G1 X127.41 Y96.53 E15.318
G1 X125.69 Y96.27 E15.355
G1 X117.94 Y95.43 E15.52
G1 X116.4 Y95.38 E15.553
G1 X115.51 Y95.51 E15.572
G1 X115.2 Y95.86 E15.582
G1 X115.17 Y95.89
G1 X115.15 Y96.73
G1 X115.41 Y98.88
G1 X114.67 Y95.7 F7800
; TYPE:WALL-INNER
G1 X114.65 Y96.76 E15.604 F1080
G1 X114.98 Y99.47 E15.662
G1 X114.94 Y100.86 E15.692
G1 X114.7 Y103.32 E15.744
G1 X114.95 Y104.12 E15.762
G1 X115.48 Y104.63 E15.778
G1 X116.03 Y104.83 E15.79
G1 X117.9 Y104.86 E15.829
G1 X123.49 Y104.19 E15.949
G1 X128.04 Y103.51 E16.047
G1 X128.68 Y103.17 E16.062
G1 X129.2 Y102.55 E16.079
G1 X129.36 Y101.74 E16.097
G1 X129.33 Y97.09 E16.195
G1 X128.73 Y96.58 E16.212
G1 X127.56 Y96.05 E16.239
G1 X125.75 Y95.78 E16.278
G1 X117.97 Y94.93 E16.444
G1 X116.37 Y94.88 E16.478
G1 X115.26 Y95.04 E16.502
G1 X114.7 Y95.66 E16.52
G1 X114.67 Y95.7
G1 X114.17 Y95.5 F7800
G1 X115.01 Y94.57 E16.546 F1080
G1 X115.02 Y94.52 F7800
G1 X115.42 Y94.51 E16.555 F1080
G1 X115.02 Y94.46 F7800
G1 X113.35 Y94.26 E16.591 F1080
G1 X113.69 Y94.84 E16.605
G1 X113.95 Y95.58 E16.622
G1 X114.06 Y95.54 F7800
G1 X114.15 Y96.18 E16.635 F1080
G1 X114.51 Y104.39 F7800
G1 X115.22 Y105.07 E16.656 F1080
G1 X115.23 Y105.15 F7800
G1 X115.55 Y105.19 E16.663 F1080
G1 X115.24 Y105.23 F7800
G1 X113.57 Y105.45 E16.699 F1080
G1 X113.89 Y104.67 E16.717
G1 X114.22 Y103.48 E16.743
G1 X114.51 Y104.39 E16.763
G1 E15.763 F1800
G1 X111.7 Y106 F7800
G1 X101.16 Y106.41
G1 X98.34 Y106.87
G1 X96.53 Y107.49
G1 X92.53 Y107.25
G1 X91.09 Y106.54
G1 X87.16 Y105.82
G1 X85.75 Y102.63
G1 X85.6 Y96.99
G1 X86.46 Y94.51
G1 E16.763 F1800
G1 X86.17 Y94.81 E16.771 F1080
G1 X85.89 Y95.66 E16.788
G1 X85.77 Y96.49 E16.806
G1 X85.63 Y95.59 F7800
G1 X84.74 Y94.74 E16.832 F1080
G1 X86.14 Y94.55 E16.862
G1 X85.74 Y96.77 F7800
; TYPE:FILL
G1 X85.73 Y96.87 E16.864 F1080
G1 X85.56 Y98.2 E16.878
G1 X85.51 Y99.19 E16.888
G1 X85.51 Y100.34 E16.9
G1 X85.57 Y101.41 E16.915
G1 X85.71 Y102.83 E16.935
G1 X87.23 Y105.84 F7800
G1 X91.73 Y106.74
G1 X91.86 Y106.79 E16.937 F1080
G1 X91.79 Y106.74 F7800
G1 X91.94 Y106.97 E16.94 F1080
G1 X92.18 Y107.58 E16.948
G1 Y107.39 F7800
G1 X98.76 Y107.53
G1 X99.11 Y106.73 E16.954 F1080
G1 X99.15 Y106.62 F7800
G1 X99.29 Y106.5 E16.955 F1080
G1 X99.16 Y106.48 E16.956
G1 Y106.51 F7800
G1 X99.4 Y106.5 E16.962 F1080
G1 X99.26 Y106.52 E16.962
G1 E15.962 F1800
G1 X96.53 Y107.49 F7800
G1 X92.53 Y107.25
G1 X91.09 Y106.54
G1 X87.16 Y105.82
G1 X85.75 Y102.63
G1 X85.99 Y95.89
G1 X87.07 Y94.2
G1 X91.78 Y93.19
G1 X93.73 Y92.22
G1 X98.19 Y92.71
G1 X99.19 Y93.24
G1 E16.962 F1800
G1 X98.83 Y93.16 E16.969 F1080
G1 X98.79 F7800
G1 X98.71 Y92.89 E16.973 F1080
G1 X98.64 Y92.6 E16.976
G1 X98.55 Y92.6 F7800
G1 X98.29 Y92.45 E16.983 F1080
G1 X98.56 Y92.52 E16.988
G1 X92.1 Y92.53 F7800
G1 X91.84 Y92.89 E16.99 F1080
G1 X91.68 Y93.45 E16.992
G1 Y93.26 F7800
G1 X84.01 Y94.57
G1 X71.73 Y96.38
G1 X71.21 Y96.57 E16.994 F1080
G1 X91.83 Y93.1 F7800
G1 X94.51 Y92.21
G1 X98.18 Y92.74
G1 X100.63 Y93.36
G1 X111.19 Y93.65
G1 X113.12 Y94.5
G1 X114.16 Y96.25
G1 X114.22 Y96.81 E17.003 F1080
G1 X114.41 Y97.99 E17.016
G1 X114.56 Y99.49 E17.033
G1 X114.57 Y99.7 E17.035
G1 X114.53 Y100.83 E17.05
G1 X114.48 Y101.55 E17.059
G1 X114.27 Y103.12 E17.078
G1 X114.24 Y103.29 E17.08
G1 X114.67 Y95.24 F7800
G1 X116.37 Y94.5
G1 X118 Y94.63 E17.087 F1080
G1 X128.78 Y96.21 F7800
G1 X128.92 Y96.32 E17.088 F1080
G1 X129.38 Y96.76 E17.09
; Layer Change GCode
; LAYER:1
; LAYER_HEIGHT:0.4
; TYPE:FILL
M400
M106 S211
G1 X129.19 Z0.7 F7800
G1 X126.46 Y95.7
G1 X115.42 Y94.51
; TYPE:WALL-INNER
G1 X115.02 Y94.52 E17.101 F1800
G1 X115.02 Y94.46 F7800
G1 X113.35 Y94.26 E17.149 F1800
G1 X113.69 Y94.84 E17.168
G1 X113.95 Y95.58 E17.19
G1 X114.06 Y95.54 F7800
G1 X114.15 Y96.18 E17.208 F1800
G1 X114.17 Y95.5 F7800
G1 X115.01 Y94.57 E17.244 F1800
G1 X115.26 Y95.04 F7800
G1 X114.67 Y95.7 E17.269 F1800
G1 X114.65 Y96.76 E17.299
G1 X114.98 Y99.47 E17.376
G1 X114.94 Y100.86 E17.416
G1 X114.7 Y103.32 E17.486
G1 X114.95 Y104.12 E17.509
G1 X115.48 Y104.63 E17.53
G1 X116.03 Y104.83 E17.547
G1 X117.9 Y104.86 E17.599
G1 X120.7 Y104.53 E17.679
G1 X123.49 Y104.19 E17.759
G1 X128.04 Y103.51 E17.889
G1 X128.68 Y103.17 E17.909
G1 X129.2 Y102.55 E17.932
G1 X129.36 Y101.74 E17.956
G1 X129.33 Y97.09 E18.087
G1 X128.73 Y96.58 E18.11
G1 X127.56 Y96.05 E18.146
G1 X125.75 Y95.78 E18.198
G1 X121.86 Y95.36 E18.309
G1 X117.97 Y94.93 E18.419
G1 X116.37 Y94.88 E18.464
G1 X115.31 Y95.03 E18.495
G1 X115.26 Y95.04
G1 X115.51 Y95.51 F7800
; TYPE:WALL-OUTER
G1 X115.17 Y95.89 E18.509 F1260
G1 X115.15 Y96.73 E18.533
G1 X115.48 Y99.44 E18.61
G1 X115.44 Y100.88 E18.651
G1 X115.21 Y103.27 E18.719
G1 X115.39 Y103.84 E18.736
G1 X115.75 Y104.2 E18.75
G1 X116.12 Y104.33 E18.762
G1 X117.87 Y104.36 E18.811
G1 X120.65 Y104.03 E18.89
G1 X123.42 Y103.7 E18.969
G1 X127.88 Y103.03 E19.097
G1 X128.36 Y102.78 E19.112
G1 X128.73 Y102.32 E19.129
G1 X128.86 Y101.69 E19.147
G1 X128.83 Y97.32 E19.27
G1 X128.46 Y97.01 E19.284
G1 X127.41 Y96.53 E19.317
G1 X125.69 Y96.27 E19.366
G1 X121.82 Y95.85 E19.477
G1 X117.94 Y95.43 E19.587
G1 X116.4 Y95.38 E19.63
G1 X115.56 Y95.5 E19.654
G1 X115.51 Y95.51
G1 X115.17 Y95.89
G1 X115.15 Y96.73
G1 X115.35 Y98.36
G1 X115.42 Y94.51 F7800
G1 E18.654 F1800
G1 X108.45 Y93.48 F7800
G1 X98.58 Y93.17
G1 X96.06 Y92.38
G1 X92.2 Y92.61
G1 X90.54 Y93.61
G1 X87.07 Y94.2
G1 X85.78 Y97.1
G1 X85.67 Y102.61
G1 X86.56 Y105.7
G1 X86.12 Y104.57
; TYPE:WALL-INNER
G1 E19.654 F1800
G1 X86.56 Y105.7 E19.688
G1 X84.38 Y105.43 E19.751
G1 X85.56 Y104.71 E19.79
G1 X85.86 Y103.71 E19.819
G1 X85.87 Y103.71 F7800
G1 X85.86 Y103.66 E19.822 F1800
G1 X86.12 Y104.57 E19.848
G1 X86.6 Y104.42 F7800
G1 X87.1 Y105.71 E19.888 F1800
G1 X87.69 Y106.2 E19.909
G1 X89.17 Y106.29 E19.951
G1 X92.14 Y106.31 E20.035
G1 X92.18 Y106.56 E20.042
G1 X92.33 Y106.78 E20.05
G1 X92.55 Y107.43 E20.07
G1 X97.45 Y107.51 E20.209
G1 X98.44 Y107.34 E20.237
G1 X98.8 Y106.63 E20.259
G1 X98.83 Y106.23 E20.27
G1 X103.16 Y106.21 E20.393
G1 X107.49 Y106.2 E20.515
G1 X111.82 Y106.18 E20.638
G1 X112.86 Y105.85 E20.669
G1 X113.41 Y104.51 E20.71
G1 X113.82 Y103.05 E20.753
G1 X114.09 Y101.51 E20.797
G1 X114.17 Y99.7 E20.848
G1 X114.04 Y98.05 E20.895
G1 X113.67 Y96.31 E20.946
G1 X113.24 Y95.05 E20.983
G1 X112.87 Y94.43 E21.004
G1 X112.07 Y93.75 E21.033
G1 X111.23 Y93.65 E21.057
G1 X107.05 Y93.65 E21.175
G1 X102.86 Y93.64 E21.294
G1 X98.68 Y93.64 E21.412
G1 X98.59 Y93.6 E21.415
G1 X98.46 Y93.38 E21.422
G1 X98.34 Y92.97 E21.434
G1 X97.93 Y92.55 E21.451
G1 X95.32 Y92.58 E21.525
G1 X92.7 Y92.61 E21.599
G1 X92.11 Y93.05 E21.62
G1 X91.99 Y93.72 E21.639
G1 X90.95 Y93.82 E21.668
G1 X87.96 Y93.86 E21.753
G1 X87.32 Y94.18 E21.773
G1 X86.65 Y95.11 E21.806
G1 X86.16 Y96.94 E21.859
G1 X85.94 Y98.23 E21.897
G1 X85.88 Y100.33 E21.956
G1 X86.13 Y102.77 E22.025
G1 X86.58 Y104.37 E22.072
G1 X86.6 Y104.42
G1 X86.41 Y104.6 F7800
G1 X87.23 Y105.84
G1 X92.91 Y106.94
; TYPE:WALL-OUTER
G1 X97.42 Y107 E22.2 F1260
G1 X98.11 Y106.89 E22.22
G1 X98.31 Y106.49 E22.232
G1 X98.35 Y105.99 E22.246
G1 X98.48 Y105.78 E22.253
G1 X98.62 Y105.73 E22.258
G1 X102.99 Y105.71 E22.382
G1 X107.37 Y105.7 E22.505
G1 X111.74 Y105.68 E22.629
G1 X112.49 Y105.44 E22.651
G1 X112.94 Y104.34 E22.685
G1 X113.34 Y102.94 E22.726
G1 X113.59 Y101.46 E22.768
G1 X113.67 Y99.71 E22.818
G1 X113.54 Y98.12 E22.863
G1 X113.19 Y96.44 E22.912
G1 X112.78 Y95.27 E22.947
G1 X112.48 Y94.76 E22.964
G1 X111.86 Y94.23 E22.987
G1 X111.21 Y94.15 E23.005
G1 X107 Y94.15 E23.124
G1 X102.79 Y94.14 E23.244
G1 X98.58 Y94.14 E23.363
G1 X98.24 Y94 E23.373
G1 X98 Y93.58 E23.387
G1 X97.9 Y93.23 E23.397
G1 X97.72 Y93.05 E23.404
G1 X92.87 Y93.11 E23.541
G1 X92.57 Y93.34 E23.552
G1 X92.43 Y94.06 E23.573
G1 X92.29 Y94.19 E23.578
G1 X90.98 Y94.32 E23.616
G1 X88.08 Y94.36 E23.698
G1 X87.65 Y94.57 E23.711
G1 X87.11 Y95.33 E23.737
G1 X86.65 Y97.04 E23.788
G1 X86.44 Y98.28 E23.823
G1 X86.38 Y100.31 E23.881
G1 X86.62 Y102.68 E23.948
G1 X87.07 Y104.26 E23.994
G1 X87.52 Y105.4 E24.029
G1 X87.89 Y105.71 E24.043
G1 X89.19 Y105.79 E24.08
G1 X92.28 Y105.81 E24.167
G1 X92.5 Y105.88 E24.174
G1 X92.62 Y106.09 E24.181
G1 X92.66 Y106.37 E24.189
G1 X92.78 Y106.56 E24.195
G1 X92.89 Y106.89 E24.205
G1 X92.91 Y106.94
G1 X95.91 Y106.98
G1 X92.53 Y107.31 F7800
G1 X89.73 Y106.32
G1 X86.56 Y105.7
G1 X85.4 Y98.79
G1 X85.77 Y96.49
; TYPE:WALL-INNER
G1 X85.8 Y95.64 E24.229 F1800
G1 X85.63 Y95.59 F7800
G1 X84.74 Y94.74 E24.264 F1800
G1 X86.14 Y94.55 E24.304
G1 X86.16 Y94.72 F7800
G1 X86.32 Y94.7 E24.314 F1800
G1 X85.98 Y95.68 E24.344
G1 X85.16 Y95.84 F7800
G1 X84.46 Y95.16 E24.372 F1800
G1 X83.69 Y94.92 E24.394
G1 X83.06 Y94.87 E24.412
G1 X81.77 Y95.02 E24.449
G1 X76.87 Y95.81 E24.59
G1 X71.97 Y96.6 E24.73
G1 X70.85 Y97.04 E24.764
G1 X70.54 Y97.74 E24.785
G1 X70.58 Y102.63 E24.924
G1 X71.23 Y103.52 E24.955
G1 X71.94 Y103.93 E24.978
G1 X75.15 Y104.35 E25.07
G1 X78.36 Y104.77 E25.161
G1 X81.78 Y105.15 E25.259
G1 X83.44 Y105.12 E25.306
G1 X84.05 Y105.04 E25.323
G1 X85.13 Y104.39 E25.359
G1 X85.35 Y103.65 E25.381
G1 X85.27 Y102.33 E25.418
G1 X85.16 Y101.45 E25.443
G1 X85.12 Y99.18 E25.507
G1 X85.3 Y96.73 E25.577
G1 X85.17 Y95.89 E25.601
G1 X85.16 Y95.84
G1 X84.69 Y96.08 F7800
; TYPE:WALL-OUTER
G1 X84.2 Y95.6 E25.621 F1260
G1 X83.6 Y95.42 E25.638
G1 X83.06 Y95.38 E25.653
G1 X81.83 Y95.51 E25.688
G1 X76.97 Y96.3 E25.828
G1 X72.1 Y97.08 E25.967
G1 X71.23 Y97.43 E25.994
G1 X71.04 Y97.85 E26.007
G1 X71.08 Y102.47 E26.138
G1 X71.57 Y103.13 E26.161
G1 X72.1 Y103.44 E26.179
G1 X75.26 Y103.86 E26.269
G1 X78.42 Y104.27 E26.359
G1 X81.8 Y104.65 E26.455
G1 X83.4 Y104.62 E26.5
G1 X83.88 Y104.56 E26.514
G1 X84.71 Y104.06 E26.541
G1 X84.85 Y103.59 E26.555
G1 X84.77 Y102.37 E26.59
G1 X84.66 Y101.49 E26.615
G1 X84.62 Y99.16 E26.681
G1 X84.79 Y96.75 E26.749
G1 X84.7 Y96.13 E26.767
G1 X84.69 Y96.08
G1 X84.2 Y95.6
G1 X83.6 Y95.42
G1 X83.06 Y95.38
G1 X81.92 Y95.5
G1 X85.63 Y95.59 F7800
G1 E25.767 F1800
G1 X88.14 Y93.86 F7800
G1 X91.78 Y93.19
G1 X93.73 Y92.22
G1 X98.18 Y92.74
G1 X100.63 Y93.36
G1 X111.19 Y93.65
G1 X112.85 Y94.36
G1 X114.49 Y99.67
G1 X114.22 Y103.48
G1 X114.51 Y104.39
; TYPE:WALL-INNER
G1 E26.767 F1800
G1 X115.22 Y105.07 E26.795
G1 X115.23 Y105.15 F7800
G1 X115.55 Y105.19 E26.804 F1800
G1 X115.24 Y105.23 F7800
G1 X113.57 Y105.45 E26.852 F1800
G1 X113.89 Y104.67 E26.876
G1 X114.22 Y103.48 E26.911
G1 X114.51 Y104.39 E26.938
G1 X111.7 Y106 F7800
G1 X100.22 Y106.3
G1 X99.45 Y106.76
G1 X99.06 Y107.77 E26.968 F1800
G1 X98.99 Y107.82 E26.971
G1 X98.49 Y107.87 E26.985
G1 X95.26 Y107.88 E27.077
G1 X92.02 Y107.88 E27.168
G1 X91.81 Y107.83 E27.174
G1 X91.59 Y107.18 E27.194
G1 X91.01 Y106.76 E27.214
G1 X86.49 Y106.19 E27.343
G1 X81.96 Y105.63 E27.472
G1 X77.44 Y105.06 E27.601
G1 X74.77 Y104.69 E27.677
G1 X72.1 Y104.31 E27.753
G1 X71.37 Y104.11 E27.775
G1 X71.08 Y103.94 E27.784
G1 X70.57 Y103.46 E27.804
G1 X70.38 Y103.06 E27.817
G1 X70.26 Y102.43 E27.835
G1 X70.13 Y99.21 E27.926
G1 X70.31 Y97.31 E27.98
G1 X70.48 Y96.83 E27.994
G1 X70.7 Y96.56 E28.004
G1 X71.07 Y96.29 E28.017
G1 X71.65 Y96.09 E28.035
G1 X74.34 Y95.67 E28.112
G1 X77.03 Y95.25 E28.189
G1 X80.54 Y94.79 E28.289
G1 X84.05 Y94.32 E28.389
G1 X87.56 Y93.86 E28.489
G1 X91.37 Y93.29 E28.598
G1 X91.7 Y92.6 E28.62
G1 X91.78 Y92.13 E28.633
G1 X95.35 Y92.13 E28.734
G1 X98.91 Y92.12 E28.835
G1 X98.94 Y92.21 E28.837
G1 X99.06 Y92.79 E28.854
G1 X99.64 Y93.3 E28.876
G1 X104.32 Y93.27 E29.008
G1 X108.99 Y93.23 E29.14
G1 X113.01 Y93.72 E29.255
G1 X117.02 Y94.2 E29.369
G1 X121.04 Y94.69 E29.484
G1 X125.05 Y95.17 E29.598
G1 X128.48 Y95.71 E29.696
G1 X128.96 Y95.89 E29.711
G1 X129.4 Y96.28 E29.728
G1 X129.63 Y96.63 E29.739
G1 X129.74 Y96.96 E29.749
G1 X129.83 Y98.03 E29.78
G1 X129.81 Y102.32 E29.901
G1 X129.65 Y102.92 E29.919
G1 X129.45 Y103.21 E29.929
G1 X129.13 Y103.48 E29.941
G1 X128.75 Y103.64 E29.952
G1 X127.6 Y104.02 E29.986
G1 X125.5 Y104.35 E30.046
G1 X121.36 Y104.91 E30.165
G1 X117.22 Y105.47 E30.283
G1 X113.07 Y106.02 E30.402
G1 X108.93 Y106.58 E30.52
G1 X104.56 Y106.58 E30.644
G1 X100.19 Y106.57 E30.767
G1 X99.5 Y106.75 E30.787
G1 X99.45 Y106.76
G1 X99.83 Y107.18 F7800
; TYPE:WALL-OUTER
G1 X99.48 Y108.08 E30.814 F1260
G1 X99.19 Y108.31 E30.825
G1 X98.51 Y108.37 E30.844
G1 X95.24 Y108.38 E30.937
G1 X91.96 Y108.38 E31.029
G1 X91.54 Y108.27 E31.042
G1 X91.37 Y108.09 E31.049
G1 X91.17 Y107.49 E31.066
G1 X90.82 Y107.24 E31.079
G1 X86.34 Y106.68 E31.207
G1 X81.85 Y106.12 E31.334
G1 X77.37 Y105.56 E31.462
G1 X74.69 Y105.18 E31.539
G1 X72 Y104.8 E31.616
G1 X71.18 Y104.57 E31.64
G1 X70.78 Y104.35 E31.653
G1 X70.16 Y103.76 E31.677
G1 X69.9 Y103.22 E31.694
G1 X69.76 Y102.48 E31.715
G1 X69.63 Y99.19 E31.808
G1 X69.81 Y97.2 E31.865
G1 X70.04 Y96.58 E31.883
G1 X70.35 Y96.19 E31.898
G1 X70.84 Y95.84 E31.914
G1 X71.53 Y95.61 E31.935
G1 X74.25 Y95.18 E32.013
G1 X76.96 Y94.75 E32.091
G1 X80.47 Y94.29 E32.191
G1 X83.98 Y93.82 E32.291
G1 X87.49 Y93.36 E32.391
G1 X91.03 Y92.83 E32.493
G1 X91.22 Y92.44 E32.505
G1 X91.33 Y91.8 E32.523
G1 X91.43 Y91.69 E32.527
G1 X91.6 Y91.63 E32.533
G1 X95.33 Y91.63 E32.639
G1 X99.06 Y91.62 E32.744
G1 X99.29 Y91.73 E32.751
G1 X99.42 Y92.07 E32.761
G1 X99.51 Y92.53 E32.774
G1 X99.82 Y92.8 E32.786
G1 X104.42 Y92.77 E32.916
G1 X109.02 Y92.73 E33.046
G1 X113.04 Y93.22 E33.161
G1 X117.07 Y93.7 E33.276
G1 X121.09 Y94.19 E33.39
G1 X125.11 Y94.67 E33.505
G1 X128.6 Y95.22 E33.605
G1 X129.22 Y95.46 E33.623
G1 X129.79 Y95.96 E33.645
G1 X130.08 Y96.4 E33.66
G1 X130.24 Y96.86 E33.674
G1 X130.33 Y98 E33.706
G1 X130.31 Y102.38 E33.83
G1 X130.11 Y103.13 E33.852
G1 X129.82 Y103.55 E33.866
G1 X129.39 Y103.91 E33.882
G1 X128.93 Y104.11 E33.896
G1 X127.72 Y104.51 E33.932
G1 X125.59 Y104.85 E33.993
G1 X121.43 Y105.41 E34.112
G1 X117.28 Y105.97 E34.231
G1 X113.12 Y106.52 E34.349
G1 X108.96 Y107.08 E34.468
G1 X104.61 Y107.08 E34.591
G1 X100.25 Y107.07 E34.714
G1 X99.87 Y107.17 E34.726
G1 X99.83 Y107.18
G1 X99.48 Y108.08
G1 X99.19 Y108.31
G1 X98.51 Y108.37
G1 X97.52 Y108.37
G1 X99.45 Y106.8 F7800
G1 X94.59 Y107.55
G1 X86.56 Y105.7
G1 X85.71 Y102.83
; TYPE:FILL
G1 X85.57 Y101.41 E34.752 F3600
G1 X85.51 Y100.34 E34.767
G1 X85.51 Y99.19 E34.783
G1 X85.56 Y98.2 E34.797
G1 X85.73 Y96.87 E34.816
G1 X85.74 Y96.77 E34.818
G1 X86.37 Y94.69 F7800
G1 X90.98 Y93.36
G1 X91.68 Y93.45
G1 X91.84 Y92.89 E34.821 F3600
G1 X92.1 Y92.53 E34.823
G1 X98.26 Y92.53 F7800
G1 X98.56 Y92.61 E34.831 F3600
G1 X98.64 Y92.61 F7800
G1 X98.71 Y92.9 E34.835 F3600
G1 X98.79 Y93.16 E34.84
G1 X98.83 F7800
G1 X98.88 Y92.88 E34.85 F3600
G1 X98.34 Y92.37 E34.869
G1 E33.869 F1800
G1 Y92.56 F7800
G1 X92.2 Y92.61
G1 X90.54 Y93.61
G1 X87.07 Y94.2
G1 X85.78 Y97.1
G1 X85.97 Y103.78
G1 X87.23 Y105.84
G1 X92.17 Y106.7
G1 X93.9 Y107.44
G1 X98.32 Y107.04
G1 X99.16 Y106.48
G1 E34.869 F1800
G1 X99.29 Y106.5 E34.87 F3600
G1 X99.15 Y106.62 E34.873
G1 X99.16 Y106.51 F7800
G1 X99.4 Y106.5 E34.88 F3600
G1 X99.19 Y106.62 E34.884
G1 X98.76 Y107.53 E34.892
G1 Y107.34 F7800
G1 X92.18 Y107.58
G1 X91.94 Y106.97 E34.902 F3600
G1 X91.79 Y106.74 E34.907
G1 X91.73 Y106.74 F7800
G1 X91.86 Y106.79 E34.91 F3600
G1 X95.02 Y107.52 F7800
G1 X97.4 Y107.51
G1 X100.41 Y106.29
G1 X110.95 Y106.07
G1 X112.86 Y105.62
G1 X114.24 Y103.29
G1 X114.27 Y103.12 E34.913 F3600
G1 X114.48 Y101.55 E34.938
G1 X114.53 Y100.83 E34.95
G1 X114.57 Y99.7 E34.97
G1 X114.56 Y99.49 E34.973
G1 X114.41 Y97.99 E34.995
G1 X114.22 Y96.81 E35.02
G1 X114.16 Y96.25 E35.031
G1 X115.26 Y94.71 F7800
G1 X116.37 Y94.5
G1 X118 Y94.63 E35.041 F3600
G1 X128.78 Y96.21 F7800
G1 X128.92 Y96.32 E35.041 F3600
G1 X129.38 Y96.76 E35.044
G1 E34.044 F1800
G1 X129.19 F7800
G1 X127.08 Y95.71
G1 X116.36 Y94.31
G1 X113.29 Y94.67
G1 X111.19 Y93.65
G1 X98.56 Y93.18
G1 X96.06 Y92.38
G1 X92.2 Y92.61
G1 X89.92 Y93.6
G1 X80.83 Y94.99
G1 X71.73 Y96.38
G1 E35.044 F1800
G1 X71.21 Y96.57 E35.047 F3600
; Layer Change GCode
; LAYER:2
; LAYER_HEIGHT:0.4
; TYPE:FILL
M400
M106 S216
G1 Z1.1 F7800
G1 X83.23 Y94.56
G1 X84.74 Y94.74
G1 X85.63 Y95.59
; TYPE:WALL-INNER
G1 X84.74 Y94.74 E35.082 F1800
G1 X86.14 Y94.55 E35.122
G1 X86.16 Y94.72 F7800
G1 X86.46 Y94.51 E35.132 F1800
G1 X86.19 Y94.89 F7800
G1 X85.98 Y95.68 E35.155 F1800
G1 X85.8 Y95.64 F7800
G1 X85.77 Y96.49 E35.179 F1800
G1 X85.3 Y96.73 F7800
G1 X85.16 Y95.84 E35.205 F1800
G1 X84.46 Y95.16 E35.233
G1 X83.69 Y94.92 E35.255
G1 X83.06 Y94.87 E35.273
G1 X81.77 Y95.02 E35.31
G1 X76.87 Y95.81 E35.451
G1 X71.97 Y96.6 E35.591
G1 X70.85 Y97.04 E35.625
G1 X70.54 Y97.74 E35.646
G1 X70.58 Y102.63 E35.785
G1 X71.23 Y103.52 E35.816
G1 X71.94 Y103.93 E35.839
G1 X75.15 Y104.35 E35.931
G1 X78.36 Y104.77 E36.022
G1 X81.78 Y105.15 E36.12
G1 X83.44 Y105.12 E36.167
G1 X84.05 Y105.04 E36.184
G1 X85.13 Y104.39 E36.22
G1 X85.35 Y103.65 E36.242
G1 X85.27 Y102.33 E36.279
G1 X85.16 Y101.45 E36.304
G1 X85.12 Y99.18 E36.368
G1 X85.29 Y96.78 E36.436
G1 X85.3 Y96.73
G1 X84.69 Y96.08 F7800
; TYPE:WALL-OUTER
G1 X84.2 Y95.6 E36.456 F1260
G1 X83.6 Y95.42 E36.474
G1 X83.06 Y95.38 E36.489
G1 X81.83 Y95.51 E36.524
G1 X76.97 Y96.3 E36.664
G1 X72.1 Y97.08 E36.803
G1 X71.23 Y97.43 E36.829
G1 X71.04 Y97.85 E36.842
G1 X71.08 Y102.47 E36.973
G1 X71.57 Y103.13 E36.996
G1 X72.1 Y103.44 E37.014
G1 X75.26 Y103.86 E37.104
G1 X78.42 Y104.27 E37.194
G1 X81.8 Y104.65 E37.29
G1 X83.4 Y104.62 E37.336
G1 X83.88 Y104.56 E37.349
G1 X84.71 Y104.06 E37.377
G1 X84.85 Y103.59 E37.39
G1 X84.77 Y102.37 E37.425
G1 X84.66 Y101.49 E37.45
G1 X84.62 Y99.16 E37.516
G1 X84.79 Y96.75 E37.584
G1 X84.7 Y96.13 E37.602
G1 X84.69 Y96.08
G1 X84.2 Y95.6
G1 X83.6 Y95.42
G1 X83.06 Y95.38
G1 X81.92 Y95.5
G1 X85.63 Y95.59 F7800
G1 X85.85 Y103.62
; TYPE:WALL-INNER
G1 X85.87 Y103.71 E37.605 F1800
G1 X85.86 Y103.71 F7800
G1 X85.56 Y104.71 E37.634 F1800
G1 X84.38 Y105.43 E37.673
G1 X86.56 Y105.7 E37.735
G1 X86.12 Y104.57 E37.77
G1 X85.87 Y103.7 E37.795
G1 X86.13 Y102.77 F7800
G1 X86.6 Y104.42 E37.844 F1800
G1 X87.1 Y105.71 E37.883
G1 X87.69 Y106.2 E37.905
G1 X89.17 Y106.29 E37.947
G1 X92.14 Y106.31 E38.031
G1 X92.18 Y106.56 E38.038
G1 X92.33 Y106.78 E38.045
G1 X92.55 Y107.43 E38.065
G1 X97.45 Y107.51 E38.204
G1 X98.44 Y107.34 E38.232
G1 X98.8 Y106.63 E38.254
G1 X98.83 Y106.23 E38.266
G1 X103.16 Y106.21 E38.388
G1 X107.49 Y106.2 E38.511
G1 X111.82 Y106.18 E38.633
G1 X112.86 Y105.85 E38.664
G1 X113.41 Y104.51 E38.705
G1 X113.82 Y103.05 E38.748
G1 X114.09 Y101.51 E38.792
G1 X114.17 Y99.7 E38.844
G1 X114.04 Y98.05 E38.891
G1 X113.67 Y96.31 E38.941
G1 X113.24 Y95.05 E38.978
G1 X112.87 Y94.43 E38.999
G1 X112.07 Y93.75 E39.028
G1 X111.23 Y93.65 E39.052
G1 X107.05 Y93.65 E39.171
G1 X102.86 Y93.64 E39.289
G1 X98.68 Y93.64 E39.408
G1 X98.59 Y93.6 E39.41
G1 X98.46 Y93.38 E39.417
G1 X98.34 Y92.97 E39.43
G1 X97.93 Y92.55 E39.446
G1 X95.32 Y92.58 E39.52
G1 X92.7 Y92.61 E39.594
G1 X92.11 Y93.05 E39.615
G1 X91.99 Y93.72 E39.634
G1 X90.95 Y93.82 E39.664
G1 X87.96 Y93.86 E39.748
G1 X87.32 Y94.18 E39.769
G1 X86.65 Y95.11 E39.801
G1 X86.16 Y96.94 E39.855
G1 X85.94 Y98.23 E39.892
G1 X85.88 Y100.33 E39.951
G1 X86.13 Y102.72 E40.019
G1 X86.13 Y102.77
G1 X85.76 Y103.15 F7800
G1 X87.23 Y105.84
G1 X92.91 Y106.94
; TYPE:WALL-OUTER
G1 X97.42 Y107 E40.147 F1260
G1 X98.11 Y106.89 E40.167
G1 X98.31 Y106.49 E40.179
G1 X98.35 Y105.99 E40.193
G1 X98.48 Y105.78 E40.2
G1 X98.62 Y105.73 E40.205
G1 X102.99 Y105.71 E40.329
G1 X107.37 Y105.7 E40.452
G1 X111.74 Y105.68 E40.576
G1 X112.49 Y105.44 E40.598
G1 X112.94 Y104.34 E40.632
G1 X113.34 Y102.94 E40.673
G1 X113.59 Y101.46 E40.715
G1 X113.67 Y99.71 E40.765
G1 X113.54 Y98.12 E40.81
G1 X113.19 Y96.44 E40.859
G1 X112.78 Y95.27 E40.894
G1 X112.48 Y94.76 E40.911
G1 X111.86 Y94.23 E40.934
G1 X111.21 Y94.15 E40.952
G1 X107 Y94.15 E41.071
G1 X102.79 Y94.14 E41.191
G1 X98.58 Y94.14 E41.31
G1 X98.24 Y94 E41.32
G1 X98 Y93.58 E41.334
G1 X97.9 Y93.23 E41.344
G1 X97.72 Y93.05 E41.351
G1 X92.87 Y93.11 E41.488
G1 X92.57 Y93.34 E41.499
G1 X92.43 Y94.06 E41.52
G1 X92.29 Y94.19 E41.525
G1 X90.98 Y94.32 E41.562
G1 X88.08 Y94.36 E41.645
G1 X87.65 Y94.57 E41.658
G1 X87.11 Y95.33 E41.684
G1 X86.65 Y97.04 E41.735
G1 X86.44 Y98.28 E41.77
G1 X86.38 Y100.31 E41.828
G1 X86.62 Y102.68 E41.895
G1 X87.07 Y104.26 E41.941
G1 X87.52 Y105.4 E41.976
G1 X87.89 Y105.71 E41.99
G1 X89.19 Y105.79 E42.027
G1 X92.28 Y105.81 E42.114
G1 X92.5 Y105.88 E42.121
G1 X92.62 Y106.09 E42.127
G1 X92.66 Y106.37 E42.136
G1 X92.78 Y106.56 E42.142
G1 X92.89 Y106.89 E42.152
G1 X92.91 Y106.94
G1 X95.91 Y106.98
G1 X92.53 Y107.31 F7800
G1 X89.73 Y106.32
G1 X86.56 Y105.7
G1 E41.152 F1800
G1 X94.71 Y107.43 F7800
G1 X98.32 Y107.04
G1 X101.85 Y106.36
G1 X111.22 Y106.01
G1 X113.57 Y105.45
G1 X114.51 Y104.39
; TYPE:WALL-INNER
G1 E42.152 F1800
G1 X115.22 Y105.07 E42.18
G1 X115.23 Y105.15 F7800
G1 X115.55 Y105.19 E42.189 F1800
G1 X115.24 Y105.23 F7800
G1 X113.57 Y105.45 E42.237 F1800
G1 X113.89 Y104.67 E42.26
G1 X114.22 Y103.48 E42.295
G1 X114.51 Y104.39 E42.322
G1 X114.95 Y104.12 F7800
G1 X115.48 Y104.63 E42.344 F1800
G1 X116.03 Y104.83 E42.36
G1 X117.9 Y104.86 E42.413
G1 X120.7 Y104.53 E42.493
G1 X123.49 Y104.19 E42.572
G1 X128.04 Y103.51 E42.702
G1 X128.68 Y103.17 E42.723
G1 X129.2 Y102.55 E42.746
G1 X129.36 Y101.74 E42.769
G1 X129.33 Y97.09 E42.901
G1 X128.73 Y96.58 E42.923
G1 X127.56 Y96.05 E42.959
G1 X125.75 Y95.78 E43.011
G1 X121.86 Y95.36 E43.122
G1 X117.97 Y94.93 E43.232
G1 X116.37 Y94.88 E43.278
G1 X115.26 Y95.04 E43.309
G1 X114.67 Y95.7 E43.335
G1 X114.65 Y96.76 E43.364
G1 X114.98 Y99.47 E43.442
G1 X114.94 Y100.86 E43.481
G1 X114.7 Y103.32 E43.551
G1 X114.93 Y104.07 E43.573
G1 X114.95 Y104.12
G1 X114.24 Y102.47 F7800
G1 X114.21 Y97.09
G1 X115.17 Y95.89
; TYPE:WALL-OUTER
G1 X115.15 Y96.73 E43.597 F1260
G1 X115.48 Y99.44 E43.674
G1 X115.44 Y100.88 E43.715
G1 X115.21 Y103.27 E43.783
G1 X115.39 Y103.84 E43.8
G1 X115.75 Y104.2 E43.814
G1 X116.12 Y104.33 E43.825
G1 X117.87 Y104.36 E43.875
G1 X120.65 Y104.03 E43.954
G1 X123.42 Y103.7 E44.033
G1 X127.88 Y103.03 E44.161
G1 X128.36 Y102.78 E44.176
G1 X128.73 Y102.32 E44.193
G1 X128.86 Y101.69 E44.211
G1 X128.83 Y97.32 E44.334
G1 X128.46 Y97.01 E44.348
G1 X127.41 Y96.53 E44.381
G1 X125.69 Y96.27 E44.43
G1 X121.82 Y95.85 E44.541
G1 X117.94 Y95.43 E44.651
G1 X116.4 Y95.38 E44.694
G1 X115.51 Y95.51 E44.72
G1 X115.2 Y95.86 E44.733
G1 X115.17 Y95.89
G1 X115.15 Y96.73
G1 X115.41 Y98.88
G1 X114.15 Y96.18 F7800
; TYPE:WALL-INNER
G1 X114.06 Y95.54 E44.751 F1800
G1 X113.95 Y95.58 F7800
G1 X113.69 Y94.84 E44.773 F1800
G1 X113.35 Y94.26 E44.792
G1 X115.02 Y94.46 E44.84
G1 X115.02 Y94.52 F7800
G1 X115.42 Y94.51 E44.852 F1800
G1 X115.01 Y94.57 F7800
G1 X114.17 Y95.5 E44.887 F1800
G1 E43.887
G1 X114.28 Y101.43 F7800
G1 X112.86 Y105.62
G1 X104.05 Y106.45
G1 X100.22 Y106.3
G1 X99.45 Y106.76
G1 E44.887 F1800
G1 X99.06 Y107.77 E44.918
G1 X98.99 Y107.82 E44.92
G1 X98.49 Y107.87 E44.934
G1 X95.26 Y107.88 E45.026
G1 X92.02 Y107.88 E45.117
G1 X91.81 Y107.83 E45.124
G1 X91.59 Y107.18 E45.143
G1 X91.01 Y106.76 E45.163
G1 X86.49 Y106.19 E45.292
G1 X81.96 Y105.63 E45.421
G1 X77.44 Y105.06 E45.55
G1 X74.77 Y104.69 E45.627
G1 X72.1 Y104.31 E45.703
G1 X71.37 Y104.11 E45.724
G1 X71.08 Y103.94 E45.734
G1 X70.57 Y103.46 E45.753
G1 X70.38 Y103.06 E45.766
G1 X70.26 Y102.43 E45.784
G1 X70.13 Y99.21 E45.875
G1 X70.31 Y97.31 E45.929
G1 X70.48 Y96.83 E45.944
G1 X70.7 Y96.56 E45.954
G1 X71.07 Y96.29 E45.966
G1 X71.65 Y96.09 E45.984
G1 X74.34 Y95.67 E46.061
G1 X77.03 Y95.25 E46.138
G1 X80.54 Y94.79 E46.238
G1 X84.05 Y94.32 E46.339
G1 X87.56 Y93.86 E46.439
G1 X91.37 Y93.29 E46.548
G1 X91.7 Y92.6 E46.569
G1 X91.78 Y92.13 E46.582
G1 X95.35 Y92.13 E46.683
G1 X98.91 Y92.12 E46.784
G1 X98.94 Y92.21 E46.787
G1 X99.06 Y92.79 E46.804
G1 X99.64 Y93.3 E46.825
G1 X104.32 Y93.27 E46.958
G1 X108.99 Y93.23 E47.09
G1 X113.01 Y93.72 E47.205
G1 X117.02 Y94.2 E47.319
G1 X121.04 Y94.69 E47.434
G1 X125.05 Y95.17 E47.548
G1 X128.48 Y95.71 E47.646
G1 X128.96 Y95.89 E47.66
G1 X129.4 Y96.28 E47.677
G1 X129.63 Y96.63 E47.689
G1 X129.74 Y96.96 E47.699
G1 X129.83 Y98.03 E47.729
G1 X129.81 Y102.32 E47.85
G1 X129.65 Y102.92 E47.868
G1 X129.45 Y103.21 E47.878
G1 X129.13 Y103.48 E47.89
G1 X128.75 Y103.64 E47.901
G1 X127.6 Y104.02 E47.936
G1 X125.5 Y104.35 E47.996
G1 X121.36 Y104.91 E48.114
G1 X117.22 Y105.47 E48.233
G1 X113.07 Y106.02 E48.351
G1 X108.93 Y106.58 E48.469
G1 X104.56 Y106.58 E48.593
G1 X100.19 Y106.57 E48.716
G1 X99.5 Y106.75 E48.736
G1 X99.45 Y106.76
G1 X99.83 Y107.18 F7800
; TYPE:WALL-OUTER
G1 X99.48 Y108.08 E48.764 F1260
G1 X99.19 Y108.31 E48.774
G1 X98.51 Y108.37 E48.793
G1 X95.24 Y108.38 E48.886
G1 X91.96 Y108.38 E48.979
G1 X91.54 Y108.27 E48.991
G1 X91.37 Y108.09 E48.998
G1 X91.17 Y107.49 E49.016
G1 X90.82 Y107.24 E49.028
G1 X86.34 Y106.68 E49.156
G1 X81.85 Y106.12 E49.283
G1 X77.37 Y105.56 E49.411
G1 X74.69 Y105.18 E49.488
G1 X72 Y104.8 E49.565
G1 X71.18 Y104.57 E49.589
G1 X70.78 Y104.35 E49.602
G1 X70.16 Y103.76 E49.626
G1 X69.9 Y103.22 E49.643
G1 X69.76 Y102.48 E49.664
G1 X69.63 Y99.19 E49.758
G1 X69.81 Y97.2 E49.814
G1 X70.04 Y96.58 E49.833
G1 X70.35 Y96.19 E49.847
G1 X70.84 Y95.84 E49.864
G1 X71.53 Y95.61 E49.885
G1 X74.25 Y95.18 E49.963
G1 X76.96 Y94.75 E50.04
G1 X80.47 Y94.29 E50.14
G1 X83.98 Y93.82 E50.241
G1 X87.49 Y93.36 E50.341
G1 X91.03 Y92.83 E50.442
G1 X91.22 Y92.44 E50.454
G1 X91.33 Y91.8 E50.473
G1 X91.43 Y91.69 E50.477
G1 X91.6 Y91.63 E50.482
G1 X95.33 Y91.63 E50.588
G1 X99.06 Y91.62 E50.693
G1 X99.29 Y91.73 E50.7
G1 X99.42 Y92.07 E50.711
G1 X99.51 Y92.53 E50.724
G1 X99.82 Y92.8 E50.735
G1 X104.42 Y92.77 E50.865
G1 X109.02 Y92.73 E50.995
G1 X113.04 Y93.22 E51.11
G1 X117.07 Y93.7 E51.225
G1 X121.09 Y94.19 E51.339
G1 X125.11 Y94.67 E51.454
G1 X128.6 Y95.22 E51.554
G1 X129.22 Y95.46 E51.573
G1 X129.79 Y95.96 E51.594
G1 X130.08 Y96.4 E51.609
G1 X130.24 Y96.86 E51.623
G1 X130.33 Y98 E51.655
G1 X130.31 Y102.38 E51.779
G1 X130.11 Y103.13 E51.801
G1 X129.82 Y103.55 E51.816
G1 X129.39 Y103.91 E51.831
G1 X128.93 Y104.11 E51.846
G1 X127.72 Y104.51 E51.882
G1 X125.59 Y104.85 E51.943
G1 X121.43 Y105.41 E52.062
G1 X117.28 Y105.97 E52.181
G1 X113.12 Y106.52 E52.299
G1 X108.96 Y107.08 E52.418
G1 X104.61 Y107.08 E52.541
G1 X100.25 Y107.07 E52.664
G1 X99.87 Y107.17 E52.675
G1 X99.83 Y107.18
G1 X99.48 Y108.08
G1 X99.19 Y108.31
G1 X98.51 Y108.37
G1 X97.52 Y108.37
G1 X99.45 Y106.8 F7800
G1 X94.59 Y107.55
G1 X86.56 Y105.7
G1 X85.71 Y102.83
; TYPE:FILL
G1 X85.57 Y101.41 E52.702 F3600
G1 X85.51 Y100.34 E52.716
G1 X85.51 Y99.19 E52.732
G1 X85.56 Y98.2 E52.746
G1 X85.73 Y96.87 E52.765
G1 X85.74 Y96.77 E52.767
G1 X86.37 Y94.69 F7800
G1 X90.98 Y93.36
G1 X91.68 Y93.45
G1 X91.84 Y92.89 E52.77 F3600
G1 X92.1 Y92.53 E52.772
G1 X98.26 Y92.53 F7800
G1 X98.56 Y92.61 E52.78 F3600
G1 X98.64 Y92.61 F7800
G1 X98.71 Y92.9 E52.785 F3600
G1 X98.79 Y93.16 E52.789
G1 X98.83 F7800
G1 X99.19 Y93.24 E52.799 F3600
G1 X98.56 Y92.52 F7800
G1 X98.34 Y92.37 E52.805 F3600
G1 E51.805 F1800
G1 Y92.56 F7800
G1 X92.2 Y92.61
G1 X90.54 Y93.61
G1 X87.07 Y94.2
G1 X85.78 Y97.1
G1 X85.97 Y103.78
G1 X87.23 Y105.84
G1 X92.17 Y106.7
G1 X93.9 Y107.44
G1 X98.32 Y107.04
G1 X99.16 Y106.48
G1 E52.805 F1800
G1 X99.29 Y106.5 E52.807 F3600
G1 X99.15 Y106.62 E52.81
G1 X99.16 Y106.51 F7800
G1 X99.4 Y106.48 E52.813 F3600
G1 X99.4 Y106.51 F7800
G1 X99.26 Y106.52 E52.813 F3600
G1 X99.11 Y106.73 F7800
G1 X98.76 Y107.53 E52.821 F3600
G1 Y107.34 F7800
G1 X92.18 Y107.58
G1 X91.94 Y106.97 E52.831 F3600
G1 X91.79 Y106.74 E52.835
G1 X91.73 Y106.74 F7800
G1 X91.86 Y106.79 E52.839 F3600
G1 X95.02 Y107.52 F7800
G1 X97.4 Y107.51
G1 X100.41 Y106.29
G1 X110.95 Y106.07
G1 X112.86 Y105.62
G1 X114.24 Y103.29
G1 X114.27 Y103.12 E52.841 F3600
G1 X114.48 Y101.55 E52.867
G1 X114.53 Y100.83 E52.879
G1 X114.57 Y99.7 E52.898
G1 X114.56 Y99.49 E52.901
G1 X114.41 Y97.99 E52.923
G1 X114.22 Y96.81 E52.948
G1 X114.16 Y96.25 E52.96
G1 X115.26 Y94.71 F7800
G1 X116.37 Y94.5
G1 X118 Y94.63 E52.969 F3600
G1 X128.78 Y96.21 F7800
G1 X128.92 Y96.32 E52.97 F3600
G1 X129.38 Y96.76 E52.973
G1 E51.973 F1800
G1 X129.19 F7800
G1 X127.08 Y95.71
G1 X116.36 Y94.31
G1 X113.29 Y94.67
G1 X111.19 Y93.65
G1 X98.56 Y93.18
G1 X96.06 Y92.38
G1 X92.2 Y92.61
G1 X89.92 Y93.6
G1 X80.83 Y94.99
G1 X71.73 Y96.38
G1 E52.973 F1800
G1 X71.21 Y96.57 E52.975 F3600
; Layer Change GCode
; LAYER:3
; LAYER_HEIGHT:0.4
; TYPE:FILL
M400
M106 S214
G1 Z1.5 F7800
G1 X83.23 Y94.56
G1 X84.74 Y94.74
G1 X85.63 Y95.59
; TYPE:WALL-INNER
G1 X84.74 Y94.74 E53.01 F1800
G1 X86.14 Y94.55 E53.05
G1 X86.16 Y94.72 F7800
G1 X86.46 Y94.51 E53.061 F1800
G1 X86.19 Y94.89 F7800
G1 X85.98 Y95.68 E53.084 F1800
G1 X85.8 Y95.64 F7800
G1 X85.77 Y96.49 E53.108 F1800
G1 X85.3 Y96.73 F7800
G1 X85.16 Y95.84 E53.134 F1800
G1 X84.46 Y95.16 E53.161
G1 X83.69 Y94.92 E53.184
G1 X83.06 Y94.87 E53.202
G1 X81.93 Y95 E53.234
G1 X78.61 Y95.53 E53.329
G1 X75.29 Y96.07 E53.424
G1 X71.97 Y96.6 E53.519
G1 X70.85 Y97.04 E53.553
G1 X70.54 Y97.74 E53.575
G1 X70.58 Y102.63 E53.713
G1 X71.23 Y103.52 E53.744
G1 X71.94 Y103.93 E53.768
G1 X75.15 Y104.35 E53.86
G1 X78.36 Y104.77 E53.951
G1 X81.78 Y105.15 E54.048
G1 X83.44 Y105.12 E54.095
G1 X84.05 Y105.04 E54.113
G1 X85.13 Y104.39 E54.149
G1 X85.35 Y103.65 E54.17
G1 X85.28 Y102.48 E54.203
G1 X85.16 Y101.45 E54.233
G1 X85.12 Y99.18 E54.297
G1 X85.29 Y96.78 E54.365
G1 X85.3 Y96.73
G1 X84.69 Y96.08 F7800
; TYPE:WALL-OUTER
G1 X84.2 Y95.6 E54.384 F1260
G1 X83.6 Y95.42 E54.402
G1 X83.06 Y95.38 E54.417
G1 X82 Y95.49 E54.448
G1 X78.7 Y96.02 E54.542
G1 X75.4 Y96.55 E54.637
G1 X72.1 Y97.08 E54.731
G1 X71.23 Y97.43 E54.758
G1 X71.04 Y97.85 E54.771
G1 X71.08 Y102.47 E54.902
G1 X71.57 Y103.13 E54.925
G1 X72.1 Y103.44 E54.943
G1 X75.26 Y103.86 E55.033
G1 X78.42 Y104.27 E55.123
G1 X81.8 Y104.65 E55.219
G1 X83.4 Y104.62 E55.264
G1 X83.88 Y104.56 E55.278
G1 X84.71 Y104.06 E55.305
G1 X84.85 Y103.59 E55.319
G1 X84.78 Y102.53 E55.349
G1 X84.66 Y101.49 E55.379
G1 X84.62 Y99.16 E55.445
G1 X84.79 Y96.75 E55.513
G1 X84.7 Y96.13 E55.531
G1 X84.69 Y96.08
G1 X84.2 Y95.6
G1 X83.6 Y95.42
G1 X83.06 Y95.38
G1 X82 Y95.49
G1 X81.92 Y95.51
G1 X85.63 Y95.59 F7800
G1 X85.85 Y103.62
; TYPE:WALL-INNER
G1 X85.87 Y103.71 E55.533 F1800
G1 X85.86 Y103.71 F7800
G1 X85.56 Y104.71 E55.563 F1800
G1 X84.38 Y105.43 E55.602
G1 X86.56 Y105.7 E55.664
G1 X86.12 Y104.57 E55.698
G1 X85.87 Y103.7 E55.724
G1 X86.13 Y102.77 F7800
G1 X86.6 Y104.42 E55.772 F1800
G1 X87.1 Y105.71 E55.811
G1 X87.69 Y106.2 E55.833
G1 X89.01 Y106.28 E55.871
G1 X92.14 Y106.3 E55.959
G1 X92.18 Y106.56 E55.966
G1 X92.32 Y106.77 E55.974
G1 X92.56 Y107.43 E55.994
G1 X97.45 Y107.51 E56.132
G1 X98.44 Y107.34 E56.16
G1 X98.8 Y106.63 E56.183
G1 X98.83 Y106.23 E56.194
G1 X103.16 Y106.21 E56.317
G1 X107.49 Y106.2 E56.439
G1 X111.82 Y106.18 E56.562
G1 X112.86 Y105.85 E56.593
G1 X113.41 Y104.51 E56.634
G1 X113.82 Y103.05 E56.676
G1 X114.09 Y101.51 E56.721
G1 X114.17 Y99.7 E56.772
G1 X114.04 Y98.05 E56.819
G1 X113.67 Y96.31 E56.869
G1 X113.24 Y95.05 E56.907
G1 X112.87 Y94.43 E56.927
G1 X112.07 Y93.75 E56.957
G1 X111.31 Y93.66 E56.979
G1 X107.1 Y93.65 E57.098
G1 X102.89 Y93.65 E57.217
G1 X98.68 Y93.64 E57.336
G1 X98.59 Y93.6 E57.339
G1 X98.46 Y93.38 E57.346
G1 X98.34 Y92.98 E57.358
G1 X97.94 Y92.56 E57.374
G1 X95.32 Y92.59 E57.448
G1 X92.7 Y92.61 E57.522
G1 X92.11 Y93.05 E57.543
G1 X91.99 Y93.72 E57.562
G1 X90.95 Y93.82 E57.592
G1 X87.96 Y93.86 E57.677
G1 X87.32 Y94.18 E57.697
G1 X86.65 Y95.11 E57.729
G1 X86.16 Y96.94 E57.783
G1 X85.94 Y98.23 E57.82
G1 X85.88 Y100.33 E57.879
G1 X86.13 Y102.72 E57.947
G1 X86.13 Y102.77
G1 X85.76 Y103.15 F7800
G1 X87.23 Y105.84
G1 X92.91 Y106.94
; TYPE:WALL-OUTER
G1 X97.42 Y107 E58.075 F1260
G1 X98.11 Y106.89 E58.095
G1 X98.31 Y106.49 E58.107
G1 X98.35 Y105.99 E58.121
G1 X98.48 Y105.78 E58.128
G1 X98.62 Y105.73 E58.133
G1 X102.99 Y105.71 E58.257
G1 X107.37 Y105.7 E58.38
G1 X111.74 Y105.68 E58.504
G1 X112.49 Y105.44 E58.526
G1 X112.94 Y104.34 E58.56
G1 X113.34 Y102.94 E58.601
G1 X113.59 Y101.46 E58.643
G1 X113.67 Y99.71 E58.693
G1 X113.54 Y98.12 E58.738
G1 X113.19 Y96.44 E58.787
G1 X112.78 Y95.27 E58.822
G1 X112.48 Y94.76 E58.839
G1 X111.86 Y94.23 E58.862
G1 X111.28 Y94.16 E58.878
G1 X107.05 Y94.15 E58.998
G1 X102.81 Y94.15 E59.118
G1 X98.58 Y94.14 E59.238
G1 X98.24 Y94 E59.248
G1 X98 Y93.58 E59.262
G1 X97.9 Y93.23 E59.272
G1 X97.73 Y93.06 E59.279
G1 X92.87 Y93.11 E59.416
G1 X92.57 Y93.34 E59.427
G1 X92.43 Y94.06 E59.448
G1 X92.29 Y94.19 E59.453
G1 X90.98 Y94.32 E59.49
G1 X88.08 Y94.36 E59.573
G1 X87.65 Y94.57 E59.586
G1 X87.11 Y95.33 E59.612
G1 X86.65 Y97.04 E59.663
G1 X86.44 Y98.28 E59.698
G1 X86.38 Y100.31 E59.756
G1 X86.62 Y102.68 E59.823
G1 X87.07 Y104.26 E59.869
G1 X87.52 Y105.4 E59.904
G1 X87.89 Y105.71 E59.918
G1 X89.03 Y105.78 E59.95
G1 X92.28 Y105.81 E60.042
G1 X92.5 Y105.88 E60.049
G1 X92.62 Y106.09 E60.055
G1 X92.66 Y106.37 E60.064
G1 X92.77 Y106.54 E60.069
G1 X92.9 Y106.89 E60.08
G1 X92.91 Y106.94
G1 X95.91 Y106.98
G1 X92.54 Y107.31 F7800
G1 X89.74 Y106.32
G1 X86.56 Y105.7
G1 E59.08 F1800
G1 X94.71 Y107.43 F7800
G1 X98.32 Y107.04
G1 X101.85 Y106.36
G1 X111.22 Y106.01
G1 X113.57 Y105.45
G1 X114.51 Y104.39
; TYPE:WALL-INNER
G1 E60.08 F1800
G1 X115.22 Y105.07 E60.108
G1 X115.23 Y105.14 F7800
G1 X115.54 Y105.18 E60.117 F1800
G1 X115.24 Y105.22 F7800
G1 X113.57 Y105.45 E60.164 F1800
G1 X113.89 Y104.67 E60.188
G1 X114.22 Y103.48 E60.223
G1 X114.51 Y104.39 E60.25
G1 X114.95 Y104.12 F7800
G1 X115.48 Y104.63 E60.271 F1800
G1 X116.03 Y104.83 E60.288
G1 X117.9 Y104.86 E60.34
G1 X120.7 Y104.53 E60.42
G1 X123.49 Y104.19 E60.5
G1 X128.04 Y103.51 E60.63
G1 X128.68 Y103.17 E60.65
G1 X129.2 Y102.55 E60.674
G1 X129.36 Y101.74 E60.697
G1 X129.33 Y97.09 E60.828
G1 X128.73 Y96.58 E60.851
G1 X127.56 Y96.05 E60.887
G1 X125.98 Y95.81 E60.932
G1 X121.98 Y95.37 E61.046
G1 X117.97 Y94.93 E61.16
G1 X116.37 Y94.88 E61.205
G1 X115.26 Y95.04 E61.237
G1 X114.67 Y95.7 E61.262
G1 X114.65 Y96.76 E61.292
G1 X114.98 Y99.47 E61.369
G1 X114.94 Y100.86 E61.409
G1 X114.7 Y103.32 E61.479
G1 X114.93 Y104.07 E61.501
G1 X114.95 Y104.12
G1 X114.24 Y102.47 F7800
G1 X114.21 Y97.09
G1 X115.17 Y95.89
; TYPE:WALL-OUTER
G1 X115.15 Y96.73 E61.525 F1260
G1 X115.48 Y99.44 E61.602
G1 X115.44 Y100.88 E61.643
G1 X115.21 Y103.27 E61.711
G1 X115.39 Y103.84 E61.728
G1 X115.75 Y104.2 E61.742
G1 X116.12 Y104.33 E61.753
G1 X117.87 Y104.36 E61.803
G1 X120.65 Y104.03 E61.882
G1 X123.42 Y103.7 E61.961
G1 X127.88 Y103.03 E62.088
G1 X128.36 Y102.78 E62.104
G1 X128.73 Y102.32 E62.12
G1 X128.86 Y101.69 E62.139
G1 X128.83 Y97.32 E62.262
G1 X128.46 Y97.01 E62.276
G1 X127.41 Y96.53 E62.308
G1 X125.91 Y96.31 E62.351
G1 X121.93 Y95.87 E62.465
G1 X117.94 Y95.43 E62.578
G1 X116.4 Y95.38 E62.622
G1 X115.51 Y95.51 E62.647
G1 X115.2 Y95.86 E62.661
G1 X115.17 Y95.89
G1 X115.15 Y96.73
G1 X115.41 Y98.88
G1 X114.15 Y96.18 F7800
; TYPE:WALL-INNER
G1 X114.06 Y95.54 E62.679 F1800
G1 X113.95 Y95.58 F7800
G1 X113.69 Y94.84 E62.701 F1800
G1 X113.35 Y94.26 E62.72
G1 X115.02 Y94.46 E62.768
G1 X115.02 Y94.52 F7800
G1 X115.42 Y94.51 E62.779 F1800
G1 X115.01 Y94.57 F7800
G1 X114.17 Y95.5 E62.815 F1800
G1 E61.815
G1 X114.28 Y101.43 F7800
G1 X112.86 Y105.62
G1 X104.05 Y106.45
G1 X100.22 Y106.3
G1 X99.45 Y106.76
G1 E62.815 F1800
G1 X99.06 Y107.77 E62.845
G1 X98.99 Y107.82 E62.848
G1 X98.59 Y107.86 E62.859
G1 X95.31 Y107.87 E62.952
G1 X92.02 Y107.88 E63.045
G1 X91.81 Y107.83 E63.051
G1 X91.59 Y107.18 E63.071
G1 X91.01 Y106.76 E63.091
G1 X86.49 Y106.19 E63.22
G1 X81.96 Y105.63 E63.349
G1 X77.44 Y105.06 E63.478
G1 X74.77 Y104.69 E63.554
G1 X72.1 Y104.31 E63.63
G1 X71.37 Y104.11 E63.652
G1 X71.08 Y103.94 E63.661
G1 X70.57 Y103.46 E63.681
G1 X70.38 Y103.06 E63.694
G1 X70.26 Y102.43 E63.712
G1 X70.13 Y99.21 E63.803
G1 X70.31 Y97.31 E63.857
G1 X70.48 Y96.83 E63.871
G1 X70.7 Y96.56 E63.881
G1 X71.07 Y96.29 E63.894
G1 X71.65 Y96.09 E63.912
G1 X74.34 Y95.67 E63.989
G1 X77.03 Y95.25 E64.066
G1 X80.54 Y94.79 E64.166
G1 X84.05 Y94.32 E64.266
G1 X87.56 Y93.86 E64.366
G1 X91.37 Y93.29 E64.475
G1 X91.68 Y92.63 E64.496
G1 X91.78 Y92.13 E64.51
G1 X95.35 Y92.13 E64.611
G1 X98.91 Y92.12 E64.712
G1 X98.94 Y92.21 E64.715
G1 X99.06 Y92.79 E64.731
G1 X99.64 Y93.3 E64.753
G1 X104.32 Y93.27 E64.886
G1 X108.99 Y93.23 E65.018
G1 X113.01 Y93.72 E65.132
G1 X117.02 Y94.2 E65.247
G1 X121.04 Y94.69 E65.361
G1 X125.05 Y95.17 E65.475
G1 X128.48 Y95.71 E65.574
G1 X128.96 Y95.89 E65.588
G1 X129.4 Y96.28 E65.605
G1 X129.63 Y96.63 E65.616
G1 X129.74 Y96.96 E65.627
G1 X129.83 Y98.03 E65.657
G1 X129.81 Y102.32 E65.778
G1 X129.65 Y102.92 E65.796
G1 X129.45 Y103.21 E65.806
G1 X129.13 Y103.48 E65.818
G1 X128.82 Y103.61 E65.827
G1 X127.6 Y104.02 E65.863
G1 X125.79 Y104.31 E65.915
G1 X121.58 Y104.88 E66.036
G1 X117.36 Y105.45 E66.156
G1 X113.15 Y106.01 E66.277
G1 X108.93 Y106.58 E66.397
G1 X104.56 Y106.58 E66.521
G1 X100.19 Y106.57 E66.644
G1 X99.5 Y106.75 E66.664
G1 X99.45 Y106.76
G1 X99.83 Y107.18 F7800
; TYPE:WALL-OUTER
G1 X99.48 Y108.08 E66.691 F1260
G1 X99.19 Y108.31 E66.702
G1 X98.62 Y108.36 E66.718
G1 X95.29 Y108.37 E66.812
G1 X91.96 Y108.38 E66.906
G1 X91.54 Y108.27 E66.919
G1 X91.37 Y108.09 E66.926
G1 X91.17 Y107.49 E66.944
G1 X90.82 Y107.24 E66.956
G1 X86.34 Y106.68 E67.084
G1 X81.85 Y106.12 E67.211
G1 X77.37 Y105.56 E67.339
G1 X74.69 Y105.18 E67.416
G1 X72 Y104.8 E67.493
G1 X71.18 Y104.57 E67.517
G1 X70.78 Y104.35 E67.53
G1 X70.16 Y103.76 E67.554
G1 X69.9 Y103.22 E67.571
G1 X69.76 Y102.48 E67.592
G1 X69.63 Y99.19 E67.685
G1 X69.81 Y97.2 E67.742
G1 X70.04 Y96.58 E67.76
G1 X70.35 Y96.19 E67.775
G1 X70.84 Y95.84 E67.791
G1 X71.53 Y95.61 E67.812
G1 X74.25 Y95.18 E67.89
G1 X76.96 Y94.75 E67.968
G1 X80.47 Y94.29 E68.068
G1 X83.98 Y93.82 E68.168
G1 X87.49 Y93.36 E68.268
G1 X91.03 Y92.83 E68.37
G1 X91.2 Y92.48 E68.381
G1 X91.33 Y91.8 E68.4
G1 X91.43 Y91.69 E68.405
G1 X91.6 Y91.63 E68.41
G1 X95.33 Y91.63 E68.516
G1 X99.06 Y91.62 E68.621
G1 X99.29 Y91.73 E68.628
G1 X99.42 Y92.07 E68.638
G1 X99.51 Y92.53 E68.651
G1 X99.82 Y92.8 E68.663
G1 X104.42 Y92.77 E68.793
G1 X109.02 Y92.73 E68.923
G1 X113.04 Y93.22 E69.038
G1 X117.07 Y93.7 E69.153
G1 X121.09 Y94.19 E69.267
G1 X125.11 Y94.67 E69.382
G1 X128.6 Y95.22 E69.482
G1 X129.22 Y95.46 E69.5
G1 X129.79 Y95.96 E69.522
G1 X130.08 Y96.4 E69.537
G1 X130.24 Y96.86 E69.551
G1 X130.33 Y98 E69.583
G1 X130.31 Y102.38 E69.707
G1 X130.11 Y103.13 E69.729
G1 X129.82 Y103.55 E69.743
G1 X129.39 Y103.91 E69.759
G1 X129 Y104.08 E69.771
G1 X127.72 Y104.51 E69.809
G1 X125.87 Y104.8 E69.862
G1 X121.64 Y105.37 E69.983
G1 X117.42 Y105.94 E70.104
G1 X113.19 Y106.51 E70.224
G1 X108.96 Y107.08 E70.345
G1 X104.61 Y107.08 E70.468
G1 X100.25 Y107.07 E70.591
G1 X99.87 Y107.17 E70.603
G1 X99.83 Y107.18
G1 X99.48 Y108.08
G1 X99.19 Y108.31
G1 X98.62 Y108.36
G1 X97.52 Y108.36
G1 X99.45 Y106.8 F7800
G1 X94.59 Y107.55
G1 X86.56 Y105.7
G1 X85.71 Y102.83
; TYPE:FILL
G1 X85.57 Y101.42 E70.629 F3600
G1 X85.51 Y100.34 E70.644
G1 X85.51 Y99.19 E70.66
G1 X85.56 Y98.2 E70.674
G1 X85.73 Y96.87 E70.693
G1 X85.74 Y96.77 E70.695
G1 X86.37 Y94.69 F7800
G1 X90.98 Y93.37
G1 X91.68 Y93.45
G1 X91.84 Y92.89 E70.698 F3600
G1 X92.09 Y92.53 E70.7
G1 X98.26 Y92.52 F7800
G1 X98.56 Y92.61 E70.708 F3600
G1 X98.64 F7800
G1 X98.71 Y92.9 E70.712 F3600
G1 X98.79 Y93.16 E70.717
G1 X98.83 F7800
G1 X99.19 Y93.24 E70.726 F3600
G1 X98.56 Y92.52 F7800
G1 X98.34 Y92.37 E70.733 F3600
G1 E69.733 F1800
G1 Y92.56 F7800
G1 X92.2 Y92.61
G1 X90.54 Y93.61
G1 X87.07 Y94.2
G1 X85.78 Y97.1
G1 X85.97 Y103.78
G1 X87.23 Y105.84
G1 X92.17 Y106.7
G1 X93.9 Y107.44
G1 X98.32 Y107.04
G1 X99.16 Y106.48
G1 E70.733 F1800
G1 X99.29 Y106.5 E70.735 F3600
G1 X99.15 Y106.62 E70.737
G1 X99.15 Y106.63 F7800
G1 X99.16 Y106.54 E70.739 F3600
G1 X99.16 Y106.54 F7800
G1 X99.11 Y106.73 E70.74 F3600
G1 X98.75 Y107.53 E70.748
G1 X99.16 Y106.51 F7800
G1 X99.4 Y106.48 E70.751 F3600
G1 X96.19 Y107.53 F7800
G1 X92.18 Y107.57
G1 X91.94 Y106.97 E70.761 F3600
G1 X91.79 Y106.74 E70.766
G1 X91.73 Y106.74 F7800
G1 X91.86 Y106.79 E70.769 F3600
G1 X95.02 Y107.52 F7800
G1 X97.4 Y107.51
G1 X100.41 Y106.29
G1 X110.95 Y106.07
G1 X112.86 Y105.62
G1 X114.24 Y103.29
G1 X114.27 Y103.12 E70.772 F3600
G1 X114.48 Y101.55 E70.797
G1 X114.53 Y100.83 E70.809
G1 X114.57 Y99.7 E70.829
G1 X114.56 Y99.49 E70.832
G1 X114.41 Y97.99 E70.854
G1 X114.22 Y96.81 E70.879
G1 X114.16 Y96.25 E70.891
G1 X115.26 Y94.71 F7800
G1 X116.37 Y94.5
G1 X118 Y94.63 E70.9 F3600
G1 X128.78 Y96.21 F7800
G1 X128.92 Y96.32 E70.9 F3600
G1 X129.38 Y96.76 E70.903
G1 E69.903 F1800
G1 X129.19 F7800
G1 X127.08 Y95.71
G1 X116.36 Y94.31
G1 X113.29 Y94.67
G1 X111.27 Y93.66
G1 X98.57 Y93.19
G1 X96.07 Y92.39
G1 X92.2 Y92.61
G1 X89.92 Y93.6
G1 X80.83 Y94.99
G1 X71.73 Y96.38
G1 E70.903 F1800
G1 X71.21 Y96.57 E70.906 F3600
; Layer Change GCode
; LAYER:4
; LAYER_HEIGHT:0.4
; TYPE:FILL
M400
M106 S255
G1 E69.906 F1800
G1 Z1.9 F7800
G1 X71.29 Y97.9
G1 X70.36
G1 X71 Y98.07
G1 X70.76 Y99.12
G1 X70.21 Y98.83
; TYPE:WALL-INNER
G1 E70.906 F1800
G1 X70.99 Y98.82 E70.928 F1620
G1 X71.1 Y98.83 E70.931
G1 X70.68 Y99.32 E70.949
G1 X70.6 Y100.12 E70.972
G1 X70.59 Y101.07 E70.999
G1 X70.26 Y101.07 E71.008
G1 X70.18 Y99.22 E71.06
G1 X70.2 Y98.88 E71.07
G1 X70.21 Y98.83
G1 X69.82 Y98.37 F7800
; TYPE:WALL-OUTER
G1 X69.89 Y98.33 E71.072 F1134
G1 X70.99 Y98.32 E71.103
G1 X73.03 Y98.42 E71.161
G1 X73.47 Y98.57 E71.174
G1 X73.96 Y98.94 E71.192
G1 X74.24 Y99.33 E71.205
G1 X74.36 Y99.87 E71.221
G1 X74.33 Y100.34 E71.234
G1 X74.16 Y100.7 E71.246
G1 X73.78 Y101.13 E71.262
G1 X73.31 Y101.43 E71.278
G1 X73.07 Y101.48 E71.284
G1 X72.83 Y101.44 E71.291
G1 X72.7 Y101.3 E71.297
G1 X72.69 Y101.14 E71.301
G1 X72.9 Y100.94 E71.309
G1 X73.4 Y100.66 E71.326
G1 X73.63 Y100.28 E71.338
G1 X73.62 Y99.72 E71.354
G1 X73.32 Y99.25 E71.37
G1 X72.72 Y99.01 E71.388
G1 X72.21 Y98.96 E71.403
G1 X71.55 Y99.07 E71.422
G1 X71.16 Y99.52 E71.438
G1 X71.1 Y100.15 E71.456
G1 X71.08 Y101.56 E71.496
G1 X71.01 Y101.58 E71.499
G1 X69.94 Y101.56 E71.529
G1 X69.8 Y101.48 E71.533
G1 X69.75 Y101.01 E71.547
G1 X69.68 Y99.2 E71.598
G1 X69.74 Y98.47 E71.619
G1 X69.79 Y98.41 E71.621
G1 X69.82 Y98.37
G1 X69.89 Y98.33
G1 X70.99 Y98.32
G1 X72.81 Y98.41
G1 X70.21 Y98.83 F7800
G1 X70.5 Y99.08
; TYPE:FILL
G1 X70.47 Y99.17 E71.621 F3240
G1 X70.44 Y99.14 F7800
G1 X70.53 Y99.11 E71.622 F3240
G1 X71.18 Y98.73 F7800
G1 X71.42 Y98.71 E71.623 F3240
G1 X72.2 Y98.67 E71.626
G1 X72.78 Y98.71 E71.629
G1 X72.85 Y98.74 F7800
G1 X73.13 Y98.82 E71.634 F3240
G1 X73.42 Y98.92 E71.639
G1 X73.58 Y99.09 E71.642
G1 X73.8 Y99.34 E71.647
G1 X73.93 Y99.54 E71.651
G1 X73.96 Y99.75 E71.653
G1 X73.95 Y99.62 F7800
G1 X73.99 Y99.89 E71.655 F3240
G1 X73.94 Y100.36 E71.658
G1 X73.9 Y100.42 F7800
G1 X73.77 Y100.7 E71.66 F3240
G1 X73.61 Y100.88 E71.661
G1 X73.61 Y100.87 F7800
G1 X73.59 Y100.9 E71.661 F3240
G1 E70.661 F1800
G1 X73.47 Y100.78 F7800
G1 X74.61 Y99.85
G1 X75.36 Y99.84
G1 X75.55
G1 X82.69 Y99.81
G1 X89.83 Y99.78
G1 X96.97 Y99.75
G1 X104.11 Y99.72
G1 X111.25 Y99.69
G1 X118.39 Y99.66
G1 X125.53 Y99.63
G1 X126.1
G1 X126.77 Y98.6
G1 X128.99 Y98.74
G1 X129.4 Y100.72
G1 X129.84 Y100.71
; TYPE:WALL-INNER
G1 E71.661 F1800
G1 X129.4 Y100.72 E71.674 F1620
G1 X129.36 Y99.46 E71.71
G1 X129.23 Y98.7 E71.731
G1 X129.23 Y98.64 F7800
G1 X129.11 Y98.59 E71.735 F1620
G1 X129.23 F7800
G1 X129.87 Y98.58 E71.753 F1620
G1 X129.84 Y100.71 E71.813
G1 X128.92 Y101.21 F7800
; TYPE:WALL-OUTER
G1 X128.86 Y99.51 E71.862 F1134
G1 X128.77 Y98.95 E71.878
G1 X128.52 Y98.73 E71.887
G1 X127.86 Y98.65 E71.906
G1 X127.26 Y98.7 E71.923
G1 X126.92 Y98.9 E71.934
G1 X126.55 Y99.4 E71.952
G1 X126.47 Y99.75 E71.962
G1 X126.66 Y100.27 E71.977
G1 X127.12 Y100.62 E71.994
G1 X127.45 Y100.84 E72.005
G1 X127.47 Y100.97 E72.009
G1 X127.43 Y101.06 E72.011
G1 X127.28 Y101.16 E72.017
G1 X127.05 Y101.18 E72.023
G1 X126.71 Y101.06 E72.033
G1 X126.1 Y100.6 E72.055
G1 X125.84 Y100.11 E72.071
G1 X125.79 Y99.64 E72.084
G1 X125.87 Y99.24 E72.096
G1 X126.05 Y98.87 E72.107
G1 X126.53 Y98.42 E72.126
G1 X127 Y98.19 E72.141
G1 X127.71 Y98.1 E72.161
G1 X130.26 Y98.08 E72.233
G1 X130.37 Y98.11 E72.236
G1 X130.34 Y101.11 E72.321
G1 X130.23 Y101.2 E72.325
G1 X129 Y101.23 E72.36
G1 X128.92 Y101.21
G1 X128.86 Y99.51
G1 X128.77 Y98.95
G1 X128.52 Y98.73
G1 X128.12 Y98.68
G1 X129.4 Y100.72 F7800
G1 X129.56 Y98.84
; TYPE:FILL
G1 X129.56 Y98.83 E72.36 F3240
G1 X129 Y98.58 F7800
G1 X128.63 Y98.42 E72.364 F3240
G1 X127.86 Y98.37 E72.366
G1 X127.73 Y98.38 E72.366
G1 X127.14 Y98.46 F7800
G1 X126.91 Y98.57 E72.368 F3240
G1 X126.89 Y98.56 F7800
G1 X126.71 Y98.67 E72.369 F3240
G1 X126.34 Y99.08 E72.373
G1 X126.24 Y99.25 E72.375
G1 X126.29 Y99.18 F7800
G1 X126.21 Y99.31 E72.377 F3240
G1 X126.2 Y99.57 E72.38
G1 X126.15 Y99.9 E72.385
G1 X126.29 Y100.2 E72.388
G1 X126.41 Y100.44 E72.39
G1 X126.37 Y100.41 F7800
G1 X126.42 Y100.46 E72.39 F3240
G1 X126.86 Y100.8 E72.393
G1 X126.75 Y100.68 F7800
G1 X126.17 Y99.85
G1 X126.71 Y98.67
G1 X126.9 Y98.56 E72.395 F3240
G1 X127.12 Y98.44 E72.396
; Layer Change GCode
; LAYER:5
; LAYER_HEIGHT:0.4
; TYPE:FILL
G1 E71.396 F1800
G1 Z2.3 F7800
G1 X125.53 Y99.63
G1 X124.78 Y99.63
G1 X124.41
G1 X117.3 Y99.66
G1 X110.18 Y99.69
G1 X103.07 Y99.72
G1 X95.95 Y99.76
G1 X88.84 Y99.79
G1 X81.72 Y99.82
G1 X74.61 Y99.85
G1 X73.91
G1 X73.5 Y99.1
G1 X71.2 Y98.83
G1 X70.41 Y100.35
G1 X70.59 Y101.07
; TYPE:WALL-INNER
G1 E72.396 F1800
G1 X70.26 Y101.07 E72.406 F1440
G1 X70.18 Y99.22 E72.458
G1 X70.21 Y98.83 E72.469
G1 X70.99 Y98.82 E72.491
G1 X71.1 Y98.83 E72.494
G1 X70.68 Y99.32 E72.512
G1 X70.6 Y100.12 E72.535
G1 X70.59 Y101.02 E72.561
G1 X70.59 Y101.07
G1 X71.08 Y101.56 F7800
; TYPE:WALL-OUTER
G1 X71.01 Y101.58 E72.563 F1008
G1 X69.94 Y101.56 E72.593
G1 X69.8 Y101.48 E72.598
G1 X69.75 Y101.01 E72.611
G1 X69.68 Y99.2 E72.662
G1 X69.74 Y98.47 E72.683
G1 X69.82 Y98.37 E72.687
G1 X69.89 Y98.33 E72.689
G1 X70.99 Y98.32 E72.72
G1 X73.03 Y98.42 E72.778
G1 X73.47 Y98.57 E72.791
G1 X73.96 Y98.94 E72.808
G1 X74.24 Y99.33 E72.822
G1 X74.36 Y99.87 E72.837
G1 X74.33 Y100.34 E72.851
G1 X74.16 Y100.7 E72.862
G1 X73.78 Y101.13 E72.878
G1 X73.31 Y101.43 E72.894
G1 X73.07 Y101.48 E72.901
G1 X72.83 Y101.44 E72.908
G1 X72.7 Y101.3 E72.913
G1 X72.69 Y101.14 E72.918
G1 X72.9 Y100.94 E72.926
G1 X73.4 Y100.66 E72.942
G1 X73.63 Y100.28 E72.955
G1 X73.62 Y99.72 E72.971
G1 X73.32 Y99.25 E72.986
G1 X72.72 Y99.01 E73.005
G1 X72.21 Y98.96 E73.019
G1 X71.55 Y99.07 E73.038
G1 X71.16 Y99.52 E73.055
G1 X71.1 Y100.15 E73.073
G1 X71.09 Y101.51 E73.111
G1 X71.08 Y101.56
G1 X71.01 Y101.58
G1 X69.94 Y101.56
G1 X69.8 Y101.48
G1 X69.75 Y101.01
G1 X69.7 Y99.79
G1 X70.59 Y101.07 F7800
G1 X70.47 Y99.17
; TYPE:FILL
G1 X70.5 Y99.08 E73.112 F2880
G1 X70.53 Y99.11 F7800
G1 X70.44 Y99.14 E73.112 F2880
G1 X71.18 Y98.73 F7800
G1 X71.42 Y98.71 E73.114 F2880
G1 X72.2 Y98.67 E73.117
G1 X72.78 Y98.71 E73.12
G1 X72.85 Y98.74 F7800
G1 X73.13 Y98.82 E73.125 F2880
G1 X73.42 Y98.92 E73.129
G1 X73.58 Y99.09 E73.133
G1 X73.8 Y99.34 E73.138
G1 X73.93 Y99.54 E73.141
G1 X73.96 Y99.75 E73.144
G1 X73.95 Y99.62 F7800
G1 X73.99 Y99.89 E73.146 F2880
G1 X73.94 Y100.36 E73.149
G1 X73.9 Y100.42 F7800
G1 X73.77 Y100.7 E73.151 F2880
G1 X73.61 Y100.88 E73.152
G1 X73.61 Y100.87 F7800
G1 X73.59 Y100.9 E73.152 F2880
G1 E72.152 F1800
G1 X73.47 Y100.78 F7800
G1 X74.61 Y99.85
G1 X75.36 Y99.84
G1 X75.55
G1 X82.69 Y99.81
G1 X89.83 Y99.78
G1 X96.97 Y99.75
G1 X104.11 Y99.72
G1 X111.25 Y99.69
G1 X118.39 Y99.66
G1 X125.53 Y99.63
G1 X126.1
G1 X126.77 Y98.6
G1 X128.99 Y98.74
G1 X129.4 Y100.72
G1 X129.84 Y100.71
; TYPE:WALL-INNER
G1 E73.152 F1800
G1 X129.4 Y100.72 E73.164 F1440
G1 X129.36 Y99.46 E73.2
G1 X129.23 Y98.7 E73.222
G1 X129.23 Y98.64 F7800
G1 X129.11 Y98.59 E73.226 F1440
G1 X129.23 F7800
G1 X129.87 Y98.58 E73.244 F1440
G1 X129.84 Y100.71 E73.304
G1 X128.92 Y101.21 F7800
; TYPE:WALL-OUTER
G1 X128.86 Y99.51 E73.352 F1008
G1 X128.77 Y98.95 E73.368
G1 X128.52 Y98.73 E73.378
G1 X127.86 Y98.65 E73.397
G1 X127.26 Y98.7 E73.414
G1 X126.92 Y98.9 E73.425
G1 X126.55 Y99.4 E73.442
G1 X126.47 Y99.75 E73.452
G1 X126.66 Y100.27 E73.468
G1 X127.12 Y100.62 E73.484
G1 X127.45 Y100.84 E73.495
G1 X127.47 Y100.97 E73.499
G1 X127.43 Y101.06 E73.502
G1 X127.28 Y101.16 E73.507
G1 X127.05 Y101.18 E73.514
G1 X126.71 Y101.06 E73.524
G1 X126.1 Y100.6 E73.545
G1 X125.84 Y100.11 E73.561
G1 X125.79 Y99.64 E73.575
G1 X125.87 Y99.24 E73.586
G1 X126.05 Y98.87 E73.598
G1 X126.53 Y98.42 E73.617
G1 X127 Y98.19 E73.631
G1 X127.71 Y98.1 E73.652
G1 X130.26 Y98.08 E73.724
G1 X130.37 Y98.11 E73.727
G1 X130.34 Y101.11 E73.812
G1 X130.23 Y101.2 E73.816
G1 X129 Y101.23 E73.851
G1 X128.92 Y101.21
G1 X128.86 Y99.51
G1 X128.77 Y98.95
G1 X128.52 Y98.73
G1 X128.12 Y98.68
G1 X129.4 Y100.72 F7800
G1 X129.56 Y98.84
; TYPE:FILL
G1 X129.56 Y98.83 E73.851 F2880
G1 X129 Y98.58 F7800
G1 X128.63 Y98.42 E73.854 F2880
G1 X127.86 Y98.37 E73.857
G1 X127.73 Y98.38 E73.857
G1 X127.14 Y98.46 F7800
G1 X126.91 Y98.57 E73.858 F2880
G1 X126.89 Y98.56 F7800
G1 X126.71 Y98.67 E73.86 F2880
G1 X126.34 Y99.08 E73.863
G1 X126.24 Y99.25 E73.865
G1 X126.29 Y99.18 F7800
G1 X126.21 Y99.31 E73.867 F2880
G1 X126.2 Y99.57 E73.87
G1 X126.15 Y99.9 E73.876
G1 X126.29 Y100.2 E73.878
G1 X126.41 Y100.44 E73.88
G1 X126.37 Y100.41 F7800
G1 X126.42 Y100.46 E73.881 F2880
G1 X126.86 Y100.8 E73.884
G1 X126.75 Y100.68 F7800
G1 X126.17 Y99.85
G1 X126.71 Y98.67
G1 X126.9 Y98.56 E73.885 F2880
G1 X127.12 Y98.44 E73.887
M400
M107
; MatterSlice Completed Successfully
M104 S0 ; turn off temperature
G28 X0  ; home X axis
M84     ; disable motors
; filament used = 73.9
; filament used extruder 1 (mm) = 73.9
; filament used extruder 2 (mm) = 0.0
; total print time (s) = 152
; MatterControl Version 2.20.4.10455 Build 2.20.4.10455 : GCode settings used
; Date 06/01/2020 00:00:00 Time 20:01
; numberOfBottomLayers = 3
; numberOfPerimeters = 3
; raftExtraDistanceAroundPart = 5
; supportInterfaceLayers = 2
; numberOfTopLayers = 3
; outsidePerimeterExtrusionWidth = 0.5
; outsidePerimeterSpeed = 21
; firstLayerSpeed = 18
; numberOfFirstLayers = 1
; raftPrintSpeed = 60
; topInfillSpeed = 50
; firstLayerExtrusionWidth = 0.5
; firstLayerThickness = 0.3
; endCode = M104 S0 ; turn off temperature\nG28 X0  ; home X axis\nM84     ; disable motors
; minimumTravelToCauseRetraction = 20
; retractionOnTravel = 1
; retractionZHop = 0
; unretractExtraExtrusion = 0
; retractRestartExtraTimeToApply = 0
; retractionSpeed = 30
; bridgeSpeed = 20
; airGapSpeed = 15
; bottomInfillSpeed = 60
; bridgeOverInfill = False
; extrusionMultiplier = 1
; infillStartingAngle = 45
; infillExtendIntoPerimeter = 0.06
; infillSpeed = 60
; infillType = TRIANGLES
; minimumExtrusionBeforeRetraction = .1
; minimumPrintingSpeed = 10
; insidePerimetersSpeed = 30
; raftAirGap = .2
; maxAcceleration = 1000
; maxVelocity = 500
; jerkVelocity = 8
; printTimeEstimateMultiplier = 1
; fanSpeedMinPercent = 35
; coastAtEndDistance = 3
; minFanSpeedLayerTime = 60
; fanSpeedMaxPercent = 100
; maxFanSpeedLayerTime = 30
; bridgeFanSpeedPercent = 100
; firstLayerToAllowFan = 1
; retractionOnExtruderSwitch = 10
; unretractExtraOnExtruderSwitch = 0
; resetLongExtrusion = True
; minimumLayerTimeSeconds = 30
; supportAirGap = .3
; supportInfillStartingAngle = 45
; supportLineSpacing = 2.5
; supportMaterialSpeed = 60
; interfaceLayerSpeed = 60
; supportXYDistanceFromObject = 0.7
; supportType = LINES
; travelSpeed = 130
; wipeShieldDistanceFromObject = 0
; wipeTowerSize = 0
; filamentDiameter = 3
; layerThickness = 0.4
; extrusionWidth = 0.5
; extruderCount = 1
; avoidCrossingPerimeters = True
; enableRaft = False
; outsidePerimetersFirst = False
; outputOnlyFirstLayer = False
; retractWhenChangingIslands = True
; generateSupportPerimeter = True
; generateSupport = False
; generateInternalSupport = True
; supportGrabDistance = 1
; supportPercent = 50
; expandThinWalls = True
; MergeOverlappingLines = True
; fillThinGaps = True
; continuousSpiralOuterPerimeter = False
; startCode = ; automatic settings before start_gcode\nG21 ; set units to millimeters\nM107 ; fan off\nM140 S70 ; start heating the bed\nM104 T0 S200 ; start heating T0\nT0 ; set the active extruder to 0\n; settings from start_gcode\nG28 ; home all axes\nG1 Z5 F5000 ; lift nozzle\n; automatic settings after start_gcode\nM190 S70 ; wait for bed temperature to be reached\nM109 T0 S200 ; Finish heating T0\nT0 ; set the active extruder to 0\nG90 ; use absolute coordinates\nG92 E0 ; reset the expected extruder position\nM82 ; use absolute distance for extrusion
; layerChangeCode = ; LAYER:[layer_num]
; infillPercent = 40
; perimeterStartEndOverlapRatio = 0.9
; raftExtruder = -1
; supportExtruder = 0
; supportInterfaceExtruder = 0
; numberOfSkirtLoops = 1
; skirtDistanceFromObject = 6
; skirtMinLength = 0
; numberOfBrimLoops = 0
