; Generated with MatterSlice 2.20.4
; filamentDiameter = 3
; extrusionWidth = 0.5
; firstLayerExtrusionWidth = 0.5
; layerThickness = 0.4
; firstLayerThickness = 0.3
; automatic settings before start_gcode
G21 ; set units to millimeters
M107 ; fan off
M140 S70 ; start heating the bed
M104 T0 S200 ; start heating T0
T0 ; set the active extruder to 0
; settings from start_gcode
G28 ; home all axes
G1 Z5 F5000
; automatic settings after start_gcode
M190 S70 ; wait for bed temperature to be reached
M109 T0 S200 ; Finish heating T0
T0 ; set the active extruder to 0
G90 ; use absolute coordinates
G92 E0 ; reset the expected extruder position
M82 ; use absolute distance for extrusion
; Layer count: 6
; Layer Change GCode
; LAYER:0
; LAYER_HEIGHT:0.3
; TYPE:FILL
M400
M107
G1 X0 Y0 Z0.3 F7800
G1 X64.99 Y87.82
G1 X66.03 Y92.18
; TYPE:SKIRT
G1 F1800
G1 X67.81 Y90.9 E0.046 F1080
G1 X69.62 Y90.28 E0.087
G1 X90.57 Y86.13 E0.54
G1 X98.93 Y86.12 E0.718
G1 X109.16 Y87.26 E0.936
G1 X125.39 Y89.23 E1.283
G1 X129.46 Y89.87 E1.37
G1 X137.35 Y92.58 E1.547
G1 Y104.46 E1.8
G1 X131.71 Y108.69 E1.949
G1 X130.42 Y109.25 E1.979
G1 X128.54 Y109.87 E2.021
G1 X125.9 Y110.29 E2.078
G1 X109.17 Y112.53 E2.436
G1 X99.38 Y113.77 E2.645
G1 X98.3 Y113.87 E2.668
G1 X90.98 Y113.88 E2.824
G1 X70.31 Y110.17 E3.269
G1 X68.61 Y109.7 E3.307
G1 X67.01 Y108.81 E3.346
G1 X65.17 Y107.06 E3.4
G1 X64.15 Y104.96 E3.449
G1 X63.81 Y103.11 E3.489
G1 X63.64 Y99.05 E3.575
G1 X63.93 Y95.96 E3.641
G1 X64.72 Y93.85 E3.689
G1 X66.03 Y92.18 E3.734
G1 E2.734 F1800
G1 X70.26 Y96.58 F7800
G1 X81.8 Y94.57
G1 X90 Y93.51
G1 X90.56 Y92.83
; TYPE:WALL-OUTER
G1 E3.734 F1800
G1 X90.74 Y92.44 E3.743 F1080
G1 X90.86 Y91.8 E3.757
G1 X90.95 Y91.69 E3.76
G1 X91.12 Y91.63 E3.764
G1 X98.58 Y91.62 E3.922
G1 X98.81 Y91.73 E3.928
G1 X98.95 Y92.07 E3.936
G1 X99.04 Y92.53 E3.945
G1 X99.34 Y92.8 E3.954
G1 X108.54 Y92.73 E4.149
G1 X124.63 Y94.67 E4.493
G1 X128.13 Y95.22 E4.568
G1 X128.74 Y95.46 E4.582
G1 X129.31 Y95.96 E4.598
G1 X129.6 Y96.4 E4.61
G1 X129.76 Y96.86 E4.62
G1 X129.85 Y98 E4.644
G1 X129.83 Y102.38 E4.737
G1 X129.63 Y103.13 E4.753
G1 X129.34 Y103.55 E4.764
G1 X128.91 Y103.91 E4.776
G1 X128.45 Y104.11 E4.787
G1 X127.24 Y104.51 E4.814
G1 X125.11 Y104.85 E4.86
G1 X108.48 Y107.08 E5.216
G1 X99.78 Y107.07 E5.401
G1 X99.35 Y107.18 E5.41
G1 X99 Y108.08 E5.43
G1 X98.71 Y108.31 E5.438
G1 X98.04 Y108.37 E5.453
G1 X91.48 Y108.38 E5.592
G1 X91.06 Y108.27 E5.601
G1 X90.89 Y108.09 E5.606
G1 X90.69 Y107.49 E5.62
G1 X90.35 Y107.24 E5.629
G1 X76.9 Y105.56 E5.916
G1 X71.52 Y104.8 E6.031
G1 X70.71 Y104.57 E6.049
G1 X70.3 Y104.35 E6.059
G1 X69.69 Y103.76 E6.077
G1 X69.42 Y103.22 E6.09
G1 X69.29 Y102.48 E6.106
G1 X69.15 Y99.19 E6.176
G1 X69.34 Y97.2 E6.218
G1 X69.57 Y96.58 E6.232
G1 X69.87 Y96.19 E6.243
G1 X70.36 Y95.84 E6.255
G1 X71.05 Y95.61 E6.271
G1 X76.49 Y94.75 E6.388
G1 X87.02 Y93.36 E6.613
G1 X90.51 Y92.84 E6.688
G1 X90.56 Y92.83
G1 X90.74 Y92.44
G1 X90.86 Y91.8
G1 X90.95 Y91.69
G1 X91.12 Y91.63
G1 X92.71 Y91.63
G1 X90.89 Y93.29 F7800
; TYPE:WALL-INNER
G1 X91.22 Y92.6 E6.704 F1080
G1 X91.3 Y92.13 E6.714
G1 X98.43 Y92.12 E6.865
G1 X98.46 Y92.21 E6.868
G1 X98.58 Y92.79 E6.88
G1 X99.16 Y93.3 E6.896
G1 X108.51 Y93.23 E7.095
G1 X124.58 Y95.17 E7.438
G1 X128 Y95.71 E7.512
G1 X128.48 Y95.89 E7.523
G1 X128.93 Y96.28 E7.535
G1 X129.15 Y96.63 E7.544
G1 X129.27 Y96.96 E7.552
G1 X129.35 Y98.03 E7.574
G1 X129.33 Y102.32 E7.665
G1 X129.17 Y102.92 E7.678
G1 X128.97 Y103.21 E7.686
G1 X128.65 Y103.48 E7.695
G1 X128.28 Y103.64 E7.703
G1 X127.13 Y104.02 E7.729
G1 X125.02 Y104.35 E7.774
G1 X108.45 Y106.58 E8.129
G1 X99.71 Y106.57 E8.315
G1 X98.97 Y106.76 E8.331
G1 X98.58 Y107.77 E8.354
G1 X98.52 Y107.82 E8.356
G1 X98.01 Y107.87 E8.366
G1 X91.54 Y107.88 E8.504
G1 X91.33 Y107.83 E8.508
G1 X91.11 Y107.18 E8.523
G1 X90.53 Y106.76 E8.538
G1 X76.97 Y105.06 E8.828
G1 X71.62 Y104.31 E8.943
G1 X70.9 Y104.11 E8.959
G1 X70.6 Y103.94 E8.966
G1 X70.1 Y103.46 E8.981
G1 X69.9 Y103.06 E8.99
G1 X69.78 Y102.43 E9.004
G1 X69.65 Y99.21 E9.072
G1 X69.83 Y97.31 E9.112
G1 X70.01 Y96.83 E9.123
G1 X70.22 Y96.56 E9.131
G1 X70.59 Y96.29 E9.14
G1 X71.18 Y96.09 E9.153
G1 X76.55 Y95.25 E9.269
G1 X87.09 Y93.86 E9.494
G1 X90.85 Y93.3 E9.575
G1 X90.89 Y93.29
G1 E8.575 F1800
G1 X86.59 Y94.2 F7800
G1 X85.3 Y97.1
G1 X85.49 Y103.78
G1 X86.76 Y105.84
G1 X92.43 Y106.94
; TYPE:WALL-OUTER
G1 E9.575 F1800
G1 X96.94 Y107 E9.671 F1080
G1 X97.63 Y106.89 E9.686
G1 X97.83 Y106.49 E9.695
G1 X97.87 Y105.99 E9.706
G1 X98 Y105.78 E9.711
G1 X98.15 Y105.73 E9.714
G1 X111.26 Y105.68 E9.993
G1 X112.01 Y105.44 E10.009
G1 X112.46 Y104.34 E10.034
G1 X112.86 Y102.94 E10.065
G1 X113.11 Y101.46 E10.097
G1 X113.19 Y99.71 E10.134
G1 X113.06 Y98.12 E10.168
G1 X112.71 Y96.44 E10.205
G1 X112.31 Y95.27 E10.231
G1 X112 Y94.76 E10.244
G1 X111.39 Y94.23 E10.261
G1 X110.73 Y94.15 E10.275
G1 X98.1 Y94.14 E10.543
G1 X97.76 Y94 E10.551
G1 X97.52 Y93.58 E10.561
G1 X97.41 Y93.23 E10.569
G1 X97.25 Y93.05 E10.574
G1 X92.39 Y93.11 E10.677
G1 X92.09 Y93.34 E10.685
G1 X91.95 Y94.06 E10.701
G1 X91.81 Y94.19 E10.705
G1 X90.5 Y94.32 E10.732
G1 X87.6 Y94.36 E10.794
G1 X87.17 Y94.57 E10.804
G1 X86.63 Y95.33 E10.824
G1 X86.18 Y97.04 E10.862
G1 X85.96 Y98.28 E10.888
G1 X85.9 Y100.31 E10.931
G1 X86.15 Y102.68 E10.982
G1 X86.59 Y104.26 E11.017
G1 X87.04 Y105.4 E11.043
G1 X87.41 Y105.71 E11.053
G1 X88.71 Y105.79 E11.081
G1 X91.8 Y105.81 E11.146
G1 X92.02 Y105.88 E11.151
G1 X92.14 Y106.09 E11.156
G1 X92.18 Y106.37 E11.162
G1 X92.31 Y106.56 E11.167
G1 X92.41 Y106.89 E11.175
G1 X92.43 Y106.94
G1 X95.43 Y106.98
G1 X91.85 Y106.78 F7800
; TYPE:WALL-INNER
G1 X92.07 Y107.43 E11.189 F1080
G1 X96.98 Y107.51 E11.293
G1 X97.96 Y107.34 E11.315
G1 X98.32 Y106.63 E11.331
G1 X98.35 Y106.23 E11.34
G1 X111.34 Y106.18 E11.615
G1 X112.39 Y105.85 E11.639
G1 X112.93 Y104.51 E11.67
G1 X113.35 Y103.05 E11.702
G1 X113.61 Y101.51 E11.735
G1 X113.69 Y99.7 E11.773
G1 X113.56 Y98.05 E11.808
G1 X113.19 Y96.31 E11.846
G1 X112.76 Y95.05 E11.874
G1 X112.39 Y94.43 E11.89
G1 X111.6 Y93.75 E11.912
G1 X110.76 Y93.65 E11.93
G1 X98.2 Y93.64 E12.196
G1 X98.11 Y93.6 E12.198
G1 X97.98 Y93.38 E12.204
G1 X97.86 Y92.97 E12.213
G1 X97.46 Y92.55 E12.225
G1 X92.22 Y92.61 E12.336
G1 X91.63 Y93.05 E12.352
G1 X91.51 Y93.72 E12.366
G1 X90.47 Y93.82 E12.388
G1 X87.48 Y93.86 E12.452
G1 X86.84 Y94.18 E12.467
G1 X86.17 Y95.11 E12.491
G1 X85.69 Y96.94 E12.531
G1 X85.46 Y98.23 E12.559
G1 X85.4 Y100.33 E12.604
G1 X85.65 Y102.77 E12.656
G1 X86.12 Y104.42 E12.692
G1 X86.62 Y105.71 E12.722
G1 X87.22 Y106.2 E12.738
G1 X88.7 Y106.29 E12.769
G1 X91.66 Y106.31 E12.832
G1 X91.7 Y106.56 E12.838
G1 X91.82 Y106.74 E12.843
G1 X91.85 Y106.78
G1 X91.67 Y106.97 F7800
G1 X86.31 Y105.49
G1 X84.23 Y104.06
; TYPE:WALL-OUTER
G1 X84.37 Y103.59 E12.853 F1080
G1 X84.29 Y102.37 E12.879
G1 X84.18 Y101.49 E12.898
G1 X84.14 Y99.16 E12.947
G1 X84.32 Y96.75 E12.998
G1 X84.22 Y96.08 E13.013
G1 X83.72 Y95.6 E13.027
G1 X83.12 Y95.42 E13.041
G1 X82.59 Y95.38 E13.052
G1 X81.36 Y95.51 E13.078
G1 X71.62 Y97.08 E13.288
G1 X70.75 Y97.43 E13.307
G1 X70.57 Y97.85 E13.317
G1 X70.6 Y102.47 E13.415
G1 X71.09 Y103.13 E13.433
G1 X71.63 Y103.44 E13.446
G1 X77.94 Y104.27 E13.581
G1 X81.33 Y104.65 E13.653
G1 X82.92 Y104.62 E13.687
G1 X83.4 Y104.56 E13.698
G1 X84.19 Y104.08 E13.717
G1 X84.23 Y104.06
G1 X84.37 Y103.59
G1 X84.29 Y102.37
G1 X84.18 Y101.49
G1 X84.17 Y101.09
G1 X84.66 Y104.39 F7800
; TYPE:WALL-INNER
G1 X84.88 Y103.65 E13.733 F1080
G1 X84.79 Y102.33 E13.761
G1 X84.68 Y101.45 E13.78
G1 X84.64 Y99.18 E13.828
G1 X84.82 Y96.73 E13.88
G1 X84.68 Y95.84 E13.9
G1 X83.98 Y95.16 E13.92
G1 X83.21 Y94.92 E13.937
G1 X82.58 Y94.87 E13.951
G1 X81.29 Y95.02 E13.978
G1 X71.49 Y96.6 E14.189
G1 X70.38 Y97.04 E14.215
G1 X70.06 Y97.74 E14.231
G1 X70.1 Y102.63 E14.335
G1 X70.75 Y103.52 E14.358
G1 X71.46 Y103.93 E14.375
G1 X77.88 Y104.77 E14.513
G1 X81.3 Y105.15 E14.586
G1 X82.96 Y105.12 E14.621
G1 X83.57 Y105.04 E14.634
G1 X84.61 Y104.41 E14.66
G1 X84.66 Y104.39
G1 X85.38 Y103.71 F7800
G1 X85.08 Y104.71 E14.682 F1080
G1 X83.9 Y105.43 E14.711
G1 X86.08 Y105.7 E14.758
G1 X85.64 Y104.57 E14.784
G1 X85.4 Y103.7 E14.803
G1 X85.39 Y103.71 F7800
G1 X85.37 Y103.62 E14.805 F1080
G1 E13.805 F1800
G1 X86.76 Y105.84 F7800
G1 X91.7 Y106.7
G1 X93.42 Y107.44
G1 X97.84 Y107.04
G1 X101.29 Y106.32
G1 X111.22 Y106
G1 X112.97 Y105.01
G1 X113.94 Y99.7
G1 X113.9 Y97.03
G1 X114.69 Y95.89
; TYPE:WALL-OUTER
G1 E14.805 F1800
G1 X114.67 Y96.73 E14.822 F1080
G1 X115 Y99.44 E14.88
G1 X114.96 Y100.88 E14.911
G1 X114.73 Y103.27 E14.962
G1 X114.91 Y103.84 E14.974
G1 X115.28 Y104.2 E14.985
G1 X115.65 Y104.33 E14.994
G1 X117.39 Y104.36 E15.031
G1 X122.95 Y103.7 E15.149
G1 X127.4 Y103.03 E15.245
G1 X127.88 Y102.78 E15.256
G1 X128.25 Y102.32 E15.269
G1 X128.38 Y101.69 E15.283
G1 X128.35 Y97.32 E15.375
G1 X127.98 Y97.01 E15.386
G1 X126.94 Y96.53 E15.41
G1 X125.21 Y96.27 E15.447
G1 X117.46 Y95.43 E15.613
G1 X115.92 Y95.38 E15.645
G1 X115.03 Y95.51 E15.664
G1 X114.72 Y95.86 E15.674
G1 X114.69 Y95.89
G1 X114.67 Y96.73
G1 X114.93 Y98.88
G1 X114.19 Y95.7 F7800
; TYPE:WALL-INNER
G1 X114.17 Y96.76 E15.697 F1080
G1 X114.5 Y99.47 E15.755
G1 X114.46 Y100.86 E15.784
G1 X114.22 Y103.32 E15.837
G1 X114.47 Y104.12 E15.854
G1 X115.01 Y104.63 E15.87
G1 X115.56 Y104.83 E15.882
G1 X117.42 Y104.86 E15.922
G1 X123.01 Y104.19 E16.042
G1 X127.56 Y103.51 E16.139
G1 X128.2 Y103.17 E16.155
G1 X128.72 Y102.55 E16.172
G1 X128.88 Y101.74 E16.189
G1 X128.85 Y97.09 E16.288
G1 X128.25 Y96.58 E16.305
G1 X127.08 Y96.05 E16.332
G1 X125.27 Y95.78 E16.371
G1 X117.49 Y94.93 E16.537
G1 X115.89 Y94.88 E16.571
G1 X114.78 Y95.04 E16.595
G1 X114.22 Y95.66 E16.612
G1 X114.19 Y95.7
G1 X113.69 Y95.5 F7800
G1 X114.53 Y94.57 E16.639 F1080
G1 X114.54 Y94.52 F7800
G1 X114.94 Y94.51 E16.647 F1080
G1 X114.54 Y94.46 F7800
G1 X112.87 Y94.26 E16.683 F1080
G1 X113.22 Y94.84 E16.698
G1 X113.47 Y95.58 E16.714
G1 X113.58 Y95.54 F7800
G1 X113.68 Y96.18 E16.728 F1080
G1 X114.03 Y104.39 F7800
G1 X114.74 Y105.07 E16.749 F1080
G1 X114.75 Y105.15 F7800
G1 X115.07 Y105.19 E16.756 F1080
G1 X114.76 Y105.23 F7800
G1 X113.09 Y105.45 E16.791 F1080
G1 X113.41 Y104.67 E16.809
G1 X113.75 Y103.48 E16.836
G1 X114.03 Y104.39 E16.856
G1 E15.856 F1800
G1 X111.22 Y106 F7800
G1 X100.68 Y106.41
G1 X97.86 Y106.87
G1 X96.06 Y107.49
G1 X92.05 Y107.25
G1 X90.61 Y106.54
G1 X86.69 Y105.82
G1 X85.27 Y102.63
G1 X85.12 Y96.99
G1 X85.98 Y94.51
G1 E16.856 F1800
G1 X85.7 Y94.81 E16.864 F1080
G1 X85.41 Y95.66 E16.881
G1 X85.29 Y96.49 E16.899
G1 X85.15 Y95.59 F7800
G1 X84.26 Y94.74 E16.925 F1080
G1 X85.66 Y94.55 E16.955
G1 X85.26 Y96.77 F7800
; TYPE:FILL
G1 X85.25 Y96.87 E16.956 F1080
G1 X85.09 Y98.2 E16.97
G1 X85.04 Y99.19 E16.98
G1 X85.03 Y100.34 E16.992
G1 X85.09 Y101.41 E17.007
G1 X85.23 Y102.83 E17.027
G1 X86.76 Y105.84 F7800
G1 X91.26 Y106.74
G1 X91.39 Y106.79 E17.03 F1080
G1 X91.31 Y106.74 F7800
G1 X91.46 Y106.97 E17.033 F1080
G1 X91.7 Y107.58 E17.041
G1 Y107.39 F7800
G1 X98.28 Y107.53
G1 X98.63 Y106.73 E17.046 F1080
G1 X98.68 Y106.62 F7800
G1 X98.82 Y106.5 E17.048 F1080
G1 X98.68 Y106.48 E17.049
G1 Y106.51 F7800
G1 X98.92 Y106.5 E17.054 F1080
G1 X98.78 Y106.52 E17.055
G1 E16.055 F1800
G1 X96.06 Y107.49 F7800
G1 X92.05 Y107.25
G1 X90.61 Y106.54
G1 X86.69 Y105.82
G1 X85.27 Y102.63
G1 X85.52 Y95.89
G1 X86.59 Y94.2
G1 X91.3 Y93.19
G1 X93.25 Y92.22
G1 X97.71 Y92.71
G1 X98.71 Y93.24
G1 E17.055 F1800
G1 X98.35 Y93.16 E17.062 F1080
G1 X98.31 F7800
G1 X98.23 Y92.89 E17.065 F1080
G1 X98.16 Y92.6 E17.069
G1 X98.08 Y92.6 F7800
G1 X97.82 Y92.45 E17.075 F1080
G1 X98.08 Y92.52 E17.081
G1 X91.62 Y92.53 F7800
G1 X91.36 Y92.89 E17.082 F1080
G1 X91.2 Y93.45 E17.085
G1 Y93.26 F7800
G1 X83.53 Y94.57
G1 X71.25 Y96.38
G1 X70.73 Y96.57 E17.087 F1080
G1 X91.35 Y93.1 F7800
G1 X94.03 Y92.21
G1 X97.7 Y92.74
G1 X100.16 Y93.36
G1 X110.71 Y93.65
G1 X112.64 Y94.5
G1 X113.68 Y96.25
G1 X113.74 Y96.81 E17.095 F1080
G1 X113.94 Y97.99 E17.109
G1 X114.09 Y99.49 E17.125
G1 X114.09 Y99.7 E17.128
G1 X114.05 Y100.83 E17.142
G1 X114 Y101.55 E17.151
G1 X113.79 Y103.12 E17.17
G1 X113.76 Y103.29 E17.173
G1 X114.19 Y95.24 F7800
G1 X115.89 Y94.5
G1 X117.52 Y94.63 E17.18 F1080
G1 X128.3 Y96.21 F7800
G1 X128.44 Y96.32 E17.18 F1080
G1 X128.9 Y96.76 E17.182
G1 E16.182 F1800
G1 X73.9 Y99.01 F7800
G1 X74.85 Y98.08
; TYPE:SUPPORT
G1 E17.182 F1800
G1 Y102.63 E17.279 F1080
G1 X72.02 Y102.28 E17.34
G1 X71.91 Y102.22 E17.342
G1 X71.8 Y102.07 E17.346
G1 X71.77 Y98.32 E17.426
G1 X71.94 Y98.25 E17.43
G1 X73.35 Y98.02 E17.46
G1 Y98.08 E17.461
G1 X74.85 E17.493
G1 X74.22 Y98.97 F7800
G1 X73.96 Y98.7 E17.501 F1080
G1 X73.25 F7800
G1 X74.22 Y99.68 E17.53 F1080
G1 Y100.38 F7800
G1 X72.61 Y98.78 E17.579 F1080
G1 X72.41 Y99.28 F7800
G1 X74.22 Y101.09 E17.633 F1080
G1 Y101.8 F7800
G1 X72.41 Y99.99 E17.688 F1080
G1 X72.42 Y100.7 F7800
G1 X73.55 Y101.84 E17.722 F1080
G1 X72.75 Y101.74 F7800
G1 X72.42 Y101.41 E17.731 F1080
G1 E16.731 F1800
G1 X123.84 Y101.59 F7800
G1 E17.731 F1800
G1 Y98.08 E17.806 F1080
G1 X125.34 E17.838
G1 Y97.51 E17.85
G1 X126.59 Y97.69 E17.877
G1 X127.16 Y97.95 E17.89
G1 X127.18 Y101.58 E17.967
G1 X127.14 Y101.76 E17.971
G1 X127 Y101.88 E17.975
G1 X125.34 Y102.12 E18.01
G1 Y101.59 E18.022
G1 X123.84 E18.053
G1 X124.53 Y100.9 F7800
G1 X125 Y100.95
G1 X124.47 Y100.43 E18.069 F1080
G1 X124.53 F7800
G1 X124.47 Y99.72
G1 X125.7 Y100.96 E18.106 F1080
G1 X126.03 Y100.9 F7800
G1 X125.97 Y101.22
G1 X126.12 Y101.37 E18.111 F1080
G1 X126.55 Y101.09 F7800
G1 X124.47 Y99.02 E18.173 F1080
G1 X124.87 Y98.7 F7800
G1 X126.54 Y100.38 E18.223 F1080
G1 X126.48 F7800
G1 X126.54 Y99.67
G1 X125.58 Y98.71 E18.252 F1080
G1 Y98.77 F7800
G1 X126.03
G1 X125.97 Y98.39
G1 X126.53 Y98.95 E18.269 F1080
G1 E17.269 F1800
G1 X131.05 Y97.96 F7800
G1 E18.269 F1800
G1 X130.95 Y96.61 E18.298 F1080
G1 X130.93 Y96.58 E18.298
G1 X131.85 E18.318
G1 Y101.59 E18.424
G1 X131.03 E18.442
G1 X131.05 Y97.96 E18.519
; Layer Change GCode
; LAYER:1
; LAYER_HEIGHT:0.4
; TYPE:FILL
M400
M106 S196
G1 Z0.7 F7800
G1 X128.92 Y97.7
G1 X127.61 Y96.02
G1 X114.94 Y94.51
; TYPE:WALL-INNER
G1 X114.54 Y94.52 E18.53 F1800
G1 X114.54 Y94.46 F7800
G1 X112.87 Y94.26 E18.578 F1800
G1 X113.22 Y94.84 E18.597
G1 X113.47 Y95.58 E18.619
G1 X113.58 Y95.54 F7800
G1 X113.68 Y96.18 E18.637 F1800
G1 X113.69 Y95.5 F7800
G1 X114.53 Y94.57 E18.673 F1800
G1 X114.78 Y95.04 F7800
G1 X114.19 Y95.7 E18.698 F1800
G1 X114.17 Y96.76 E18.728
G1 X114.5 Y99.47 E18.805
G1 X114.46 Y100.86 E18.844
G1 X114.22 Y103.32 E18.914
G1 X114.47 Y104.12 E18.938
G1 X115.01 Y104.63 E18.959
G1 X115.56 Y104.83 E18.976
G1 X117.42 Y104.86 E19.028
G1 X120.22 Y104.53 E19.108
G1 X123.01 Y104.19 E19.188
G1 X127.56 Y103.51 E19.318
G1 X128.2 Y103.17 E19.338
G1 X128.72 Y102.55 E19.361
G1 X128.88 Y101.74 E19.385
G1 X128.85 Y97.09 E19.516
G1 X128.25 Y96.58 E19.538
G1 X127.08 Y96.05 E19.575
G1 X125.27 Y95.78 E19.626
G1 X121.38 Y95.36 E19.737
G1 X117.49 Y94.93 E19.848
G1 X115.89 Y94.88 E19.893
G1 X114.83 Y95.03 E19.923
G1 X114.78 Y95.04
G1 X115.03 Y95.51 F7800
; TYPE:WALL-OUTER
G1 X114.69 Y95.89 E19.938 F1260
G1 X114.67 Y96.73 E19.962
G1 X115 Y99.44 E20.039
G1 X114.96 Y100.88 E20.08
G1 X114.73 Y103.27 E20.148
G1 X114.91 Y103.84 E20.165
G1 X115.28 Y104.2 E20.179
G1 X115.65 Y104.33 E20.19
G1 X117.39 Y104.36 E20.24
G1 X120.17 Y104.03 E20.319
G1 X122.95 Y103.7 E20.398
G1 X127.4 Y103.03 E20.525
G1 X127.88 Y102.78 E20.541
G1 X128.25 Y102.32 E20.557
G1 X128.38 Y101.69 E20.576
G1 X128.35 Y97.32 E20.699
G1 X127.98 Y97.01 E20.713
G1 X126.94 Y96.53 E20.746
G1 X125.21 Y96.27 E20.795
G1 X121.34 Y95.85 E20.906
G1 X117.46 Y95.43 E21.016
G1 X115.92 Y95.38 E21.059
G1 X115.08 Y95.5 E21.083
G1 X115.03 Y95.51
G1 X114.69 Y95.89
G1 X114.67 Y96.73
G1 X114.87 Y98.36
G1 X114.94 Y94.51 F7800
G1 E20.083 F1800
G1 X107.98 Y93.48 F7800
G1 X98.1 Y93.17
G1 X95.59 Y92.38
G1 X91.73 Y92.61
G1 X90.07 Y93.61
G1 X86.59 Y94.2
G1 X85.3 Y97.1
G1 X85.19 Y102.61
G1 X86.08 Y105.7
; TYPE:WALL-INNER
G1 E21.083 F1800
G1 X83.9 Y105.43 E21.145
G1 X85.08 Y104.71 E21.184
G1 X85.38 Y103.71 E21.214
G1 X85.39 Y103.71 F7800
G1 X85.37 Y103.62 E21.216 F1800
G1 X85.4 Y103.7 F7800
G1 X85.64 Y104.57 E21.242 F1800
G1 X86.08 Y105.7 E21.276
G1 X86.62 Y105.71 F7800
G1 X87.22 Y106.2 E21.298 F1800
G1 X88.7 Y106.29 E21.34
G1 X91.66 Y106.31 E21.424
G1 X91.7 Y106.56 E21.431
G1 X91.85 Y106.78 E21.439
G1 X92.07 Y107.43 E21.458
G1 X96.98 Y107.51 E21.597
G1 X97.96 Y107.34 E21.625
G1 X98.32 Y106.63 E21.648
G1 X98.35 Y106.23 E21.659
G1 X102.68 Y106.21 E21.781
G1 X107.01 Y106.2 E21.904
G1 X111.34 Y106.18 E22.026
G1 X112.39 Y105.85 E22.057
G1 X112.93 Y104.51 E22.098
G1 X113.35 Y103.05 E22.141
G1 X113.61 Y101.51 E22.185
G1 X113.69 Y99.7 E22.237
G1 X113.56 Y98.05 E22.284
G1 X113.19 Y96.31 E22.334
G1 X112.76 Y95.05 E22.372
G1 X112.39 Y94.43 E22.392
G1 X111.6 Y93.75 E22.422
G1 X110.76 Y93.65 E22.446
G1 X106.57 Y93.65 E22.564
G1 X102.39 Y93.64 E22.683
G1 X98.2 Y93.64 E22.801
G1 X98.11 Y93.6 E22.804
G1 X97.99 Y93.38 E22.811
G1 X97.86 Y92.97 E22.823
G1 X97.45 Y92.55 E22.839
G1 X94.84 Y92.58 E22.913
G1 X92.22 Y92.61 E22.987
G1 X91.63 Y93.05 E23.008
G1 X91.51 Y93.72 E23.027
G1 X90.47 Y93.82 E23.057
G1 X87.48 Y93.86 E23.142
G1 X86.84 Y94.18 E23.162
G1 X86.17 Y95.11 E23.194
G1 X85.69 Y96.94 E23.248
G1 X85.46 Y98.23 E23.285
G1 X85.4 Y100.33 E23.344
G1 X85.65 Y102.77 E23.414
G1 X86.12 Y104.42 E23.462
G1 X86.6 Y105.66 E23.5
G1 X86.62 Y105.71
G1 X87.04 Y105.4 F7800
; TYPE:WALL-OUTER
G1 X87.41 Y105.71 E23.514 F1260
G1 X88.71 Y105.79 E23.55
G1 X91.8 Y105.81 E23.638
G1 X92.02 Y105.88 E23.644
G1 X92.14 Y106.09 E23.651
G1 X92.18 Y106.37 E23.659
G1 X92.31 Y106.56 E23.666
G1 X92.43 Y106.94 E23.677
G1 X96.94 Y107 E23.805
G1 X97.63 Y106.89 E23.824
G1 X97.83 Y106.49 E23.837
G1 X97.87 Y105.99 E23.851
G1 X98 Y105.78 E23.858
G1 X98.15 Y105.73 E23.862
G1 X102.52 Y105.71 E23.986
G1 X106.89 Y105.7 E24.11
G1 X111.26 Y105.68 E24.234
G1 X112.01 Y105.44 E24.256
G1 X112.46 Y104.34 E24.289
G1 X112.86 Y102.94 E24.331
G1 X113.11 Y101.46 E24.373
G1 X113.19 Y99.71 E24.423
G1 X113.06 Y98.12 E24.468
G1 X112.71 Y96.44 E24.516
G1 X112.31 Y95.27 E24.552
G1 X112 Y94.76 E24.568
G1 X111.39 Y94.23 E24.591
G1 X110.73 Y94.15 E24.61
G1 X106.52 Y94.15 E24.729
G1 X102.31 Y94.14 E24.848
G1 X98.1 Y94.14 E24.967
G1 X97.76 Y94 E24.978
G1 X97.52 Y93.58 E24.991
G1 X97.42 Y93.23 E25.002
G1 X97.25 Y93.05 E25.009
G1 X92.39 Y93.11 E25.146
G1 X92.09 Y93.34 E25.157
G1 X91.95 Y94.06 E25.178
G1 X91.81 Y94.19 E25.183
G1 X90.5 Y94.32 E25.22
G1 X87.6 Y94.36 E25.302
G1 X87.17 Y94.57 E25.316
G1 X86.63 Y95.33 E25.342
G1 X86.18 Y97.04 E25.392
G1 X85.96 Y98.28 E25.428
G1 X85.9 Y100.31 E25.485
G1 X86.15 Y102.68 E25.553
G1 X86.59 Y104.26 E25.599
G1 X87.02 Y105.36 E25.633
G1 X87.04 Y105.4
G1 X87.41 Y105.71
G1 X88.71 Y105.79
G1 X89.93 Y105.79
G1 X86.08 Y105.7 F7800
G1 X84.92 Y98.79
G1 X85.29 Y96.49
; TYPE:WALL-INNER
G1 X85.33 Y95.64 E25.657 F1800
G1 X85.15 Y95.59 F7800
G1 X84.26 Y94.74 E25.692 F1800
G1 X85.66 Y94.55 E25.732
G1 X85.69 Y94.72 F7800
G1 X85.84 Y94.7 E25.742 F1800
G1 X85.5 Y95.68 E25.772
G1 X84.68 Y95.84 F7800
G1 X83.98 Y95.16 E25.799 F1800
G1 X83.21 Y94.92 E25.822
G1 X82.58 Y94.87 E25.84
G1 X81.29 Y95.02 E25.877
G1 X76.39 Y95.81 E26.018
G1 X71.49 Y96.6 E26.158
G1 X70.38 Y97.04 E26.191
G1 X70.06 Y97.74 E26.213
G1 X70.1 Y102.63 E26.352
G1 X70.75 Y103.52 E26.383
G1 X71.46 Y103.93 E26.406
G1 X74.67 Y104.35 E26.498
G1 X77.88 Y104.77 E26.589
G1 X81.3 Y105.15 E26.686
G1 X82.96 Y105.12 E26.733
G1 X83.57 Y105.04 E26.751
G1 X84.66 Y104.39 E26.787
G1 X84.88 Y103.65 E26.808
G1 X84.79 Y102.33 E26.846
G1 X84.68 Y101.45 E26.871
G1 X84.64 Y99.18 E26.935
G1 X84.82 Y96.73 E27.004
G1 X84.69 Y95.89 E27.029
G1 X84.68 Y95.84
G1 X84.22 Y96.08 F7800
; TYPE:WALL-OUTER
G1 X83.72 Y95.6 E27.048 F1260
G1 X83.12 Y95.42 E27.066
G1 X82.59 Y95.38 E27.081
G1 X81.36 Y95.51 E27.116
G1 X76.49 Y96.3 E27.256
G1 X71.62 Y97.08 E27.395
G1 X70.75 Y97.43 E27.422
G1 X70.57 Y97.85 E27.435
G1 X70.6 Y102.47 E27.565
G1 X71.09 Y103.13 E27.589
G1 X71.63 Y103.44 E27.606
G1 X74.79 Y103.86 E27.696
G1 X77.94 Y104.27 E27.786
G1 X81.33 Y104.65 E27.883
G1 X82.92 Y104.62 E27.928
G1 X83.4 Y104.56 E27.942
G1 X84.23 Y104.06 E27.969
G1 X84.37 Y103.59 E27.983
G1 X84.29 Y102.37 E28.017
G1 X84.18 Y101.49 E28.043
G1 X84.14 Y99.16 E28.108
G1 X84.32 Y96.75 E28.177
G1 X84.22 Y96.13 E28.195
G1 X84.22 Y96.08
G1 X83.72 Y95.6
G1 X83.12 Y95.42
G1 X82.59 Y95.38
G1 X81.44 Y95.5
G1 X85.15 Y95.59 F7800
G1 E27.195 F1800
G1 X87.66 Y93.86 F7800
G1 X91.3 Y93.19
G1 X93.25 Y92.22
G1 X97.7 Y92.74
G1 X100.16 Y93.36
G1 X110.71 Y93.65
G1 X112.37 Y94.36
G1 X114.01 Y99.67
G1 X113.75 Y103.48
; TYPE:WALL-INNER
G1 E28.195 F1800
G1 X114.03 Y104.39 E28.222
G1 X114.74 Y105.07 E28.249
G1 X114.75 Y105.15 F7800
G1 X115.07 Y105.19 E28.259 F1800
G1 X114.76 Y105.23 F7800
G1 X113.09 Y105.45 E28.306 F1800
G1 X113.41 Y104.67 E28.33
G1 X113.75 Y103.48 E28.365
G1 X112.39 Y105.62 F7800
G1 X103.57 Y106.45
G1 X99.74 Y106.3
G1 X98.97 Y106.76
G1 X98.58 Y107.77 E28.396 F1800
G1 X98.52 Y107.82 E28.398
G1 X98.01 Y107.87 E28.413
G1 X94.78 Y107.88 E28.505
G1 X91.54 Y107.88 E28.596
G1 X91.33 Y107.83 E28.602
G1 X91.11 Y107.18 E28.621
G1 X90.53 Y106.76 E28.641
G1 X86.01 Y106.19 E28.77
G1 X81.49 Y105.63 E28.899
G1 X76.97 Y105.06 E29.028
G1 X74.3 Y104.69 E29.105
G1 X71.62 Y104.31 E29.181
G1 X70.9 Y104.11 E29.202
G1 X70.6 Y103.94 E29.212
G1 X70.1 Y103.46 E29.232
G1 X69.9 Y103.06 E29.244
G1 X69.78 Y102.43 E29.262
G1 X69.65 Y99.21 E29.354
G1 X69.83 Y97.31 E29.408
G1 X70.01 Y96.83 E29.422
G1 X70.22 Y96.56 E29.432
G1 X70.59 Y96.29 E29.445
G1 X71.18 Y96.09 E29.462
G1 X73.87 Y95.67 E29.539
G1 X76.55 Y95.25 E29.616
G1 X80.06 Y94.79 E29.716
G1 X83.58 Y94.32 E29.817
G1 X87.09 Y93.86 E29.917
G1 X90.89 Y93.29 E30.026
G1 X91.22 Y92.6 E30.047
G1 X91.3 Y92.13 E30.061
G1 X94.87 Y92.13 E30.162
G1 X98.43 Y92.12 E30.262
G1 X98.46 Y92.21 E30.265
G1 X98.58 Y92.79 E30.282
G1 X99.16 Y93.3 E30.304
G1 X103.84 Y93.27 E30.436
G1 X108.51 Y93.23 E30.568
G1 X112.53 Y93.72 E30.683
G1 X116.55 Y94.2 E30.797
G1 X120.56 Y94.69 E30.912
G1 X124.58 Y95.17 E31.026
G1 X128 Y95.71 E31.124
G1 X128.48 Y95.89 E31.139
G1 X128.93 Y96.28 E31.155
G1 X129.15 Y96.63 E31.167
G1 X129.27 Y96.96 E31.177
G1 X129.35 Y98.03 E31.207
G1 X129.33 Y102.32 E31.329
G1 X129.17 Y102.92 E31.346
G1 X128.97 Y103.21 E31.356
G1 X128.65 Y103.48 E31.368
G1 X128.28 Y103.64 E31.38
G1 X127.13 Y104.02 E31.414
G1 X125.02 Y104.35 E31.474
G1 X120.88 Y104.91 E31.592
G1 X116.74 Y105.47 E31.711
G1 X112.59 Y106.02 E31.829
G1 X108.45 Y106.58 E31.947
G1 X104.08 Y106.58 E32.071
G1 X99.71 Y106.57 E32.194
G1 X99.02 Y106.75 E32.215
G1 X98.97 Y106.76
G1 X99.35 Y107.18 F7800
; TYPE:WALL-OUTER
G1 X99 Y108.08 E32.242 F1260
G1 X98.71 Y108.31 E32.252
G1 X98.04 Y108.37 E32.271
G1 X94.76 Y108.38 E32.364
G1 X91.48 Y108.38 E32.457
G1 X91.06 Y108.27 E32.469
G1 X90.89 Y108.09 E32.476
G1 X90.69 Y107.49 E32.494
G1 X90.35 Y107.24 E32.506
G1 X85.87 Y106.68 E32.634
G1 X81.38 Y106.12 E32.762
G1 X76.9 Y105.56 E32.89
G1 X74.21 Y105.18 E32.967
G1 X71.52 Y104.8 E33.043
G1 X70.71 Y104.57 E33.067
G1 X70.3 Y104.35 E33.08
G1 X69.69 Y103.76 E33.104
G1 X69.42 Y103.22 E33.121
G1 X69.29 Y102.48 E33.143
G1 X69.15 Y99.19 E33.236
G1 X69.34 Y97.2 E33.292
G1 X69.57 Y96.58 E33.311
G1 X69.87 Y96.19 E33.325
G1 X70.36 Y95.84 E33.342
G1 X71.05 Y95.61 E33.363
G1 X73.77 Y95.18 E33.441
G1 X76.49 Y94.75 E33.518
G1 X80 Y94.29 E33.618
G1 X83.51 Y93.82 E33.719
G1 X87.02 Y93.36 E33.819
G1 X90.56 Y92.83 E33.92
G1 X90.74 Y92.44 E33.932
G1 X90.86 Y91.8 E33.951
G1 X90.95 Y91.69 E33.955
G1 X91.12 Y91.63 E33.96
G1 X94.85 Y91.63 E34.066
G1 X98.58 Y91.62 E34.171
G1 X98.81 Y91.73 E34.178
G1 X98.95 Y92.07 E34.189
G1 X99.04 Y92.53 E34.202
G1 X99.34 Y92.8 E34.213
G1 X103.94 Y92.77 E34.344
G1 X108.54 Y92.73 E34.474
G1 X112.56 Y93.22 E34.589
G1 X116.59 Y93.7 E34.703
G1 X120.61 Y94.19 E34.818
G1 X124.63 Y94.67 E34.932
G1 X128.13 Y95.22 E35.032
G1 X128.74 Y95.46 E35.051
G1 X129.31 Y95.96 E35.072
G1 X129.6 Y96.4 E35.088
G1 X129.76 Y96.86 E35.101
G1 X129.85 Y98 E35.134
G1 X129.83 Y102.38 E35.257
G1 X129.63 Y103.13 E35.279
G1 X129.34 Y103.55 E35.294
G1 X128.91 Y103.91 E35.31
G1 X128.45 Y104.11 E35.324
G1 X127.24 Y104.51 E35.36
G1 X125.11 Y104.85 E35.421
G1 X120.95 Y105.41 E35.54
G1 X116.8 Y105.97 E35.659
G1 X112.64 Y106.52 E35.777
G1 X108.48 Y107.08 E35.896
G1 X104.13 Y107.08 E36.019
G1 X99.78 Y107.07 E36.142
G1 X99.4 Y107.17 E36.153
G1 X99.35 Y107.18
G1 X99 Y108.08
G1 X98.71 Y108.31
G1 X98.04 Y108.37
G1 X97.04 Y108.37
G1 X98.97 Y106.8 F7800
G1 X94.11 Y107.55
G1 X86.08 Y105.7
G1 X85.23 Y102.83
; TYPE:FILL
G1 X85.09 Y101.41 E36.18 F3600
G1 X85.03 Y100.34 E36.195
G1 X85.04 Y99.19 E36.211
G1 X85.09 Y98.2 E36.224
G1 X85.25 Y96.87 E36.243
G1 X85.26 Y96.77 E36.245
G1 X85.9 Y94.69 F7800
G1 X90.5 Y93.36
G1 X91.2 Y93.45
G1 X91.36 Y92.89 E36.248 F3600
G1 X91.62 Y92.53 E36.251
G1 X97.78 Y92.53 F7800
G1 X98.09 Y92.61 E36.258 F3600
G1 X98.16 Y92.61 F7800
G1 X98.23 Y92.9 E36.263 F3600
G1 X98.31 Y93.16 E36.267
G1 X98.35 F7800
G1 X98.4 Y92.88 E36.278 F3600
G1 X97.86 Y92.37 E36.296
G1 E35.296 F1800
G1 Y92.56 F7800
G1 X91.73 Y92.61
G1 X90.07 Y93.61
G1 X86.59 Y94.2
G1 X85.3 Y97.1
G1 X85.49 Y103.78
G1 X86.76 Y105.84
G1 X91.7 Y106.7
G1 X93.42 Y107.44
G1 X97.84 Y107.04
G1 X98.68 Y106.48
G1 E36.296 F1800
G1 X98.82 Y106.5 E36.298 F3600
G1 X98.68 Y106.62 E36.301
G1 X98.68 Y106.51 F7800
G1 X98.92 Y106.5 E36.307 F3600
G1 X98.71 Y106.62 E36.311
G1 X98.28 Y107.53 E36.32
G1 Y107.34 F7800
G1 X91.7 Y107.58
G1 X91.46 Y106.97 E36.33 F3600
G1 X91.31 Y106.74 E36.334
G1 X91.26 Y106.74 F7800
G1 X91.39 Y106.79 E36.338 F3600
G1 X94.55 Y107.52 F7800
G1 X96.92 Y107.51
G1 X99.93 Y106.29
G1 X110.47 Y106.07
G1 X112.39 Y105.62
G1 X113.76 Y103.29
G1 X113.79 Y103.12 E36.34 F3600
G1 X114 Y101.55 E36.366
G1 X114.05 Y100.83 E36.378
G1 X114.09 Y99.7 E36.397
G1 X114.09 Y99.49 E36.4
G1 X113.94 Y97.99 E36.422
G1 X113.74 Y96.81 E36.447
G1 X113.68 Y96.25 E36.459
G1 X114.78 Y94.71 F7800
G1 X115.89 Y94.5
G1 X117.52 Y94.63 E36.468 F3600
G1 X128.3 Y96.21 F7800
G1 X128.44 Y96.32 E36.469 F3600
G1 X128.9 Y96.76 E36.472
G1 E35.472 F1800
G1 X128.71 F7800
G1 X126.6 Y95.71
G1 X115.88 Y94.31
G1 X112.81 Y94.67
G1 X110.71 Y93.65
G1 X98.08 Y93.18
G1 X95.59 Y92.38
G1 X91.73 Y92.61
G1 X89.44 Y93.6
G1 X80.35 Y94.99
G1 X71.25 Y96.38
G1 E36.472 F1800
G1 X70.73 Y96.57 E36.474 F3600
G1 E35.474 F1800
G1 X71.77 Y98.32 F7800
; TYPE:SUPPORT
G1 E36.474 F1800
G1 X71.94 Y98.25 E36.479 F3600
G1 X73.35 Y98.02 E36.52
G1 Y98.08 E36.521
G1 X74.85 E36.564
G1 Y102.63 E36.693
G1 X72.02 Y102.28 E36.774
G1 X71.91 Y102.22 E36.777
G1 X71.8 Y102.07 E36.783
G1 X71.77 Y98.32 E36.889
G1 X73.96 Y98.7 F7800
G1 X74.22 Y98.97 E36.899 F3600
G1 X72.42 Y100.7 F7800
G1 X73.55 Y101.84 E36.945 F3600
G1 E35.945 F1800
G1 X80.84 Y101.7 F7800
G1 X88.13 Y101.56
G1 X95.42 Y101.42
G1 X102.72 Y101.27
G1 X110.01 Y101.13
G1 X117.3 Y100.99
G1 X124.59 Y100.85
G1 X123.84 Y101.59
G1 E36.945 F1800
G1 Y98.08 E37.044 F3600
G1 X125.34 E37.087
G1 Y97.55 E37.102
G1 X126.59 Y97.69 E37.137
G1 X127.16 Y97.95 E37.155
G1 X127.18 Y101.58 E37.257
G1 X127.14 Y101.76 E37.263
G1 X127 Y101.88 E37.268
G1 X125.34 Y102.12 E37.315
G1 Y101.59 E37.33
G1 X123.84 E37.373
G1 X124.53 Y100.9 F7800
G1 X125.7 Y100.96
G1 X124.47 Y99.72 E37.422 F3600
G1 X126.03 Y100.9 F7800
G1 X125.97 Y101.22
G1 X126.12 Y101.37 E37.428 F3600
G1 E36.428 F1800
G1 X127.1 Y99.91 F7800
G1 X127.99 Y101.61
G1 X131.03 Y101.59
G1 E37.428 F1800
G1 X131.05 Y97.96 E37.531 F3600
G1 X130.95 Y96.61 E37.569
G1 X130.93 Y96.58 E37.57
G1 X131.85 E37.596
G1 Y101.59 E37.738
G1 X131.03 E37.761
; Layer Change GCode
; LAYER:2
; LAYER_HEIGHT:0.4
; TYPE:FILL
M400
M106 S191
G1 E36.761 F1800
G1 Z1.1 F7800
G1 X128.96 Y101.58
G1 X128.66 Y96.88
G1 X126.12 Y95.69
G1 X114.94 Y94.51
; TYPE:WALL-INNER
G1 E37.761 F1800
G1 X114.54 Y94.52 E37.772
G1 X114.54 Y94.46 F7800
G1 X112.87 Y94.26 E37.82 F1800
G1 X113.22 Y94.84 E37.839
G1 X113.47 Y95.58 E37.861
G1 X113.58 Y95.54 F7800
G1 X113.68 Y96.18 E37.88 F1800
G1 X113.69 Y95.5 F7800
G1 X114.53 Y94.57 E37.915 F1800
G1 X114.78 Y95.04 F7800
G1 X114.19 Y95.7 E37.94 F1800
G1 X114.17 Y96.76 E37.97
G1 X114.5 Y99.47 E38.047
G1 X114.46 Y100.86 E38.087
G1 X114.22 Y103.32 E38.157
G1 X114.47 Y104.12 E38.18
G1 X115.01 Y104.63 E38.201
G1 X115.56 Y104.83 E38.218
G1 X117.42 Y104.86 E38.271
G1 X120.22 Y104.53 E38.351
G1 X123.01 Y104.19 E38.43
G1 X127.56 Y103.51 E38.56
G1 X128.2 Y103.17 E38.581
G1 X128.72 Y102.55 E38.604
G1 X128.88 Y101.74 E38.627
G1 X128.85 Y97.09 E38.758
G1 X128.25 Y96.58 E38.781
G1 X127.08 Y96.05 E38.817
G1 X125.27 Y95.78 E38.869
G1 X121.38 Y95.36 E38.98
G1 X117.49 Y94.93 E39.09
G1 X115.89 Y94.88 E39.136
G1 X114.83 Y95.03 E39.166
G1 X114.78 Y95.04
G1 X115.03 Y95.51 F7800
; TYPE:WALL-OUTER
G1 X114.69 Y95.89 E39.181 F1260
G1 X114.67 Y96.73 E39.204
G1 X115 Y99.44 E39.282
G1 X114.96 Y100.88 E39.322
G1 X114.73 Y103.27 E39.39
G1 X114.91 Y103.84 E39.407
G1 X115.28 Y104.2 E39.422
G1 X115.65 Y104.33 E39.433
G1 X117.39 Y104.36 E39.482
G1 X120.17 Y104.03 E39.561
G1 X122.95 Y103.7 E39.64
G1 X127.4 Y103.03 E39.768
G1 X127.88 Y102.78 E39.783
G1 X128.25 Y102.32 E39.8
G1 X128.38 Y101.69 E39.818
G1 X128.35 Y97.32 E39.942
G1 X127.98 Y97.01 E39.956
G1 X126.94 Y96.53 E39.988
G1 X125.21 Y96.27 E40.037
G1 X121.34 Y95.85 E40.148
G1 X117.46 Y95.43 E40.258
G1 X115.92 Y95.38 E40.301
G1 X115.08 Y95.5 E40.325
G1 X115.03 Y95.51
G1 X114.69 Y95.89
G1 X114.67 Y96.73
G1 X114.87 Y98.36
G1 X114.94 Y94.51 F7800
G1 E39.325 F1800
G1 X107.98 Y93.48 F7800
G1 X98.1 Y93.17
G1 X95.59 Y92.38
G1 X91.73 Y92.61
G1 X90.07 Y93.61
G1 X86.59 Y94.2
G1 X85.3 Y97.1
G1 X85.19 Y102.61
G1 X86.08 Y105.7
; TYPE:WALL-INNER
G1 E40.325 F1800
G1 X83.9 Y105.43 E40.388
G1 X85.08 Y104.71 E40.427
G1 X85.38 Y103.71 E40.456
G1 X85.39 Y103.71 F7800
G1 X85.37 Y103.62 E40.459 F1800
G1 X85.4 Y103.7 F7800
G1 X85.64 Y104.57 E40.484 F1800
G1 X86.08 Y105.7 E40.518
G1 X86.62 Y105.71 F7800
G1 X87.22 Y106.2 E40.54 F1800
G1 X88.7 Y106.29 E40.582
G1 X91.66 Y106.31 E40.666
G1 X91.7 Y106.56 E40.673
G1 X91.85 Y106.78 E40.681
G1 X92.07 Y107.43 E40.7
G1 X96.98 Y107.51 E40.839
G1 X97.96 Y107.34 E40.868
G1 X98.32 Y106.63 E40.89
G1 X98.35 Y106.23 E40.901
G1 X102.68 Y106.21 E41.024
G1 X107.01 Y106.2 E41.146
G1 X111.34 Y106.18 E41.269
G1 X112.39 Y105.85 E41.3
G1 X112.93 Y104.51 E41.341
G1 X113.35 Y103.05 E41.384
G1 X113.61 Y101.51 E41.428
G1 X113.69 Y99.7 E41.479
G1 X113.56 Y98.05 E41.526
G1 X113.19 Y96.31 E41.576
G1 X112.76 Y95.05 E41.614
G1 X112.39 Y94.43 E41.634
G1 X111.6 Y93.75 E41.664
G1 X110.76 Y93.65 E41.688
G1 X106.57 Y93.65 E41.806
G1 X102.39 Y93.64 E41.925
G1 X98.2 Y93.64 E42.043
G1 X98.11 Y93.6 E42.046
G1 X97.99 Y93.38 E42.053
G1 X97.86 Y92.97 E42.065
G1 X97.45 Y92.55 E42.082
G1 X94.84 Y92.58 E42.156
G1 X92.22 Y92.61 E42.23
G1 X91.63 Y93.05 E42.251
G1 X91.51 Y93.72 E42.27
G1 X90.47 Y93.82 E42.299
G1 X87.48 Y93.86 E42.384
G1 X86.84 Y94.18 E42.404
G1 X86.17 Y95.11 E42.437
G1 X85.69 Y96.94 E42.49
G1 X85.46 Y98.23 E42.527
G1 X85.4 Y100.33 E42.587
G1 X85.65 Y102.77 E42.656
G1 X86.12 Y104.42 E42.705
G1 X86.6 Y105.66 E42.742
G1 X86.62 Y105.71
G1 X87.04 Y105.4 F7800
; TYPE:WALL-OUTER
G1 X87.41 Y105.71 E42.756 F1260
G1 X88.71 Y105.79 E42.793
G1 X91.8 Y105.81 E42.88
G1 X92.02 Y105.88 E42.887
G1 X92.14 Y106.09 E42.894
G1 X92.18 Y106.37 E42.902
G1 X92.31 Y106.56 E42.908
G1 X92.43 Y106.94 E42.919
G1 X96.94 Y107 E43.047
G1 X97.63 Y106.89 E43.067
G1 X97.83 Y106.49 E43.079
G1 X97.87 Y105.99 E43.094
G1 X98 Y105.78 E43.101
G1 X98.15 Y105.73 E43.105
G1 X102.52 Y105.71 E43.229
G1 X106.89 Y105.7 E43.352
G1 X111.26 Y105.68 E43.476
G1 X112.01 Y105.44 E43.498
G1 X112.46 Y104.34 E43.532
G1 X112.86 Y102.94 E43.573
G1 X113.11 Y101.46 E43.616
G1 X113.19 Y99.71 E43.665
G1 X113.06 Y98.12 E43.71
G1 X112.71 Y96.44 E43.759
G1 X112.31 Y95.27 E43.794
G1 X112 Y94.76 E43.811
G1 X111.39 Y94.23 E43.834
G1 X110.73 Y94.15 E43.853
G1 X106.52 Y94.15 E43.972
G1 X102.31 Y94.14 E44.091
G1 X98.1 Y94.14 E44.21
G1 X97.76 Y94 E44.22
G1 X97.52 Y93.58 E44.234
G1 X97.42 Y93.23 E44.244
G1 X97.25 Y93.05 E44.251
G1 X92.39 Y93.11 E44.389
G1 X92.09 Y93.34 E44.399
G1 X91.95 Y94.06 E44.42
G1 X91.81 Y94.19 E44.425
G1 X90.5 Y94.32 E44.463
G1 X87.6 Y94.36 E44.545
G1 X87.17 Y94.57 E44.558
G1 X86.63 Y95.33 E44.585
G1 X86.18 Y97.04 E44.635
G1 X85.96 Y98.28 E44.67
G1 X85.9 Y100.31 E44.728
G1 X86.15 Y102.68 E44.795
G1 X86.59 Y104.26 E44.842
G1 X87.02 Y105.36 E44.875
G1 X87.04 Y105.4
G1 X87.41 Y105.71
G1 X88.71 Y105.79
G1 X89.93 Y105.79
G1 X86.08 Y105.7 F7800
G1 X84.92 Y98.79
G1 X85.29 Y96.49
; TYPE:WALL-INNER
G1 X85.33 Y95.64 E44.899 F1800
G1 X85.15 Y95.59 F7800
G1 X84.26 Y94.74 E44.934 F1800
G1 X85.66 Y94.55 E44.974
G1 X85.69 Y94.72 F7800
G1 X85.98 Y94.51 E44.985 F1800
G1 X85.71 Y94.89 F7800
G1 X85.5 Y95.68 E45.008 F1800
G1 X84.68 Y95.84 F7800
G1 X83.98 Y95.16 E45.035 F1800
G1 X83.21 Y94.92 E45.058
G1 X82.58 Y94.87 E45.076
G1 X81.29 Y95.02 E45.113
G1 X76.39 Y95.81 E45.254
G1 X71.49 Y96.6 E45.394
G1 X70.38 Y97.04 E45.428
G1 X70.06 Y97.74 E45.449
G1 X70.1 Y102.63 E45.588
G1 X70.75 Y103.52 E45.619
G1 X71.46 Y103.93 E45.642
G1 X74.67 Y104.35 E45.734
G1 X77.88 Y104.77 E45.825
G1 X81.3 Y105.15 E45.922
G1 X82.96 Y105.12 E45.969
G1 X83.57 Y105.04 E45.987
G1 X84.66 Y104.39 E46.023
G1 X84.88 Y103.65 E46.044
G1 X84.79 Y102.33 E46.082
G1 X84.68 Y101.45 E46.107
G1 X84.64 Y99.18 E46.171
G1 X84.82 Y96.73 E46.241
G1 X84.69 Y95.89 E46.265
G1 X84.68 Y95.84
G1 X84.22 Y96.08 F7800
; TYPE:WALL-OUTER
G1 X83.72 Y95.6 E46.284 F1260
G1 X83.12 Y95.42 E46.302
G1 X82.59 Y95.38 E46.317
G1 X81.36 Y95.51 E46.352
G1 X76.49 Y96.3 E46.492
G1 X71.62 Y97.08 E46.631
G1 X70.75 Y97.43 E46.658
G1 X70.57 Y97.85 E46.671
G1 X70.6 Y102.47 E46.801
G1 X71.09 Y103.13 E46.825
G1 X71.63 Y103.44 E46.842
G1 X74.79 Y103.86 E46.933
G1 X77.94 Y104.27 E47.023
G1 X81.33 Y104.65 E47.119
G1 X82.92 Y104.62 E47.164
G1 X83.4 Y104.56 E47.178
G1 X84.23 Y104.06 E47.205
G1 X84.37 Y103.59 E47.219
G1 X84.29 Y102.37 E47.254
G1 X84.18 Y101.49 E47.279
G1 X84.14 Y99.16 E47.345
G1 X84.32 Y96.75 E47.413
G1 X84.22 Y96.13 E47.431
G1 X84.22 Y96.08
G1 X83.72 Y95.6
G1 X83.12 Y95.42
G1 X82.59 Y95.38
G1 X81.44 Y95.5
G1 X85.15 Y95.59 F7800
G1 E46.431 F1800
G1 X87.66 Y93.86 F7800
G1 X91.3 Y93.19
G1 X93.25 Y92.22
G1 X97.7 Y92.74
G1 X100.16 Y93.36
G1 X110.71 Y93.65
G1 X112.37 Y94.36
G1 X114.01 Y99.67
G1 X113.75 Y103.48
; TYPE:WALL-INNER
G1 E47.431 F1800
G1 X114.03 Y104.39 E47.458
G1 X114.74 Y105.07 E47.486
G1 X114.75 Y105.15 F7800
G1 X115.07 Y105.19 E47.495 F1800
G1 X114.76 Y105.23 F7800
G1 X113.09 Y105.45 E47.542 F1800
G1 X113.41 Y104.67 E47.566
G1 X113.75 Y103.48 E47.601
G1 X112.39 Y105.62 F7800
G1 X103.57 Y106.45
G1 X99.74 Y106.3
G1 X98.97 Y106.76
G1 X98.58 Y107.77 E47.632 F1800
G1 X98.52 Y107.82 E47.634
G1 X98.01 Y107.87 E47.649
G1 X94.78 Y107.88 E47.741
G1 X91.54 Y107.88 E47.832
G1 X91.33 Y107.83 E47.838
G1 X91.11 Y107.18 E47.857
G1 X90.53 Y106.76 E47.878
G1 X86.01 Y106.19 E48.007
G1 X81.49 Y105.63 E48.135
G1 X76.97 Y105.06 E48.264
G1 X74.3 Y104.69 E48.341
G1 X71.62 Y104.31 E48.417
G1 X70.9 Y104.11 E48.438
G1 X70.6 Y103.94 E48.448
G1 X70.1 Y103.46 E48.468
G1 X69.9 Y103.06 E48.48
G1 X69.78 Y102.43 E48.499
G1 X69.65 Y99.21 E48.59
G1 X69.83 Y97.31 E48.644
G1 X70.01 Y96.83 E48.658
G1 X70.22 Y96.56 E48.668
G1 X70.59 Y96.29 E48.681
G1 X71.18 Y96.09 E48.698
G1 X73.87 Y95.67 E48.775
G1 X76.55 Y95.25 E48.852
G1 X80.06 Y94.79 E48.952
G1 X83.58 Y94.32 E49.053
G1 X87.09 Y93.86 E49.153
G1 X90.89 Y93.29 E49.262
G1 X91.22 Y92.6 E49.284
G1 X91.3 Y92.13 E49.297
G1 X94.87 Y92.13 E49.398
G1 X98.43 Y92.12 E49.498
G1 X98.46 Y92.21 E49.501
G1 X98.58 Y92.79 E49.518
G1 X99.16 Y93.3 E49.54
G1 X103.84 Y93.27 E49.672
G1 X108.51 Y93.23 E49.804
G1 X112.53 Y93.72 E49.919
G1 X116.55 Y94.2 E50.033
G1 X120.56 Y94.69 E50.148
G1 X124.58 Y95.17 E50.262
G1 X128 Y95.71 E50.36
G1 X128.48 Y95.89 E50.375
G1 X128.93 Y96.28 E50.392
G1 X129.15 Y96.63 E50.403
G1 X129.27 Y96.96 E50.413
G1 X129.35 Y98.03 E50.443
G1 X129.33 Y102.32 E50.565
G1 X129.17 Y102.92 E50.582
G1 X128.97 Y103.21 E50.592
G1 X128.65 Y103.48 E50.604
G1 X128.28 Y103.64 E50.616
G1 X127.13 Y104.02 E50.65
G1 X125.02 Y104.35 E50.71
G1 X120.88 Y104.91 E50.828
G1 X116.74 Y105.47 E50.947
G1 X112.59 Y106.02 E51.065
G1 X108.45 Y106.58 E51.183
G1 X104.08 Y106.58 E51.307
G1 X99.71 Y106.57 E51.431
G1 X99.02 Y106.75 E51.451
G1 X98.97 Y106.76
G1 X99.35 Y107.18 F7800
; TYPE:WALL-OUTER
G1 X99 Y108.08 E51.478 F1260
G1 X98.71 Y108.31 E51.488
G1 X98.04 Y108.37 E51.508
G1 X94.76 Y108.38 E51.601
G1 X91.48 Y108.38 E51.693
G1 X91.06 Y108.27 E51.705
G1 X90.89 Y108.09 E51.712
G1 X90.69 Y107.49 E51.73
G1 X90.35 Y107.24 E51.742
G1 X85.87 Y106.68 E51.87
G1 X81.38 Y106.12 E51.998
G1 X76.9 Y105.56 E52.126
G1 X74.21 Y105.18 E52.203
G1 X71.52 Y104.8 E52.279
G1 X70.71 Y104.57 E52.303
G1 X70.3 Y104.35 E52.316
G1 X69.69 Y103.76 E52.341
G1 X69.42 Y103.22 E52.358
G1 X69.29 Y102.48 E52.379
G1 X69.15 Y99.19 E52.472
G1 X69.34 Y97.2 E52.529
G1 X69.57 Y96.58 E52.547
G1 X69.87 Y96.19 E52.561
G1 X70.36 Y95.84 E52.578
G1 X71.05 Y95.61 E52.599
G1 X73.77 Y95.18 E52.677
G1 X76.49 Y94.75 E52.755
G1 X80 Y94.29 E52.855
G1 X83.51 Y93.82 E52.955
G1 X87.02 Y93.36 E53.055
G1 X90.56 Y92.83 E53.156
G1 X90.74 Y92.44 E53.169
G1 X90.86 Y91.8 E53.187
G1 X90.95 Y91.69 E53.191
G1 X91.12 Y91.63 E53.196
G1 X94.85 Y91.63 E53.302
G1 X98.58 Y91.62 E53.407
G1 X98.81 Y91.73 E53.415
G1 X98.95 Y92.07 E53.425
G1 X99.04 Y92.53 E53.438
G1 X99.34 Y92.8 E53.45
G1 X103.94 Y92.77 E53.58
G1 X108.54 Y92.73 E53.71
G1 X112.56 Y93.22 E53.825
G1 X116.59 Y93.7 E53.939
G1 X120.61 Y94.19 E54.054
G1 X124.63 Y94.67 E54.168
G1 X128.13 Y95.22 E54.269
G1 X128.74 Y95.46 E54.287
G1 X129.31 Y95.96 E54.309
G1 X129.6 Y96.4 E54.324
G1 X129.76 Y96.86 E54.337
G1 X129.85 Y98 E54.37
G1 X129.83 Y102.38 E54.494
G1 X129.63 Y103.13 E54.515
G1 X129.34 Y103.55 E54.53
G1 X128.91 Y103.91 E54.546
G1 X128.45 Y104.11 E54.56
G1 X127.24 Y104.51 E54.596
G1 X125.11 Y104.85 E54.657
G1 X120.95 Y105.41 E54.776
G1 X116.8 Y105.97 E54.895
G1 X112.64 Y106.52 E55.013
G1 X108.48 Y107.08 E55.132
G1 X104.13 Y107.08 E55.255
G1 X99.78 Y107.07 E55.378
G1 X99.4 Y107.17 E55.389
G1 X99.35 Y107.18
G1 X99 Y108.08
G1 X98.71 Y108.31
G1 X98.04 Y108.37
G1 X97.04 Y108.37
G1 X98.97 Y106.8 F7800
G1 X94.11 Y107.55
G1 X86.08 Y105.7
G1 X85.23 Y102.83
; TYPE:FILL
G1 X85.09 Y101.41 E55.416 F3600
G1 X85.03 Y100.34 E55.431
G1 X85.04 Y99.19 E55.447
G1 X85.09 Y98.2 E55.461
G1 X85.25 Y96.87 E55.479
G1 X85.26 Y96.77 E55.481
G1 X85.9 Y94.69 F7800
G1 X90.5 Y93.36
G1 X91.2 Y93.45
G1 X91.36 Y92.89 E55.484 F3600
G1 X91.62 Y92.53 E55.487
G1 X97.78 Y92.53 F7800
G1 X98.09 Y92.61 E55.494 F3600
G1 X98.16 Y92.61 F7800
G1 X98.23 Y92.9 E55.499 F3600
G1 X98.31 Y93.16 E55.503
G1 X98.35 F7800
G1 X98.71 Y93.24 E55.513 F3600
G1 X98.08 Y92.52 F7800
G1 X97.86 Y92.37 E55.52 F3600
G1 E54.52 F1800
G1 Y92.56 F7800
G1 X91.73 Y92.61
G1 X90.07 Y93.61
G1 X86.59 Y94.2
G1 X85.3 Y97.1
G1 X85.49 Y103.78
G1 X86.76 Y105.84
G1 X91.7 Y106.7
G1 X93.42 Y107.44
G1 X97.84 Y107.04
G1 X98.68 Y106.48
G1 E55.52 F1800
G1 X98.82 Y106.5 E55.521 F3600
G1 X98.68 Y106.62 E55.524
G1 X98.68 Y106.51 F7800
G1 X98.92 Y106.48 E55.527 F3600
G1 X98.92 Y106.51 F7800
G1 X98.78 Y106.52 E55.528 F3600
G1 X98.63 Y106.73 F7800
G1 X98.28 Y107.53 E55.535 F3600
G1 Y107.34 F7800
G1 X91.7 Y107.58
G1 X91.46 Y106.97 E55.545 F3600
G1 X91.31 Y106.74 E55.55
G1 X91.26 Y106.74 F7800
G1 X91.39 Y106.79 E55.553 F3600
G1 X94.55 Y107.52 F7800
G1 X96.92 Y107.51
G1 X99.93 Y106.29
G1 X110.47 Y106.07
G1 X112.39 Y105.62
G1 X113.76 Y103.29
G1 X113.79 Y103.12 E55.556 F3600
G1 X114 Y101.55 E55.581
G1 X114.05 Y100.83 E55.593
G1 X114.09 Y99.7 E55.613
G1 X114.09 Y99.49 E55.616
G1 X113.94 Y97.99 E55.638
G1 X113.74 Y96.81 E55.663
G1 X113.68 Y96.25 E55.674
G1 X114.78 Y94.71 F7800
G1 X115.89 Y94.5
G1 X117.52 Y94.63 E55.684 F3600
G1 X128.3 Y96.21 F7800
G1 X128.44 Y96.32 E55.684 F3600
G1 X128.9 Y96.76 E55.687
G1 E54.687 F1800
G1 X128.71 F7800
G1 X126.6 Y95.71
G1 X115.88 Y94.31
G1 X112.81 Y94.67
G1 X110.71 Y93.65
G1 X98.08 Y93.18
G1 X95.59 Y92.38
G1 X91.73 Y92.61
G1 X89.44 Y93.6
G1 X80.35 Y94.99
G1 X71.25 Y96.38
G1 E55.687 F1800
G1 X70.73 Y96.57 E55.69 F3600
G1 E54.69 F1800
G1 X71.77 Y98.32 F7800
; TYPE:SUPPORT-INTERFACE
G1 E55.69 F1800
G1 X71.94 Y98.25 E55.695 F3600
G1 X73.35 Y98.02 E55.735
G1 Y98.08 E55.737
G1 X74.85 E55.779
G1 Y102.63 E55.908
G1 X72.02 Y102.28 E55.989
G1 X71.91 Y102.22 E55.993
G1 X71.8 Y102.07 E55.998
G1 X71.77 Y98.32 E56.104
G1 X72.41 Y99.42 F7800
G1 X73.12 Y98.7 E56.133 F3600
G1 X73.83 F7800
G1 X72.41 Y100.12 E56.19 F3600
G1 X72.42 Y100.82 F7800
G1 X74.22 Y99.02 E56.262 F3600
G1 Y99.73 F7800
G1 X72.42 Y101.53 E56.334 F3600
G1 X72.9 Y101.76 F7800
G1 X74.22 Y100.43 E56.387 F3600
G1 Y101.14 F7800
G1 X73.53 Y101.83 E56.415 F3600
G1 X74.16 Y101.91 F7800
G1 X74.22 Y101.85 E56.417 F3600
G1 E55.417 F1800
G1 X81.33 Y101.71 F7800
G1 X88.44 Y101.56
G1 X95.54 Y101.42
G1 X102.65 Y101.28
G1 X109.76 Y101.13
G1 X116.87 Y100.99
G1 X123.97 Y100.84
G1 X131.08 Y100.7
G1 X128.52 Y101.61
G1 X123.84 Y101.59
G1 E56.417 F1800
G1 Y98.08 E56.516 F3600
G1 X125.34 E56.559
G1 Y97.51 E56.575
G1 X126.59 Y97.69 E56.611
G1 X127.16 Y97.95 E56.628
G1 X127.18 Y101.58 E56.731
G1 X127.14 Y101.76 E56.736
G1 X127 Y101.88 E56.741
G1 X125.34 Y102.12 E56.789
G1 Y101.59 E56.804
G1 X123.84 E56.846
G1 X124.61 Y100.95 F7800
G1 X126.53 Y99.03 E56.923 F3600
G1 X126.51 Y98.35 F7800
G1 X124.47 Y100.39 E57.005 F3600
G1 Y99.68 F7800
G1 X125.45 Y98.71 E57.044 F3600
G1 X124.74 Y98.7 F7800
G1 X124.47 Y98.97 E57.055 F3600
G1 X125.32 Y100.96 F7800
G1 X126.54 Y99.74 E57.104 F3600
G1 X126.54 Y100.44 F7800
G1 X125.97 Y101.01 E57.126 F3600
G1 X126.35 Y101.33 F7800
G1 X126.55 Y101.14 E57.134 F3600
G1 E56.134 F1800
G1 X131.01 Y100.74 F7800
G1 X131.03 Y101.59
G1 E57.134 F1800
G1 X131.05 Y97.96 E57.237 F3600
G1 X130.95 Y96.61 E57.275
G1 X130.93 Y96.58 E57.276
G1 X131.85 E57.302
G1 Y101.59 E57.444
G1 X131.03 E57.467
; Layer Change GCode
; LAYER:3
; LAYER_HEIGHT:0.4
; TYPE:FILL
G1 E56.467 F1800
G1 Z1.5 F7800
G1 X128.96 Y101.58
G1 X128.66 Y96.88
G1 X126.12 Y95.69
G1 X114.94 Y94.51
; TYPE:WALL-INNER
G1 E57.467 F1800
G1 X114.54 Y94.52 E57.478
G1 X114.54 Y94.46 F7800
G1 X112.87 Y94.26 E57.526 F1800
G1 X113.22 Y94.84 E57.545
G1 X113.47 Y95.58 E57.568
G1 X113.58 Y95.54 F7800
G1 X113.68 Y96.18 E57.586 F1800
G1 X113.69 Y95.5 F7800
G1 X114.53 Y94.57 E57.621 F1800
G1 X114.78 Y95.04 F7800
G1 X114.19 Y95.7 E57.646 F1800
G1 X114.17 Y96.76 E57.676
G1 X114.5 Y99.47 E57.754
G1 X114.46 Y100.86 E57.793
G1 X114.22 Y103.32 E57.863
G1 X114.47 Y104.12 E57.886
G1 X115.01 Y104.63 E57.907
G1 X115.56 Y104.83 E57.924
G1 X117.42 Y104.86 E57.977
G1 X120.22 Y104.53 E58.057
G1 X123.01 Y104.19 E58.136
G1 X127.56 Y103.51 E58.266
G1 X128.2 Y103.17 E58.287
G1 X128.72 Y102.55 E58.31
G1 X128.88 Y101.74 E58.333
G1 X128.85 Y97.09 E58.464
G1 X128.25 Y96.58 E58.487
G1 X127.08 Y96.05 E58.523
G1 X125.5 Y95.81 E58.569
G1 X121.5 Y95.37 E58.683
G1 X117.49 Y94.93 E58.796
G1 X115.89 Y94.88 E58.842
G1 X114.83 Y95.03 E58.872
G1 X114.78 Y95.04
G1 X115.03 Y95.51 F7800
; TYPE:WALL-OUTER
G1 X114.69 Y95.89 E58.887 F1260
G1 X114.67 Y96.73 E58.91
G1 X115 Y99.44 E58.988
G1 X114.96 Y100.88 E59.028
G1 X114.73 Y103.27 E59.096
G1 X114.91 Y103.84 E59.113
G1 X115.28 Y104.2 E59.128
G1 X115.65 Y104.33 E59.139
G1 X117.39 Y104.36 E59.188
G1 X120.17 Y104.03 E59.267
G1 X122.95 Y103.7 E59.346
G1 X127.4 Y103.03 E59.474
G1 X127.88 Y102.78 E59.489
G1 X128.25 Y102.32 E59.506
G1 X128.38 Y101.69 E59.524
G1 X128.35 Y97.32 E59.648
G1 X127.98 Y97.01 E59.662
G1 X126.94 Y96.53 E59.694
G1 X125.43 Y96.31 E59.737
G1 X121.45 Y95.87 E59.851
G1 X117.46 Y95.43 E59.964
G1 X115.92 Y95.38 E60.008
G1 X115.08 Y95.5 E60.032
G1 X115.03 Y95.51
G1 X114.69 Y95.89
G1 X114.67 Y96.73
G1 X114.87 Y98.36
G1 X114.94 Y94.51 F7800
G1 E59.032 F1800
G1 X107.98 Y93.48 F7800
G1 X98.11 Y93.18
G1 X94.81 Y92.4
G1 X91.73 Y92.61
G1 X90.07 Y93.61
G1 X86.59 Y94.2
G1 X85.3 Y97.1
G1 X85.19 Y102.61
G1 X86.08 Y105.7
; TYPE:WALL-INNER
G1 E60.032 F1800
G1 X83.9 Y105.43 E60.094
G1 X85.08 Y104.71 E60.133
G1 X85.38 Y103.71 E60.162
G1 X85.39 Y103.71 F7800
G1 X85.37 Y103.62 E60.165 F1800
G1 X85.4 Y103.7 F7800
G1 X85.64 Y104.57 E60.19 F1800
G1 X86.08 Y105.7 E60.224
G1 X86.62 Y105.71 F7800
G1 X87.22 Y106.2 E60.246 F1800
G1 X88.53 Y106.28 E60.284
G1 X91.66 Y106.3 E60.372
G1 X91.7 Y106.56 E60.379
G1 X91.84 Y106.77 E60.387
G1 X92.08 Y107.43 E60.407
G1 X96.98 Y107.51 E60.545
G1 X97.96 Y107.34 E60.573
G1 X98.32 Y106.63 E60.596
G1 X98.35 Y106.23 E60.607
G1 X102.68 Y106.21 E60.73
G1 X107.01 Y106.2 E60.852
G1 X111.34 Y106.18 E60.975
G1 X112.39 Y105.85 E61.006
G1 X112.93 Y104.51 E61.047
G1 X113.35 Y103.05 E61.09
G1 X113.61 Y101.51 E61.134
G1 X113.69 Y99.7 E61.185
G1 X113.56 Y98.05 E61.232
G1 X113.19 Y96.31 E61.282
G1 X112.76 Y95.05 E61.32
G1 X112.39 Y94.43 E61.34
G1 X111.6 Y93.75 E61.37
G1 X110.83 Y93.66 E61.392
G1 X106.62 Y93.65 E61.511
G1 X102.41 Y93.65 E61.63
G1 X98.2 Y93.64 E61.749
G1 X98.11 Y93.6 E61.752
G1 X97.99 Y93.38 E61.759
G1 X97.86 Y92.98 E61.771
G1 X97.46 Y92.56 E61.787
G1 X94.84 Y92.59 E61.862
G1 X92.22 Y92.61 E61.936
G1 X91.63 Y93.05 E61.956
G1 X91.51 Y93.72 E61.975
G1 X90.47 Y93.82 E62.005
G1 X87.48 Y93.86 E62.09
G1 X86.84 Y94.18 E62.11
G1 X86.17 Y95.11 E62.142
G1 X85.69 Y96.94 E62.196
G1 X85.46 Y98.23 E62.233
G1 X85.4 Y100.33 E62.292
G1 X85.65 Y102.77 E62.362
G1 X86.12 Y104.42 E62.41
G1 X86.6 Y105.66 E62.448
G1 X86.62 Y105.71
G1 X87.04 Y105.4 F7800
; TYPE:WALL-OUTER
G1 X87.41 Y105.71 E62.462 F1260
G1 X88.55 Y105.78 E62.494
G1 X91.8 Y105.81 E62.586
G1 X92.02 Y105.88 E62.592
G1 X92.14 Y106.09 E62.599
G1 X92.18 Y106.37 E62.607
G1 X92.29 Y106.54 E62.613
G1 X92.44 Y106.94 E62.625
G1 X96.94 Y107 E62.753
G1 X97.63 Y106.89 E62.772
G1 X97.83 Y106.49 E62.785
G1 X97.87 Y105.99 E62.799
G1 X98 Y105.78 E62.806
G1 X98.15 Y105.73 E62.81
G1 X102.52 Y105.71 E62.934
G1 X106.89 Y105.7 E63.058
G1 X111.26 Y105.68 E63.182
G1 X112.01 Y105.44 E63.204
G1 X112.46 Y104.34 E63.237
G1 X112.86 Y102.94 E63.279
G1 X113.11 Y101.46 E63.321
G1 X113.19 Y99.71 E63.371
G1 X113.06 Y98.12 E63.416
G1 X112.71 Y96.44 E63.464
G1 X112.31 Y95.27 E63.5
G1 X112 Y94.76 E63.516
G1 X111.39 Y94.23 E63.539
G1 X110.8 Y94.16 E63.556
G1 X106.57 Y94.15 E63.676
G1 X102.33 Y94.15 E63.795
G1 X98.1 Y94.14 E63.915
G1 X97.76 Y94 E63.926
G1 X97.52 Y93.58 E63.939
G1 X97.42 Y93.23 E63.95
G1 X97.25 Y93.06 E63.956
G1 X92.39 Y93.11 E64.094
G1 X92.09 Y93.34 E64.105
G1 X91.95 Y94.06 E64.126
G1 X91.81 Y94.19 E64.131
G1 X90.5 Y94.32 E64.168
G1 X87.6 Y94.36 E64.25
G1 X87.17 Y94.57 E64.264
G1 X86.63 Y95.33 E64.29
G1 X86.18 Y97.04 E64.34
G1 X85.96 Y98.28 E64.376
G1 X85.9 Y100.31 E64.433
G1 X86.15 Y102.68 E64.501
G1 X86.59 Y104.26 E64.547
G1 X87.02 Y105.36 E64.58
G1 X87.04 Y105.4
G1 X87.41 Y105.71
G1 X88.55 Y105.78
G1 X89.93 Y105.79
G1 X86.08 Y105.7 F7800
G1 X84.92 Y98.79
G1 X85.29 Y96.49
; TYPE:WALL-INNER
G1 X85.33 Y95.64 E64.604 F1800
G1 X85.15 Y95.59 F7800
G1 X84.26 Y94.74 E64.64 F1800
G1 X85.66 Y94.55 E64.68
G1 X85.69 Y94.72 F7800
G1 X85.98 Y94.51 E64.69 F1800
G1 X85.71 Y94.89 F7800
G1 X85.5 Y95.68 E64.713 F1800
G1 X84.68 Y95.84 F7800
G1 X83.98 Y95.16 E64.741 F1800
G1 X83.21 Y94.92 E64.763
G1 X82.58 Y94.87 E64.781
G1 X81.45 Y95 E64.814
G1 X78.13 Y95.53 E64.909
G1 X74.81 Y96.07 E65.004
G1 X71.49 Y96.6 E65.099
G1 X70.38 Y97.04 E65.133
G1 X70.06 Y97.74 E65.155
G1 X70.1 Y102.63 E65.293
G1 X70.75 Y103.52 E65.324
G1 X71.46 Y103.93 E65.347
G1 X74.67 Y104.35 E65.439
G1 X77.88 Y104.77 E65.531
G1 X81.3 Y105.15 E65.628
G1 X82.96 Y105.12 E65.675
G1 X83.57 Y105.04 E65.692
G1 X84.66 Y104.39 E65.728
G1 X84.88 Y103.65 E65.75
G1 X84.8 Y102.48 E65.783
G1 X84.68 Y101.45 E65.812
G1 X84.64 Y99.18 E65.877
G1 X84.82 Y96.73 E65.946
G1 X84.69 Y95.89 E65.97
G1 X84.68 Y95.84
G1 X84.22 Y96.08 F7800
; TYPE:WALL-OUTER
G1 X83.72 Y95.6 E65.99 F1260
G1 X83.12 Y95.42 E66.008
G1 X82.59 Y95.38 E66.023
G1 X81.52 Y95.49 E66.053
G1 X78.22 Y96.02 E66.148
G1 X74.92 Y96.55 E66.242
G1 X71.62 Y97.08 E66.337
G1 X70.75 Y97.43 E66.363
G1 X70.57 Y97.85 E66.376
G1 X70.6 Y102.47 E66.507
G1 X71.09 Y103.13 E66.53
G1 X71.63 Y103.44 E66.548
G1 X74.79 Y103.86 E66.638
G1 X77.94 Y104.27 E66.728
G1 X81.33 Y104.65 E66.824
G1 X82.92 Y104.62 E66.869
G1 X83.4 Y104.56 E66.883
G1 X84.23 Y104.06 E66.911
G1 X84.37 Y103.59 E66.924
G1 X84.3 Y102.53 E66.954
G1 X84.18 Y101.49 E66.984
G1 X84.14 Y99.16 E67.05
G1 X84.32 Y96.75 E67.118
G1 X84.22 Y96.13 E67.136
G1 X84.22 Y96.08
G1 X83.72 Y95.6
G1 X83.12 Y95.42
G1 X82.59 Y95.38
G1 X81.52 Y95.49
G1 X81.44 Y95.51
G1 X85.15 Y95.59 F7800
G1 E66.136 F1800
G1 X87.66 Y93.86 F7800
G1 X91.3 Y93.19
G1 X93.25 Y92.23
G1 X97.71 Y92.75
G1 X100.18 Y93.37
G1 X110.79 Y93.66
G1 X112.37 Y94.36
G1 X114.01 Y99.67
G1 X113.75 Y103.48
; TYPE:WALL-INNER
G1 E67.136 F1800
G1 X114.03 Y104.39 E67.163
G1 X114.74 Y105.07 E67.191
G1 X114.75 Y105.14 F7800
G1 X115.06 Y105.18 E67.2 F1800
G1 X114.76 Y105.22 F7800
G1 X113.09 Y105.45 E67.248 F1800
G1 X113.41 Y104.67 E67.271
G1 X113.75 Y103.48 E67.306
G1 X112.39 Y105.62 F7800
G1 X103.57 Y106.45
G1 X99.74 Y106.3
G1 X98.97 Y106.76
G1 X98.58 Y107.77 E67.337 F1800
G1 X98.52 Y107.82 E67.34
G1 X98.11 Y107.86 E67.351
G1 X94.83 Y107.87 E67.444
G1 X91.54 Y107.88 E67.537
G1 X91.33 Y107.83 E67.543
G1 X91.11 Y107.18 E67.562
G1 X90.53 Y106.76 E67.583
G1 X86.01 Y106.19 E67.712
G1 X81.49 Y105.63 E67.841
G1 X76.97 Y105.06 E67.97
G1 X74.3 Y104.69 E68.046
G1 X71.62 Y104.31 E68.122
G1 X70.9 Y104.11 E68.144
G1 X70.6 Y103.94 E68.153
G1 X70.1 Y103.46 E68.173
G1 X69.9 Y103.06 E68.185
G1 X69.78 Y102.43 E68.204
G1 X69.65 Y99.21 E68.295
G1 X69.83 Y97.31 E68.349
G1 X70.01 Y96.83 E68.363
G1 X70.22 Y96.56 E68.373
G1 X70.59 Y96.29 E68.386
G1 X71.18 Y96.09 E68.403
G1 X73.87 Y95.67 E68.48
G1 X76.55 Y95.25 E68.557
G1 X80.06 Y94.79 E68.657
G1 X83.58 Y94.32 E68.758
G1 X87.09 Y93.86 E68.858
G1 X90.89 Y93.29 E68.967
G1 X91.2 Y92.63 E68.987
G1 X91.3 Y92.13 E69.002
G1 X94.87 Y92.13 E69.103
G1 X98.43 Y92.12 E69.204
G1 X98.46 Y92.21 E69.206
G1 X98.58 Y92.79 E69.223
G1 X99.16 Y93.3 E69.245
G1 X103.84 Y93.27 E69.377
G1 X108.51 Y93.23 E69.509
G1 X112.53 Y93.72 E69.624
G1 X116.55 Y94.2 E69.738
G1 X120.56 Y94.69 E69.853
G1 X124.58 Y95.17 E69.967
G1 X128 Y95.71 E70.065
G1 X128.48 Y95.89 E70.08
G1 X128.93 Y96.28 E70.097
G1 X129.15 Y96.63 E70.108
G1 X129.27 Y96.96 E70.118
G1 X129.35 Y98.03 E70.149
G1 X129.33 Y102.32 E70.27
G1 X129.17 Y102.92 E70.287
G1 X128.97 Y103.21 E70.298
G1 X128.65 Y103.48 E70.309
G1 X128.34 Y103.61 E70.319
G1 X127.12 Y104.02 E70.355
G1 X125.31 Y104.31 E70.407
G1 X121.1 Y104.88 E70.528
G1 X116.88 Y105.45 E70.648
G1 X112.67 Y106.01 E70.769
G1 X108.45 Y106.58 E70.889
G1 X104.08 Y106.58 E71.013
G1 X99.71 Y106.57 E71.136
G1 X99.02 Y106.75 E71.156
G1 X98.97 Y106.76
G1 X99.35 Y107.18 F7800
; TYPE:WALL-OUTER
G1 X99 Y108.08 E71.183 F1260
G1 X98.71 Y108.31 E71.194
G1 X98.14 Y108.36 E71.21
G1 X94.81 Y108.37 E71.304
G1 X91.48 Y108.38 E71.398
G1 X91.06 Y108.27 E71.41
G1 X90.89 Y108.09 E71.417
G1 X90.69 Y107.49 E71.435
G1 X90.35 Y107.24 E71.447
G1 X85.87 Y106.68 E71.575
G1 X81.38 Y106.12 E71.703
G1 X76.9 Y105.56 E71.831
G1 X74.21 Y105.18 E71.908
G1 X71.52 Y104.8 E71.985
G1 X70.71 Y104.57 E72.008
G1 X70.3 Y104.35 E72.022
G1 X69.69 Y103.76 E72.046
G1 X69.42 Y103.22 E72.063
G1 X69.29 Y102.48 E72.084
G1 X69.15 Y99.19 E72.177
G1 X69.34 Y97.2 E72.234
G1 X69.57 Y96.58 E72.252
G1 X69.87 Y96.19 E72.266
G1 X70.36 Y95.84 E72.283
G1 X71.05 Y95.61 E72.304
G1 X73.77 Y95.18 E72.382
G1 X76.49 Y94.75 E72.46
G1 X80 Y94.29 E72.56
G1 X83.51 Y93.82 E72.66
G1 X87.02 Y93.36 E72.76
G1 X90.56 Y92.83 E72.861
G1 X90.73 Y92.48 E72.873
G1 X90.85 Y91.8 E72.892
G1 X90.95 Y91.69 E72.896
G1 X91.12 Y91.63 E72.901
G1 X94.85 Y91.63 E73.007
G1 X98.58 Y91.62 E73.112
G1 X98.81 Y91.73 E73.12
G1 X98.95 Y92.07 E73.13
G1 X99.04 Y92.53 E73.143
G1 X99.34 Y92.8 E73.155
G1 X103.94 Y92.77 E73.285
G1 X108.54 Y92.73 E73.415
G1 X112.56 Y93.22 E73.53
G1 X116.59 Y93.7 E73.644
G1 X120.61 Y94.19 E73.759
G1 X124.63 Y94.67 E73.873
G1 X128.13 Y95.22 E73.974
G1 X128.74 Y95.46 E73.992
G1 X129.31 Y95.96 E74.014
G1 X129.6 Y96.4 E74.029
G1 X129.76 Y96.86 E74.043
G1 X129.85 Y98 E74.075
G1 X129.83 Y102.38 E74.199
G1 X129.63 Y103.13 E74.221
G1 X129.34 Y103.55 E74.235
G1 X128.91 Y103.91 E74.251
G1 X128.52 Y104.08 E74.263
G1 X127.24 Y104.51 E74.301
G1 X125.4 Y104.8 E74.354
G1 X121.17 Y105.37 E74.475
G1 X116.94 Y105.94 E74.596
G1 X112.71 Y106.51 E74.716
G1 X108.48 Y107.08 E74.837
G1 X104.13 Y107.08 E74.96
G1 X99.78 Y107.07 E75.083
G1 X99.4 Y107.17 E75.094
G1 X99.35 Y107.18
G1 X99 Y108.08
G1 X98.71 Y108.31
G1 X98.14 Y108.36
G1 X97.04 Y108.36
G1 X98.97 Y106.8 F7800
G1 X94.11 Y107.55
G1 X86.08 Y105.7
G1 X85.23 Y102.83
; TYPE:FILL
G1 X85.09 Y101.42 E75.121 F3600
G1 X85.03 Y100.34 E75.136
G1 X85.04 Y99.19 E75.152
G1 X85.09 Y98.2 E75.166
G1 X85.25 Y96.87 E75.184
G1 X85.26 Y96.77 E75.186
G1 X85.9 Y94.69 F7800
G1 X90.5 Y93.37
G1 X91.2 Y93.45
G1 X91.36 Y92.89 E75.19 F3600
G1 X91.61 Y92.53 E75.192
G1 X97.78 Y92.52 F7800
G1 X98.09 Y92.61 E75.2 F3600
G1 X98.16 F7800
G1 X98.23 Y92.9 E75.204 F3600
G1 X98.31 Y93.16 E75.209
G1 X98.35 F7800
G1 X98.71 Y93.24 E75.218 F3600
G1 X98.08 Y92.52 F7800
G1 X97.86 Y92.37 E75.225 F3600
G1 E74.225 F1800
G1 Y92.56 F7800
G1 X91.73 Y92.61
G1 X90.07 Y93.61
G1 X86.59 Y94.2
G1 X85.3 Y97.1
G1 X85.49 Y103.78
G1 X86.76 Y105.84
G1 X91.7 Y106.7
G1 X93.42 Y107.44
G1 X97.84 Y107.04
G1 X98.68 Y106.48
G1 E75.225 F1800
G1 X98.82 Y106.5 E75.226 F3600
G1 X98.68 Y106.62 E75.229
G1 X98.67 Y106.63 F7800
G1 X98.68 Y106.54 E75.23 F3600
G1 X98.68 Y106.54 F7800
G1 X98.63 Y106.73 E75.232 F3600
G1 X98.28 Y107.53 E75.24
G1 X98.68 Y106.51 F7800
G1 X98.92 Y106.48 E75.242 F3600
G1 X95.71 Y107.53 F7800
G1 X91.71 Y107.57
G1 X91.46 Y106.97 E75.253 F3600
G1 X91.31 Y106.74 E75.258
G1 X91.26 Y106.74 F7800
G1 X91.39 Y106.79 E75.261 F3600
G1 X94.55 Y107.52 F7800
G1 X96.92 Y107.51
G1 X99.93 Y106.29
G1 X110.47 Y106.07
G1 X112.39 Y105.62
G1 X113.76 Y103.29
G1 X113.79 Y103.12 E75.264 F3600
G1 X114 Y101.55 E75.289
G1 X114.05 Y100.83 E75.301
G1 X114.09 Y99.7 E75.321
G1 X114.09 Y99.49 E75.324
G1 X113.94 Y97.99 E75.346
G1 X113.74 Y96.81 E75.371
G1 X113.68 Y96.25 E75.382
G1 X114.78 Y94.71 F7800
G1 X115.9 Y94.5
G1 X117.52 Y94.63 E75.392 F3600
G1 X128.3 Y96.21 F7800
G1 X128.44 Y96.32 E75.392 F3600
G1 X128.9 Y96.76 E75.395
G1 E74.395 F1800
G1 X128.71 F7800
G1 X126.6 Y95.71
G1 X115.88 Y94.31
G1 X112.81 Y94.67
G1 X110.79 Y93.66
G1 X98.09 Y93.19
G1 X95.59 Y92.39
G1 X91.73 Y92.61
G1 X89.44 Y93.6
G1 X80.35 Y94.99
G1 X71.25 Y96.38
G1 E75.395 F1800
G1 X70.73 Y96.57 E75.397 F3600
G1 E74.397 F1800
G1 X71.77 Y98.32 F7800
; TYPE:SUPPORT-INTERFACE
G1 E75.397 F1800
G1 X71.93 Y98.25 E75.402 F3600
G1 X73.35 Y98.03 E75.443
G1 Y98.08 E75.444
G1 X74.85 E75.487
G1 Y102.63 E75.616
G1 X72.02 Y102.28 E75.697
G1 X71.91 Y102.22 E75.7
G1 X71.8 Y102.07 E75.706
G1 X71.77 Y98.32 E75.812
G1 X72.41 Y99.42 F7800
G1 X73.12 Y98.7 E75.84 F3600
G1 X73.83 F7800
G1 X72.41 Y100.12 E75.897 F3600
G1 X72.42 Y100.82 F7800
G1 X74.22 Y99.02 E75.969 F3600
G1 Y99.73 F7800
G1 X72.42 Y101.53 E76.041 F3600
G1 X72.9 Y101.76 F7800
G1 X74.22 Y100.43 E76.094 F3600
G1 Y101.14 F7800
G1 X73.53 Y101.83 E76.122 F3600
G1 X74.16 Y101.91 F7800
G1 X74.22 Y101.85 E76.125 F3600
G1 E75.125 F1800
G1 X73.82 F7800
G1 X80.97 Y101.81
G1 X88.11 Y101.78
G1 X95.26 Y101.74
G1 X102.4 Y101.7
G1 X109.55 Y101.66
G1 X116.69 Y101.63
G1 X123.84 Y101.59
G1 E76.125 F1800
G1 Y98.08 E76.224 F3600
G1 X125.34 E76.266
G1 Y97.55 E76.281
G1 X126.61 Y97.7 E76.317
G1 X127.16 Y97.95 E76.334
G1 X127.18 Y101.58 E76.437
G1 X127.14 Y101.76 E76.442
G1 X127 Y101.88 E76.447
G1 X125.34 Y102.12 E76.495
G1 Y101.59 E76.51
G1 X123.84 E76.552
G1 X124.61 Y100.95 F7800
G1 X126.53 Y99.04 E76.629 F3600
G1 X126.51 Y98.35 F7800
G1 X124.47 Y100.39 E76.711 F3600
G1 Y99.68 F7800
G1 X125.45 Y98.71 E76.75 F3600
G1 X124.74 Y98.7 F7800
G1 X124.47 Y98.97 E76.761 F3600
G1 X125.32 Y100.96 F7800
G1 X126.54 Y99.74 E76.809 F3600
G1 X126.54 Y100.44 F7800
G1 X125.97 Y101.01 E76.832 F3600
G1 X126.35 Y101.33 F7800
G1 X126.55 Y101.14 E76.84 F3600
G1 E75.84 F1800
G1 X131.03 Y101.59 F7800
G1 E76.84 F1800
G1 X131.05 Y97.96 E76.943 F3600
G1 X130.95 Y96.61 E76.981
G1 X130.93 Y96.58 E76.982
G1 X131.85 E77.008
G1 Y101.59 E77.15
G1 X131.03 E77.173
; Layer Change GCode
; LAYER:4
; LAYER_HEIGHT:0.4
; TYPE:FILL
M400
M106 S255
G1 E76.173 F1800
G1 X130.28 Y101.56 Z1.9 F7800
G1 X130.47 Y101.75
G1 X128.77 Y102.45
G1 X127.44 Y101.85
G1 X126.49 Y102.57
G1 X124.21 Y101.38
G1 X117.06 Y101.16
G1 X109.9 Y100.94
G1 X102.75 Y100.72
G1 X95.6 Y100.51
G1 X88.45 Y100.29
G1 X81.29 Y100.07
G1 X74.14 Y99.85
G1 X73.43
G1 X73.03 Y99.1
G1 X70.73 Y98.83
G1 X69.93 Y100.35
G1 X70.11 Y101.07
; TYPE:WALL-INNER
G1 E77.173 F1800
G1 X69.78 Y101.07 E77.182 F1620
G1 X69.7 Y99.22 E77.235
G1 X69.73 Y98.83 E77.246
G1 X70.51 Y98.82 E77.268
G1 X70.62 Y98.83 E77.271
G1 X70.2 Y99.32 E77.289
G1 X70.12 Y100.12 E77.312
G1 X70.11 Y101.02 E77.337
G1 X70.11 Y101.07
G1 X70.53 Y101.58 F7800
; TYPE:WALL-OUTER
G1 X69.46 Y101.56 E77.368 F1134
G1 X69.33 Y101.48 E77.372
G1 X69.27 Y101.01 E77.386
G1 X69.2 Y99.2 E77.437
G1 X69.26 Y98.47 E77.457
G1 X69.34 Y98.37 E77.461
G1 X69.42 Y98.33 E77.463
G1 X70.51 Y98.32 E77.494
G1 X71.07 Y99.07 F7800
G1 X70.68 Y99.52 E77.511 F1134
G1 X70.62 Y100.15 E77.529
G1 X70.61 Y101.56 E77.569
G1 X70.53 Y101.58 E77.571
G1 X70.11 Y101.07 F7800
G1 X69.99 Y99.17
; TYPE:FILL
G1 X70.02 Y99.08 E77.572 F3240
G1 X70.05 Y99.11 F7800
G1 X69.96 Y99.14 E77.572 F3240
G1 X70.71 Y98.73 F7800
G1 X70.94 Y98.71 E77.573 F3240
G1 E76.573 F1800
G1 X70.71 Y98.95 F7800
G1 X73.01 Y99.05
G1 X74.14 Y99.85
G1 X74.89 Y99.84
G1 X75.07
G1 X82.21 Y99.81
G1 X89.35 Y99.78
G1 X96.49 Y99.75
G1 X103.63 Y99.72
G1 X110.77 Y99.69
G1 X117.91 Y99.66
G1 X125.05 Y99.63
G1 X125.62
G1 X126.29 Y98.6
G1 X128.51 Y98.74
G1 X128.92 Y100.72
; TYPE:WALL-INNER
G1 E77.573 F1800
G1 X128.89 Y99.46 E77.609 F1620
G1 X128.75 Y98.7 E77.631
G1 X128.75 Y98.64 F7800
G1 X128.63 Y98.59 E77.635 F1620
G1 X128.75 F7800
G1 X129.39 Y98.58 E77.653 F1620
G1 X129.36 Y100.71 E77.713
G1 X128.92 Y100.72 E77.726
G1 X128.52 Y101.23 F7800
; TYPE:WALL-OUTER
G1 X128.44 Y101.21 E77.728 F1134
G1 X128.39 Y99.51 E77.776
G1 X128.29 Y98.95 E77.792
G1 X128.04 Y98.73 E77.801
G1 X129.78 Y98.08 F7800
G1 X129.9 Y98.11 E77.805 F1134
G1 X129.86 Y101.11 E77.89
G1 X129.75 Y101.2 E77.894
G1 X128.52 Y101.23 E77.929
G1 X128.92 Y100.72 F7800
G1 X129.08 Y98.84
; TYPE:FILL
G1 X129.08 Y98.83 E77.929 F3240
G1 X128.52 Y98.58 F7800
G1 X128.15 Y98.42 E77.932 F3240
G1 E76.932 F1800
G1 X128.38 Y98.64 F7800
G1 X127.22 Y97.85
G1 X127.65 Y97.65
G1 X128.1 Y97.44
G1 X127.35 Y97.47 Z2.2
G1 Y96.54
G1 X123.61 Y97.64
G1 X116.54 Y97.96
G1 X109.48 Y98.27
G1 X102.41 Y98.59
G1 X95.34 Y98.9
G1 X88.27 Y99.22
G1 X81.21 Y99.53
G1 X74.14 Y99.85
G1 X73.43
G1 X73.88 Y99.87
; TYPE:AIR-GAP-INSET
G1 E77.932 F1800
G1 X73.85 Y100.34 E77.945 F810
G1 X73.68 Y100.7 E77.957
G1 X73.3 Y101.13 E77.973
G1 X72.83 Y101.43 E77.989
G1 X72.59 Y101.48 E77.996
G1 X72.35 Y101.44 E78.002
G1 X72.22 Y101.3 E78.008
G1 X72.21 Y101.14 E78.012
G1 X72.42 Y100.94 E78.021
G1 X72.92 Y100.66 E78.037
G1 X73.16 Y100.28 E78.05
G1 X73.14 Y99.72 E78.065
G1 X72.84 Y99.25 E78.081
G1 X72.24 Y99.01 E78.099
G1 X71.73 Y98.96 E78.114
G1 X71.07 Y99.07 E78.133
G1 X70.51 Y98.32 F7800
G1 X72.55 Y98.42 E78.191 F810
G1 X72.99 Y98.57 E78.204
G1 X73.49 Y98.94 E78.221
G1 X73.76 Y99.33 E78.235
G1 X73.88 Y99.87 E78.25
G1 E77.25 F1800
G1 X73.41 F7800
G1 X74.14 Y99.85
G1 X74.89 Y99.84
G1 X75.07
G1 X82.21 Y99.81
G1 X89.35 Y99.78
G1 X96.49 Y99.75
G1 X103.63 Y99.72
G1 X110.77 Y99.69
G1 X117.91 Y99.66
G1 X125.05 Y99.63
G1 X125.62
G1 X125.31 Y99.64
G1 E78.25 F1800
G1 X125.39 Y99.24 E78.262 F810
G1 X125.57 Y98.87 E78.274
G1 X126.05 Y98.42 E78.292
G1 X126.52 Y98.19 E78.307
G1 X127.23 Y98.1 E78.327
G1 X129.78 Y98.08 E78.399
G1 X128.04 Y98.73 F7800
G1 X127.38 Y98.65 E78.418 F810
G1 X126.78 Y98.7 E78.435
G1 X126.44 Y98.9 E78.447
G1 X126.07 Y99.4 E78.464
G1 X126 Y99.75 E78.474
G1 X126.18 Y100.27 E78.49
G1 X126.64 Y100.62 E78.506
G1 X126.97 Y100.84 E78.517
G1 X126.99 Y100.97 E78.521
G1 X126.96 Y101.06 E78.524
G1 X126.8 Y101.16 E78.529
G1 X126.57 Y101.18 E78.536
G1 X126.23 Y101.06 E78.546
G1 X125.63 Y100.6 E78.567
G1 X125.36 Y100.11 E78.583
G1 X125.31 Y99.64 E78.596
; Layer Change GCode
; LAYER:5
; LAYER_HEIGHT:0.4
; TYPE:FILL
G1 E77.596 F1800
G1 X125.65 Z2.3 F7800
G1 X125.05 Y99.63
G1 X124.31 Y99.63
G1 X123.93
G1 X116.82 Y99.66
G1 X109.7 Y99.69
G1 X102.59 Y99.72
G1 X95.48 Y99.76
G1 X88.37 Y99.79
G1 X81.25 Y99.82
G1 X74.14 Y99.85
G1 X73.43
G1 X73.03 Y99.1
G1 X70.73 Y98.83
G1 X69.93 Y100.35
G1 X70.11 Y101.07
; TYPE:WALL-INNER
G1 E78.596 F1800
G1 X69.78 Y101.07 E78.606 F1440
G1 X69.7 Y99.22 E78.658
G1 X69.73 Y98.83 E78.669
G1 X70.51 Y98.82 E78.691
G1 X70.62 Y98.83 E78.694
G1 X70.2 Y99.32 E78.712
G1 X70.12 Y100.12 E78.735
G1 X70.11 Y101.02 E78.761
G1 X70.11 Y101.07
G1 X70.61 Y101.56 F7800
; TYPE:WALL-OUTER
G1 X70.53 Y101.58 E78.763 F1008
G1 X69.46 Y101.56 E78.793
G1 X69.33 Y101.48 E78.798
G1 X69.27 Y101.01 E78.811
G1 X69.2 Y99.2 E78.862
G1 X69.26 Y98.47 E78.883
G1 X69.34 Y98.37 E78.887
G1 X69.42 Y98.33 E78.889
G1 X70.51 Y98.32 E78.92
G1 X72.55 Y98.42 E78.978
G1 X72.99 Y98.57 E78.991
G1 X73.49 Y98.94 E79.009
G1 X73.76 Y99.33 E79.022
G1 X73.88 Y99.87 E79.038
G1 X73.85 Y100.34 E79.051
G1 X73.68 Y100.7 E79.062
G1 X73.3 Y101.13 E79.079
G1 X72.83 Y101.43 E79.094
G1 X72.59 Y101.48 E79.101
G1 X72.35 Y101.44 E79.108
G1 X72.22 Y101.3 E79.113
G1 X72.21 Y101.14 E79.118
G1 X72.42 Y100.94 E79.126
G1 X72.92 Y100.66 E79.142
G1 X73.16 Y100.28 E79.155
G1 X73.14 Y99.72 E79.171
G1 X72.84 Y99.25 E79.187
G1 X72.24 Y99.01 E79.205
G1 X71.73 Y98.96 E79.219
G1 X71.07 Y99.07 E79.238
G1 X70.68 Y99.52 E79.255
G1 X70.62 Y100.15 E79.273
G1 X70.61 Y101.51 E79.312
G1 X70.61 Y101.56
G1 X70.53 Y101.58
G1 X69.46 Y101.56
G1 X69.33 Y101.48
G1 X69.27 Y101.01
G1 X69.22 Y99.79
G1 X70.11 Y101.07 F7800
G1 X69.99 Y99.17
; TYPE:FILL
G1 X70.02 Y99.08 E79.312 F2880
G1 X70.05 Y99.11 F7800
G1 X69.96 Y99.14 E79.313 F2880
G1 X70.71 Y98.73 F7800
G1 X70.94 Y98.71 E79.314 F2880
G1 X71.72 Y98.67 E79.317
G1 X72.31 Y98.71 E79.32
G1 X72.37 Y98.74 F7800
G1 X72.65 Y98.82 E79.325 F2880
G1 X72.94 Y98.92 E79.33
G1 X73.1 Y99.09 E79.333
G1 X73.32 Y99.34 E79.338
G1 X73.46 Y99.54 E79.341
G1 X73.48 Y99.75 E79.344
G1 X73.47 Y99.62 F7800
G1 X73.51 Y99.89 E79.346 F2880
G1 X73.46 Y100.36 E79.349
G1 X73.42 Y100.42 F7800
G1 X73.29 Y100.7 E79.351 F2880
G1 X73.13 Y100.88 E79.352
G1 X73.14 Y100.87 F7800
G1 X73.11 Y100.9 E79.352 F2880
G1 E78.352 F1800
G1 X72.99 Y100.78 F7800
G1 X74.14 Y99.85
G1 X74.89 Y99.84
G1 X75.07
G1 X82.21 Y99.81
G1 X89.35 Y99.78
G1 X96.49 Y99.75
G1 X103.63 Y99.72
G1 X110.77 Y99.69
G1 X117.91 Y99.66
G1 X125.05 Y99.63
G1 X125.62
G1 X126.29 Y98.6
G1 X128.51 Y98.74
G1 X128.92 Y100.72
G1 X129.36 Y100.71
; TYPE:WALL-INNER
G1 E79.352 F1800
G1 X128.92 Y100.72 E79.365 F1440
G1 X128.89 Y99.46 E79.4
G1 X128.75 Y98.7 E79.422
G1 X128.75 Y98.64 F7800
G1 X128.63 Y98.59 E79.426 F1440
G1 X128.75 F7800
G1 X129.39 Y98.58 E79.444 F1440
G1 X129.36 Y100.71 E79.504
G1 X128.44 Y101.21 F7800
; TYPE:WALL-OUTER
G1 X128.39 Y99.51 E79.552 F1008
G1 X128.29 Y98.95 E79.568
G1 X128.04 Y98.73 E79.578
G1 X127.38 Y98.65 E79.597
G1 X126.78 Y98.7 E79.614
G1 X126.44 Y98.9 E79.625
G1 X126.07 Y99.4 E79.642
G1 X126 Y99.75 E79.653
G1 X126.18 Y100.27 E79.668
G1 X126.64 Y100.62 E79.685
G1 X126.97 Y100.84 E79.696
G1 X126.99 Y100.97 E79.7
G1 X126.96 Y101.06 E79.702
G1 X126.8 Y101.16 E79.707
G1 X126.57 Y101.18 E79.714
G1 X126.23 Y101.06 E79.724
G1 X125.63 Y100.6 E79.746
G1 X125.36 Y100.11 E79.762
G1 X125.31 Y99.64 E79.775
G1 X125.39 Y99.24 E79.787
G1 X125.57 Y98.87 E79.798
G1 X126.05 Y98.42 E79.817
G1 X126.52 Y98.19 E79.831
G1 X127.23 Y98.1 E79.852
G1 X129.78 Y98.08 E79.924
G1 X129.9 Y98.11 E79.927
G1 X129.86 Y101.11 E80.012
G1 X129.75 Y101.2 E80.016
G1 X128.52 Y101.23 E80.051
G1 X128.44 Y101.21
G1 X128.39 Y99.51
G1 X128.29 Y98.95
G1 X128.04 Y98.73
G1 X127.64 Y98.68
G1 X128.92 Y100.72 F7800
G1 X129.08 Y98.84
; TYPE:FILL
G1 X129.08 Y98.83 E80.051 F2880
G1 X128.52 Y98.58 F7800
G1 X128.15 Y98.42 E80.055 F2880
G1 X127.38 Y98.37 E80.057
G1 X127.26 Y98.38 E80.057
G1 X126.66 Y98.46 F7800
G1 X126.43 Y98.57 E80.059 F2880
G1 X126.41 Y98.56 F7800
G1 X126.23 Y98.67 E80.06 F2880
G1 X125.87 Y99.08 E80.064
G1 X125.76 Y99.25 E80.066
G1 X125.82 Y99.18 F7800
G1 X125.74 Y99.31 E80.067 F2880
G1 X125.72 Y99.57 E80.071
G1 X125.67 Y99.9 E80.076
G1 X125.81 Y100.2 E80.079
G1 X125.93 Y100.44 E80.081
G1 X125.89 Y100.41 F7800
G1 X125.94 Y100.46 E80.081 F2880
G1 X126.38 Y100.8 E80.084
G1 X126.27 Y100.68 F7800
G1 X125.69 Y99.85
G1 X126.23 Y98.67
G1 X126.42 Y98.56 E80.086 F2880
G1 X126.65 Y98.44 E80.087
G1 E79.087 F1800
G1 X128.9 Y98.84 F7800
G1 X130.11 Y97.91
G1 X130.1 Y97.95
G1 X130.1 Y98
M400
M107
; MatterSlice Completed Successfully
M104 S0 ; turn off temperature
G28 X0  ; home X axis
M84     ; disable motors
; filament used = 80.1
; filament used extruder 1 (mm) = 80.1
; filament used extruder 2 (mm) = 0.0
; total print time (s) = 167
; MatterControl Version 2.20.4.10455 Build 2.20.4.10455 : GCode settings used
; Date 06/03/2020 00:00:00 Time 15:06
; numberOfBottomLayers = 3
; numberOfPerimeters = 3
; raftExtraDistanceAroundPart = 5
; supportInterfaceLayers = 2
; numberOfTopLayers = 3
; outsidePerimeterExtrusionWidth = 0.5
; outsidePerimeterSpeed = 21
; firstLayerSpeed = 18
; numberOfFirstLayers = 1
; raftPrintSpeed = 60
; topInfillSpeed = 50
; firstLayerExtrusionWidth = 0.5
; firstLayerThickness = 0.3
; endCode = M104 S0 ; turn off temperature\nG28 X0  ; home X axis\nM84     ; disable motors
; minimumTravelToCauseRetraction = 20
; retractionOnTravel = 1
; retractionZHop = 0
; unretractExtraExtrusion = 0
; retractRestartExtraTimeToApply = 0
; retractionSpeed = 30
; bridgeSpeed = 20
; airGapSpeed = 15
; bottomInfillSpeed = 60
; bridgeOverInfill = False
; extrusionMultiplier = 1
; infillStartingAngle = 45
; infillExtendIntoPerimeter = 0.06
; infillSpeed = 60
; infillType = TRIANGLES
; minimumExtrusionBeforeRetraction = .1
; minimumPrintingSpeed = 10
; insidePerimetersSpeed = 30
; raftAirGap = .2
; maxAcceleration = 1000
; maxVelocity = 500
; jerkVelocity = 8
; printTimeEstimateMultiplier = 1
; fanSpeedMinPercent = 35
; coastAtEndDistance = 3
; minFanSpeedLayerTime = 60
; fanSpeedMaxPercent = 100
; maxFanSpeedLayerTime = 30
; bridgeFanSpeedPercent = 100
; firstLayerToAllowFan = 1
; retractionOnExtruderSwitch = 10
; unretractExtraOnExtruderSwitch = 0
; resetLongExtrusion = True
; minimumLayerTimeSeconds = 30
; supportAirGap = .3
; supportInfillStartingAngle = 45
; supportLineSpacing = 2.5
; supportMaterialSpeed = 60
; interfaceLayerSpeed = 60
; supportXYDistanceFromObject = 0.7
; supportType = LINES
; travelSpeed = 130
; wipeShieldDistanceFromObject = 0
; wipeTowerSize = 0
; filamentDiameter = 3
; layerThickness = 0.4
; extrusionWidth = 0.5
; extruderCount = 1
; avoidCrossingPerimeters = True
; enableRaft = False
; outsidePerimetersFirst = False
; outputOnlyFirstLayer = False
; retractWhenChangingIslands = True
; generateSupportPerimeter = True
; generateSupport = False
; generateInternalSupport = True
; supportGrabDistance = 1
; supportPercent = 50
; expandThinWalls = True
; MergeOverlappingLines = True
; fillThinGaps = True
; continuousSpiralOuterPerimeter = False
; startCode = ; automatic settings before start_gcode\nG21 ; set units to millimeters\nM107 ; fan off\nM140 S70 ; start heating the bed\nM104 T0 S200 ; start heating T0\nT0 ; set the active extruder to 0\n; settings from start_gcode\nG28 ; home all axes\nG1 Z5 F5000 ; lift nozzle\n; automatic settings after start_gcode\nM190 S70 ; wait for bed temperature to be reached\nM109 T0 S200 ; Finish heating T0\nT0 ; set the active extruder to 0\nG90 ; use absolute coordinates\nG92 E0 ; reset the expected extruder position\nM82 ; use absolute distance for extrusion
; layerChangeCode = ; LAYER:[layer_num]
; infillPercent = 100
; perimeterStartEndOverlapRatio = 0.9
; raftExtruder = -1
; supportExtruder = 0
; supportInterfaceExtruder = 0
; numberOfSkirtLoops = 1
; skirtDistanceFromObject = 6
; skirtMinLength = 0
; numberOfBrimLoops = 0
