<?xml version="1.0" encoding="UTF-8" standalone="no"?>
<svg
   xmlns:dc="http://purl.org/dc/elements/1.1/"
   xmlns:cc="http://creativecommons.org/ns#"
   xmlns:rdf="http://www.w3.org/1999/02/22-rdf-syntax-ns#"
   xmlns:svg="http://www.w3.org/2000/svg"
   xmlns="http://www.w3.org/2000/svg"
   xmlns:sodipodi="http://sodipodi.sourceforge.net/DTD/sodipodi-0.dtd"
   xmlns:inkscape="http://www.inkscape.org/namespaces/inkscape"
   width="210mm"
   height="297mm"
   viewBox="0 0 210 297"
   version="1.1"
   id="svg8"
   inkscape:version="1.0 (4035a4fb49, 2020-05-01)"
   sodipodi:docname="LimaKlipVereenvoudigd.svg">
  <defs
     id="defs2" />
  <sodipodi:namedview
     id="base"
     pagecolor="#ffffff"
     bordercolor="#666666"
     borderopacity="1.0"
     inkscape:pageopacity="0.0"
     inkscape:pageshadow="2"
     inkscape:zoom="64"
     inkscape:cx="363.22638"
     inkscape:cy="680.24278"
     inkscape:document-units="mm"
     inkscape:current-layer="layer1"
     inkscape:document-rotation="0"
     showgrid="false"
     inkscape:window-width="1344"
     inkscape:window-height="1174"
     inkscape:window-x="766"
     inkscape:window-y="240"
     inkscape:window-maximized="0" />
  <metadata
     id="metadata5">
    <rdf:RDF>
      <cc:Work
         rdf:about="">
        <dc:format>image/svg+xml</dc:format>
        <dc:type
           rdf:resource="http://purl.org/dc/dcmitype/StillImage" />
        <dc:title></dc:title>
      </cc:Work>
    </rdf:RDF>
  </metadata>
  <g
     inkscape:label="Laag 1"
     inkscape:groupmode="layer"
     id="layer1">
    <path
       d="m 96.613038,179.82763 c -0.115823,-0.008 -0.07558,-0.18299 -0.2288,-0.14574 -0.609687,-0.092 -1.227719,-0.15196 -1.835207,-0.2636 -0.211821,-0.0566 -0.179903,-0.31502 -0.181903,-0.48475 -0.02876,-0.22513 0.05672,-0.50983 0.333843,-0.49325 0.606497,-0.0832 1.20846,-0.17091 1.817743,-0.22925 -0.0072,-0.14832 0.146698,-0.11958 0.242418,-0.11983 0.19645,0.003 0.394026,-0.006 0.589602,0.01 0.06649,0.2108 0.333746,0.096 0.515248,0.12369 0.273831,-0.006 0.547525,-0.006 0.81745,0.0467 0.509467,0.0742 1.022393,0.12943 1.529658,0.21598 0.15454,0.0197 0.28539,0.14474 0.26027,0.30691 -0.0121,0.18253 0.0272,0.37433 -0.0341,0.54902 -0.11153,0.18358 -0.36255,0.13197 -0.542706,0.18012 -0.539648,0.0639 -1.078627,0.13532 -1.618503,0.19485 -0.293173,0.002 -0.588793,-0.0153 -0.88029,-0.004 -0.01235,0.2114 -0.299854,0.0788 -0.437053,0.1153 -0.115776,-7.2e-4 -0.232636,0.001 -0.34767,-0.002 z m 0.57945,-0.20158 c 0.05941,-0.20359 0.35215,-0.0612 0.516685,-0.10281 0.299599,-0.007 0.601547,0.0133 0.899633,-0.0128 0.142945,-0.16336 0.149377,-0.4058 0.149722,-0.61333 -0.0251,-0.15364 -0.02077,-0.38181 -0.1475,-0.4756 -0.328278,-0.0231 -0.666712,-0.003 -0.998818,-0.0102 -0.163612,-0.006 -0.388417,0.0531 -0.427332,-0.12668 -0.143873,0.0288 -0.398965,-0.0692 -0.47542,0.0596 -0.102474,0.1419 -0.357928,0.004 -0.50792,0.0807 -0.144771,0.3083 -0.150634,0.67814 -0.04134,0.99836 0.04427,0.12583 0.183375,0.0662 0.28036,0.0807 0.131033,-0.0151 0.261782,0.007 0.292885,0.1253 0.143925,-0.004 0.337735,0.0202 0.459045,-0.003 z m -1.38909,-0.23489 c 0.17813,-0.0953 0.0011,-0.34685 0.06243,-0.50564 -0.0087,-0.13172 0.09072,-0.38422 -0.1283,-0.3654 -0.340617,7.4e-4 -0.678165,0.0714 -1.016645,0.10732 -0.282592,0.0259 -0.124196,0.37774 -0.160073,0.56195 0.188969,0.0968 0.423833,0.079 0.630262,0.13062 0.203156,0.0187 0.409584,0.0963 0.612331,0.0712 z m 3.33641,0.007 c 0.340843,-0.0283 0.682567,-0.0629 1.020122,-0.1172 0.21072,-0.0719 0.10864,-0.40371 0.0843,-0.57047 -0.19985,-0.0881 -0.437405,-0.0718 -0.651905,-0.11743 -0.198054,-0.009 -0.414218,-0.0898 -0.603255,-0.0183 -0.04837,0.22002 0.03824,0.46633 -0.0299,0.69492 -0.04154,0.1364 0.07086,0.13956 0.180613,0.12848 z m -0.37571,-0.53319 c -0.0077,-0.0108 -0.0077,0.0108 0,0 z"
       style="fill:#000000;stroke-width:0.00264583"
       id="path48" />
  </g>
</svg>
