solid OpenSCAD_Model
  facet normal 0 0 -1
    outer loop
      vertex 62.342 32 0
      vertex 62.213 36.896 0
      vertex 63.793 36.896 0
    endloop
  endfacet
  facet normal 0 0 -1
    outer loop
      vertex 62.213 36.896 0
      vertex 60.952 38.279 0
      vertex 62.213 38.279 0
    endloop
  endfacet
  facet normal 0 0 -1
    outer loop
      vertex 59.7027 36.9819 0
      vertex 62.213 36.896 0
      vertex 62.342 32 0
    endloop
  endfacet
  facet normal 0 0 -1
    outer loop
      vertex 60.0073 37.8285 0
      vertex 60.952 38.279 0
      vertex 60.016 37.669 0
    endloop
  endfacet
  facet normal 0 -0 -1
    outer loop
      vertex 59.9377 37.2395 0
      vertex 62.213 36.896 0
      vertex 59.8767 37.1346 0
    endloop
  endfacet
  facet normal 0 0 -1
    outer loop
      vertex 60.952 38.279 0
      vertex 60.0073 37.5068 0
      vertex 60.016 37.669 0
    endloop
  endfacet
  facet normal 0 0 -1
    outer loop
      vertex 60.952 38.279 0
      vertex 59.9812 37.3636 0
      vertex 60.0073 37.5068 0
    endloop
  endfacet
  facet normal 0 0 -1
    outer loop
      vertex 62.213 36.896 0
      vertex 59.9812 37.3636 0
      vertex 60.952 38.279 0
    endloop
  endfacet
  facet normal 0 -0 -1
    outer loop
      vertex 59.9812 37.3636 0
      vertex 62.213 36.896 0
      vertex 59.9377 37.2395 0
    endloop
  endfacet
  facet normal 0 0 -1
    outer loop
      vertex 62.213 36.896 0
      vertex 59.7984 37.0487 0
      vertex 59.8767 37.1346 0
    endloop
  endfacet
  facet normal 0 0 -1
    outer loop
      vertex 62.213 36.896 0
      vertex 59.7027 36.9819 0
      vertex 59.7984 37.0487 0
    endloop
  endfacet
  facet normal 0 0 -1
    outer loop
      vertex 62.342 32 0
      vertex 59.5895 36.9342 0
      vertex 59.7027 36.9819 0
    endloop
  endfacet
  facet normal 0 0 -1
    outer loop
      vertex 62.342 32 0
      vertex 59.459 36.9055 0
      vertex 59.5895 36.9342 0
    endloop
  endfacet
  facet normal 0 0 -1
    outer loop
      vertex 62.342 32 0
      vertex 59.311 36.896 0
      vertex 59.459 36.9055 0
    endloop
  endfacet
  facet normal 0 0 -1
    outer loop
      vertex 62.342 32 0
      vertex 59.1616 36.9055 0
      vertex 59.311 36.896 0
    endloop
  endfacet
  facet normal 0 0 -1
    outer loop
      vertex 62.342 32 0
      vertex 59.0297 36.9342 0
      vertex 59.1616 36.9055 0
    endloop
  endfacet
  facet normal 0 0 -1
    outer loop
      vertex 57.2835 36.9342 0
      vertex 59.0297 36.9342 0
      vertex 62.342 32 0
    endloop
  endfacet
  facet normal 0 0 -1
    outer loop
      vertex 59.0297 36.9342 0
      vertex 57.2835 36.9342 0
      vertex 58.9154 36.9819 0
    endloop
  endfacet
  facet normal 0 -0 -1
    outer loop
      vertex 57.3967 36.9819 0
      vertex 58.9154 36.9819 0
      vertex 57.2835 36.9342 0
    endloop
  endfacet
  facet normal 0 0 -1
    outer loop
      vertex 58.6078 37.5068 0
      vertex 57.71 37.669 0
      vertex 58.599 37.669 0
    endloop
  endfacet
  facet normal 0 0 -1
    outer loop
      vertex 57.7013 37.5068 0
      vertex 58.6078 37.5068 0
      vertex 58.6342 37.3636 0
    endloop
  endfacet
  facet normal 0 0 -1
    outer loop
      vertex 57.6752 37.3636 0
      vertex 58.6342 37.3636 0
      vertex 58.6781 37.2395 0
    endloop
  endfacet
  facet normal 0 0 -1
    outer loop
      vertex 57.6317 37.2395 0
      vertex 58.6781 37.2395 0
      vertex 58.7396 37.1346 0
    endloop
  endfacet
  facet normal 0 0 -1
    outer loop
      vertex 58.9154 36.9819 0
      vertex 57.3967 36.9819 0
      vertex 58.8187 37.0487 0
    endloop
  endfacet
  facet normal 0 0 -1
    outer loop
      vertex 58.6078 37.5068 0
      vertex 57.7013 37.5068 0
      vertex 57.71 37.669 0
    endloop
  endfacet
  facet normal 0 0 -1
    outer loop
      vertex 58.6342 37.3636 0
      vertex 57.6752 37.3636 0
      vertex 57.7013 37.5068 0
    endloop
  endfacet
  facet normal 0 0 -1
    outer loop
      vertex 58.6781 37.2395 0
      vertex 57.6317 37.2395 0
      vertex 57.6752 37.3636 0
    endloop
  endfacet
  facet normal 0 0 -1
    outer loop
      vertex 58.7396 37.1346 0
      vertex 57.5707 37.1346 0
      vertex 57.6317 37.2395 0
    endloop
  endfacet
  facet normal -0 0 -1
    outer loop
      vertex 58.7396 37.1346 0
      vertex 57.4924 37.0487 0
      vertex 57.5707 37.1346 0
    endloop
  endfacet
  facet normal 0 0 -1
    outer loop
      vertex 58.8187 37.0487 0
      vertex 57.4924 37.0487 0
      vertex 58.7396 37.1346 0
    endloop
  endfacet
  facet normal 0 -0 -1
    outer loop
      vertex 57.4924 37.0487 0
      vertex 58.8187 37.0487 0
      vertex 57.3967 36.9819 0
    endloop
  endfacet
  facet normal 0 0 -1
    outer loop
      vertex 62.342 32 0
      vertex 57.153 36.9055 0
      vertex 57.2835 36.9342 0
    endloop
  endfacet
  facet normal 0 0 -1
    outer loop
      vertex 62.342 32 0
      vertex 57.005 36.896 0
      vertex 57.153 36.9055 0
    endloop
  endfacet
  facet normal 0 0 -1
    outer loop
      vertex 51.573 32 0
      vertex 57.005 36.896 0
      vertex 62.342 32 0
    endloop
  endfacet
  facet normal -0 0 -1
    outer loop
      vertex 57.005 36.896 0
      vertex 51.573 32 0
      vertex 56.8541 36.9055 0
    endloop
  endfacet
  facet normal -0 0 -1
    outer loop
      vertex 56.8541 36.9055 0
      vertex 51.573 32 0
      vertex 56.7209 36.9342 0
    endloop
  endfacet
  facet normal 0 -0 -1
    outer loop
      vertex 55.0107 36.9342 0
      vertex 56.7209 36.9342 0
      vertex 51.573 32 0
    endloop
  endfacet
  facet normal 0 0 -1
    outer loop
      vertex 56.2949 37.5068 0
      vertex 55.445 37.669 0
      vertex 56.286 37.669 0
    endloop
  endfacet
  facet normal 0 0 -1
    outer loop
      vertex 55.4361 37.5068 0
      vertex 56.2949 37.5068 0
      vertex 56.3215 37.3636 0
    endloop
  endfacet
  facet normal 0 0 -1
    outer loop
      vertex 55.4095 37.3636 0
      vertex 56.3215 37.3636 0
      vertex 56.3659 37.2395 0
    endloop
  endfacet
  facet normal 0 0 -1
    outer loop
      vertex 55.3652 37.2395 0
      vertex 56.3659 37.2395 0
      vertex 56.428 37.1346 0
    endloop
  endfacet
  facet normal 0 0 -1
    outer loop
      vertex 55.3032 37.1346 0
      vertex 56.428 37.1346 0
      vertex 56.5079 37.0487 0
    endloop
  endfacet
  facet normal 0 0 -1
    outer loop
      vertex 56.7209 36.9342 0
      vertex 55.0107 36.9342 0
      vertex 56.6055 36.9819 0
    endloop
  endfacet
  facet normal 0 0 -1
    outer loop
      vertex 56.2949 37.5068 0
      vertex 55.4361 37.5068 0
      vertex 55.445 37.669 0
    endloop
  endfacet
  facet normal 0 0 -1
    outer loop
      vertex 56.3215 37.3636 0
      vertex 55.4095 37.3636 0
      vertex 55.4361 37.5068 0
    endloop
  endfacet
  facet normal 0 0 -1
    outer loop
      vertex 56.3659 37.2395 0
      vertex 55.3652 37.2395 0
      vertex 55.4095 37.3636 0
    endloop
  endfacet
  facet normal 0 0 -1
    outer loop
      vertex 56.428 37.1346 0
      vertex 55.3032 37.1346 0
      vertex 55.3652 37.2395 0
    endloop
  endfacet
  facet normal 0 0 -1
    outer loop
      vertex 56.5079 37.0487 0
      vertex 55.2234 37.0487 0
      vertex 55.3032 37.1346 0
    endloop
  endfacet
  facet normal -0 0 -1
    outer loop
      vertex 56.5079 37.0487 0
      vertex 55.1259 36.9819 0
      vertex 55.2234 37.0487 0
    endloop
  endfacet
  facet normal 0 0 -1
    outer loop
      vertex 56.6055 36.9819 0
      vertex 55.1259 36.9819 0
      vertex 56.5079 37.0487 0
    endloop
  endfacet
  facet normal 0 -0 -1
    outer loop
      vertex 55.1259 36.9819 0
      vertex 56.6055 36.9819 0
      vertex 55.0107 36.9342 0
    endloop
  endfacet
  facet normal 0 0 -1
    outer loop
      vertex 55.0107 36.9342 0
      vertex 51.573 32 0
      vertex 54.8777 36.9055 0
    endloop
  endfacet
  facet normal 0 0 -1
    outer loop
      vertex 54.8777 36.9055 0
      vertex 51.573 32 0
      vertex 54.727 36.896 0
    endloop
  endfacet
  facet normal -0 0 -1
    outer loop
      vertex 54.727 36.896 0
      vertex 51.573 32 0
      vertex 54.5761 36.9055 0
    endloop
  endfacet
  facet normal -0 0 -1
    outer loop
      vertex 54.5761 36.9055 0
      vertex 51.573 32 0
      vertex 54.4429 36.9342 0
    endloop
  endfacet
  facet normal -0 0 -1
    outer loop
      vertex 54.0169 37.5068 0
      vertex 52.95 36.896 0
      vertex 54.008 37.669 0
    endloop
  endfacet
  facet normal -0 0 -1
    outer loop
      vertex 54.0435 37.3636 0
      vertex 52.95 36.896 0
      vertex 54.0169 37.5068 0
    endloop
  endfacet
  facet normal -0 0 -1
    outer loop
      vertex 54.0879 37.2395 0
      vertex 52.95 36.896 0
      vertex 54.0435 37.3636 0
    endloop
  endfacet
  facet normal -0 0 -1
    outer loop
      vertex 54.15 37.1346 0
      vertex 52.95 36.896 0
      vertex 54.0879 37.2395 0
    endloop
  endfacet
  facet normal -0 0 -1
    outer loop
      vertex 54.2299 37.0487 0
      vertex 52.95 36.896 0
      vertex 54.15 37.1346 0
    endloop
  endfacet
  facet normal -0 0 -1
    outer loop
      vertex 54.3275 36.9819 0
      vertex 52.95 36.896 0
      vertex 54.2299 37.0487 0
    endloop
  endfacet
  facet normal 0 -0 -1
    outer loop
      vertex 52.95 36.896 0
      vertex 54.4429 36.9342 0
      vertex 51.573 32 0
    endloop
  endfacet
  facet normal -0 0 -1
    outer loop
      vertex 54.4429 36.9342 0
      vertex 52.95 36.896 0
      vertex 54.3275 36.9819 0
    endloop
  endfacet
  facet normal -0 0 -1
    outer loop
      vertex 52.95 36.896 0
      vertex 51.573 32 0
      vertex 50.088 36.896 0
    endloop
  endfacet
  facet normal 0 0 -1
    outer loop
      vertex 59.9812 37.9692 0
      vertex 60.952 38.279 0
      vertex 60.0073 37.8285 0
    endloop
  endfacet
  facet normal 0 0 -1
    outer loop
      vertex 59.9377 38.0912 0
      vertex 60.952 38.279 0
      vertex 59.9812 37.9692 0
    endloop
  endfacet
  facet normal 0 0 -1
    outer loop
      vertex 59.8767 38.1944 0
      vertex 60.952 38.279 0
      vertex 59.9377 38.0912 0
    endloop
  endfacet
  facet normal 0 0 -1
    outer loop
      vertex 59.7984 38.2789 0
      vertex 60.952 38.279 0
      vertex 59.8767 38.1944 0
    endloop
  endfacet
  facet normal -0 0 -1
    outer loop
      vertex 60.952 38.279 0
      vertex 59.7984 38.2789 0
      vertex 60.952 39.724 0
    endloop
  endfacet
  facet normal 0 0 -1
    outer loop
      vertex 59.7027 38.3445 0
      vertex 60.952 39.724 0
      vertex 59.7984 38.2789 0
    endloop
  endfacet
  facet normal 0 0 -1
    outer loop
      vertex 59.5895 38.3915 0
      vertex 60.952 39.724 0
      vertex 59.7027 38.3445 0
    endloop
  endfacet
  facet normal 0 0 -1
    outer loop
      vertex 59.459 38.4196 0
      vertex 60.952 39.724 0
      vertex 59.5895 38.3915 0
    endloop
  endfacet
  facet normal 0 0 -1
    outer loop
      vertex 59.311 38.429 0
      vertex 60.952 39.724 0
      vertex 59.459 38.4196 0
    endloop
  endfacet
  facet normal 0 0 -1
    outer loop
      vertex 59.1616 38.4196 0
      vertex 60.952 39.724 0
      vertex 59.311 38.429 0
    endloop
  endfacet
  facet normal 0 0 -1
    outer loop
      vertex 56.869 39.724 0
      vertex 59.1616 38.4196 0
      vertex 59.0297 38.3915 0
    endloop
  endfacet
  facet normal 0 0 -1
    outer loop
      vertex 56.869 39.724 0
      vertex 59.0297 38.3915 0
      vertex 58.9154 38.3445 0
    endloop
  endfacet
  facet normal 0 0 -1
    outer loop
      vertex 57.71 37.669 0
      vertex 58.6078 37.8285 0
      vertex 58.599 37.669 0
    endloop
  endfacet
  facet normal 0 0 -1
    outer loop
      vertex 57.7013 37.8285 0
      vertex 58.6078 37.8285 0
      vertex 57.71 37.669 0
    endloop
  endfacet
  facet normal 0 0 -1
    outer loop
      vertex 58.6078 37.8285 0
      vertex 57.7013 37.8285 0
      vertex 58.6342 37.9692 0
    endloop
  endfacet
  facet normal 0 0 -1
    outer loop
      vertex 57.6752 37.9692 0
      vertex 58.6342 37.9692 0
      vertex 57.7013 37.8285 0
    endloop
  endfacet
  facet normal 0 0 -1
    outer loop
      vertex 58.6342 37.9692 0
      vertex 57.6752 37.9692 0
      vertex 58.6781 38.0912 0
    endloop
  endfacet
  facet normal 0 0 -1
    outer loop
      vertex 57.6317 38.0912 0
      vertex 58.6781 38.0912 0
      vertex 57.6752 37.9692 0
    endloop
  endfacet
  facet normal 0 0 -1
    outer loop
      vertex 58.6781 38.0912 0
      vertex 57.6317 38.0912 0
      vertex 58.7396 38.1944 0
    endloop
  endfacet
  facet normal 0 0 -1
    outer loop
      vertex 57.5707 38.1944 0
      vertex 58.7396 38.1944 0
      vertex 57.6317 38.0912 0
    endloop
  endfacet
  facet normal 0 0 -1
    outer loop
      vertex 58.7396 38.1944 0
      vertex 57.5707 38.1944 0
      vertex 58.8187 38.2789 0
    endloop
  endfacet
  facet normal 0 0 -1
    outer loop
      vertex 57.4924 38.2789 0
      vertex 58.8187 38.2789 0
      vertex 57.5707 38.1944 0
    endloop
  endfacet
  facet normal 0 0 -1
    outer loop
      vertex 58.8187 38.2789 0
      vertex 57.4924 38.2789 0
      vertex 58.9154 38.3445 0
    endloop
  endfacet
  facet normal 0 0 -1
    outer loop
      vertex 57.3967 38.3445 0
      vertex 58.9154 38.3445 0
      vertex 57.4924 38.2789 0
    endloop
  endfacet
  facet normal 0 0 -1
    outer loop
      vertex 58.9154 38.3445 0
      vertex 57.3967 38.3445 0
      vertex 56.869 39.724 0
    endloop
  endfacet
  facet normal 0 0 -1
    outer loop
      vertex 56.869 39.724 0
      vertex 57.3967 38.3445 0
      vertex 57.2835 38.3915 0
    endloop
  endfacet
  facet normal 0 0 -1
    outer loop
      vertex 56.869 39.724 0
      vertex 57.2835 38.3915 0
      vertex 57.153 38.4196 0
    endloop
  endfacet
  facet normal 0 0 -1
    outer loop
      vertex 56.869 39.724 0
      vertex 57.153 38.4196 0
      vertex 57.005 38.429 0
    endloop
  endfacet
  facet normal 0 0 -1
    outer loop
      vertex 59.1616 38.4196 0
      vertex 56.869 39.724 0
      vertex 60.952 39.724 0
    endloop
  endfacet
  facet normal 0 0 -1
    outer loop
      vertex 56.8541 38.4196 0
      vertex 56.869 39.724 0
      vertex 57.005 38.429 0
    endloop
  endfacet
  facet normal 0 0 -1
    outer loop
      vertex 56.7209 38.3915 0
      vertex 56.869 39.724 0
      vertex 56.8541 38.4196 0
    endloop
  endfacet
  facet normal 0 0 -1
    outer loop
      vertex 56.6055 38.3445 0
      vertex 56.869 39.724 0
      vertex 56.7209 38.3915 0
    endloop
  endfacet
  facet normal 0 0 -1
    outer loop
      vertex 56.5079 38.2789 0
      vertex 56.869 39.724 0
      vertex 56.6055 38.3445 0
    endloop
  endfacet
  facet normal 0 0 -1
    outer loop
      vertex 55.2234 38.2789 0
      vertex 56.869 39.724 0
      vertex 56.5079 38.2789 0
    endloop
  endfacet
  facet normal 0 0 -1
    outer loop
      vertex 55.2234 38.2789 0
      vertex 56.5079 38.2789 0
      vertex 56.428 38.1944 0
    endloop
  endfacet
  facet normal 0 0 -1
    outer loop
      vertex 55.3032 38.1944 0
      vertex 56.428 38.1944 0
      vertex 56.3659 38.0912 0
    endloop
  endfacet
  facet normal 0 0 -1
    outer loop
      vertex 55.3652 38.0912 0
      vertex 56.3659 38.0912 0
      vertex 56.3215 37.9692 0
    endloop
  endfacet
  facet normal 0 0 -1
    outer loop
      vertex 55.4095 37.9692 0
      vertex 56.3215 37.9692 0
      vertex 56.2949 37.8285 0
    endloop
  endfacet
  facet normal 0 0 -1
    outer loop
      vertex 55.445 37.669 0
      vertex 56.2949 37.8285 0
      vertex 56.286 37.669 0
    endloop
  endfacet
  facet normal 0 0 -1
    outer loop
      vertex 55.4361 37.8285 0
      vertex 56.2949 37.8285 0
      vertex 55.445 37.669 0
    endloop
  endfacet
  facet normal 0 0 -1
    outer loop
      vertex 55.4095 37.9692 0
      vertex 56.2949 37.8285 0
      vertex 55.4361 37.8285 0
    endloop
  endfacet
  facet normal 0 0 -1
    outer loop
      vertex 56.3215 37.9692 0
      vertex 55.4095 37.9692 0
      vertex 55.3652 38.0912 0
    endloop
  endfacet
  facet normal 0 0 -1
    outer loop
      vertex 56.3659 38.0912 0
      vertex 55.3652 38.0912 0
      vertex 55.3032 38.1944 0
    endloop
  endfacet
  facet normal 0 0 -1
    outer loop
      vertex 56.428 38.1944 0
      vertex 55.3032 38.1944 0
      vertex 55.2234 38.2789 0
    endloop
  endfacet
  facet normal 0 0 -1
    outer loop
      vertex 56.869 39.724 0
      vertex 55.2234 38.2789 0
      vertex 55.1259 38.3445 0
    endloop
  endfacet
  facet normal 0 -0 -1
    outer loop
      vertex 55.215 42.057 0
      vertex 56.869 39.724 0
      vertex 54.638 39.724 0
    endloop
  endfacet
  facet normal -0 0 -1
    outer loop
      vertex 56.869 39.724 0
      vertex 55.1259 38.3445 0
      vertex 54.638 39.724 0
    endloop
  endfacet
  facet normal 0 0 -1
    outer loop
      vertex 54.638 39.724 0
      vertex 55.1259 38.3445 0
      vertex 55.0107 38.3915 0
    endloop
  endfacet
  facet normal 0 0 -1
    outer loop
      vertex 54.638 39.724 0
      vertex 55.0107 38.3915 0
      vertex 54.8777 38.4196 0
    endloop
  endfacet
  facet normal 0 0 -1
    outer loop
      vertex 54.638 39.724 0
      vertex 54.8777 38.4196 0
      vertex 54.727 38.429 0
    endloop
  endfacet
  facet normal 0 0 -1
    outer loop
      vertex 56.869 39.724 0
      vertex 55.215 42.057 0
      vertex 56.869 42.057 0
    endloop
  endfacet
  facet normal 0 0 -1
    outer loop
      vertex 54.5761 38.4196 0
      vertex 54.638 39.724 0
      vertex 54.727 38.429 0
    endloop
  endfacet
  facet normal 0 0 -1
    outer loop
      vertex 54.4429 38.3915 0
      vertex 54.638 39.724 0
      vertex 54.5761 38.4196 0
    endloop
  endfacet
  facet normal 0 0 -1
    outer loop
      vertex 54.3275 38.3445 0
      vertex 54.638 39.724 0
      vertex 54.4429 38.3915 0
    endloop
  endfacet
  facet normal 0 0 -1
    outer loop
      vertex 52.95 39.724 0
      vertex 54.3275 38.3445 0
      vertex 54.2299 38.2789 0
    endloop
  endfacet
  facet normal 0 0 -1
    outer loop
      vertex 52.95 39.724 0
      vertex 54.2299 38.2789 0
      vertex 54.15 38.1944 0
    endloop
  endfacet
  facet normal 0 0 -1
    outer loop
      vertex 52.95 39.724 0
      vertex 54.15 38.1944 0
      vertex 54.0879 38.0912 0
    endloop
  endfacet
  facet normal 0 0 -1
    outer loop
      vertex 52.95 39.724 0
      vertex 54.0879 38.0912 0
      vertex 54.0435 37.9692 0
    endloop
  endfacet
  facet normal 0 0 -1
    outer loop
      vertex 52.95 36.896 0
      vertex 54.0169 37.8285 0
      vertex 54.008 37.669 0
    endloop
  endfacet
  facet normal 0 0 -1
    outer loop
      vertex 52.95 36.896 0
      vertex 54.0435 37.9692 0
      vertex 54.0169 37.8285 0
    endloop
  endfacet
  facet normal 0 0 -1
    outer loop
      vertex 52.95 39.724 0
      vertex 54.0435 37.9692 0
      vertex 52.95 36.896 0
    endloop
  endfacet
  facet normal 0 0 -1
    outer loop
      vertex 54.3275 38.3445 0
      vertex 52.95 39.724 0
      vertex 54.638 39.724 0
    endloop
  endfacet
  facet normal -0 0 1
    outer loop
      vertex 55.215 42.057 2
      vertex 56.869 39.724 2
      vertex 56.869 42.057 2
    endloop
  endfacet
  facet normal 0 -0 1
    outer loop
      vertex 55.1259 38.3445 2
      vertex 56.869 39.724 2
      vertex 54.638 39.724 2
    endloop
  endfacet
  facet normal 0 0 1
    outer loop
      vertex 56.869 39.724 2
      vertex 56.7209 38.3915 2
      vertex 56.8541 38.4196 2
    endloop
  endfacet
  facet normal 0 0 1
    outer loop
      vertex 56.869 39.724 2
      vertex 56.6055 38.3445 2
      vertex 56.7209 38.3915 2
    endloop
  endfacet
  facet normal 0 -0 1
    outer loop
      vertex 55.2234 38.2789 2
      vertex 56.869 39.724 2
      vertex 55.1259 38.3445 2
    endloop
  endfacet
  facet normal 0 0 1
    outer loop
      vertex 56.869 39.724 2
      vertex 56.5079 38.2789 2
      vertex 56.6055 38.3445 2
    endloop
  endfacet
  facet normal 0 0 1
    outer loop
      vertex 56.5079 38.2789 2
      vertex 55.2234 38.2789 2
      vertex 56.428 38.1944 2
    endloop
  endfacet
  facet normal 0 -0 1
    outer loop
      vertex 55.3032 38.1944 2
      vertex 56.428 38.1944 2
      vertex 55.2234 38.2789 2
    endloop
  endfacet
  facet normal 0 0 1
    outer loop
      vertex 56.2949 37.8285 2
      vertex 55.445 37.669 2
      vertex 56.286 37.669 2
    endloop
  endfacet
  facet normal 0 0 1
    outer loop
      vertex 56.428 38.1944 2
      vertex 55.3032 38.1944 2
      vertex 56.3659 38.0912 2
    endloop
  endfacet
  facet normal 0 0 1
    outer loop
      vertex 56.2949 37.8285 2
      vertex 55.4361 37.8285 2
      vertex 55.445 37.669 2
    endloop
  endfacet
  facet normal 0 0 1
    outer loop
      vertex 56.2949 37.8285 2
      vertex 55.4095 37.9692 2
      vertex 55.4361 37.8285 2
    endloop
  endfacet
  facet normal 0 0 1
    outer loop
      vertex 56.3215 37.9692 2
      vertex 55.4095 37.9692 2
      vertex 56.2949 37.8285 2
    endloop
  endfacet
  facet normal 0 -0 1
    outer loop
      vertex 55.4095 37.9692 2
      vertex 56.3215 37.9692 2
      vertex 55.3652 38.0912 2
    endloop
  endfacet
  facet normal 0 0 1
    outer loop
      vertex 56.3659 38.0912 2
      vertex 55.3652 38.0912 2
      vertex 56.3215 37.9692 2
    endloop
  endfacet
  facet normal 0 0 1
    outer loop
      vertex 56.869 39.724 2
      vertex 55.215 42.057 2
      vertex 54.638 39.724 2
    endloop
  endfacet
  facet normal 0 -0 1
    outer loop
      vertex 55.3652 38.0912 2
      vertex 56.3659 38.0912 2
      vertex 55.3032 38.1944 2
    endloop
  endfacet
  facet normal 0 0 1
    outer loop
      vertex 56.869 39.724 2
      vertex 55.2234 38.2789 2
      vertex 56.5079 38.2789 2
    endloop
  endfacet
  facet normal 0 0 1
    outer loop
      vertex 55.1259 38.3445 2
      vertex 54.638 39.724 2
      vertex 55.0107 38.3915 2
    endloop
  endfacet
  facet normal 0 0 1
    outer loop
      vertex 55.0107 38.3915 2
      vertex 54.638 39.724 2
      vertex 54.8777 38.4196 2
    endloop
  endfacet
  facet normal 0 0 1
    outer loop
      vertex 54.8777 38.4196 2
      vertex 54.638 39.724 2
      vertex 54.727 38.429 2
    endloop
  endfacet
  facet normal 0 0 1
    outer loop
      vertex 54.638 39.724 2
      vertex 54.5761 38.4196 2
      vertex 54.727 38.429 2
    endloop
  endfacet
  facet normal 0 0 1
    outer loop
      vertex 54.638 39.724 2
      vertex 54.4429 38.3915 2
      vertex 54.5761 38.4196 2
    endloop
  endfacet
  facet normal 0 0 1
    outer loop
      vertex 54.638 39.724 2
      vertex 54.3275 38.3445 2
      vertex 54.4429 38.3915 2
    endloop
  endfacet
  facet normal -0 0 1
    outer loop
      vertex 52.95 39.724 2
      vertex 54.3275 38.3445 2
      vertex 54.638 39.724 2
    endloop
  endfacet
  facet normal 0 0 1
    outer loop
      vertex 54.3275 38.3445 2
      vertex 52.95 39.724 2
      vertex 54.2299 38.2789 2
    endloop
  endfacet
  facet normal 0 0 1
    outer loop
      vertex 54.2299 38.2789 2
      vertex 52.95 39.724 2
      vertex 54.15 38.1944 2
    endloop
  endfacet
  facet normal 0 0 1
    outer loop
      vertex 54.15 38.1944 2
      vertex 52.95 39.724 2
      vertex 54.0879 38.0912 2
    endloop
  endfacet
  facet normal 0 0 1
    outer loop
      vertex 54.0435 37.9692 2
      vertex 52.95 36.896 2
      vertex 54.0169 37.8285 2
    endloop
  endfacet
  facet normal 0 0 1
    outer loop
      vertex 52.95 36.896 2
      vertex 54.0435 37.9692 2
      vertex 52.95 39.724 2
    endloop
  endfacet
  facet normal 0 0 1
    outer loop
      vertex 54.0879 38.0912 2
      vertex 52.95 39.724 2
      vertex 54.0435 37.9692 2
    endloop
  endfacet
  facet normal 0 0 1
    outer loop
      vertex 59.7984 38.2789 2
      vertex 60.952 38.279 2
      vertex 60.952 39.724 2
    endloop
  endfacet
  facet normal 0 0 1
    outer loop
      vertex 60.952 38.279 2
      vertex 60.0073 37.8285 2
      vertex 60.016 37.669 2
    endloop
  endfacet
  facet normal 0 0 1
    outer loop
      vertex 60.952 38.279 2
      vertex 59.9812 37.9692 2
      vertex 60.0073 37.8285 2
    endloop
  endfacet
  facet normal 0 0 1
    outer loop
      vertex 60.952 38.279 2
      vertex 59.9377 38.0912 2
      vertex 59.9812 37.9692 2
    endloop
  endfacet
  facet normal 0 0 1
    outer loop
      vertex 60.952 38.279 2
      vertex 59.8767 38.1944 2
      vertex 59.9377 38.0912 2
    endloop
  endfacet
  facet normal 0 0 1
    outer loop
      vertex 60.952 38.279 2
      vertex 59.7984 38.2789 2
      vertex 59.8767 38.1944 2
    endloop
  endfacet
  facet normal 0 0 1
    outer loop
      vertex 60.952 39.724 2
      vertex 59.7027 38.3445 2
      vertex 59.7984 38.2789 2
    endloop
  endfacet
  facet normal 0 0 1
    outer loop
      vertex 60.952 39.724 2
      vertex 59.5895 38.3915 2
      vertex 59.7027 38.3445 2
    endloop
  endfacet
  facet normal 0 0 1
    outer loop
      vertex 60.952 39.724 2
      vertex 59.459 38.4196 2
      vertex 59.5895 38.3915 2
    endloop
  endfacet
  facet normal 0 0 1
    outer loop
      vertex 60.952 39.724 2
      vertex 59.311 38.429 2
      vertex 59.459 38.4196 2
    endloop
  endfacet
  facet normal 0 0 1
    outer loop
      vertex 60.952 39.724 2
      vertex 59.1616 38.4196 2
      vertex 59.311 38.429 2
    endloop
  endfacet
  facet normal -0 0 1
    outer loop
      vertex 56.869 39.724 2
      vertex 59.1616 38.4196 2
      vertex 60.952 39.724 2
    endloop
  endfacet
  facet normal 0 0 1
    outer loop
      vertex 59.1616 38.4196 2
      vertex 56.869 39.724 2
      vertex 59.0297 38.3915 2
    endloop
  endfacet
  facet normal 0 0 1
    outer loop
      vertex 58.6078 37.8285 2
      vertex 57.71 37.669 2
      vertex 58.599 37.669 2
    endloop
  endfacet
  facet normal 0 0 1
    outer loop
      vertex 57.7013 37.8285 2
      vertex 58.6078 37.8285 2
      vertex 58.6342 37.9692 2
    endloop
  endfacet
  facet normal 0 0 1
    outer loop
      vertex 57.6752 37.9692 2
      vertex 58.6342 37.9692 2
      vertex 58.6781 38.0912 2
    endloop
  endfacet
  facet normal 0 0 1
    outer loop
      vertex 57.6317 38.0912 2
      vertex 58.6781 38.0912 2
      vertex 58.7396 38.1944 2
    endloop
  endfacet
  facet normal 0 0 1
    outer loop
      vertex 57.5707 38.1944 2
      vertex 58.7396 38.1944 2
      vertex 58.8187 38.2789 2
    endloop
  endfacet
  facet normal 0 0 1
    outer loop
      vertex 57.4924 38.2789 2
      vertex 58.8187 38.2789 2
      vertex 58.9154 38.3445 2
    endloop
  endfacet
  facet normal 0 0 1
    outer loop
      vertex 59.0297 38.3915 2
      vertex 56.869 39.724 2
      vertex 58.9154 38.3445 2
    endloop
  endfacet
  facet normal 0 0 1
    outer loop
      vertex 58.6078 37.8285 2
      vertex 57.7013 37.8285 2
      vertex 57.71 37.669 2
    endloop
  endfacet
  facet normal 0 0 1
    outer loop
      vertex 58.6342 37.9692 2
      vertex 57.6752 37.9692 2
      vertex 57.7013 37.8285 2
    endloop
  endfacet
  facet normal 0 0 1
    outer loop
      vertex 58.6781 38.0912 2
      vertex 57.6317 38.0912 2
      vertex 57.6752 37.9692 2
    endloop
  endfacet
  facet normal 0 0 1
    outer loop
      vertex 58.7396 38.1944 2
      vertex 57.5707 38.1944 2
      vertex 57.6317 38.0912 2
    endloop
  endfacet
  facet normal 0 0 1
    outer loop
      vertex 58.8187 38.2789 2
      vertex 57.4924 38.2789 2
      vertex 57.5707 38.1944 2
    endloop
  endfacet
  facet normal 0 -0 1
    outer loop
      vertex 57.3967 38.3445 2
      vertex 58.9154 38.3445 2
      vertex 56.869 39.724 2
    endloop
  endfacet
  facet normal 0 0 1
    outer loop
      vertex 58.9154 38.3445 2
      vertex 57.3967 38.3445 2
      vertex 57.4924 38.2789 2
    endloop
  endfacet
  facet normal 0 0 1
    outer loop
      vertex 57.3967 38.3445 2
      vertex 56.869 39.724 2
      vertex 57.2835 38.3915 2
    endloop
  endfacet
  facet normal 0 0 1
    outer loop
      vertex 57.2835 38.3915 2
      vertex 56.869 39.724 2
      vertex 57.153 38.4196 2
    endloop
  endfacet
  facet normal 0 0 1
    outer loop
      vertex 57.153 38.4196 2
      vertex 56.869 39.724 2
      vertex 57.005 38.429 2
    endloop
  endfacet
  facet normal 0 0 1
    outer loop
      vertex 57.005 38.429 2
      vertex 56.869 39.724 2
      vertex 56.8541 38.4196 2
    endloop
  endfacet
  facet normal 0 0 1
    outer loop
      vertex 62.213 38.279 2
      vertex 60.952 38.279 2
      vertex 62.213 36.896 2
    endloop
  endfacet
  facet normal -0 0 1
    outer loop
      vertex 62.213 36.896 2
      vertex 62.342 32 2
      vertex 63.793 36.896 2
    endloop
  endfacet
  facet normal -0 0 1
    outer loop
      vertex 59.9812 37.3636 2
      vertex 62.213 36.896 2
      vertex 60.952 38.279 2
    endloop
  endfacet
  facet normal 0 0 1
    outer loop
      vertex 60.0073 37.5068 2
      vertex 60.952 38.279 2
      vertex 60.016 37.669 2
    endloop
  endfacet
  facet normal 0 0 1
    outer loop
      vertex 59.9812 37.3636 2
      vertex 60.952 38.279 2
      vertex 60.0073 37.5068 2
    endloop
  endfacet
  facet normal 0 0 1
    outer loop
      vertex 62.213 36.896 2
      vertex 59.9812 37.3636 2
      vertex 59.9377 37.2395 2
    endloop
  endfacet
  facet normal 0 0 1
    outer loop
      vertex 62.213 36.896 2
      vertex 59.9377 37.2395 2
      vertex 59.8767 37.1346 2
    endloop
  endfacet
  facet normal -0 0 1
    outer loop
      vertex 59.7984 37.0487 2
      vertex 62.213 36.896 2
      vertex 59.8767 37.1346 2
    endloop
  endfacet
  facet normal -0 0 1
    outer loop
      vertex 59.7027 36.9819 2
      vertex 62.213 36.896 2
      vertex 59.7984 37.0487 2
    endloop
  endfacet
  facet normal 0 0 1
    outer loop
      vertex 62.213 36.896 2
      vertex 59.7027 36.9819 2
      vertex 62.342 32 2
    endloop
  endfacet
  facet normal -0 0 1
    outer loop
      vertex 59.5895 36.9342 2
      vertex 62.342 32 2
      vertex 59.7027 36.9819 2
    endloop
  endfacet
  facet normal -0 0 1
    outer loop
      vertex 59.459 36.9055 2
      vertex 62.342 32 2
      vertex 59.5895 36.9342 2
    endloop
  endfacet
  facet normal -0 0 1
    outer loop
      vertex 59.311 36.896 2
      vertex 62.342 32 2
      vertex 59.459 36.9055 2
    endloop
  endfacet
  facet normal 0 0 1
    outer loop
      vertex 59.1616 36.9055 2
      vertex 62.342 32 2
      vertex 59.311 36.896 2
    endloop
  endfacet
  facet normal 0 0 1
    outer loop
      vertex 59.0297 36.9342 2
      vertex 62.342 32 2
      vertex 59.1616 36.9055 2
    endloop
  endfacet
  facet normal 0 0 1
    outer loop
      vertex 57.2835 36.9342 2
      vertex 59.0297 36.9342 2
      vertex 58.9154 36.9819 2
    endloop
  endfacet
  facet normal 0 0 1
    outer loop
      vertex 57.3967 36.9819 2
      vertex 58.9154 36.9819 2
      vertex 58.8187 37.0487 2
    endloop
  endfacet
  facet normal 0 0 1
    outer loop
      vertex 57.4924 37.0487 2
      vertex 58.8187 37.0487 2
      vertex 58.7396 37.1346 2
    endloop
  endfacet
  facet normal -0 0 1
    outer loop
      vertex 57.71 37.669 2
      vertex 58.6078 37.5068 2
      vertex 58.599 37.669 2
    endloop
  endfacet
  facet normal 0 0 1
    outer loop
      vertex 57.7013 37.5068 2
      vertex 58.6078 37.5068 2
      vertex 57.71 37.669 2
    endloop
  endfacet
  facet normal 0 0 1
    outer loop
      vertex 58.6078 37.5068 2
      vertex 57.7013 37.5068 2
      vertex 58.6342 37.3636 2
    endloop
  endfacet
  facet normal 0 0 1
    outer loop
      vertex 57.6752 37.3636 2
      vertex 58.6342 37.3636 2
      vertex 57.7013 37.5068 2
    endloop
  endfacet
  facet normal 0 0 1
    outer loop
      vertex 58.6342 37.3636 2
      vertex 57.6752 37.3636 2
      vertex 58.6781 37.2395 2
    endloop
  endfacet
  facet normal 0 0 1
    outer loop
      vertex 57.6317 37.2395 2
      vertex 58.6781 37.2395 2
      vertex 57.6752 37.3636 2
    endloop
  endfacet
  facet normal 0 0 1
    outer loop
      vertex 58.6781 37.2395 2
      vertex 57.6317 37.2395 2
      vertex 58.7396 37.1346 2
    endloop
  endfacet
  facet normal 0 0 1
    outer loop
      vertex 57.5707 37.1346 2
      vertex 58.7396 37.1346 2
      vertex 57.6317 37.2395 2
    endloop
  endfacet
  facet normal 0 0 1
    outer loop
      vertex 57.4924 37.0487 2
      vertex 58.7396 37.1346 2
      vertex 57.5707 37.1346 2
    endloop
  endfacet
  facet normal 0 0 1
    outer loop
      vertex 58.8187 37.0487 2
      vertex 57.4924 37.0487 2
      vertex 57.3967 36.9819 2
    endloop
  endfacet
  facet normal 0 0 1
    outer loop
      vertex 58.9154 36.9819 2
      vertex 57.3967 36.9819 2
      vertex 57.2835 36.9342 2
    endloop
  endfacet
  facet normal 0 0 1
    outer loop
      vertex 59.0297 36.9342 2
      vertex 57.2835 36.9342 2
      vertex 62.342 32 2
    endloop
  endfacet
  facet normal -0 0 1
    outer loop
      vertex 57.153 36.9055 2
      vertex 62.342 32 2
      vertex 57.2835 36.9342 2
    endloop
  endfacet
  facet normal -0 0 1
    outer loop
      vertex 57.005 36.896 2
      vertex 62.342 32 2
      vertex 57.153 36.9055 2
    endloop
  endfacet
  facet normal 0 0 1
    outer loop
      vertex 51.573 32 2
      vertex 57.005 36.896 2
      vertex 56.8541 36.9055 2
    endloop
  endfacet
  facet normal 0 0 1
    outer loop
      vertex 51.573 32 2
      vertex 56.8541 36.9055 2
      vertex 56.7209 36.9342 2
    endloop
  endfacet
  facet normal 0 0 1
    outer loop
      vertex 55.0107 36.9342 2
      vertex 56.7209 36.9342 2
      vertex 56.6055 36.9819 2
    endloop
  endfacet
  facet normal 0 0 1
    outer loop
      vertex 55.1259 36.9819 2
      vertex 56.6055 36.9819 2
      vertex 56.5079 37.0487 2
    endloop
  endfacet
  facet normal -0 0 1
    outer loop
      vertex 55.445 37.669 2
      vertex 56.2949 37.5068 2
      vertex 56.286 37.669 2
    endloop
  endfacet
  facet normal 0 0 1
    outer loop
      vertex 55.4361 37.5068 2
      vertex 56.2949 37.5068 2
      vertex 55.445 37.669 2
    endloop
  endfacet
  facet normal 0 0 1
    outer loop
      vertex 56.2949 37.5068 2
      vertex 55.4361 37.5068 2
      vertex 56.3215 37.3636 2
    endloop
  endfacet
  facet normal 0 0 1
    outer loop
      vertex 55.4095 37.3636 2
      vertex 56.3215 37.3636 2
      vertex 55.4361 37.5068 2
    endloop
  endfacet
  facet normal 0 0 1
    outer loop
      vertex 56.3215 37.3636 2
      vertex 55.4095 37.3636 2
      vertex 56.3659 37.2395 2
    endloop
  endfacet
  facet normal 0 0 1
    outer loop
      vertex 55.3652 37.2395 2
      vertex 56.3659 37.2395 2
      vertex 55.4095 37.3636 2
    endloop
  endfacet
  facet normal 0 0 1
    outer loop
      vertex 56.3659 37.2395 2
      vertex 55.3652 37.2395 2
      vertex 56.428 37.1346 2
    endloop
  endfacet
  facet normal 0 0 1
    outer loop
      vertex 55.3032 37.1346 2
      vertex 56.428 37.1346 2
      vertex 55.3652 37.2395 2
    endloop
  endfacet
  facet normal 0 0 1
    outer loop
      vertex 56.428 37.1346 2
      vertex 55.3032 37.1346 2
      vertex 56.5079 37.0487 2
    endloop
  endfacet
  facet normal 0 0 1
    outer loop
      vertex 55.2234 37.0487 2
      vertex 56.5079 37.0487 2
      vertex 55.3032 37.1346 2
    endloop
  endfacet
  facet normal 0 0 1
    outer loop
      vertex 55.1259 36.9819 2
      vertex 56.5079 37.0487 2
      vertex 55.2234 37.0487 2
    endloop
  endfacet
  facet normal 0 0 1
    outer loop
      vertex 56.6055 36.9819 2
      vertex 55.1259 36.9819 2
      vertex 55.0107 36.9342 2
    endloop
  endfacet
  facet normal 0 0 1
    outer loop
      vertex 56.7209 36.9342 2
      vertex 55.0107 36.9342 2
      vertex 51.573 32 2
    endloop
  endfacet
  facet normal 0 0 1
    outer loop
      vertex 51.573 32 2
      vertex 55.0107 36.9342 2
      vertex 54.8777 36.9055 2
    endloop
  endfacet
  facet normal 0 0 1
    outer loop
      vertex 51.573 32 2
      vertex 54.8777 36.9055 2
      vertex 54.727 36.896 2
    endloop
  endfacet
  facet normal 0 0 1
    outer loop
      vertex 51.573 32 2
      vertex 54.727 36.896 2
      vertex 54.5761 36.9055 2
    endloop
  endfacet
  facet normal 0 0 1
    outer loop
      vertex 51.573 32 2
      vertex 54.5761 36.9055 2
      vertex 54.4429 36.9342 2
    endloop
  endfacet
  facet normal 0 0 1
    outer loop
      vertex 52.95 36.896 2
      vertex 54.4429 36.9342 2
      vertex 54.3275 36.9819 2
    endloop
  endfacet
  facet normal 0 0 1
    outer loop
      vertex 54.0169 37.8285 2
      vertex 52.95 36.896 2
      vertex 54.008 37.669 2
    endloop
  endfacet
  facet normal 0 0 1
    outer loop
      vertex 54.008 37.669 2
      vertex 52.95 36.896 2
      vertex 54.0169 37.5068 2
    endloop
  endfacet
  facet normal 0 0 1
    outer loop
      vertex 54.0169 37.5068 2
      vertex 52.95 36.896 2
      vertex 54.0435 37.3636 2
    endloop
  endfacet
  facet normal 0 0 1
    outer loop
      vertex 54.0435 37.3636 2
      vertex 52.95 36.896 2
      vertex 54.0879 37.2395 2
    endloop
  endfacet
  facet normal 0 0 1
    outer loop
      vertex 52.95 36.896 2
      vertex 54.15 37.1346 2
      vertex 54.0879 37.2395 2
    endloop
  endfacet
  facet normal 0 0 1
    outer loop
      vertex 52.95 36.896 2
      vertex 54.2299 37.0487 2
      vertex 54.15 37.1346 2
    endloop
  endfacet
  facet normal 0 0 1
    outer loop
      vertex 52.95 36.896 2
      vertex 54.3275 36.9819 2
      vertex 54.2299 37.0487 2
    endloop
  endfacet
  facet normal 0 0 1
    outer loop
      vertex 54.4429 36.9342 2
      vertex 52.95 36.896 2
      vertex 51.573 32 2
    endloop
  endfacet
  facet normal 0 0 1
    outer loop
      vertex 57.005 36.896 2
      vertex 51.573 32 2
      vertex 62.342 32 2
    endloop
  endfacet
  facet normal 0 -0 1
    outer loop
      vertex 51.573 32 2
      vertex 52.95 36.896 2
      vertex 50.088 36.896 2
    endloop
  endfacet
  facet normal 0 1 -0
    outer loop
      vertex 63.793 36.896 0
      vertex 62.213 36.896 2
      vertex 63.793 36.896 2
    endloop
  endfacet
  facet normal 0 1 0
    outer loop
      vertex 62.213 36.896 2
      vertex 63.793 36.896 0
      vertex 62.213 36.896 0
    endloop
  endfacet
  facet normal 1 -0 0
    outer loop
      vertex 62.213 36.896 2
      vertex 62.213 38.279 0
      vertex 62.213 38.279 2
    endloop
  endfacet
  facet normal 1 0 0
    outer loop
      vertex 62.213 38.279 0
      vertex 62.213 36.896 2
      vertex 62.213 36.896 0
    endloop
  endfacet
  facet normal 0 1 -0
    outer loop
      vertex 62.213 38.279 0
      vertex 60.952 38.279 2
      vertex 62.213 38.279 2
    endloop
  endfacet
  facet normal 0 1 0
    outer loop
      vertex 60.952 38.279 2
      vertex 62.213 38.279 0
      vertex 60.952 38.279 0
    endloop
  endfacet
  facet normal 1 -0 0
    outer loop
      vertex 60.952 38.279 2
      vertex 60.952 39.724 0
      vertex 60.952 39.724 2
    endloop
  endfacet
  facet normal 1 0 0
    outer loop
      vertex 60.952 39.724 0
      vertex 60.952 38.279 2
      vertex 60.952 38.279 0
    endloop
  endfacet
  facet normal 0 1 -0
    outer loop
      vertex 60.952 39.724 0
      vertex 56.869 39.724 2
      vertex 60.952 39.724 2
    endloop
  endfacet
  facet normal 0 1 0
    outer loop
      vertex 56.869 39.724 2
      vertex 60.952 39.724 0
      vertex 56.869 39.724 0
    endloop
  endfacet
  facet normal 1 -0 0
    outer loop
      vertex 56.869 39.724 2
      vertex 56.869 42.057 0
      vertex 56.869 42.057 2
    endloop
  endfacet
  facet normal 1 0 0
    outer loop
      vertex 56.869 42.057 0
      vertex 56.869 39.724 2
      vertex 56.869 39.724 0
    endloop
  endfacet
  facet normal 0 1 -0
    outer loop
      vertex 56.869 42.057 0
      vertex 55.215 42.057 2
      vertex 56.869 42.057 2
    endloop
  endfacet
  facet normal 0 1 0
    outer loop
      vertex 55.215 42.057 2
      vertex 56.869 42.057 0
      vertex 55.215 42.057 0
    endloop
  endfacet
  facet normal -0.970751 0.240087 0
    outer loop
      vertex 54.638 39.724 0
      vertex 55.215 42.057 2
      vertex 55.215 42.057 0
    endloop
  endfacet
  facet normal -0.970751 0.240087 0
    outer loop
      vertex 55.215 42.057 2
      vertex 54.638 39.724 0
      vertex 54.638 39.724 2
    endloop
  endfacet
  facet normal 0 1 -0
    outer loop
      vertex 54.638 39.724 0
      vertex 52.95 39.724 2
      vertex 54.638 39.724 2
    endloop
  endfacet
  facet normal 0 1 0
    outer loop
      vertex 52.95 39.724 2
      vertex 54.638 39.724 0
      vertex 52.95 39.724 0
    endloop
  endfacet
  facet normal -1 0 0
    outer loop
      vertex 52.95 36.896 0
      vertex 52.95 39.724 2
      vertex 52.95 39.724 0
    endloop
  endfacet
  facet normal -1 -0 0
    outer loop
      vertex 52.95 39.724 2
      vertex 52.95 36.896 0
      vertex 52.95 36.896 2
    endloop
  endfacet
  facet normal 0 1 -0
    outer loop
      vertex 52.95 36.896 0
      vertex 50.088 36.896 2
      vertex 52.95 36.896 2
    endloop
  endfacet
  facet normal 0 1 0
    outer loop
      vertex 50.088 36.896 2
      vertex 52.95 36.896 0
      vertex 50.088 36.896 0
    endloop
  endfacet
  facet normal -0.95695 -0.290251 0
    outer loop
      vertex 51.573 32 0
      vertex 50.088 36.896 2
      vertex 50.088 36.896 0
    endloop
  endfacet
  facet normal -0.95695 -0.290251 0
    outer loop
      vertex 50.088 36.896 2
      vertex 51.573 32 0
      vertex 51.573 32 2
    endloop
  endfacet
  facet normal 0 -1 0
    outer loop
      vertex 51.573 32 0
      vertex 62.342 32 2
      vertex 51.573 32 2
    endloop
  endfacet
  facet normal 0 -1 -0
    outer loop
      vertex 62.342 32 2
      vertex 51.573 32 0
      vertex 62.342 32 0
    endloop
  endfacet
  facet normal 0.95878 -0.284148 0
    outer loop
      vertex 62.342 32 2
      vertex 63.793 36.896 0
      vertex 63.793 36.896 2
    endloop
  endfacet
  facet normal 0.95878 -0.284148 0
    outer loop
      vertex 63.793 36.896 0
      vertex 62.342 32 2
      vertex 62.342 32 0
    endloop
  endfacet
  facet normal 0.212614 0.977136 -0
    outer loop
      vertex 59.1616 36.9055 0
      vertex 59.0297 36.9342 2
      vertex 59.1616 36.9055 2
    endloop
  endfacet
  facet normal 0.212614 0.977136 0
    outer loop
      vertex 59.0297 36.9342 2
      vertex 59.1616 36.9055 0
      vertex 59.0297 36.9342 0
    endloop
  endfacet
  facet normal 0.385131 0.922862 -0
    outer loop
      vertex 59.0297 36.9342 0
      vertex 58.9154 36.9819 2
      vertex 59.0297 36.9342 2
    endloop
  endfacet
  facet normal 0.385131 0.922862 0
    outer loop
      vertex 58.9154 36.9819 2
      vertex 59.0297 36.9342 0
      vertex 58.9154 36.9819 0
    endloop
  endfacet
  facet normal 0.568369 0.822774 -0
    outer loop
      vertex 58.9154 36.9819 0
      vertex 58.8187 37.0487 2
      vertex 58.9154 36.9819 2
    endloop
  endfacet
  facet normal 0.568369 0.822774 0
    outer loop
      vertex 58.8187 37.0487 2
      vertex 58.9154 36.9819 0
      vertex 58.8187 37.0487 0
    endloop
  endfacet
  facet normal 0.735624 0.67739 0
    outer loop
      vertex 58.8187 37.0487 2
      vertex 58.7396 37.1346 0
      vertex 58.7396 37.1346 2
    endloop
  endfacet
  facet normal 0.735624 0.67739 0
    outer loop
      vertex 58.7396 37.1346 0
      vertex 58.8187 37.0487 2
      vertex 58.8187 37.0487 0
    endloop
  endfacet
  facet normal 0.862673 0.505762 0
    outer loop
      vertex 58.7396 37.1346 2
      vertex 58.6781 37.2395 0
      vertex 58.6781 37.2395 2
    endloop
  endfacet
  facet normal 0.862673 0.505762 0
    outer loop
      vertex 58.6781 37.2395 0
      vertex 58.7396 37.1346 2
      vertex 58.7396 37.1346 0
    endloop
  endfacet
  facet normal 0.942752 0.333496 0
    outer loop
      vertex 58.6781 37.2395 2
      vertex 58.6342 37.3636 0
      vertex 58.6342 37.3636 2
    endloop
  endfacet
  facet normal 0.942752 0.333496 0
    outer loop
      vertex 58.6342 37.3636 0
      vertex 58.6781 37.2395 2
      vertex 58.6781 37.2395 0
    endloop
  endfacet
  facet normal 0.983427 0.181302 0
    outer loop
      vertex 58.6342 37.3636 2
      vertex 58.6078 37.5068 0
      vertex 58.6078 37.5068 2
    endloop
  endfacet
  facet normal 0.983427 0.181302 0
    outer loop
      vertex 58.6078 37.5068 0
      vertex 58.6342 37.3636 2
      vertex 58.6342 37.3636 0
    endloop
  endfacet
  facet normal 0.998531 0.0541743 0
    outer loop
      vertex 58.6078 37.5068 2
      vertex 58.599 37.669 0
      vertex 58.599 37.669 2
    endloop
  endfacet
  facet normal 0.998531 0.0541743 0
    outer loop
      vertex 58.599 37.669 0
      vertex 58.6078 37.5068 2
      vertex 58.6078 37.5068 0
    endloop
  endfacet
  facet normal 0.998481 -0.0550886 0
    outer loop
      vertex 58.599 37.669 2
      vertex 58.6078 37.8285 0
      vertex 58.6078 37.8285 2
    endloop
  endfacet
  facet normal 0.998481 -0.0550886 0
    outer loop
      vertex 58.6078 37.8285 0
      vertex 58.599 37.669 2
      vertex 58.599 37.669 0
    endloop
  endfacet
  facet normal 0.982848 -0.184415 0
    outer loop
      vertex 58.6078 37.8285 2
      vertex 58.6342 37.9692 0
      vertex 58.6342 37.9692 2
    endloop
  endfacet
  facet normal 0.982848 -0.184415 0
    outer loop
      vertex 58.6342 37.9692 0
      vertex 58.6078 37.8285 2
      vertex 58.6078 37.8285 0
    endloop
  endfacet
  facet normal 0.940937 -0.338583 0
    outer loop
      vertex 58.6342 37.9692 2
      vertex 58.6781 38.0912 0
      vertex 58.6781 38.0912 2
    endloop
  endfacet
  facet normal 0.940937 -0.338583 0
    outer loop
      vertex 58.6781 38.0912 0
      vertex 58.6342 37.9692 2
      vertex 58.6342 37.9692 0
    endloop
  endfacet
  facet normal 0.859031 -0.511923 0
    outer loop
      vertex 58.6781 38.0912 2
      vertex 58.7396 38.1944 0
      vertex 58.7396 38.1944 2
    endloop
  endfacet
  facet normal 0.859031 -0.511923 0
    outer loop
      vertex 58.7396 38.1944 0
      vertex 58.6781 38.0912 2
      vertex 58.6781 38.0912 0
    endloop
  endfacet
  facet normal 0.730049 -0.683395 0
    outer loop
      vertex 58.7396 38.1944 2
      vertex 58.8187 38.2789 0
      vertex 58.8187 38.2789 2
    endloop
  endfacet
  facet normal 0.730049 -0.683395 0
    outer loop
      vertex 58.8187 38.2789 0
      vertex 58.7396 38.1944 2
      vertex 58.7396 38.1944 0
    endloop
  endfacet
  facet normal 0.561397 -0.827547 0
    outer loop
      vertex 58.8187 38.2789 0
      vertex 58.9154 38.3445 2
      vertex 58.8187 38.2789 2
    endloop
  endfacet
  facet normal 0.561397 -0.827547 0
    outer loop
      vertex 58.9154 38.3445 2
      vertex 58.8187 38.2789 0
      vertex 58.9154 38.3445 0
    endloop
  endfacet
  facet normal 0.380302 -0.924862 0
    outer loop
      vertex 58.9154 38.3445 0
      vertex 59.0297 38.3915 2
      vertex 58.9154 38.3445 2
    endloop
  endfacet
  facet normal 0.380302 -0.924862 0
    outer loop
      vertex 59.0297 38.3915 2
      vertex 58.9154 38.3445 0
      vertex 59.0297 38.3915 0
    endloop
  endfacet
  facet normal 0.208364 -0.978051 0
    outer loop
      vertex 59.0297 38.3915 0
      vertex 59.1616 38.4196 2
      vertex 59.0297 38.3915 2
    endloop
  endfacet
  facet normal 0.208364 -0.978051 0
    outer loop
      vertex 59.1616 38.4196 2
      vertex 59.0297 38.3915 0
      vertex 59.1616 38.4196 0
    endloop
  endfacet
  facet normal 0.0627942 -0.998026 0
    outer loop
      vertex 59.1616 38.4196 0
      vertex 59.311 38.429 2
      vertex 59.1616 38.4196 2
    endloop
  endfacet
  facet normal 0.0627942 -0.998026 0
    outer loop
      vertex 59.311 38.429 2
      vertex 59.1616 38.4196 0
      vertex 59.311 38.429 0
    endloop
  endfacet
  facet normal -0.0633858 -0.997989 0
    outer loop
      vertex 59.311 38.429 0
      vertex 59.459 38.4196 2
      vertex 59.311 38.429 2
    endloop
  endfacet
  facet normal -0.0633858 -0.997989 -0
    outer loop
      vertex 59.459 38.4196 2
      vertex 59.311 38.429 0
      vertex 59.459 38.4196 0
    endloop
  endfacet
  facet normal -0.210501 -0.977594 0
    outer loop
      vertex 59.459 38.4196 0
      vertex 59.5895 38.3915 2
      vertex 59.459 38.4196 2
    endloop
  endfacet
  facet normal -0.210501 -0.977594 -0
    outer loop
      vertex 59.5895 38.3915 2
      vertex 59.459 38.4196 0
      vertex 59.5895 38.3915 0
    endloop
  endfacet
  facet normal -0.383456 -0.923559 0
    outer loop
      vertex 59.5895 38.3915 0
      vertex 59.7027 38.3445 2
      vertex 59.5895 38.3915 2
    endloop
  endfacet
  facet normal -0.383456 -0.923559 -0
    outer loop
      vertex 59.7027 38.3445 2
      vertex 59.5895 38.3915 0
      vertex 59.7027 38.3445 0
    endloop
  endfacet
  facet normal -0.565394 -0.824821 0
    outer loop
      vertex 59.7027 38.3445 0
      vertex 59.7984 38.2789 2
      vertex 59.7027 38.3445 2
    endloop
  endfacet
  facet normal -0.565394 -0.824821 -0
    outer loop
      vertex 59.7984 38.2789 2
      vertex 59.7027 38.3445 0
      vertex 59.7984 38.2789 0
    endloop
  endfacet
  facet normal -0.733504 -0.679685 0
    outer loop
      vertex 59.8767 38.1944 0
      vertex 59.7984 38.2789 2
      vertex 59.7984 38.2789 0
    endloop
  endfacet
  facet normal -0.733504 -0.679685 0
    outer loop
      vertex 59.7984 38.2789 2
      vertex 59.8767 38.1944 0
      vertex 59.8767 38.1944 2
    endloop
  endfacet
  facet normal -0.86086 -0.508842 0
    outer loop
      vertex 59.9377 38.0912 0
      vertex 59.8767 38.1944 2
      vertex 59.8767 38.1944 0
    endloop
  endfacet
  facet normal -0.86086 -0.508842 0
    outer loop
      vertex 59.8767 38.1944 2
      vertex 59.9377 38.0912 0
      vertex 59.9377 38.0912 2
    endloop
  endfacet
  facet normal -0.941916 -0.335847 0
    outer loop
      vertex 59.9812 37.9692 0
      vertex 59.9377 38.0912 2
      vertex 59.9377 38.0912 0
    endloop
  endfacet
  facet normal -0.941916 -0.335847 0
    outer loop
      vertex 59.9377 38.0912 2
      vertex 59.9812 37.9692 0
      vertex 59.9812 37.9692 2
    endloop
  endfacet
  facet normal -0.983226 -0.18239 0
    outer loop
      vertex 60.0073 37.8285 0
      vertex 59.9812 37.9692 2
      vertex 59.9812 37.9692 0
    endloop
  endfacet
  facet normal -0.983226 -0.18239 0
    outer loop
      vertex 59.9812 37.9692 2
      vertex 60.0073 37.8285 0
      vertex 60.0073 37.8285 2
    endloop
  endfacet
  facet normal -0.998516 -0.0544645 0
    outer loop
      vertex 60.016 37.669 0
      vertex 60.0073 37.8285 2
      vertex 60.0073 37.8285 0
    endloop
  endfacet
  facet normal -0.998516 -0.0544645 0
    outer loop
      vertex 60.0073 37.8285 2
      vertex 60.016 37.669 0
      vertex 60.016 37.669 2
    endloop
  endfacet
  facet normal -0.998565 0.0535605 0
    outer loop
      vertex 60.0073 37.5068 0
      vertex 60.016 37.669 2
      vertex 60.016 37.669 0
    endloop
  endfacet
  facet normal -0.998565 0.0535605 0
    outer loop
      vertex 60.016 37.669 2
      vertex 60.0073 37.5068 0
      vertex 60.0073 37.5068 2
    endloop
  endfacet
  facet normal -0.983793 0.179309 0
    outer loop
      vertex 59.9812 37.3636 0
      vertex 60.0073 37.5068 2
      vertex 60.0073 37.5068 0
    endloop
  endfacet
  facet normal -0.983793 0.179309 0
    outer loop
      vertex 60.0073 37.5068 2
      vertex 59.9812 37.3636 0
      vertex 59.9812 37.3636 2
    endloop
  endfacet
  facet normal -0.943704 0.330791 0
    outer loop
      vertex 59.9377 37.2395 0
      vertex 59.9812 37.3636 2
      vertex 59.9812 37.3636 0
    endloop
  endfacet
  facet normal -0.943704 0.330791 0
    outer loop
      vertex 59.9812 37.3636 2
      vertex 59.9377 37.2395 0
      vertex 59.9377 37.2395 2
    endloop
  endfacet
  facet normal -0.864466 0.502692 0
    outer loop
      vertex 59.8767 37.1346 0
      vertex 59.9377 37.2395 2
      vertex 59.9377 37.2395 0
    endloop
  endfacet
  facet normal -0.864466 0.502692 0
    outer loop
      vertex 59.9377 37.2395 2
      vertex 59.8767 37.1346 0
      vertex 59.8767 37.1346 2
    endloop
  endfacet
  facet normal -0.739044 0.673657 0
    outer loop
      vertex 59.7984 37.0487 0
      vertex 59.8767 37.1346 2
      vertex 59.8767 37.1346 0
    endloop
  endfacet
  facet normal -0.739044 0.673657 0
    outer loop
      vertex 59.8767 37.1346 2
      vertex 59.7984 37.0487 0
      vertex 59.7984 37.0487 2
    endloop
  endfacet
  facet normal -0.572369 0.819996 0
    outer loop
      vertex 59.7984 37.0487 0
      vertex 59.7027 36.9819 2
      vertex 59.7984 37.0487 2
    endloop
  endfacet
  facet normal -0.572369 0.819996 0
    outer loop
      vertex 59.7027 36.9819 2
      vertex 59.7984 37.0487 0
      vertex 59.7027 36.9819 0
    endloop
  endfacet
  facet normal -0.388312 0.921528 0
    outer loop
      vertex 59.7027 36.9819 0
      vertex 59.5895 36.9342 2
      vertex 59.7027 36.9819 2
    endloop
  endfacet
  facet normal -0.388312 0.921528 0
    outer loop
      vertex 59.5895 36.9342 2
      vertex 59.7027 36.9819 0
      vertex 59.5895 36.9342 0
    endloop
  endfacet
  facet normal -0.21479 0.97666 0
    outer loop
      vertex 59.5895 36.9342 0
      vertex 59.459 36.9055 2
      vertex 59.5895 36.9342 2
    endloop
  endfacet
  facet normal -0.21479 0.97666 0
    outer loop
      vertex 59.459 36.9055 2
      vertex 59.5895 36.9342 0
      vertex 59.459 36.9055 0
    endloop
  endfacet
  facet normal -0.0640574 0.997946 0
    outer loop
      vertex 59.459 36.9055 0
      vertex 59.311 36.896 2
      vertex 59.459 36.9055 2
    endloop
  endfacet
  facet normal -0.0640574 0.997946 0
    outer loop
      vertex 59.311 36.896 2
      vertex 59.459 36.9055 0
      vertex 59.311 36.896 0
    endloop
  endfacet
  facet normal 0.0634595 0.997984 -0
    outer loop
      vertex 59.311 36.896 0
      vertex 59.1616 36.9055 2
      vertex 59.311 36.896 2
    endloop
  endfacet
  facet normal 0.0634595 0.997984 0
    outer loop
      vertex 59.1616 36.9055 2
      vertex 59.311 36.896 0
      vertex 59.1616 36.9055 0
    endloop
  endfacet
  facet normal 0.210632 0.977566 -0
    outer loop
      vertex 56.8541 36.9055 0
      vertex 56.7209 36.9342 2
      vertex 56.8541 36.9055 2
    endloop
  endfacet
  facet normal 0.210632 0.977566 0
    outer loop
      vertex 56.7209 36.9342 2
      vertex 56.8541 36.9055 0
      vertex 56.7209 36.9342 0
    endloop
  endfacet
  facet normal 0.381998 0.924163 -0
    outer loop
      vertex 56.7209 36.9342 0
      vertex 56.6055 36.9819 2
      vertex 56.7209 36.9342 2
    endloop
  endfacet
  facet normal 0.381998 0.924163 0
    outer loop
      vertex 56.6055 36.9819 2
      vertex 56.7209 36.9342 0
      vertex 56.6055 36.9819 0
    endloop
  endfacet
  facet normal 0.564805 0.825224 -0
    outer loop
      vertex 56.6055 36.9819 0
      vertex 56.5079 37.0487 2
      vertex 56.6055 36.9819 2
    endloop
  endfacet
  facet normal 0.564805 0.825224 0
    outer loop
      vertex 56.5079 37.0487 2
      vertex 56.6055 36.9819 0
      vertex 56.5079 37.0487 0
    endloop
  endfacet
  facet normal 0.732216 0.681072 0
    outer loop
      vertex 56.5079 37.0487 2
      vertex 56.428 37.1346 0
      vertex 56.428 37.1346 2
    endloop
  endfacet
  facet normal 0.732216 0.681072 0
    outer loop
      vertex 56.428 37.1346 0
      vertex 56.5079 37.0487 2
      vertex 56.5079 37.0487 0
    endloop
  endfacet
  facet normal 0.860518 0.50942 0
    outer loop
      vertex 56.428 37.1346 2
      vertex 56.3659 37.2395 0
      vertex 56.3659 37.2395 2
    endloop
  endfacet
  facet normal 0.860518 0.50942 0
    outer loop
      vertex 56.3659 37.2395 0
      vertex 56.428 37.1346 2
      vertex 56.428 37.1346 0
    endloop
  endfacet
  facet normal 0.941553 0.336865 0
    outer loop
      vertex 56.3659 37.2395 2
      vertex 56.3215 37.3636 0
      vertex 56.3215 37.3636 2
    endloop
  endfacet
  facet normal 0.941553 0.336865 0
    outer loop
      vertex 56.3215 37.3636 0
      vertex 56.3659 37.2395 2
      vertex 56.3659 37.2395 0
    endloop
  endfacet
  facet normal 0.983182 0.18263 0
    outer loop
      vertex 56.3215 37.3636 2
      vertex 56.2949 37.5068 0
      vertex 56.2949 37.5068 2
    endloop
  endfacet
  facet normal 0.983182 0.18263 0
    outer loop
      vertex 56.2949 37.5068 0
      vertex 56.3215 37.3636 2
      vertex 56.3215 37.3636 0
    endloop
  endfacet
  facet normal 0.998498 0.0547881 0
    outer loop
      vertex 56.2949 37.5068 2
      vertex 56.286 37.669 0
      vertex 56.286 37.669 2
    endloop
  endfacet
  facet normal 0.998498 0.0547881 0
    outer loop
      vertex 56.286 37.669 0
      vertex 56.2949 37.5068 2
      vertex 56.2949 37.5068 0
    endloop
  endfacet
  facet normal 0.998447 -0.0557127 0
    outer loop
      vertex 56.286 37.669 2
      vertex 56.2949 37.8285 0
      vertex 56.2949 37.8285 2
    endloop
  endfacet
  facet normal 0.998447 -0.0557127 0
    outer loop
      vertex 56.2949 37.8285 0
      vertex 56.286 37.669 2
      vertex 56.286 37.669 0
    endloop
  endfacet
  facet normal 0.982594 -0.185764 0
    outer loop
      vertex 56.2949 37.8285 2
      vertex 56.3215 37.9692 0
      vertex 56.3215 37.9692 2
    endloop
  endfacet
  facet normal 0.982594 -0.185764 0
    outer loop
      vertex 56.3215 37.9692 0
      vertex 56.2949 37.8285 2
      vertex 56.2949 37.8285 0
    endloop
  endfacet
  facet normal 0.939703 -0.34199 0
    outer loop
      vertex 56.3215 37.9692 2
      vertex 56.3659 38.0912 0
      vertex 56.3659 38.0912 2
    endloop
  endfacet
  facet normal 0.939703 -0.34199 0
    outer loop
      vertex 56.3659 38.0912 0
      vertex 56.3215 37.9692 2
      vertex 56.3215 37.9692 0
    endloop
  endfacet
  facet normal 0.856833 -0.515594 0
    outer loop
      vertex 56.3659 38.0912 2
      vertex 56.428 38.1944 0
      vertex 56.428 38.1944 2
    endloop
  endfacet
  facet normal 0.856833 -0.515594 0
    outer loop
      vertex 56.428 38.1944 0
      vertex 56.3659 38.0912 2
      vertex 56.3659 38.0912 0
    endloop
  endfacet
  facet normal 0.726608 -0.687053 0
    outer loop
      vertex 56.428 38.1944 2
      vertex 56.5079 38.2789 0
      vertex 56.5079 38.2789 2
    endloop
  endfacet
  facet normal 0.726608 -0.687053 0
    outer loop
      vertex 56.5079 38.2789 0
      vertex 56.428 38.1944 2
      vertex 56.428 38.1944 0
    endloop
  endfacet
  facet normal 0.557836 -0.829951 0
    outer loop
      vertex 56.5079 38.2789 0
      vertex 56.6055 38.3445 2
      vertex 56.5079 38.2789 2
    endloop
  endfacet
  facet normal 0.557836 -0.829951 0
    outer loop
      vertex 56.6055 38.3445 2
      vertex 56.5079 38.2789 0
      vertex 56.6055 38.3445 0
    endloop
  endfacet
  facet normal 0.377195 -0.926134 0
    outer loop
      vertex 56.6055 38.3445 0
      vertex 56.7209 38.3915 2
      vertex 56.6055 38.3445 2
    endloop
  endfacet
  facet normal 0.377195 -0.926134 0
    outer loop
      vertex 56.7209 38.3915 2
      vertex 56.6055 38.3445 0
      vertex 56.7209 38.3915 0
    endloop
  endfacet
  facet normal 0.206418 -0.978464 0
    outer loop
      vertex 56.7209 38.3915 0
      vertex 56.8541 38.4196 2
      vertex 56.7209 38.3915 2
    endloop
  endfacet
  facet normal 0.206418 -0.978464 0
    outer loop
      vertex 56.8541 38.4196 2
      vertex 56.7209 38.3915 0
      vertex 56.8541 38.4196 0
    endloop
  endfacet
  facet normal 0.0621724 -0.998065 0
    outer loop
      vertex 56.8541 38.4196 0
      vertex 57.005 38.429 2
      vertex 56.8541 38.4196 2
    endloop
  endfacet
  facet normal 0.0621724 -0.998065 0
    outer loop
      vertex 57.005 38.429 2
      vertex 56.8541 38.4196 0
      vertex 57.005 38.429 0
    endloop
  endfacet
  facet normal -0.0633858 -0.997989 0
    outer loop
      vertex 57.005 38.429 0
      vertex 57.153 38.4196 2
      vertex 57.005 38.429 2
    endloop
  endfacet
  facet normal -0.0633858 -0.997989 -0
    outer loop
      vertex 57.153 38.4196 2
      vertex 57.005 38.429 0
      vertex 57.153 38.4196 0
    endloop
  endfacet
  facet normal -0.210501 -0.977594 0
    outer loop
      vertex 57.153 38.4196 0
      vertex 57.2835 38.3915 2
      vertex 57.153 38.4196 2
    endloop
  endfacet
  facet normal -0.210501 -0.977594 -0
    outer loop
      vertex 57.2835 38.3915 2
      vertex 57.153 38.4196 0
      vertex 57.2835 38.3915 0
    endloop
  endfacet
  facet normal -0.383456 -0.923559 0
    outer loop
      vertex 57.2835 38.3915 0
      vertex 57.3967 38.3445 2
      vertex 57.2835 38.3915 2
    endloop
  endfacet
  facet normal -0.383456 -0.923559 -0
    outer loop
      vertex 57.3967 38.3445 2
      vertex 57.2835 38.3915 0
      vertex 57.3967 38.3445 0
    endloop
  endfacet
  facet normal -0.565394 -0.824821 0
    outer loop
      vertex 57.3967 38.3445 0
      vertex 57.4924 38.2789 2
      vertex 57.3967 38.3445 2
    endloop
  endfacet
  facet normal -0.565394 -0.824821 -0
    outer loop
      vertex 57.4924 38.2789 2
      vertex 57.3967 38.3445 0
      vertex 57.4924 38.2789 0
    endloop
  endfacet
  facet normal -0.733504 -0.679685 0
    outer loop
      vertex 57.5707 38.1944 0
      vertex 57.4924 38.2789 2
      vertex 57.4924 38.2789 0
    endloop
  endfacet
  facet normal -0.733504 -0.679685 0
    outer loop
      vertex 57.4924 38.2789 2
      vertex 57.5707 38.1944 0
      vertex 57.5707 38.1944 2
    endloop
  endfacet
  facet normal -0.86086 -0.508842 0
    outer loop
      vertex 57.6317 38.0912 0
      vertex 57.5707 38.1944 2
      vertex 57.5707 38.1944 0
    endloop
  endfacet
  facet normal -0.86086 -0.508842 0
    outer loop
      vertex 57.5707 38.1944 2
      vertex 57.6317 38.0912 0
      vertex 57.6317 38.0912 2
    endloop
  endfacet
  facet normal -0.941916 -0.335847 0
    outer loop
      vertex 57.6752 37.9692 0
      vertex 57.6317 38.0912 2
      vertex 57.6317 38.0912 0
    endloop
  endfacet
  facet normal -0.941916 -0.335847 0
    outer loop
      vertex 57.6317 38.0912 2
      vertex 57.6752 37.9692 0
      vertex 57.6752 37.9692 2
    endloop
  endfacet
  facet normal -0.983226 -0.18239 0
    outer loop
      vertex 57.7013 37.8285 0
      vertex 57.6752 37.9692 2
      vertex 57.6752 37.9692 0
    endloop
  endfacet
  facet normal -0.983226 -0.18239 0
    outer loop
      vertex 57.6752 37.9692 2
      vertex 57.7013 37.8285 0
      vertex 57.7013 37.8285 2
    endloop
  endfacet
  facet normal -0.998516 -0.0544645 0
    outer loop
      vertex 57.71 37.669 0
      vertex 57.7013 37.8285 2
      vertex 57.7013 37.8285 0
    endloop
  endfacet
  facet normal -0.998516 -0.0544645 0
    outer loop
      vertex 57.7013 37.8285 2
      vertex 57.71 37.669 0
      vertex 57.71 37.669 2
    endloop
  endfacet
  facet normal -0.998565 0.0535605 0
    outer loop
      vertex 57.7013 37.5068 0
      vertex 57.71 37.669 2
      vertex 57.71 37.669 0
    endloop
  endfacet
  facet normal -0.998565 0.0535605 0
    outer loop
      vertex 57.71 37.669 2
      vertex 57.7013 37.5068 0
      vertex 57.7013 37.5068 2
    endloop
  endfacet
  facet normal -0.983793 0.179309 0
    outer loop
      vertex 57.6752 37.3636 0
      vertex 57.7013 37.5068 2
      vertex 57.7013 37.5068 0
    endloop
  endfacet
  facet normal -0.983793 0.179309 0
    outer loop
      vertex 57.7013 37.5068 2
      vertex 57.6752 37.3636 0
      vertex 57.6752 37.3636 2
    endloop
  endfacet
  facet normal -0.943704 0.330791 0
    outer loop
      vertex 57.6317 37.2395 0
      vertex 57.6752 37.3636 2
      vertex 57.6752 37.3636 0
    endloop
  endfacet
  facet normal -0.943704 0.330791 0
    outer loop
      vertex 57.6752 37.3636 2
      vertex 57.6317 37.2395 0
      vertex 57.6317 37.2395 2
    endloop
  endfacet
  facet normal -0.864466 0.502692 0
    outer loop
      vertex 57.5707 37.1346 0
      vertex 57.6317 37.2395 2
      vertex 57.6317 37.2395 0
    endloop
  endfacet
  facet normal -0.864466 0.502692 0
    outer loop
      vertex 57.6317 37.2395 2
      vertex 57.5707 37.1346 0
      vertex 57.5707 37.1346 2
    endloop
  endfacet
  facet normal -0.739044 0.673657 0
    outer loop
      vertex 57.4924 37.0487 0
      vertex 57.5707 37.1346 2
      vertex 57.5707 37.1346 0
    endloop
  endfacet
  facet normal -0.739044 0.673657 0
    outer loop
      vertex 57.5707 37.1346 2
      vertex 57.4924 37.0487 0
      vertex 57.4924 37.0487 2
    endloop
  endfacet
  facet normal -0.572369 0.819996 0
    outer loop
      vertex 57.4924 37.0487 0
      vertex 57.3967 36.9819 2
      vertex 57.4924 37.0487 2
    endloop
  endfacet
  facet normal -0.572369 0.819996 0
    outer loop
      vertex 57.3967 36.9819 2
      vertex 57.4924 37.0487 0
      vertex 57.3967 36.9819 0
    endloop
  endfacet
  facet normal -0.388312 0.921528 0
    outer loop
      vertex 57.3967 36.9819 0
      vertex 57.2835 36.9342 2
      vertex 57.3967 36.9819 2
    endloop
  endfacet
  facet normal -0.388312 0.921528 0
    outer loop
      vertex 57.2835 36.9342 2
      vertex 57.3967 36.9819 0
      vertex 57.2835 36.9342 0
    endloop
  endfacet
  facet normal -0.21479 0.97666 0
    outer loop
      vertex 57.2835 36.9342 0
      vertex 57.153 36.9055 2
      vertex 57.2835 36.9342 2
    endloop
  endfacet
  facet normal -0.21479 0.97666 0
    outer loop
      vertex 57.153 36.9055 2
      vertex 57.2835 36.9342 0
      vertex 57.153 36.9055 0
    endloop
  endfacet
  facet normal -0.0640574 0.997946 0
    outer loop
      vertex 57.153 36.9055 0
      vertex 57.005 36.896 2
      vertex 57.153 36.9055 2
    endloop
  endfacet
  facet normal -0.0640574 0.997946 0
    outer loop
      vertex 57.005 36.896 2
      vertex 57.153 36.9055 0
      vertex 57.005 36.896 0
    endloop
  endfacet
  facet normal 0.0628312 0.998024 -0
    outer loop
      vertex 57.005 36.896 0
      vertex 56.8541 36.9055 2
      vertex 57.005 36.896 2
    endloop
  endfacet
  facet normal 0.0628312 0.998024 0
    outer loop
      vertex 56.8541 36.9055 2
      vertex 57.005 36.896 0
      vertex 56.8541 36.9055 0
    endloop
  endfacet
  facet normal 0.210632 0.977566 -0
    outer loop
      vertex 54.5761 36.9055 0
      vertex 54.4429 36.9342 2
      vertex 54.5761 36.9055 2
    endloop
  endfacet
  facet normal 0.210632 0.977566 0
    outer loop
      vertex 54.4429 36.9342 2
      vertex 54.5761 36.9055 0
      vertex 54.4429 36.9342 0
    endloop
  endfacet
  facet normal 0.381998 0.924163 -0
    outer loop
      vertex 54.4429 36.9342 0
      vertex 54.3275 36.9819 2
      vertex 54.4429 36.9342 2
    endloop
  endfacet
  facet normal 0.381998 0.924163 0
    outer loop
      vertex 54.3275 36.9819 2
      vertex 54.4429 36.9342 0
      vertex 54.3275 36.9819 0
    endloop
  endfacet
  facet normal 0.564805 0.825224 -0
    outer loop
      vertex 54.3275 36.9819 0
      vertex 54.2299 37.0487 2
      vertex 54.3275 36.9819 2
    endloop
  endfacet
  facet normal 0.564805 0.825224 0
    outer loop
      vertex 54.2299 37.0487 2
      vertex 54.3275 36.9819 0
      vertex 54.2299 37.0487 0
    endloop
  endfacet
  facet normal 0.732216 0.681072 0
    outer loop
      vertex 54.2299 37.0487 2
      vertex 54.15 37.1346 0
      vertex 54.15 37.1346 2
    endloop
  endfacet
  facet normal 0.732216 0.681072 0
    outer loop
      vertex 54.15 37.1346 0
      vertex 54.2299 37.0487 2
      vertex 54.2299 37.0487 0
    endloop
  endfacet
  facet normal 0.860518 0.50942 0
    outer loop
      vertex 54.15 37.1346 2
      vertex 54.0879 37.2395 0
      vertex 54.0879 37.2395 2
    endloop
  endfacet
  facet normal 0.860518 0.50942 0
    outer loop
      vertex 54.0879 37.2395 0
      vertex 54.15 37.1346 2
      vertex 54.15 37.1346 0
    endloop
  endfacet
  facet normal 0.941553 0.336865 0
    outer loop
      vertex 54.0879 37.2395 2
      vertex 54.0435 37.3636 0
      vertex 54.0435 37.3636 2
    endloop
  endfacet
  facet normal 0.941553 0.336865 0
    outer loop
      vertex 54.0435 37.3636 0
      vertex 54.0879 37.2395 2
      vertex 54.0879 37.2395 0
    endloop
  endfacet
  facet normal 0.983182 0.18263 0
    outer loop
      vertex 54.0435 37.3636 2
      vertex 54.0169 37.5068 0
      vertex 54.0169 37.5068 2
    endloop
  endfacet
  facet normal 0.983182 0.18263 0
    outer loop
      vertex 54.0169 37.5068 0
      vertex 54.0435 37.3636 2
      vertex 54.0435 37.3636 0
    endloop
  endfacet
  facet normal 0.998498 0.0547881 0
    outer loop
      vertex 54.0169 37.5068 2
      vertex 54.008 37.669 0
      vertex 54.008 37.669 2
    endloop
  endfacet
  facet normal 0.998498 0.0547881 0
    outer loop
      vertex 54.008 37.669 0
      vertex 54.0169 37.5068 2
      vertex 54.0169 37.5068 0
    endloop
  endfacet
  facet normal 0.998447 -0.0557127 0
    outer loop
      vertex 54.008 37.669 2
      vertex 54.0169 37.8285 0
      vertex 54.0169 37.8285 2
    endloop
  endfacet
  facet normal 0.998447 -0.0557127 0
    outer loop
      vertex 54.0169 37.8285 0
      vertex 54.008 37.669 2
      vertex 54.008 37.669 0
    endloop
  endfacet
  facet normal 0.982594 -0.185764 0
    outer loop
      vertex 54.0169 37.8285 2
      vertex 54.0435 37.9692 0
      vertex 54.0435 37.9692 2
    endloop
  endfacet
  facet normal 0.982594 -0.185764 0
    outer loop
      vertex 54.0435 37.9692 0
      vertex 54.0169 37.8285 2
      vertex 54.0169 37.8285 0
    endloop
  endfacet
  facet normal 0.939703 -0.34199 0
    outer loop
      vertex 54.0435 37.9692 2
      vertex 54.0879 38.0912 0
      vertex 54.0879 38.0912 2
    endloop
  endfacet
  facet normal 0.939703 -0.34199 0
    outer loop
      vertex 54.0879 38.0912 0
      vertex 54.0435 37.9692 2
      vertex 54.0435 37.9692 0
    endloop
  endfacet
  facet normal 0.856833 -0.515594 0
    outer loop
      vertex 54.0879 38.0912 2
      vertex 54.15 38.1944 0
      vertex 54.15 38.1944 2
    endloop
  endfacet
  facet normal 0.856833 -0.515594 0
    outer loop
      vertex 54.15 38.1944 0
      vertex 54.0879 38.0912 2
      vertex 54.0879 38.0912 0
    endloop
  endfacet
  facet normal 0.726608 -0.687053 0
    outer loop
      vertex 54.15 38.1944 2
      vertex 54.2299 38.2789 0
      vertex 54.2299 38.2789 2
    endloop
  endfacet
  facet normal 0.726608 -0.687053 0
    outer loop
      vertex 54.2299 38.2789 0
      vertex 54.15 38.1944 2
      vertex 54.15 38.1944 0
    endloop
  endfacet
  facet normal 0.557836 -0.829951 0
    outer loop
      vertex 54.2299 38.2789 0
      vertex 54.3275 38.3445 2
      vertex 54.2299 38.2789 2
    endloop
  endfacet
  facet normal 0.557836 -0.829951 0
    outer loop
      vertex 54.3275 38.3445 2
      vertex 54.2299 38.2789 0
      vertex 54.3275 38.3445 0
    endloop
  endfacet
  facet normal 0.377195 -0.926134 0
    outer loop
      vertex 54.3275 38.3445 0
      vertex 54.4429 38.3915 2
      vertex 54.3275 38.3445 2
    endloop
  endfacet
  facet normal 0.377195 -0.926134 0
    outer loop
      vertex 54.4429 38.3915 2
      vertex 54.3275 38.3445 0
      vertex 54.4429 38.3915 0
    endloop
  endfacet
  facet normal 0.206418 -0.978464 0
    outer loop
      vertex 54.4429 38.3915 0
      vertex 54.5761 38.4196 2
      vertex 54.4429 38.3915 2
    endloop
  endfacet
  facet normal 0.206418 -0.978464 0
    outer loop
      vertex 54.5761 38.4196 2
      vertex 54.4429 38.3915 0
      vertex 54.5761 38.4196 0
    endloop
  endfacet
  facet normal 0.0621724 -0.998065 0
    outer loop
      vertex 54.5761 38.4196 0
      vertex 54.727 38.429 2
      vertex 54.5761 38.4196 2
    endloop
  endfacet
  facet normal 0.0621724 -0.998065 0
    outer loop
      vertex 54.727 38.429 2
      vertex 54.5761 38.4196 0
      vertex 54.727 38.429 0
    endloop
  endfacet
  facet normal -0.0622546 -0.99806 0
    outer loop
      vertex 54.727 38.429 0
      vertex 54.8777 38.4196 2
      vertex 54.727 38.429 2
    endloop
  endfacet
  facet normal -0.0622546 -0.99806 -0
    outer loop
      vertex 54.8777 38.4196 2
      vertex 54.727 38.429 0
      vertex 54.8777 38.4196 0
    endloop
  endfacet
  facet normal -0.206715 -0.978401 0
    outer loop
      vertex 54.8777 38.4196 0
      vertex 55.0107 38.3915 2
      vertex 54.8777 38.4196 2
    endloop
  endfacet
  facet normal -0.206715 -0.978401 -0
    outer loop
      vertex 55.0107 38.3915 2
      vertex 54.8777 38.4196 0
      vertex 55.0107 38.3915 0
    endloop
  endfacet
  facet normal -0.377756 -0.925905 0
    outer loop
      vertex 55.0107 38.3915 0
      vertex 55.1259 38.3445 2
      vertex 55.0107 38.3915 2
    endloop
  endfacet
  facet normal -0.377756 -0.925905 -0
    outer loop
      vertex 55.1259 38.3445 2
      vertex 55.0107 38.3915 0
      vertex 55.1259 38.3445 0
    endloop
  endfacet
  facet normal -0.55823 -0.829686 0
    outer loop
      vertex 55.1259 38.3445 0
      vertex 55.2234 38.2789 2
      vertex 55.1259 38.3445 2
    endloop
  endfacet
  facet normal -0.55823 -0.829686 -0
    outer loop
      vertex 55.2234 38.2789 2
      vertex 55.1259 38.3445 0
      vertex 55.2234 38.2789 0
    endloop
  endfacet
  facet normal -0.727037 -0.686598 0
    outer loop
      vertex 55.3032 38.1944 0
      vertex 55.2234 38.2789 2
      vertex 55.2234 38.2789 0
    endloop
  endfacet
  facet normal -0.727037 -0.686598 0
    outer loop
      vertex 55.2234 38.2789 2
      vertex 55.3032 38.1944 0
      vertex 55.3032 38.1944 2
    endloop
  endfacet
  facet normal -0.8572 -0.514984 0
    outer loop
      vertex 55.3652 38.0912 0
      vertex 55.3032 38.1944 2
      vertex 55.3032 38.1944 0
    endloop
  endfacet
  facet normal -0.8572 -0.514984 0
    outer loop
      vertex 55.3032 38.1944 2
      vertex 55.3652 38.0912 0
      vertex 55.3652 38.0912 2
    endloop
  endfacet
  facet normal -0.939951 -0.34131 0
    outer loop
      vertex 55.4095 37.9692 0
      vertex 55.3652 38.0912 2
      vertex 55.3652 38.0912 0
    endloop
  endfacet
  facet normal -0.939951 -0.34131 0
    outer loop
      vertex 55.3652 38.0912 2
      vertex 55.4095 37.9692 0
      vertex 55.4095 37.9692 2
    endloop
  endfacet
  facet normal -0.982594 -0.185764 0
    outer loop
      vertex 55.4361 37.8285 0
      vertex 55.4095 37.9692 2
      vertex 55.4095 37.9692 0
    endloop
  endfacet
  facet normal -0.982594 -0.185764 0
    outer loop
      vertex 55.4095 37.9692 2
      vertex 55.4361 37.8285 0
      vertex 55.4361 37.8285 2
    endloop
  endfacet
  facet normal -0.998447 -0.0557127 0
    outer loop
      vertex 55.445 37.669 0
      vertex 55.4361 37.8285 2
      vertex 55.4361 37.8285 0
    endloop
  endfacet
  facet normal -0.998447 -0.0557127 0
    outer loop
      vertex 55.4361 37.8285 2
      vertex 55.445 37.669 0
      vertex 55.445 37.669 2
    endloop
  endfacet
  facet normal -0.998498 0.0547881 0
    outer loop
      vertex 55.4361 37.5068 0
      vertex 55.445 37.669 2
      vertex 55.445 37.669 0
    endloop
  endfacet
  facet normal -0.998498 0.0547881 0
    outer loop
      vertex 55.445 37.669 2
      vertex 55.4361 37.5068 0
      vertex 55.4361 37.5068 2
    endloop
  endfacet
  facet normal -0.983182 0.18263 0
    outer loop
      vertex 55.4095 37.3636 0
      vertex 55.4361 37.5068 2
      vertex 55.4361 37.5068 0
    endloop
  endfacet
  facet normal -0.983182 0.18263 0
    outer loop
      vertex 55.4361 37.5068 2
      vertex 55.4095 37.3636 0
      vertex 55.4095 37.3636 2
    endloop
  endfacet
  facet normal -0.941793 0.336192 0
    outer loop
      vertex 55.3652 37.2395 0
      vertex 55.4095 37.3636 2
      vertex 55.4095 37.3636 0
    endloop
  endfacet
  facet normal -0.941793 0.336192 0
    outer loop
      vertex 55.4095 37.3636 2
      vertex 55.3652 37.2395 0
      vertex 55.3652 37.2395 2
    endloop
  endfacet
  facet normal -0.860878 0.508812 0
    outer loop
      vertex 55.3032 37.1346 0
      vertex 55.3652 37.2395 2
      vertex 55.3652 37.2395 0
    endloop
  endfacet
  facet normal -0.860878 0.508812 0
    outer loop
      vertex 55.3652 37.2395 2
      vertex 55.3032 37.1346 0
      vertex 55.3032 37.1346 2
    endloop
  endfacet
  facet normal -0.732642 0.680615 0
    outer loop
      vertex 55.2234 37.0487 0
      vertex 55.3032 37.1346 2
      vertex 55.3032 37.1346 0
    endloop
  endfacet
  facet normal -0.732642 0.680615 0
    outer loop
      vertex 55.3032 37.1346 2
      vertex 55.2234 37.0487 0
      vertex 55.2234 37.0487 2
    endloop
  endfacet
  facet normal -0.565199 0.824954 0
    outer loop
      vertex 55.2234 37.0487 0
      vertex 55.1259 36.9819 2
      vertex 55.2234 37.0487 2
    endloop
  endfacet
  facet normal -0.565199 0.824954 0
    outer loop
      vertex 55.1259 36.9819 2
      vertex 55.2234 37.0487 0
      vertex 55.1259 36.9819 0
    endloop
  endfacet
  facet normal -0.382564 0.923929 0
    outer loop
      vertex 55.1259 36.9819 0
      vertex 55.0107 36.9342 2
      vertex 55.1259 36.9819 2
    endloop
  endfacet
  facet normal -0.382564 0.923929 0
    outer loop
      vertex 55.0107 36.9342 2
      vertex 55.1259 36.9819 0
      vertex 55.0107 36.9342 0
    endloop
  endfacet
  facet normal -0.210934 0.9775 0
    outer loop
      vertex 55.0107 36.9342 0
      vertex 54.8777 36.9055 2
      vertex 55.0107 36.9342 2
    endloop
  endfacet
  facet normal -0.210934 0.9775 0
    outer loop
      vertex 54.8777 36.9055 2
      vertex 55.0107 36.9342 0
      vertex 54.8777 36.9055 0
    endloop
  endfacet
  facet normal -0.0629143 0.998019 0
    outer loop
      vertex 54.8777 36.9055 0
      vertex 54.727 36.896 2
      vertex 54.8777 36.9055 2
    endloop
  endfacet
  facet normal -0.0629143 0.998019 0
    outer loop
      vertex 54.727 36.896 2
      vertex 54.8777 36.9055 0
      vertex 54.727 36.896 0
    endloop
  endfacet
  facet normal 0.0628312 0.998024 -0
    outer loop
      vertex 54.727 36.896 0
      vertex 54.5761 36.9055 2
      vertex 54.727 36.896 2
    endloop
  endfacet
  facet normal 0.0628312 0.998024 0
    outer loop
      vertex 54.5761 36.9055 2
      vertex 54.727 36.896 0
      vertex 54.5761 36.9055 0
    endloop
  endfacet
endsolid OpenSCAD_Model
