solid OpenSCAD_Model
  facet normal 0 0 -1
    outer loop
      vertex 50.326 37.988 0
      vertex 51.411 37.534 0
      vertex 50.326 36.957 0
    endloop
  endfacet
  facet normal 0 0 -1
    outer loop
      vertex 51.411 37.534 0
      vertex 50.326 37.988 0
      vertex 51.411 38.564 0
    endloop
  endfacet
  facet normal 0 0 -1
    outer loop
      vertex 50.326 33.933 0
      vertex 51.411 33.478 0
      vertex 50.326 32.902 0
    endloop
  endfacet
  facet normal 0 0 -1
    outer loop
      vertex 51.411 33.478 0
      vertex 50.326 33.933 0
      vertex 51.411 34.509 0
    endloop
  endfacet
  facet normal 0 0 -1
    outer loop
      vertex 51.411 33.478 0
      vertex 52.109 33.851 0
      vertex 52.109 32 0
    endloop
  endfacet
  facet normal 0 0 -1
    outer loop
      vertex 51.411 34.509 0
      vertex 52.109 33.851 0
      vertex 51.411 33.478 0
    endloop
  endfacet
  facet normal 0 0 -1
    outer loop
      vertex 51.411 37.534 0
      vertex 52.109 34.882 0
      vertex 51.411 34.509 0
    endloop
  endfacet
  facet normal 0 0 -1
    outer loop
      vertex 52.109 34.882 0
      vertex 51.411 37.534 0
      vertex 52.109 37.906 0
    endloop
  endfacet
  facet normal 0 0 -1
    outer loop
      vertex 51.411 33.478 0
      vertex 52.109 32 0
      vertex 51.411 32 0
    endloop
  endfacet
  facet normal 0 0 -1
    outer loop
      vertex 52.109 33.851 0
      vertex 51.411 34.509 0
      vertex 52.109 34.882 0
    endloop
  endfacet
  facet normal 0 0 -1
    outer loop
      vertex 51.411 38.564 0
      vertex 52.109 37.906 0
      vertex 51.411 37.534 0
    endloop
  endfacet
  facet normal 0 0 -1
    outer loop
      vertex 52.109 37.906 0
      vertex 51.411 38.564 0
      vertex 52.109 38.937 0
    endloop
  endfacet
  facet normal 0 0 -1
    outer loop
      vertex 51.411 40.395 0
      vertex 52.109 38.937 0
      vertex 51.411 38.564 0
    endloop
  endfacet
  facet normal 0 0 -1
    outer loop
      vertex 52.109 38.937 0
      vertex 51.411 40.395 0
      vertex 52.109 40.395 0
    endloop
  endfacet
  facet normal 0 0 -1
    outer loop
      vertex 52.109 38.937 0
      vertex 53.879 38.849 0
      vertex 52.109 37.906 0
    endloop
  endfacet
  facet normal 0 0 -1
    outer loop
      vertex 53.879 38.849 0
      vertex 52.109 38.937 0
      vertex 53.879 39.88 0
    endloop
  endfacet
  facet normal 0 0 -1
    outer loop
      vertex 52.109 34.882 0
      vertex 53.879 34.794 0
      vertex 52.109 33.851 0
    endloop
  endfacet
  facet normal 0 0 -1
    outer loop
      vertex 53.879 34.794 0
      vertex 52.109 34.882 0
      vertex 53.879 35.825 0
    endloop
  endfacet
  facet normal 0 0 -1
    outer loop
      vertex 53.879 34.794 0
      vertex 54.577 35.167 0
      vertex 54.577 33.173 0
    endloop
  endfacet
  facet normal 0 0 -1
    outer loop
      vertex 53.879 35.825 0
      vertex 54.577 35.167 0
      vertex 53.879 34.794 0
    endloop
  endfacet
  facet normal 0 0 -1
    outer loop
      vertex 53.879 38.849 0
      vertex 54.577 36.198 0
      vertex 53.879 35.825 0
    endloop
  endfacet
  facet normal 0 0 -1
    outer loop
      vertex 54.577 36.198 0
      vertex 53.879 38.849 0
      vertex 54.577 39.222 0
    endloop
  endfacet
  facet normal 0 0 -1
    outer loop
      vertex 53.879 34.794 0
      vertex 54.577 33.173 0
      vertex 53.879 33.173 0
    endloop
  endfacet
  facet normal 0 0 -1
    outer loop
      vertex 54.577 35.167 0
      vertex 53.879 35.825 0
      vertex 54.577 36.198 0
    endloop
  endfacet
  facet normal 0 0 -1
    outer loop
      vertex 53.879 39.88 0
      vertex 54.577 39.222 0
      vertex 53.879 38.849 0
    endloop
  endfacet
  facet normal 0 0 -1
    outer loop
      vertex 54.577 39.222 0
      vertex 53.879 39.88 0
      vertex 54.577 40.253 0
    endloop
  endfacet
  facet normal 0 0 -1
    outer loop
      vertex 53.879 41.724 0
      vertex 54.577 40.253 0
      vertex 53.879 39.88 0
    endloop
  endfacet
  facet normal 0 0 -1
    outer loop
      vertex 54.577 40.253 0
      vertex 53.879 41.724 0
      vertex 54.577 41.724 0
    endloop
  endfacet
  facet normal 0 0 -1
    outer loop
      vertex 54.577 36.198 0
      vertex 55.662 35.743 0
      vertex 54.577 35.167 0
    endloop
  endfacet
  facet normal 0 0 -1
    outer loop
      vertex 55.662 35.743 0
      vertex 54.577 36.198 0
      vertex 55.662 36.774 0
    endloop
  endfacet
  facet normal 0 0 -1
    outer loop
      vertex 54.577 40.253 0
      vertex 55.662 39.798 0
      vertex 54.577 39.222 0
    endloop
  endfacet
  facet normal 0 0 -1
    outer loop
      vertex 55.662 39.798 0
      vertex 54.577 40.253 0
      vertex 55.662 40.829 0
    endloop
  endfacet
  facet normal -0 0 1
    outer loop
      vertex 50.326 33.933 2
      vertex 51.411 33.478 2
      vertex 51.411 34.509 2
    endloop
  endfacet
  facet normal 0 0 1
    outer loop
      vertex 51.411 33.478 2
      vertex 50.326 33.933 2
      vertex 50.326 32.902 2
    endloop
  endfacet
  facet normal -0 0 1
    outer loop
      vertex 50.326 37.988 2
      vertex 51.411 37.534 2
      vertex 51.411 38.564 2
    endloop
  endfacet
  facet normal 0 0 1
    outer loop
      vertex 51.411 37.534 2
      vertex 50.326 37.988 2
      vertex 50.326 36.957 2
    endloop
  endfacet
  facet normal -0 0 1
    outer loop
      vertex 51.411 40.395 2
      vertex 52.109 38.937 2
      vertex 52.109 40.395 2
    endloop
  endfacet
  facet normal 0 0 1
    outer loop
      vertex 52.109 38.937 2
      vertex 51.411 38.564 2
      vertex 52.109 37.906 2
    endloop
  endfacet
  facet normal 0 0 1
    outer loop
      vertex 52.109 37.906 2
      vertex 51.411 37.534 2
      vertex 52.109 34.882 2
    endloop
  endfacet
  facet normal 0 0 1
    outer loop
      vertex 51.411 34.509 2
      vertex 52.109 34.882 2
      vertex 51.411 37.534 2
    endloop
  endfacet
  facet normal 0 0 1
    outer loop
      vertex 52.109 38.937 2
      vertex 51.411 40.395 2
      vertex 51.411 38.564 2
    endloop
  endfacet
  facet normal 0 0 1
    outer loop
      vertex 52.109 37.906 2
      vertex 51.411 38.564 2
      vertex 51.411 37.534 2
    endloop
  endfacet
  facet normal 0 0 1
    outer loop
      vertex 52.109 34.882 2
      vertex 51.411 34.509 2
      vertex 52.109 33.851 2
    endloop
  endfacet
  facet normal 0 0 1
    outer loop
      vertex 51.411 33.478 2
      vertex 52.109 33.851 2
      vertex 51.411 34.509 2
    endloop
  endfacet
  facet normal 0 0 1
    outer loop
      vertex 52.109 33.851 2
      vertex 51.411 33.478 2
      vertex 52.109 32 2
    endloop
  endfacet
  facet normal 0 0 1
    outer loop
      vertex 52.109 32 2
      vertex 51.411 33.478 2
      vertex 51.411 32 2
    endloop
  endfacet
  facet normal -0 0 1
    outer loop
      vertex 52.109 34.882 2
      vertex 53.879 34.794 2
      vertex 53.879 35.825 2
    endloop
  endfacet
  facet normal 0 0 1
    outer loop
      vertex 53.879 34.794 2
      vertex 52.109 34.882 2
      vertex 52.109 33.851 2
    endloop
  endfacet
  facet normal -0 0 1
    outer loop
      vertex 52.109 38.937 2
      vertex 53.879 38.849 2
      vertex 53.879 39.88 2
    endloop
  endfacet
  facet normal 0 0 1
    outer loop
      vertex 53.879 38.849 2
      vertex 52.109 38.937 2
      vertex 52.109 37.906 2
    endloop
  endfacet
  facet normal -0 0 1
    outer loop
      vertex 53.879 41.724 2
      vertex 54.577 40.253 2
      vertex 54.577 41.724 2
    endloop
  endfacet
  facet normal 0 0 1
    outer loop
      vertex 54.577 40.253 2
      vertex 53.879 39.88 2
      vertex 54.577 39.222 2
    endloop
  endfacet
  facet normal 0 0 1
    outer loop
      vertex 54.577 39.222 2
      vertex 53.879 38.849 2
      vertex 54.577 36.198 2
    endloop
  endfacet
  facet normal 0 0 1
    outer loop
      vertex 53.879 35.825 2
      vertex 54.577 36.198 2
      vertex 53.879 38.849 2
    endloop
  endfacet
  facet normal 0 0 1
    outer loop
      vertex 54.577 40.253 2
      vertex 53.879 41.724 2
      vertex 53.879 39.88 2
    endloop
  endfacet
  facet normal 0 0 1
    outer loop
      vertex 54.577 39.222 2
      vertex 53.879 39.88 2
      vertex 53.879 38.849 2
    endloop
  endfacet
  facet normal 0 0 1
    outer loop
      vertex 54.577 36.198 2
      vertex 53.879 35.825 2
      vertex 54.577 35.167 2
    endloop
  endfacet
  facet normal 0 0 1
    outer loop
      vertex 53.879 34.794 2
      vertex 54.577 35.167 2
      vertex 53.879 35.825 2
    endloop
  endfacet
  facet normal 0 0 1
    outer loop
      vertex 54.577 35.167 2
      vertex 53.879 34.794 2
      vertex 54.577 33.173 2
    endloop
  endfacet
  facet normal 0 0 1
    outer loop
      vertex 54.577 33.173 2
      vertex 53.879 34.794 2
      vertex 53.879 33.173 2
    endloop
  endfacet
  facet normal -0 0 1
    outer loop
      vertex 54.577 40.253 2
      vertex 55.662 39.798 2
      vertex 55.662 40.829 2
    endloop
  endfacet
  facet normal 0 0 1
    outer loop
      vertex 55.662 39.798 2
      vertex 54.577 40.253 2
      vertex 54.577 39.222 2
    endloop
  endfacet
  facet normal -0 0 1
    outer loop
      vertex 54.577 36.198 2
      vertex 55.662 35.743 2
      vertex 55.662 36.774 2
    endloop
  endfacet
  facet normal 0 0 1
    outer loop
      vertex 55.662 35.743 2
      vertex 54.577 36.198 2
      vertex 54.577 35.167 2
    endloop
  endfacet
  facet normal 0.4702 -0.88256 0
    outer loop
      vertex 52.109 33.851 0
      vertex 53.879 34.794 2
      vertex 52.109 33.851 2
    endloop
  endfacet
  facet normal 0.4702 -0.88256 0
    outer loop
      vertex 53.879 34.794 2
      vertex 52.109 33.851 0
      vertex 53.879 34.794 0
    endloop
  endfacet
  facet normal -1 0 0
    outer loop
      vertex 53.879 33.173 0
      vertex 53.879 34.794 2
      vertex 53.879 34.794 0
    endloop
  endfacet
  facet normal -1 -0 0
    outer loop
      vertex 53.879 34.794 2
      vertex 53.879 33.173 0
      vertex 53.879 33.173 2
    endloop
  endfacet
  facet normal 0 -1 0
    outer loop
      vertex 53.879 33.173 0
      vertex 54.577 33.173 2
      vertex 53.879 33.173 2
    endloop
  endfacet
  facet normal 0 -1 -0
    outer loop
      vertex 54.577 33.173 2
      vertex 53.879 33.173 0
      vertex 54.577 33.173 0
    endloop
  endfacet
  facet normal 1 -0 0
    outer loop
      vertex 54.577 33.173 2
      vertex 54.577 35.167 0
      vertex 54.577 35.167 2
    endloop
  endfacet
  facet normal 1 0 0
    outer loop
      vertex 54.577 35.167 0
      vertex 54.577 33.173 2
      vertex 54.577 33.173 0
    endloop
  endfacet
  facet normal 0.468897 -0.883253 0
    outer loop
      vertex 54.577 35.167 0
      vertex 55.662 35.743 2
      vertex 54.577 35.167 2
    endloop
  endfacet
  facet normal 0.468897 -0.883253 0
    outer loop
      vertex 55.662 35.743 2
      vertex 54.577 35.167 0
      vertex 55.662 35.743 0
    endloop
  endfacet
  facet normal 1 -0 0
    outer loop
      vertex 55.662 35.743 2
      vertex 55.662 36.774 0
      vertex 55.662 36.774 2
    endloop
  endfacet
  facet normal 1 0 0
    outer loop
      vertex 55.662 36.774 0
      vertex 55.662 35.743 2
      vertex 55.662 35.743 0
    endloop
  endfacet
  facet normal -0.468897 0.883253 0
    outer loop
      vertex 55.662 36.774 0
      vertex 54.577 36.198 2
      vertex 55.662 36.774 2
    endloop
  endfacet
  facet normal -0.468897 0.883253 0
    outer loop
      vertex 54.577 36.198 2
      vertex 55.662 36.774 0
      vertex 54.577 36.198 0
    endloop
  endfacet
  facet normal 1 -0 0
    outer loop
      vertex 54.577 36.198 2
      vertex 54.577 39.222 0
      vertex 54.577 39.222 2
    endloop
  endfacet
  facet normal 1 0 0
    outer loop
      vertex 54.577 39.222 0
      vertex 54.577 36.198 2
      vertex 54.577 36.198 0
    endloop
  endfacet
  facet normal 0.468897 -0.883253 0
    outer loop
      vertex 54.577 39.222 0
      vertex 55.662 39.798 2
      vertex 54.577 39.222 2
    endloop
  endfacet
  facet normal 0.468897 -0.883253 0
    outer loop
      vertex 55.662 39.798 2
      vertex 54.577 39.222 0
      vertex 55.662 39.798 0
    endloop
  endfacet
  facet normal 1 -0 0
    outer loop
      vertex 55.662 39.798 2
      vertex 55.662 40.829 0
      vertex 55.662 40.829 2
    endloop
  endfacet
  facet normal 1 0 0
    outer loop
      vertex 55.662 40.829 0
      vertex 55.662 39.798 2
      vertex 55.662 39.798 0
    endloop
  endfacet
  facet normal -0.468897 0.883253 0
    outer loop
      vertex 55.662 40.829 0
      vertex 54.577 40.253 2
      vertex 55.662 40.829 2
    endloop
  endfacet
  facet normal -0.468897 0.883253 0
    outer loop
      vertex 54.577 40.253 2
      vertex 55.662 40.829 0
      vertex 54.577 40.253 0
    endloop
  endfacet
  facet normal 1 -0 0
    outer loop
      vertex 54.577 40.253 2
      vertex 54.577 41.724 0
      vertex 54.577 41.724 2
    endloop
  endfacet
  facet normal 1 0 0
    outer loop
      vertex 54.577 41.724 0
      vertex 54.577 40.253 2
      vertex 54.577 40.253 0
    endloop
  endfacet
  facet normal 0 1 -0
    outer loop
      vertex 54.577 41.724 0
      vertex 53.879 41.724 2
      vertex 54.577 41.724 2
    endloop
  endfacet
  facet normal 0 1 0
    outer loop
      vertex 53.879 41.724 2
      vertex 54.577 41.724 0
      vertex 53.879 41.724 0
    endloop
  endfacet
  facet normal -1 0 0
    outer loop
      vertex 53.879 39.88 0
      vertex 53.879 41.724 2
      vertex 53.879 41.724 0
    endloop
  endfacet
  facet normal -1 -0 0
    outer loop
      vertex 53.879 41.724 2
      vertex 53.879 39.88 0
      vertex 53.879 39.88 2
    endloop
  endfacet
  facet normal -0.4702 0.88256 0
    outer loop
      vertex 53.879 39.88 0
      vertex 52.109 38.937 2
      vertex 53.879 39.88 2
    endloop
  endfacet
  facet normal -0.4702 0.88256 0
    outer loop
      vertex 52.109 38.937 2
      vertex 53.879 39.88 0
      vertex 52.109 38.937 0
    endloop
  endfacet
  facet normal 1 -0 0
    outer loop
      vertex 52.109 38.937 2
      vertex 52.109 40.395 0
      vertex 52.109 40.395 2
    endloop
  endfacet
  facet normal 1 0 0
    outer loop
      vertex 52.109 40.395 0
      vertex 52.109 38.937 2
      vertex 52.109 38.937 0
    endloop
  endfacet
  facet normal 0 1 -0
    outer loop
      vertex 52.109 40.395 0
      vertex 51.411 40.395 2
      vertex 52.109 40.395 2
    endloop
  endfacet
  facet normal 0 1 0
    outer loop
      vertex 51.411 40.395 2
      vertex 52.109 40.395 0
      vertex 51.411 40.395 0
    endloop
  endfacet
  facet normal -1 0 0
    outer loop
      vertex 51.411 38.564 0
      vertex 51.411 40.395 2
      vertex 51.411 40.395 0
    endloop
  endfacet
  facet normal -1 -0 0
    outer loop
      vertex 51.411 40.395 2
      vertex 51.411 38.564 0
      vertex 51.411 38.564 2
    endloop
  endfacet
  facet normal -0.468897 0.883253 0
    outer loop
      vertex 51.411 38.564 0
      vertex 50.326 37.988 2
      vertex 51.411 38.564 2
    endloop
  endfacet
  facet normal -0.468897 0.883253 0
    outer loop
      vertex 50.326 37.988 2
      vertex 51.411 38.564 0
      vertex 50.326 37.988 0
    endloop
  endfacet
  facet normal -1 0 0
    outer loop
      vertex 50.326 36.957 0
      vertex 50.326 37.988 2
      vertex 50.326 37.988 0
    endloop
  endfacet
  facet normal -1 -0 0
    outer loop
      vertex 50.326 37.988 2
      vertex 50.326 36.957 0
      vertex 50.326 36.957 2
    endloop
  endfacet
  facet normal 0.469532 -0.882915 0
    outer loop
      vertex 50.326 36.957 0
      vertex 51.411 37.534 2
      vertex 50.326 36.957 2
    endloop
  endfacet
  facet normal 0.469532 -0.882915 0
    outer loop
      vertex 51.411 37.534 2
      vertex 50.326 36.957 0
      vertex 51.411 37.534 0
    endloop
  endfacet
  facet normal -1 0 0
    outer loop
      vertex 51.411 34.509 0
      vertex 51.411 37.534 2
      vertex 51.411 37.534 0
    endloop
  endfacet
  facet normal -1 -0 0
    outer loop
      vertex 51.411 37.534 2
      vertex 51.411 34.509 0
      vertex 51.411 34.509 2
    endloop
  endfacet
  facet normal -0.468897 0.883253 0
    outer loop
      vertex 51.411 34.509 0
      vertex 50.326 33.933 2
      vertex 51.411 34.509 2
    endloop
  endfacet
  facet normal -0.468897 0.883253 0
    outer loop
      vertex 50.326 33.933 2
      vertex 51.411 34.509 0
      vertex 50.326 33.933 0
    endloop
  endfacet
  facet normal -1 0 0
    outer loop
      vertex 50.326 32.902 0
      vertex 50.326 33.933 2
      vertex 50.326 33.933 0
    endloop
  endfacet
  facet normal -1 -0 0
    outer loop
      vertex 50.326 33.933 2
      vertex 50.326 32.902 0
      vertex 50.326 32.902 2
    endloop
  endfacet
  facet normal 0.468897 -0.883253 0
    outer loop
      vertex 50.326 32.902 0
      vertex 51.411 33.478 2
      vertex 50.326 32.902 2
    endloop
  endfacet
  facet normal 0.468897 -0.883253 0
    outer loop
      vertex 51.411 33.478 2
      vertex 50.326 32.902 0
      vertex 51.411 33.478 0
    endloop
  endfacet
  facet normal -1 0 0
    outer loop
      vertex 51.411 32 0
      vertex 51.411 33.478 2
      vertex 51.411 33.478 0
    endloop
  endfacet
  facet normal -1 -0 0
    outer loop
      vertex 51.411 33.478 2
      vertex 51.411 32 0
      vertex 51.411 32 2
    endloop
  endfacet
  facet normal 0 -1 0
    outer loop
      vertex 51.411 32 0
      vertex 52.109 32 2
      vertex 51.411 32 2
    endloop
  endfacet
  facet normal 0 -1 -0
    outer loop
      vertex 52.109 32 2
      vertex 51.411 32 0
      vertex 52.109 32 0
    endloop
  endfacet
  facet normal 1 -0 0
    outer loop
      vertex 52.109 32 2
      vertex 52.109 33.851 0
      vertex 52.109 33.851 2
    endloop
  endfacet
  facet normal 1 0 0
    outer loop
      vertex 52.109 33.851 0
      vertex 52.109 32 2
      vertex 52.109 32 0
    endloop
  endfacet
  facet normal 0.4702 -0.88256 0
    outer loop
      vertex 52.109 37.906 0
      vertex 53.879 38.849 2
      vertex 52.109 37.906 2
    endloop
  endfacet
  facet normal 0.4702 -0.88256 0
    outer loop
      vertex 53.879 38.849 2
      vertex 52.109 37.906 0
      vertex 53.879 38.849 0
    endloop
  endfacet
  facet normal -1 0 0
    outer loop
      vertex 53.879 35.825 0
      vertex 53.879 38.849 2
      vertex 53.879 38.849 0
    endloop
  endfacet
  facet normal -1 -0 0
    outer loop
      vertex 53.879 38.849 2
      vertex 53.879 35.825 0
      vertex 53.879 35.825 2
    endloop
  endfacet
  facet normal -0.4702 0.88256 0
    outer loop
      vertex 53.879 35.825 0
      vertex 52.109 34.882 2
      vertex 53.879 35.825 2
    endloop
  endfacet
  facet normal -0.4702 0.88256 0
    outer loop
      vertex 52.109 34.882 2
      vertex 53.879 35.825 0
      vertex 52.109 34.882 0
    endloop
  endfacet
  facet normal 1 -0 0
    outer loop
      vertex 52.109 34.882 2
      vertex 52.109 37.906 0
      vertex 52.109 37.906 2
    endloop
  endfacet
  facet normal 1 0 0
    outer loop
      vertex 52.109 37.906 0
      vertex 52.109 34.882 2
      vertex 52.109 34.882 0
    endloop
  endfacet
endsolid OpenSCAD_Model
