solid OpenSCAD_Model
  facet normal 0 0 -1
    outer loop
      vertex 52.936 36.184 0
      vertex 55.71 37.567 0
      vertex 55.723 36.184 0
    endloop
  endfacet
  facet normal 0 0 -1
    outer loop
      vertex 52.936 36.184 0
      vertex 52.923 37.567 0
      vertex 55.71 37.567 0
    endloop
  endfacet
  facet normal 0 0 -1
    outer loop
      vertex 51.689 36.883 0
      vertex 52.936 36.184 0
      vertex 52.089 35.248 0
    endloop
  endfacet
  facet normal 0 0 -1
    outer loop
      vertex 52.936 36.184 0
      vertex 51.689 36.883 0
      vertex 52.923 37.567 0
    endloop
  endfacet
  facet normal -0 0 -1
    outer loop
      vertex 52.923 37.567 0
      vertex 51.689 36.883 0
      vertex 52.089 38.483 0
    endloop
  endfacet
  facet normal 0 -0 -1
    outer loop
      vertex 51.689 36.883 0
      vertex 52.089 35.248 0
      vertex 50.99 35.248 0
    endloop
  endfacet
  facet normal 0 0 -1
    outer loop
      vertex 62.9993 36.8514 0
      vertex 62.9974 36.9493 0
      vertex 63 36.883 0
    endloop
  endfacet
  facet normal 0 0 -1
    outer loop
      vertex 62.9973 36.8203 0
      vertex 62.9974 36.9493 0
      vertex 62.9993 36.8514 0
    endloop
  endfacet
  facet normal 0 0 -1
    outer loop
      vertex 62.9939 36.7896 0
      vertex 62.9974 36.9493 0
      vertex 62.9973 36.8203 0
    endloop
  endfacet
  facet normal 0 0 -1
    outer loop
      vertex 62.7459 37.4169 0
      vertex 62.9974 36.9493 0
      vertex 62.9939 36.7896 0
    endloop
  endfacet
  facet normal 0 0 -1
    outer loop
      vertex 62.7459 37.4169 0
      vertex 62.9939 36.7896 0
      vertex 62.9891 36.7592 0
    endloop
  endfacet
  facet normal 0 0 -1
    outer loop
      vertex 62.7459 37.4169 0
      vertex 62.9891 36.7592 0
      vertex 62.983 36.7294 0
    endloop
  endfacet
  facet normal 0 0 -1
    outer loop
      vertex 62.9974 36.9493 0
      vertex 62.7459 37.4169 0
      vertex 62.9898 37.0128 0
    endloop
  endfacet
  facet normal 0 0 -1
    outer loop
      vertex 62.7459 37.4169 0
      vertex 62.983 36.7294 0
      vertex 62.9756 36.6999 0
    endloop
  endfacet
  facet normal 0 0 -1
    outer loop
      vertex 62.7459 37.4169 0
      vertex 62.9756 36.6999 0
      vertex 62.9667 36.6708 0
    endloop
  endfacet
  facet normal 0 0 -1
    outer loop
      vertex 62.9898 37.0128 0
      vertex 62.793 37.377 0
      vertex 62.977 37.0734 0
    endloop
  endfacet
  facet normal 0 0 -1
    outer loop
      vertex 62.7459 37.4169 0
      vertex 62.9667 36.6708 0
      vertex 62.9565 36.6422 0
    endloop
  endfacet
  facet normal 0 0 -1
    outer loop
      vertex 62.7459 37.4169 0
      vertex 62.9565 36.6422 0
      vertex 62.945 36.614 0
    endloop
  endfacet
  facet normal 0 0 -1
    outer loop
      vertex 62.977 37.0734 0
      vertex 62.793 37.377 0
      vertex 62.9591 37.1312 0
    endloop
  endfacet
  facet normal 0 0 -1
    outer loop
      vertex 62.6968 37.4521 0
      vertex 62.945 36.614 0
      vertex 62.9324 36.5865 0
    endloop
  endfacet
  facet normal 0 0 -1
    outer loop
      vertex 62.6968 37.4521 0
      vertex 62.9324 36.5865 0
      vertex 62.9188 36.5598 0
    endloop
  endfacet
  facet normal 0 0 -1
    outer loop
      vertex 62.9591 37.1312 0
      vertex 62.793 37.377 0
      vertex 62.9361 37.1861 0
    endloop
  endfacet
  facet normal 0 0 -1
    outer loop
      vertex 62.6456 37.4825 0
      vertex 62.9188 36.5598 0
      vertex 62.9041 36.5337 0
    endloop
  endfacet
  facet normal 0 0 -1
    outer loop
      vertex 62.5368 37.5295 0
      vertex 62.9041 36.5337 0
      vertex 62.8883 36.5082 0
    endloop
  endfacet
  facet normal 0 0 -1
    outer loop
      vertex 62.9361 37.1861 0
      vertex 62.8748 37.2873 0
      vertex 62.908 37.2381 0
    endloop
  endfacet
  facet normal 0 0 -1
    outer loop
      vertex 62.5368 37.5295 0
      vertex 62.8883 36.5082 0
      vertex 62.8714 36.4834 0
    endloop
  endfacet
  facet normal 0 0 -1
    outer loop
      vertex 62.4792 37.5459 0
      vertex 62.8714 36.4834 0
      vertex 62.8534 36.4593 0
    endloop
  endfacet
  facet normal 0 0 -1
    outer loop
      vertex 62.9361 37.1861 0
      vertex 62.8364 37.3336 0
      vertex 62.8748 37.2873 0
    endloop
  endfacet
  facet normal 0 0 -1
    outer loop
      vertex 62.4792 37.5459 0
      vertex 62.8534 36.4593 0
      vertex 62.8344 36.4359 0
    endloop
  endfacet
  facet normal 0 0 -1
    outer loop
      vertex 62.4196 37.5576 0
      vertex 62.8344 36.4359 0
      vertex 62.8142 36.4131 0
    endloop
  endfacet
  facet normal 0 0 -1
    outer loop
      vertex 62.4196 37.5576 0
      vertex 62.8142 36.4131 0
      vertex 62.793 36.391 0
    endloop
  endfacet
  facet normal 0 0 -1
    outer loop
      vertex 62.9361 37.1861 0
      vertex 62.793 37.377 0
      vertex 62.8364 37.3336 0
    endloop
  endfacet
  facet normal 0 0 -1
    outer loop
      vertex 62.4196 37.5576 0
      vertex 62.793 36.391 0
      vertex 62.7708 36.3698 0
    endloop
  endfacet
  facet normal 0 0 -1
    outer loop
      vertex 62.3578 37.5647 0
      vertex 62.7708 36.3698 0
      vertex 62.7479 36.3496 0
    endloop
  endfacet
  facet normal 0 0 -1
    outer loop
      vertex 62.9898 37.0128 0
      vertex 62.7459 37.4169 0
      vertex 62.793 37.377 0
    endloop
  endfacet
  facet normal 0 0 -1
    outer loop
      vertex 62.3578 37.5647 0
      vertex 62.7479 36.3496 0
      vertex 62.7242 36.3304 0
    endloop
  endfacet
  facet normal 0 0 -1
    outer loop
      vertex 62.3578 37.5647 0
      vertex 62.7242 36.3304 0
      vertex 62.6998 36.3124 0
    endloop
  endfacet
  facet normal 0 0 -1
    outer loop
      vertex 62.945 36.614 0
      vertex 62.6968 37.4521 0
      vertex 62.7459 37.4169 0
    endloop
  endfacet
  facet normal 0 0 -1
    outer loop
      vertex 62.3578 37.5647 0
      vertex 62.6998 36.3124 0
      vertex 62.6745 36.2954 0
    endloop
  endfacet
  facet normal 0 0 -1
    outer loop
      vertex 62.3578 37.5647 0
      vertex 62.6745 36.2954 0
      vertex 62.6485 36.2794 0
    endloop
  endfacet
  facet normal 0 0 -1
    outer loop
      vertex 62.9188 36.5598 0
      vertex 62.6456 37.4825 0
      vertex 62.6968 37.4521 0
    endloop
  endfacet
  facet normal 0 0 -1
    outer loop
      vertex 62.3578 37.5647 0
      vertex 62.6485 36.2794 0
      vertex 62.6218 36.2646 0
    endloop
  endfacet
  facet normal 0 0 -1
    outer loop
      vertex 62.3578 37.5647 0
      vertex 62.6218 36.2646 0
      vertex 62.5943 36.2507 0
    endloop
  endfacet
  facet normal 0 0 -1
    outer loop
      vertex 62.9041 36.5337 0
      vertex 62.5922 37.5083 0
      vertex 62.6456 37.4825 0
    endloop
  endfacet
  facet normal 0 0 -1
    outer loop
      vertex 62.3578 37.5647 0
      vertex 62.5943 36.2507 0
      vertex 62.566 36.238 0
    endloop
  endfacet
  facet normal 0 0 -1
    outer loop
      vertex 62.3578 37.5647 0
      vertex 62.566 36.238 0
      vertex 62.5372 36.2267 0
    endloop
  endfacet
  facet normal 0 0 -1
    outer loop
      vertex 62.9041 36.5337 0
      vertex 62.5368 37.5295 0
      vertex 62.5922 37.5083 0
    endloop
  endfacet
  facet normal 0 0 -1
    outer loop
      vertex 62.3578 37.5647 0
      vertex 62.5372 36.2267 0
      vertex 62.508 36.2167 0
    endloop
  endfacet
  facet normal 0 0 -1
    outer loop
      vertex 62.8714 36.4834 0
      vertex 62.4792 37.5459 0
      vertex 62.5368 37.5295 0
    endloop
  endfacet
  facet normal 0 0 -1
    outer loop
      vertex 62.3578 37.5647 0
      vertex 62.508 36.2167 0
      vertex 62.4784 36.208 0
    endloop
  endfacet
  facet normal 0 0 -1
    outer loop
      vertex 62.3578 37.5647 0
      vertex 62.4784 36.208 0
      vertex 62.4486 36.2007 0
    endloop
  endfacet
  facet normal 0 0 -1
    outer loop
      vertex 62.8344 36.4359 0
      vertex 62.4196 37.5576 0
      vertex 62.4792 37.5459 0
    endloop
  endfacet
  facet normal 0 0 -1
    outer loop
      vertex 62.3578 37.5647 0
      vertex 62.4486 36.2007 0
      vertex 62.4183 36.1947 0
    endloop
  endfacet
  facet normal 0 0 -1
    outer loop
      vertex 62.3578 37.5647 0
      vertex 62.4183 36.1947 0
      vertex 62.3878 36.19 0
    endloop
  endfacet
  facet normal 0 0 -1
    outer loop
      vertex 62.7708 36.3698 0
      vertex 62.3578 37.5647 0
      vertex 62.4196 37.5576 0
    endloop
  endfacet
  facet normal 0 0 -1
    outer loop
      vertex 62.3569 36.1867 0
      vertex 62.3578 37.5647 0
      vertex 62.3878 36.19 0
    endloop
  endfacet
  facet normal 0 0 -1
    outer loop
      vertex 62.3256 36.1847 0
      vertex 62.3578 37.5647 0
      vertex 62.3569 36.1867 0
    endloop
  endfacet
  facet normal 0 0 -1
    outer loop
      vertex 62.294 36.184 0
      vertex 62.3578 37.5647 0
      vertex 62.3256 36.1847 0
    endloop
  endfacet
  facet normal 0 0 -1
    outer loop
      vertex 62.294 36.184 0
      vertex 62.294 37.567 0
      vertex 62.3578 37.5647 0
    endloop
  endfacet
  facet normal 0 0 -1
    outer loop
      vertex 58.463 36.184 0
      vertex 62.294 37.567 0
      vertex 62.294 36.184 0
    endloop
  endfacet
  facet normal 0 0 -1
    outer loop
      vertex 58.463 36.184 0
      vertex 58.443 37.567 0
      vertex 62.294 37.567 0
    endloop
  endfacet
  facet normal 0 0 -1
    outer loop
      vertex 58.463 36.184 0
      vertex 55.723 36.184 0
      vertex 58.443 37.567 0
    endloop
  endfacet
  facet normal 0 0 -1
    outer loop
      vertex 55.405 31.349 0
      vertex 55.723 36.184 0
      vertex 58.463 36.184 0
    endloop
  endfacet
  facet normal 0 0 -1
    outer loop
      vertex 55.723 36.184 0
      vertex 55.405 31.349 0
      vertex 54.306 31.43 0
    endloop
  endfacet
  facet normal 0 0 -1
    outer loop
      vertex 55.71 37.567 0
      vertex 58.443 37.567 0
      vertex 55.723 36.184 0
    endloop
  endfacet
  facet normal 0 0 -1
    outer loop
      vertex 55.71 37.567 0
      vertex 55.405 42.355 0
      vertex 58.443 37.567 0
    endloop
  endfacet
  facet normal 0 -0 -1
    outer loop
      vertex 55.405 42.355 0
      vertex 55.71 37.567 0
      vertex 54.306 42.274 0
    endloop
  endfacet
  facet normal -0 0 -1
    outer loop
      vertex 52.089 38.483 0
      vertex 51.689 36.883 0
      vertex 50.99 38.483 0
    endloop
  endfacet
  facet normal 0 0 1
    outer loop
      vertex 58.443 37.567 2
      vertex 55.71 37.567 2
      vertex 55.723 36.184 2
    endloop
  endfacet
  facet normal 0 0 1
    outer loop
      vertex 55.405 42.355 2
      vertex 55.71 37.567 2
      vertex 58.443 37.567 2
    endloop
  endfacet
  facet normal 0 0 1
    outer loop
      vertex 55.71 37.567 2
      vertex 55.405 42.355 2
      vertex 54.306 42.274 2
    endloop
  endfacet
  facet normal 0 0 1
    outer loop
      vertex 62.9974 36.9493 2
      vertex 62.9993 36.8514 2
      vertex 63 36.883 2
    endloop
  endfacet
  facet normal 0 0 1
    outer loop
      vertex 62.9974 36.9493 2
      vertex 62.9973 36.8203 2
      vertex 62.9993 36.8514 2
    endloop
  endfacet
  facet normal 0 0 1
    outer loop
      vertex 62.9974 36.9493 2
      vertex 62.9939 36.7896 2
      vertex 62.9973 36.8203 2
    endloop
  endfacet
  facet normal 0 0 1
    outer loop
      vertex 62.7459 37.4169 2
      vertex 62.9974 36.9493 2
      vertex 62.9898 37.0128 2
    endloop
  endfacet
  facet normal 0 0 1
    outer loop
      vertex 62.9974 36.9493 2
      vertex 62.7459 37.4169 2
      vertex 62.9939 36.7896 2
    endloop
  endfacet
  facet normal 0 0 1
    outer loop
      vertex 62.9939 36.7896 2
      vertex 62.7459 37.4169 2
      vertex 62.9891 36.7592 2
    endloop
  endfacet
  facet normal 0 0 1
    outer loop
      vertex 62.793 37.377 2
      vertex 62.9898 37.0128 2
      vertex 62.977 37.0734 2
    endloop
  endfacet
  facet normal 0 0 1
    outer loop
      vertex 62.7459 37.4169 2
      vertex 62.9898 37.0128 2
      vertex 62.793 37.377 2
    endloop
  endfacet
  facet normal 0 0 1
    outer loop
      vertex 62.9891 36.7592 2
      vertex 62.7459 37.4169 2
      vertex 62.983 36.7294 2
    endloop
  endfacet
  facet normal 0 0 1
    outer loop
      vertex 62.793 37.377 2
      vertex 62.977 37.0734 2
      vertex 62.9591 37.1312 2
    endloop
  endfacet
  facet normal 0 0 1
    outer loop
      vertex 62.983 36.7294 2
      vertex 62.7459 37.4169 2
      vertex 62.9756 36.6999 2
    endloop
  endfacet
  facet normal 0 0 1
    outer loop
      vertex 62.9756 36.6999 2
      vertex 62.7459 37.4169 2
      vertex 62.9667 36.6708 2
    endloop
  endfacet
  facet normal 0 0 1
    outer loop
      vertex 62.793 37.377 2
      vertex 62.9591 37.1312 2
      vertex 62.9361 37.1861 2
    endloop
  endfacet
  facet normal 0 0 1
    outer loop
      vertex 62.9667 36.6708 2
      vertex 62.7459 37.4169 2
      vertex 62.9565 36.6422 2
    endloop
  endfacet
  facet normal 0 0 1
    outer loop
      vertex 62.9565 36.6422 2
      vertex 62.7459 37.4169 2
      vertex 62.945 36.614 2
    endloop
  endfacet
  facet normal 0 0 1
    outer loop
      vertex 62.8748 37.2873 2
      vertex 62.9361 37.1861 2
      vertex 62.908 37.2381 2
    endloop
  endfacet
  facet normal 0 0 1
    outer loop
      vertex 62.8364 37.3336 2
      vertex 62.9361 37.1861 2
      vertex 62.8748 37.2873 2
    endloop
  endfacet
  facet normal 0 0 1
    outer loop
      vertex 62.793 37.377 2
      vertex 62.9361 37.1861 2
      vertex 62.8364 37.3336 2
    endloop
  endfacet
  facet normal 0 0 1
    outer loop
      vertex 62.6968 37.4521 2
      vertex 62.945 36.614 2
      vertex 62.7459 37.4169 2
    endloop
  endfacet
  facet normal 0 0 1
    outer loop
      vertex 62.945 36.614 2
      vertex 62.6968 37.4521 2
      vertex 62.9324 36.5865 2
    endloop
  endfacet
  facet normal 0 0 1
    outer loop
      vertex 62.9324 36.5865 2
      vertex 62.6968 37.4521 2
      vertex 62.9188 36.5598 2
    endloop
  endfacet
  facet normal 0 0 1
    outer loop
      vertex 62.6456 37.4825 2
      vertex 62.9188 36.5598 2
      vertex 62.6968 37.4521 2
    endloop
  endfacet
  facet normal 0 0 1
    outer loop
      vertex 62.9188 36.5598 2
      vertex 62.6456 37.4825 2
      vertex 62.9041 36.5337 2
    endloop
  endfacet
  facet normal 0 0 1
    outer loop
      vertex 62.5922 37.5083 2
      vertex 62.9041 36.5337 2
      vertex 62.6456 37.4825 2
    endloop
  endfacet
  facet normal 0 0 1
    outer loop
      vertex 62.5368 37.5295 2
      vertex 62.9041 36.5337 2
      vertex 62.5922 37.5083 2
    endloop
  endfacet
  facet normal 0 0 1
    outer loop
      vertex 62.9041 36.5337 2
      vertex 62.5368 37.5295 2
      vertex 62.8883 36.5082 2
    endloop
  endfacet
  facet normal 0 0 1
    outer loop
      vertex 62.8883 36.5082 2
      vertex 62.5368 37.5295 2
      vertex 62.8714 36.4834 2
    endloop
  endfacet
  facet normal 0 0 1
    outer loop
      vertex 62.4792 37.5459 2
      vertex 62.8714 36.4834 2
      vertex 62.5368 37.5295 2
    endloop
  endfacet
  facet normal 0 0 1
    outer loop
      vertex 62.8714 36.4834 2
      vertex 62.4792 37.5459 2
      vertex 62.8534 36.4593 2
    endloop
  endfacet
  facet normal 0 0 1
    outer loop
      vertex 62.8534 36.4593 2
      vertex 62.4792 37.5459 2
      vertex 62.8344 36.4359 2
    endloop
  endfacet
  facet normal 0 0 1
    outer loop
      vertex 62.4196 37.5576 2
      vertex 62.8344 36.4359 2
      vertex 62.4792 37.5459 2
    endloop
  endfacet
  facet normal 0 0 1
    outer loop
      vertex 62.8344 36.4359 2
      vertex 62.4196 37.5576 2
      vertex 62.8142 36.4131 2
    endloop
  endfacet
  facet normal 0 0 1
    outer loop
      vertex 62.8142 36.4131 2
      vertex 62.4196 37.5576 2
      vertex 62.793 36.391 2
    endloop
  endfacet
  facet normal 0 0 1
    outer loop
      vertex 62.793 36.391 2
      vertex 62.4196 37.5576 2
      vertex 62.7708 36.3698 2
    endloop
  endfacet
  facet normal 0 0 1
    outer loop
      vertex 62.3578 37.5647 2
      vertex 62.7708 36.3698 2
      vertex 62.4196 37.5576 2
    endloop
  endfacet
  facet normal 0 0 1
    outer loop
      vertex 62.7708 36.3698 2
      vertex 62.3578 37.5647 2
      vertex 62.7479 36.3496 2
    endloop
  endfacet
  facet normal 0 0 1
    outer loop
      vertex 62.7479 36.3496 2
      vertex 62.3578 37.5647 2
      vertex 62.7242 36.3304 2
    endloop
  endfacet
  facet normal 0 0 1
    outer loop
      vertex 62.7242 36.3304 2
      vertex 62.3578 37.5647 2
      vertex 62.6998 36.3124 2
    endloop
  endfacet
  facet normal 0 0 1
    outer loop
      vertex 62.6998 36.3124 2
      vertex 62.3578 37.5647 2
      vertex 62.6745 36.2954 2
    endloop
  endfacet
  facet normal 0 0 1
    outer loop
      vertex 62.6745 36.2954 2
      vertex 62.3578 37.5647 2
      vertex 62.6485 36.2794 2
    endloop
  endfacet
  facet normal 0 0 1
    outer loop
      vertex 62.6485 36.2794 2
      vertex 62.3578 37.5647 2
      vertex 62.6218 36.2646 2
    endloop
  endfacet
  facet normal 0 0 1
    outer loop
      vertex 62.6218 36.2646 2
      vertex 62.3578 37.5647 2
      vertex 62.5943 36.2507 2
    endloop
  endfacet
  facet normal 0 0 1
    outer loop
      vertex 62.5943 36.2507 2
      vertex 62.3578 37.5647 2
      vertex 62.566 36.238 2
    endloop
  endfacet
  facet normal 0 0 1
    outer loop
      vertex 62.566 36.238 2
      vertex 62.3578 37.5647 2
      vertex 62.5372 36.2267 2
    endloop
  endfacet
  facet normal 0 0 1
    outer loop
      vertex 62.5372 36.2267 2
      vertex 62.3578 37.5647 2
      vertex 62.508 36.2167 2
    endloop
  endfacet
  facet normal 0 0 1
    outer loop
      vertex 62.508 36.2167 2
      vertex 62.3578 37.5647 2
      vertex 62.4784 36.208 2
    endloop
  endfacet
  facet normal 0 0 1
    outer loop
      vertex 62.4784 36.208 2
      vertex 62.3578 37.5647 2
      vertex 62.4486 36.2007 2
    endloop
  endfacet
  facet normal 0 0 1
    outer loop
      vertex 62.4486 36.2007 2
      vertex 62.3578 37.5647 2
      vertex 62.4183 36.1947 2
    endloop
  endfacet
  facet normal 0 0 1
    outer loop
      vertex 62.4183 36.1947 2
      vertex 62.3578 37.5647 2
      vertex 62.3878 36.19 2
    endloop
  endfacet
  facet normal 0 0 1
    outer loop
      vertex 62.3578 37.5647 2
      vertex 62.3569 36.1867 2
      vertex 62.3878 36.19 2
    endloop
  endfacet
  facet normal 0 0 1
    outer loop
      vertex 62.3578 37.5647 2
      vertex 62.3256 36.1847 2
      vertex 62.3569 36.1867 2
    endloop
  endfacet
  facet normal 0 0 1
    outer loop
      vertex 62.294 37.567 2
      vertex 62.3256 36.1847 2
      vertex 62.3578 37.5647 2
    endloop
  endfacet
  facet normal 0 0 1
    outer loop
      vertex 62.294 37.567 2
      vertex 62.294 36.184 2
      vertex 62.3256 36.1847 2
    endloop
  endfacet
  facet normal 0 0 1
    outer loop
      vertex 62.294 37.567 2
      vertex 58.463 36.184 2
      vertex 62.294 36.184 2
    endloop
  endfacet
  facet normal -0 0 1
    outer loop
      vertex 58.443 37.567 2
      vertex 58.463 36.184 2
      vertex 62.294 37.567 2
    endloop
  endfacet
  facet normal 0 0 1
    outer loop
      vertex 55.723 36.184 2
      vertex 58.463 36.184 2
      vertex 58.443 37.567 2
    endloop
  endfacet
  facet normal -0 0 1
    outer loop
      vertex 55.723 36.184 2
      vertex 55.405 31.349 2
      vertex 58.463 36.184 2
    endloop
  endfacet
  facet normal 0 -0 1
    outer loop
      vertex 55.405 31.349 2
      vertex 55.723 36.184 2
      vertex 54.306 31.43 2
    endloop
  endfacet
  facet normal 0 0 1
    outer loop
      vertex 55.71 37.567 2
      vertex 52.936 36.184 2
      vertex 55.723 36.184 2
    endloop
  endfacet
  facet normal -0 0 1
    outer loop
      vertex 52.923 37.567 2
      vertex 52.936 36.184 2
      vertex 55.71 37.567 2
    endloop
  endfacet
  facet normal 0 0 1
    outer loop
      vertex 51.689 36.883 2
      vertex 52.923 37.567 2
      vertex 52.089 38.483 2
    endloop
  endfacet
  facet normal 0 0 1
    outer loop
      vertex 52.923 37.567 2
      vertex 51.689 36.883 2
      vertex 52.936 36.184 2
    endloop
  endfacet
  facet normal 0 0 1
    outer loop
      vertex 52.936 36.184 2
      vertex 51.689 36.883 2
      vertex 52.089 35.248 2
    endloop
  endfacet
  facet normal 0 -0 1
    outer loop
      vertex 51.689 36.883 2
      vertex 52.089 38.483 2
      vertex 50.99 38.483 2
    endloop
  endfacet
  facet normal 0 0 1
    outer loop
      vertex 52.089 35.248 2
      vertex 51.689 36.883 2
      vertex 50.99 35.248 2
    endloop
  endfacet
  facet normal 0 -1 0
    outer loop
      vertex 58.463 36.184 0
      vertex 62.294 36.184 2
      vertex 58.463 36.184 2
    endloop
  endfacet
  facet normal 0 -1 -0
    outer loop
      vertex 62.294 36.184 2
      vertex 58.463 36.184 0
      vertex 62.294 36.184 0
    endloop
  endfacet
  facet normal 0.0221465 -0.999755 0
    outer loop
      vertex 62.294 36.184 0
      vertex 62.3256 36.1847 2
      vertex 62.294 36.184 2
    endloop
  endfacet
  facet normal 0.0221465 -0.999755 0
    outer loop
      vertex 62.3256 36.1847 2
      vertex 62.294 36.184 0
      vertex 62.3256 36.1847 0
    endloop
  endfacet
  facet normal 0.0637677 -0.997965 0
    outer loop
      vertex 62.3256 36.1847 0
      vertex 62.3569 36.1867 2
      vertex 62.3256 36.1847 2
    endloop
  endfacet
  facet normal 0.0637677 -0.997965 0
    outer loop
      vertex 62.3569 36.1867 2
      vertex 62.3256 36.1847 0
      vertex 62.3569 36.1867 0
    endloop
  endfacet
  facet normal 0.106192 -0.994346 0
    outer loop
      vertex 62.3569 36.1867 0
      vertex 62.3878 36.19 2
      vertex 62.3569 36.1867 2
    endloop
  endfacet
  facet normal 0.106192 -0.994346 0
    outer loop
      vertex 62.3878 36.19 2
      vertex 62.3569 36.1867 0
      vertex 62.3878 36.19 0
    endloop
  endfacet
  facet normal 0.152301 -0.988334 0
    outer loop
      vertex 62.3878 36.19 0
      vertex 62.4183 36.1947 2
      vertex 62.3878 36.19 2
    endloop
  endfacet
  facet normal 0.152301 -0.988334 0
    outer loop
      vertex 62.4183 36.1947 2
      vertex 62.3878 36.19 0
      vertex 62.4183 36.1947 0
    endloop
  endfacet
  facet normal 0.194248 -0.980952 0
    outer loop
      vertex 62.4183 36.1947 0
      vertex 62.4486 36.2007 2
      vertex 62.4183 36.1947 2
    endloop
  endfacet
  facet normal 0.194248 -0.980952 0
    outer loop
      vertex 62.4486 36.2007 2
      vertex 62.4183 36.1947 0
      vertex 62.4486 36.2007 0
    endloop
  endfacet
  facet normal 0.237931 -0.971282 0
    outer loop
      vertex 62.4486 36.2007 0
      vertex 62.4784 36.208 2
      vertex 62.4486 36.2007 2
    endloop
  endfacet
  facet normal 0.237931 -0.971282 0
    outer loop
      vertex 62.4784 36.208 2
      vertex 62.4486 36.2007 0
      vertex 62.4784 36.208 0
    endloop
  endfacet
  facet normal 0.281991 -0.959417 0
    outer loop
      vertex 62.4784 36.208 0
      vertex 62.508 36.2167 2
      vertex 62.4784 36.208 2
    endloop
  endfacet
  facet normal 0.281991 -0.959417 0
    outer loop
      vertex 62.508 36.2167 2
      vertex 62.4784 36.208 0
      vertex 62.508 36.2167 0
    endloop
  endfacet
  facet normal 0.323993 -0.946059 0
    outer loop
      vertex 62.508 36.2167 0
      vertex 62.5372 36.2267 2
      vertex 62.508 36.2167 2
    endloop
  endfacet
  facet normal 0.323993 -0.946059 0
    outer loop
      vertex 62.5372 36.2267 2
      vertex 62.508 36.2167 0
      vertex 62.5372 36.2267 0
    endloop
  endfacet
  facet normal 0.365252 -0.930909 0
    outer loop
      vertex 62.5372 36.2267 0
      vertex 62.566 36.238 2
      vertex 62.5372 36.2267 2
    endloop
  endfacet
  facet normal 0.365252 -0.930909 0
    outer loop
      vertex 62.566 36.238 2
      vertex 62.5372 36.2267 0
      vertex 62.566 36.238 0
    endloop
  endfacet
  facet normal 0.409426 -0.912343 0
    outer loop
      vertex 62.566 36.238 0
      vertex 62.5943 36.2507 2
      vertex 62.566 36.238 2
    endloop
  endfacet
  facet normal 0.409426 -0.912343 0
    outer loop
      vertex 62.5943 36.2507 2
      vertex 62.566 36.238 0
      vertex 62.5943 36.2507 0
    endloop
  endfacet
  facet normal 0.451104 -0.892472 0
    outer loop
      vertex 62.5943 36.2507 0
      vertex 62.6218 36.2646 2
      vertex 62.5943 36.2507 2
    endloop
  endfacet
  facet normal 0.451104 -0.892472 0
    outer loop
      vertex 62.6218 36.2646 2
      vertex 62.5943 36.2507 0
      vertex 62.6218 36.2646 0
    endloop
  endfacet
  facet normal 0.484808 -0.87462 0
    outer loop
      vertex 62.6218 36.2646 0
      vertex 62.6485 36.2794 2
      vertex 62.6218 36.2646 2
    endloop
  endfacet
  facet normal 0.484808 -0.87462 0
    outer loop
      vertex 62.6485 36.2794 2
      vertex 62.6218 36.2646 0
      vertex 62.6485 36.2794 0
    endloop
  endfacet
  facet normal 0.524097 -0.851658 0
    outer loop
      vertex 62.6485 36.2794 0
      vertex 62.6745 36.2954 2
      vertex 62.6485 36.2794 2
    endloop
  endfacet
  facet normal 0.524097 -0.851658 0
    outer loop
      vertex 62.6745 36.2954 2
      vertex 62.6485 36.2794 0
      vertex 62.6745 36.2954 0
    endloop
  endfacet
  facet normal 0.557725 -0.830026 0
    outer loop
      vertex 62.6745 36.2954 0
      vertex 62.6998 36.3124 2
      vertex 62.6745 36.2954 2
    endloop
  endfacet
  facet normal 0.557725 -0.830026 0
    outer loop
      vertex 62.6998 36.3124 2
      vertex 62.6745 36.2954 0
      vertex 62.6998 36.3124 0
    endloop
  endfacet
  facet normal 0.593649 -0.804724 0
    outer loop
      vertex 62.6998 36.3124 0
      vertex 62.7242 36.3304 2
      vertex 62.6998 36.3124 2
    endloop
  endfacet
  facet normal 0.593649 -0.804724 0
    outer loop
      vertex 62.7242 36.3304 2
      vertex 62.6998 36.3124 0
      vertex 62.7242 36.3304 0
    endloop
  endfacet
  facet normal 0.629481 -0.777016 0
    outer loop
      vertex 62.7242 36.3304 0
      vertex 62.7479 36.3496 2
      vertex 62.7242 36.3304 2
    endloop
  endfacet
  facet normal 0.629481 -0.777016 0
    outer loop
      vertex 62.7479 36.3496 2
      vertex 62.7242 36.3304 0
      vertex 62.7479 36.3496 0
    endloop
  endfacet
  facet normal 0.661513 -0.749933 0
    outer loop
      vertex 62.7479 36.3496 0
      vertex 62.7708 36.3698 2
      vertex 62.7479 36.3496 2
    endloop
  endfacet
  facet normal 0.661513 -0.749933 0
    outer loop
      vertex 62.7708 36.3698 2
      vertex 62.7479 36.3496 0
      vertex 62.7708 36.3698 0
    endloop
  endfacet
  facet normal 0.690631 -0.723208 0
    outer loop
      vertex 62.7708 36.3698 0
      vertex 62.793 36.391 2
      vertex 62.7708 36.3698 2
    endloop
  endfacet
  facet normal 0.690631 -0.723208 0
    outer loop
      vertex 62.793 36.391 2
      vertex 62.7708 36.3698 0
      vertex 62.793 36.391 0
    endloop
  endfacet
  facet normal 0.721648 -0.69226 0
    outer loop
      vertex 62.793 36.391 2
      vertex 62.8142 36.4131 0
      vertex 62.8142 36.4131 2
    endloop
  endfacet
  facet normal 0.721648 -0.69226 0
    outer loop
      vertex 62.8142 36.4131 0
      vertex 62.793 36.391 2
      vertex 62.793 36.391 0
    endloop
  endfacet
  facet normal 0.748495 -0.66314 0
    outer loop
      vertex 62.8142 36.4131 2
      vertex 62.8344 36.4359 0
      vertex 62.8344 36.4359 2
    endloop
  endfacet
  facet normal 0.748495 -0.66314 0
    outer loop
      vertex 62.8344 36.4359 0
      vertex 62.8142 36.4131 2
      vertex 62.8142 36.4131 0
    endloop
  endfacet
  facet normal 0.776317 -0.630343 0
    outer loop
      vertex 62.8344 36.4359 2
      vertex 62.8534 36.4593 0
      vertex 62.8534 36.4593 2
    endloop
  endfacet
  facet normal 0.776317 -0.630343 0
    outer loop
      vertex 62.8534 36.4593 0
      vertex 62.8344 36.4359 2
      vertex 62.8344 36.4359 0
    endloop
  endfacet
  facet normal 0.801195 -0.598403 0
    outer loop
      vertex 62.8534 36.4593 2
      vertex 62.8714 36.4834 0
      vertex 62.8714 36.4834 2
    endloop
  endfacet
  facet normal 0.801195 -0.598403 0
    outer loop
      vertex 62.8714 36.4834 0
      vertex 62.8534 36.4593 2
      vertex 62.8534 36.4593 0
    endloop
  endfacet
  facet normal 0.826368 -0.56313 0
    outer loop
      vertex 62.8714 36.4834 2
      vertex 62.8883 36.5082 0
      vertex 62.8883 36.5082 2
    endloop
  endfacet
  facet normal 0.826368 -0.56313 0
    outer loop
      vertex 62.8883 36.5082 0
      vertex 62.8714 36.4834 2
      vertex 62.8714 36.4834 0
    endloop
  endfacet
  facet normal 0.850052 -0.526699 0
    outer loop
      vertex 62.8883 36.5082 2
      vertex 62.9041 36.5337 0
      vertex 62.9041 36.5337 2
    endloop
  endfacet
  facet normal 0.850052 -0.526699 0
    outer loop
      vertex 62.9041 36.5337 0
      vertex 62.8883 36.5082 2
      vertex 62.8883 36.5082 0
    endloop
  endfacet
  facet normal 0.871308 -0.490737 0
    outer loop
      vertex 62.9041 36.5337 2
      vertex 62.9188 36.5598 0
      vertex 62.9188 36.5598 2
    endloop
  endfacet
  facet normal 0.871308 -0.490737 0
    outer loop
      vertex 62.9188 36.5598 0
      vertex 62.9041 36.5337 2
      vertex 62.9041 36.5337 0
    endloop
  endfacet
  facet normal 0.891065 -0.453876 0
    outer loop
      vertex 62.9188 36.5598 2
      vertex 62.9324 36.5865 0
      vertex 62.9324 36.5865 2
    endloop
  endfacet
  facet normal 0.891065 -0.453876 0
    outer loop
      vertex 62.9324 36.5865 0
      vertex 62.9188 36.5598 2
      vertex 62.9188 36.5598 0
    endloop
  endfacet
  facet normal 0.909117 -0.416541 0
    outer loop
      vertex 62.9324 36.5865 2
      vertex 62.945 36.614 0
      vertex 62.945 36.614 2
    endloop
  endfacet
  facet normal 0.909117 -0.416541 0
    outer loop
      vertex 62.945 36.614 0
      vertex 62.9324 36.5865 2
      vertex 62.9324 36.5865 0
    endloop
  endfacet
  facet normal 0.925965 -0.37761 0
    outer loop
      vertex 62.945 36.614 2
      vertex 62.9565 36.6422 0
      vertex 62.9565 36.6422 2
    endloop
  endfacet
  facet normal 0.925965 -0.37761 0
    outer loop
      vertex 62.9565 36.6422 0
      vertex 62.945 36.614 2
      vertex 62.945 36.614 0
    endloop
  endfacet
  facet normal 0.941891 -0.335919 0
    outer loop
      vertex 62.9565 36.6422 2
      vertex 62.9667 36.6708 0
      vertex 62.9667 36.6708 2
    endloop
  endfacet
  facet normal 0.941891 -0.335919 0
    outer loop
      vertex 62.9667 36.6708 0
      vertex 62.9565 36.6422 2
      vertex 62.9565 36.6422 0
    endloop
  endfacet
  facet normal 0.956275 -0.292469 0
    outer loop
      vertex 62.9667 36.6708 2
      vertex 62.9756 36.6999 0
      vertex 62.9756 36.6999 2
    endloop
  endfacet
  facet normal 0.956275 -0.292469 0
    outer loop
      vertex 62.9756 36.6999 0
      vertex 62.9667 36.6708 2
      vertex 62.9667 36.6708 0
    endloop
  endfacet
  facet normal 0.969949 -0.243309 0
    outer loop
      vertex 62.9756 36.6999 2
      vertex 62.983 36.7294 0
      vertex 62.983 36.7294 2
    endloop
  endfacet
  facet normal 0.969949 -0.243309 0
    outer loop
      vertex 62.983 36.7294 0
      vertex 62.9756 36.6999 2
      vertex 62.9756 36.6999 0
    endloop
  endfacet
  facet normal 0.979686 -0.20054 0
    outer loop
      vertex 62.983 36.7294 2
      vertex 62.9891 36.7592 0
      vertex 62.9891 36.7592 2
    endloop
  endfacet
  facet normal 0.979686 -0.20054 0
    outer loop
      vertex 62.9891 36.7592 0
      vertex 62.983 36.7294 2
      vertex 62.983 36.7294 0
    endloop
  endfacet
  facet normal 0.987763 -0.155963 0
    outer loop
      vertex 62.9891 36.7592 2
      vertex 62.9939 36.7896 0
      vertex 62.9939 36.7896 2
    endloop
  endfacet
  facet normal 0.987763 -0.155963 0
    outer loop
      vertex 62.9939 36.7896 0
      vertex 62.9891 36.7592 2
      vertex 62.9891 36.7592 0
    endloop
  endfacet
  facet normal 0.993923 -0.110076 0
    outer loop
      vertex 62.9939 36.7896 2
      vertex 62.9973 36.8203 0
      vertex 62.9973 36.8203 2
    endloop
  endfacet
  facet normal 0.993923 -0.110076 0
    outer loop
      vertex 62.9973 36.8203 0
      vertex 62.9939 36.7896 2
      vertex 62.9939 36.7896 0
    endloop
  endfacet
  facet normal 0.997939 -0.0641761 0
    outer loop
      vertex 62.9973 36.8203 2
      vertex 62.9993 36.8514 0
      vertex 62.9993 36.8514 2
    endloop
  endfacet
  facet normal 0.997939 -0.0641761 0
    outer loop
      vertex 62.9993 36.8514 0
      vertex 62.9973 36.8203 2
      vertex 62.9973 36.8203 0
    endloop
  endfacet
  facet normal 0.999755 -0.0221465 0
    outer loop
      vertex 62.9993 36.8514 2
      vertex 63 36.883 0
      vertex 63 36.883 2
    endloop
  endfacet
  facet normal 0.999755 -0.0221465 0
    outer loop
      vertex 63 36.883 0
      vertex 62.9993 36.8514 2
      vertex 62.9993 36.8514 0
    endloop
  endfacet
  facet normal 0.999232 0.0391856 0
    outer loop
      vertex 63 36.883 2
      vertex 62.9974 36.9493 0
      vertex 62.9974 36.9493 2
    endloop
  endfacet
  facet normal 0.999232 0.0391856 0
    outer loop
      vertex 62.9974 36.9493 0
      vertex 63 36.883 2
      vertex 63 36.883 0
    endloop
  endfacet
  facet normal 0.992914 0.118837 0
    outer loop
      vertex 62.9974 36.9493 2
      vertex 62.9898 37.0128 0
      vertex 62.9898 37.0128 2
    endloop
  endfacet
  facet normal 0.992914 0.118837 0
    outer loop
      vertex 62.9898 37.0128 0
      vertex 62.9974 36.9493 2
      vertex 62.9974 36.9493 0
    endloop
  endfacet
  facet normal 0.978413 0.206661 0
    outer loop
      vertex 62.9898 37.0128 2
      vertex 62.977 37.0734 0
      vertex 62.977 37.0734 2
    endloop
  endfacet
  facet normal 0.978413 0.206661 0
    outer loop
      vertex 62.977 37.0734 0
      vertex 62.9898 37.0128 2
      vertex 62.9898 37.0128 0
    endloop
  endfacet
  facet normal 0.955241 0.295827 0
    outer loop
      vertex 62.977 37.0734 2
      vertex 62.9591 37.1312 0
      vertex 62.9591 37.1312 2
    endloop
  endfacet
  facet normal 0.955241 0.295827 0
    outer loop
      vertex 62.9591 37.1312 0
      vertex 62.977 37.0734 2
      vertex 62.977 37.0734 0
    endloop
  endfacet
  facet normal 0.92233 0.386404 0
    outer loop
      vertex 62.9591 37.1312 2
      vertex 62.9361 37.1861 0
      vertex 62.9361 37.1861 2
    endloop
  endfacet
  facet normal 0.92233 0.386404 0
    outer loop
      vertex 62.9361 37.1861 0
      vertex 62.9591 37.1312 2
      vertex 62.9591 37.1312 0
    endloop
  endfacet
  facet normal 0.879764 0.475411 0
    outer loop
      vertex 62.9361 37.1861 2
      vertex 62.908 37.2381 0
      vertex 62.908 37.2381 2
    endloop
  endfacet
  facet normal 0.879764 0.475411 0
    outer loop
      vertex 62.908 37.2381 0
      vertex 62.9361 37.1861 2
      vertex 62.9361 37.1861 0
    endloop
  endfacet
  facet normal 0.828927 0.559357 0
    outer loop
      vertex 62.908 37.2381 2
      vertex 62.8748 37.2873 0
      vertex 62.8748 37.2873 2
    endloop
  endfacet
  facet normal 0.828927 0.559357 0
    outer loop
      vertex 62.8748 37.2873 0
      vertex 62.908 37.2381 2
      vertex 62.908 37.2381 0
    endloop
  endfacet
  facet normal 0.769718 0.638384 0
    outer loop
      vertex 62.8748 37.2873 2
      vertex 62.8364 37.3336 0
      vertex 62.8364 37.3336 2
    endloop
  endfacet
  facet normal 0.769718 0.638384 0
    outer loop
      vertex 62.8364 37.3336 0
      vertex 62.8748 37.2873 2
      vertex 62.8748 37.2873 0
    endloop
  endfacet
  facet normal 0.707107 0.707107 0
    outer loop
      vertex 62.8364 37.3336 2
      vertex 62.793 37.377 0
      vertex 62.793 37.377 2
    endloop
  endfacet
  facet normal 0.707107 0.707107 0
    outer loop
      vertex 62.793 37.377 0
      vertex 62.8364 37.3336 2
      vertex 62.8364 37.3336 0
    endloop
  endfacet
  facet normal 0.646378 0.763017 -0
    outer loop
      vertex 62.793 37.377 0
      vertex 62.7459 37.4169 2
      vertex 62.793 37.377 2
    endloop
  endfacet
  facet normal 0.646378 0.763017 0
    outer loop
      vertex 62.7459 37.4169 2
      vertex 62.793 37.377 0
      vertex 62.7459 37.4169 0
    endloop
  endfacet
  facet normal 0.582647 0.812726 -0
    outer loop
      vertex 62.7459 37.4169 0
      vertex 62.6968 37.4521 2
      vertex 62.7459 37.4169 2
    endloop
  endfacet
  facet normal 0.582647 0.812726 0
    outer loop
      vertex 62.6968 37.4521 2
      vertex 62.7459 37.4169 0
      vertex 62.6968 37.4521 0
    endloop
  endfacet
  facet normal 0.510539 0.859855 -0
    outer loop
      vertex 62.6968 37.4521 0
      vertex 62.6456 37.4825 2
      vertex 62.6968 37.4521 2
    endloop
  endfacet
  facet normal 0.510539 0.859855 0
    outer loop
      vertex 62.6456 37.4825 2
      vertex 62.6968 37.4521 0
      vertex 62.6456 37.4825 0
    endloop
  endfacet
  facet normal 0.435032 0.900415 -0
    outer loop
      vertex 62.6456 37.4825 0
      vertex 62.5922 37.5083 2
      vertex 62.6456 37.4825 2
    endloop
  endfacet
  facet normal 0.435032 0.900415 0
    outer loop
      vertex 62.5922 37.5083 2
      vertex 62.6456 37.4825 0
      vertex 62.5922 37.5083 0
    endloop
  endfacet
  facet normal 0.357397 0.933953 -0
    outer loop
      vertex 62.5922 37.5083 0
      vertex 62.5368 37.5295 2
      vertex 62.5922 37.5083 2
    endloop
  endfacet
  facet normal 0.357397 0.933953 0
    outer loop
      vertex 62.5368 37.5295 2
      vertex 62.5922 37.5083 0
      vertex 62.5368 37.5295 0
    endloop
  endfacet
  facet normal 0.273839 0.961776 -0
    outer loop
      vertex 62.5368 37.5295 0
      vertex 62.4792 37.5459 2
      vertex 62.5368 37.5295 2
    endloop
  endfacet
  facet normal 0.273839 0.961776 0
    outer loop
      vertex 62.4792 37.5459 2
      vertex 62.5368 37.5295 0
      vertex 62.4792 37.5459 0
    endloop
  endfacet
  facet normal 0.192632 0.981271 -0
    outer loop
      vertex 62.4792 37.5459 0
      vertex 62.4196 37.5576 2
      vertex 62.4792 37.5459 2
    endloop
  endfacet
  facet normal 0.192632 0.981271 0
    outer loop
      vertex 62.4196 37.5576 2
      vertex 62.4792 37.5459 0
      vertex 62.4196 37.5576 0
    endloop
  endfacet
  facet normal 0.114136 0.993465 -0
    outer loop
      vertex 62.4196 37.5576 0
      vertex 62.3578 37.5647 2
      vertex 62.4196 37.5576 2
    endloop
  endfacet
  facet normal 0.114136 0.993465 0
    outer loop
      vertex 62.3578 37.5647 2
      vertex 62.4196 37.5576 0
      vertex 62.3578 37.5647 0
    endloop
  endfacet
  facet normal 0.0360268 0.999351 -0
    outer loop
      vertex 62.3578 37.5647 0
      vertex 62.294 37.567 2
      vertex 62.3578 37.5647 2
    endloop
  endfacet
  facet normal 0.0360268 0.999351 0
    outer loop
      vertex 62.294 37.567 2
      vertex 62.3578 37.5647 0
      vertex 62.294 37.567 0
    endloop
  endfacet
  facet normal 0 1 -0
    outer loop
      vertex 62.294 37.567 0
      vertex 58.443 37.567 2
      vertex 62.294 37.567 2
    endloop
  endfacet
  facet normal 0 1 0
    outer loop
      vertex 58.443 37.567 2
      vertex 62.294 37.567 0
      vertex 58.443 37.567 0
    endloop
  endfacet
  facet normal 0.844372 0.535757 0
    outer loop
      vertex 58.443 37.567 2
      vertex 55.405 42.355 0
      vertex 55.405 42.355 2
    endloop
  endfacet
  facet normal 0.844372 0.535757 0
    outer loop
      vertex 55.405 42.355 0
      vertex 58.443 37.567 2
      vertex 58.443 37.567 0
    endloop
  endfacet
  facet normal -0.073504 0.997295 0
    outer loop
      vertex 55.405 42.355 0
      vertex 54.306 42.274 2
      vertex 55.405 42.355 2
    endloop
  endfacet
  facet normal -0.073504 0.997295 0
    outer loop
      vertex 54.306 42.274 2
      vertex 55.405 42.355 0
      vertex 54.306 42.274 0
    endloop
  endfacet
  facet normal -0.958279 -0.285835 0
    outer loop
      vertex 55.71 37.567 0
      vertex 54.306 42.274 2
      vertex 54.306 42.274 0
    endloop
  endfacet
  facet normal -0.958279 -0.285835 0
    outer loop
      vertex 54.306 42.274 2
      vertex 55.71 37.567 0
      vertex 55.71 37.567 2
    endloop
  endfacet
  facet normal 0 1 -0
    outer loop
      vertex 55.71 37.567 0
      vertex 52.923 37.567 2
      vertex 55.71 37.567 2
    endloop
  endfacet
  facet normal 0 1 0
    outer loop
      vertex 52.923 37.567 2
      vertex 55.71 37.567 0
      vertex 52.923 37.567 0
    endloop
  endfacet
  facet normal 0.739428 0.673235 0
    outer loop
      vertex 52.923 37.567 2
      vertex 52.089 38.483 0
      vertex 52.089 38.483 2
    endloop
  endfacet
  facet normal 0.739428 0.673235 0
    outer loop
      vertex 52.089 38.483 0
      vertex 52.923 37.567 2
      vertex 52.923 37.567 0
    endloop
  endfacet
  facet normal 0 1 -0
    outer loop
      vertex 52.089 38.483 0
      vertex 50.99 38.483 2
      vertex 52.089 38.483 2
    endloop
  endfacet
  facet normal 0 1 0
    outer loop
      vertex 50.99 38.483 2
      vertex 52.089 38.483 0
      vertex 50.99 38.483 0
    endloop
  endfacet
  facet normal -0.916368 -0.400338 0
    outer loop
      vertex 51.689 36.883 0
      vertex 50.99 38.483 2
      vertex 50.99 38.483 0
    endloop
  endfacet
  facet normal -0.916368 -0.400338 0
    outer loop
      vertex 50.99 38.483 2
      vertex 51.689 36.883 0
      vertex 51.689 36.883 2
    endloop
  endfacet
  facet normal -0.919494 0.393105 0
    outer loop
      vertex 50.99 35.248 0
      vertex 51.689 36.883 2
      vertex 51.689 36.883 0
    endloop
  endfacet
  facet normal -0.919494 0.393105 0
    outer loop
      vertex 51.689 36.883 2
      vertex 50.99 35.248 0
      vertex 50.99 35.248 2
    endloop
  endfacet
  facet normal 0 -1 0
    outer loop
      vertex 50.99 35.248 0
      vertex 52.089 35.248 2
      vertex 50.99 35.248 2
    endloop
  endfacet
  facet normal 0 -1 -0
    outer loop
      vertex 52.089 35.248 2
      vertex 50.99 35.248 0
      vertex 52.089 35.248 0
    endloop
  endfacet
  facet normal 0.741479 -0.670976 0
    outer loop
      vertex 52.089 35.248 2
      vertex 52.936 36.184 0
      vertex 52.936 36.184 2
    endloop
  endfacet
  facet normal 0.741479 -0.670976 0
    outer loop
      vertex 52.936 36.184 0
      vertex 52.089 35.248 2
      vertex 52.089 35.248 0
    endloop
  endfacet
  facet normal 0 -1 0
    outer loop
      vertex 52.936 36.184 0
      vertex 55.723 36.184 2
      vertex 52.936 36.184 2
    endloop
  endfacet
  facet normal 0 -1 -0
    outer loop
      vertex 55.723 36.184 2
      vertex 52.936 36.184 0
      vertex 55.723 36.184 0
    endloop
  endfacet
  facet normal -0.958335 0.285646 0
    outer loop
      vertex 54.306 31.43 0
      vertex 55.723 36.184 2
      vertex 55.723 36.184 0
    endloop
  endfacet
  facet normal -0.958335 0.285646 0
    outer loop
      vertex 55.723 36.184 2
      vertex 54.306 31.43 0
      vertex 54.306 31.43 2
    endloop
  endfacet
  facet normal -0.073504 -0.997295 0
    outer loop
      vertex 54.306 31.43 0
      vertex 55.405 31.349 2
      vertex 54.306 31.43 2
    endloop
  endfacet
  facet normal -0.073504 -0.997295 -0
    outer loop
      vertex 55.405 31.349 2
      vertex 54.306 31.43 0
      vertex 55.405 31.349 0
    endloop
  endfacet
  facet normal 0.845148 -0.534532 0
    outer loop
      vertex 55.405 31.349 2
      vertex 58.463 36.184 0
      vertex 58.463 36.184 2
    endloop
  endfacet
  facet normal 0.845148 -0.534532 0
    outer loop
      vertex 58.463 36.184 0
      vertex 55.405 31.349 2
      vertex 55.405 31.349 0
    endloop
  endfacet
endsolid OpenSCAD_Model
