;FLAVOR:Marlin
;TIME:56
;Filament used: 0.0213395m
;Layer height: 0.1
;MINX:149.1
;MINY:156.1
;MINZ:0.3
;MAXX:180.9
;MAXY:173.897
;MAXZ:1.7
;POSTPROCESSED
;Generated with Cura_SteamEngine 4.6.1
M82 ;absolute extrusion mode
G21
G90
M82
M107 T0
M140 S48
M104 S210 T0
M190 S48
M109 S210 T0
G28
G92 E0
G1 Z15.0 F120
G0 E3 F200
G92 E0
G92 E0
G92 E0
G1 F1500 E-6.5
;LAYER_COUNT:8
;LAYER:0
M107
G1 F600 Z1.3
G0 F3600 X155.042 Y157.358 Z1.3
;TYPE:SKIRT
G1 F600 Z0.3
G1 F1500 E0
G1 F1800 X158.069 Y158.134 E0.1559
G1 X160.759 Y158.754 E0.29362
G1 X163.424 Y159.286 E0.4292
G1 X166.136 Y159.751 E0.56648
G1 X168.814 Y160.132 E0.70143
G1 X171.555 Y160.443 E0.83906
G1 X174.299 Y160.675 E0.97645
G1 X176.267 Y160.786 E1.07479
G1 X176.728 Y160.82 E1.09785
G1 X177.228 Y160.897 E1.12309
G1 X177.709 Y161.052 E1.1483
G1 X178.16 Y161.281 E1.17353
G1 X178.569 Y161.577 E1.19872
G1 X178.926 Y161.935 E1.22395
G1 X179.223 Y162.345 E1.2492
G1 X179.451 Y162.796 E1.27442
G1 X179.606 Y163.277 E1.29963
G1 X179.69 Y163.921 E1.33203
G1 X179.7 Y165.304 E1.40103
G1 X179.691 Y166.031 E1.4373
G1 X179.645 Y166.534 E1.4625
G1 X179.52 Y167.024 E1.48773
G1 X179.319 Y167.488 E1.51296
G1 X179.048 Y167.915 E1.53819
G1 X178.713 Y168.294 E1.56343
G1 X178.323 Y168.615 E1.58863
G1 X177.887 Y168.871 E1.61385
G1 X177.416 Y169.054 E1.63906
G1 X176.675 Y169.186 E1.67661
G1 X175.557 Y169.25 E1.73248
G1 X172.79 Y169.451 E1.87089
G1 X170.094 Y169.722 E2.00607
G1 X167.348 Y170.077 E2.14421
G1 X164.641 Y170.504 E2.28093
G1 X161.965 Y171.006 E2.41677
G1 X159.309 Y171.581 E2.55235
G1 X156.673 Y172.23 E2.68778
G1 X155.317 Y172.585 E2.75772
G1 X154.615 Y172.687 E2.79311
G1 X153.466 Y172.691 E2.85043
G1 X152.963 Y172.644 E2.87563
G1 X152.473 Y172.519 E2.90086
G1 X152.009 Y172.318 E2.92609
G1 X151.583 Y172.046 E2.95131
G1 X151.204 Y171.711 E2.97654
G1 X150.883 Y171.32 E3.00178
G1 X150.628 Y170.884 E3.02698
G1 X150.445 Y170.413 E3.05219
G1 X150.338 Y169.919 E3.07741
G1 X150.301 Y169.244 E3.11114
G1 X150.3 Y161.156 E3.51465
G1 X150.309 Y160.467 E3.54902
G1 X150.356 Y159.964 E3.57423
G1 X150.481 Y159.474 E3.59946
G1 X150.682 Y159.01 E3.62469
G1 X150.953 Y158.583 E3.64992
G1 X151.288 Y158.205 E3.67512
G1 X151.679 Y157.884 E3.70035
G1 X152.115 Y157.628 E3.72558
G1 X152.586 Y157.445 E3.75079
G1 X153.08 Y157.338 E3.77601
G1 X153.725 Y157.301 E3.80824
G1 X154.539 Y157.31 E3.84885
G1 X155.042 Y157.358 E3.87406
G0 F3600 X155.079 Y156.958
G1 F1800 X158.154 Y157.742 E4.03238
G1 X160.862 Y158.367 E4.17103
G1 X163.498 Y158.893 E4.30514
G1 X166.183 Y159.353 E4.44104
G1 X168.883 Y159.737 E4.5771
G1 X171.601 Y160.046 E4.71358
G1 X174.319 Y160.276 E4.84966
G1 X176.289 Y160.387 E4.9481
G1 X176.758 Y160.421 E4.97156
G1 X177.288 Y160.5 E4.9983
G1 X177.801 Y160.658 E5.02508
G1 X178.284 Y160.889 E5.05179
G1 X178.728 Y161.19 E5.07855
G1 X179.122 Y161.554 E5.10531
G1 X179.458 Y161.972 E5.13207
G1 X179.728 Y162.436 E5.15885
G1 X179.926 Y162.934 E5.18559
G1 X180.048 Y163.456 E5.21233
G1 X180.099 Y164.228 E5.25093
G1 X180.1 Y165.309 E5.30486
G1 X180.091 Y166.036 E5.34114
G1 X180.044 Y166.57 E5.36788
G1 X179.919 Y167.091 E5.39461
G1 X179.717 Y167.588 E5.42138
G1 X179.444 Y168.05 E5.44815
G1 X179.106 Y168.466 E5.47489
G1 X178.709 Y168.827 E5.50166
G1 X178.263 Y169.125 E5.52842
G1 X177.778 Y169.353 E5.55516
G1 X177.264 Y169.507 E5.58193
G1 X176.698 Y169.585 E5.61043
G1 X175.606 Y169.648 E5.665
G1 X172.822 Y169.849 E5.80426
G1 X170.114 Y170.122 E5.94005
G1 X167.425 Y170.47 E6.07532
G1 X164.712 Y170.898 E6.21235
G1 X162.052 Y171.396 E6.34736
G1 X159.419 Y171.967 E6.48178
G1 X156.762 Y172.621 E6.61829
G1 X155.419 Y172.972 E6.68754
G1 X154.629 Y173.087 E6.72737
G1 X153.461 Y173.091 E6.78564
G1 X152.927 Y173.044 E6.81239
G1 X152.405 Y172.918 E6.83918
G1 X151.909 Y172.716 E6.8659
G1 X151.447 Y172.442 E6.8927
G1 X151.032 Y172.103 E6.91943
G1 X150.671 Y171.706 E6.9462
G1 X150.374 Y171.26 E6.97293
G1 X150.146 Y170.775 E6.99967
G1 X149.992 Y170.261 E7.02644
G1 X149.91 Y169.588 E7.06027
G1 X149.9 Y161.151 E7.48119
G1 X149.909 Y160.462 E7.51557
G1 X149.956 Y159.928 E7.54231
G1 X150.082 Y159.406 E7.5691
G1 X150.284 Y158.91 E7.59582
G1 X150.557 Y158.448 E7.62259
G1 X150.896 Y158.033 E7.64933
G1 X151.293 Y157.672 E7.6761
G1 X151.739 Y157.374 E7.70286
G1 X152.224 Y157.146 E7.7296
G1 X152.738 Y156.992 E7.75637
G1 X153.404 Y156.911 E7.78984
G1 X153.871 Y156.9 E7.81314
G1 X154.544 Y156.91 E7.84672
G1 X155.079 Y156.958 E7.87352
G0 F3600 X155.114 Y156.559
G1 F1800 X155.497 Y156.638 E7.89303
G1 X158.273 Y157.359 E8.03612
G1 X160.933 Y157.972 E8.17231
G1 X163.566 Y158.498 E8.30626
G1 X166.275 Y158.963 E8.44339
G1 X168.913 Y159.338 E8.57633
G1 X171.644 Y159.647 E8.71345
G1 X174.341 Y159.876 E8.84848
G1 X176.311 Y159.987 E8.94692
G1 X176.787 Y160.022 E8.97074
G1 X177.347 Y160.104 E8.99897
G1 X177.889 Y160.263 E9.02715
G1 X178.403 Y160.498 E9.05535
G1 X178.88 Y160.802 E9.08357
G1 X179.308 Y161.171 E9.11176
G1 X179.68 Y161.597 E9.13998
G1 X179.989 Y162.07 E9.16816
G1 X180.227 Y162.583 E9.19638
G1 X180.391 Y163.124 E9.22458
G1 X180.489 Y163.898 E9.26351
G1 X180.5 Y165.314 E9.33415
G1 X180.491 Y166.041 E9.37043
G1 X180.444 Y166.604 E9.39861
G1 X180.318 Y167.155 E9.42681
G1 X180.116 Y167.683 E9.45501
G1 X179.841 Y168.177 E9.48322
G1 X179.499 Y168.627 E9.51142
G1 X179.097 Y169.025 E9.53964
G1 X178.644 Y169.362 E9.56781
G1 X178.147 Y169.632 E9.59603
G1 X177.617 Y169.829 E9.62424
G1 X177.065 Y169.95 E9.65243
G1 X175.635 Y170.047 E9.72394
G1 X172.855 Y170.248 E9.863
G1 X170.168 Y170.518 E9.99773
G1 X167.473 Y170.867 E10.1333
G1 X164.811 Y171.287 E10.26775
G1 X162.098 Y171.796 E10.40547
G1 X159.492 Y172.36 E10.53849
G1 X156.876 Y173.004 E10.6729
G1 X155.52 Y173.359 E10.74283
G1 X154.964 Y173.463 E10.77105
G1 X154.317 Y173.498 E10.80338
G1 X153.456 Y173.491 E10.84633
G1 X152.892 Y173.443 E10.87457
G1 X152.341 Y173.317 E10.90277
G1 X151.813 Y173.114 E10.93099
G1 X151.32 Y172.839 E10.95916
G1 X150.87 Y172.497 E10.98736
G1 X150.472 Y172.094 E11.01561
G1 X150.136 Y171.64 E11.04379
G1 X149.866 Y171.143 E11.07201
G1 X149.67 Y170.613 E11.1002
G1 X149.55 Y170.061 E11.12839
G1 X149.501 Y169.266 E11.16812
G1 X149.5 Y161.146 E11.57323
G1 X149.509 Y160.457 E11.60761
G1 X149.557 Y159.893 E11.63585
G1 X149.683 Y159.342 E11.66405
G1 X149.886 Y158.815 E11.69222
G1 X150.161 Y158.321 E11.72043
G1 X150.503 Y157.871 E11.74863
G1 X150.905 Y157.473 E11.77685
G1 X151.359 Y157.136 E11.80506
G1 X151.856 Y156.867 E11.83325
G1 X152.386 Y156.67 E11.86146
G1 X152.938 Y156.55 E11.88965
G1 X153.702 Y156.502 E11.92784
G1 X154.55 Y156.51 E11.97015
G1 X155.114 Y156.559 E11.99839
G0 F3600 X155.147 Y156.159
G1 F1800 X155.597 Y156.251 E12.02131
G1 X158.35 Y156.966 E12.16321
G1 X161.029 Y157.584 E12.30038
G1 X163.647 Y158.107 E12.43357
G1 X166.327 Y158.566 E12.56922
G1 X168.978 Y158.943 E12.70281
G1 X171.686 Y159.25 E12.83878
G1 X174.362 Y159.477 E12.97277
G1 X176.334 Y159.588 E13.0713
G1 X176.817 Y159.623 E13.09546
G1 X177.404 Y159.707 E13.12505
G1 X177.974 Y159.869 E13.15461
G1 X178.518 Y160.106 E13.18422
G1 X179.025 Y160.414 E13.21381
G1 X179.485 Y160.787 E13.24336
G1 X179.892 Y161.219 E13.27297
G1 X180.236 Y161.701 E13.30251
G1 X180.513 Y162.226 E13.33213
G1 X180.716 Y162.783 E13.3617
G1 X180.843 Y163.362 E13.39128
G1 X180.889 Y163.887 E13.41757
G1 X180.9 Y165.318 E13.48896
G1 X180.891 Y166.045 E13.52524
G1 X180.843 Y166.637 E13.55487
G1 X180.717 Y167.216 E13.58443
G1 X180.514 Y167.773 E13.61401
G1 X180.238 Y168.298 E13.6436
G1 X179.894 Y168.781 E13.67318
G1 X179.488 Y169.213 E13.70276
G1 X179.027 Y169.586 E13.73235
G1 X178.521 Y169.895 E13.76193
G1 X177.978 Y170.132 E13.79148
G1 X177.407 Y170.295 E13.82111
G1 X176.744 Y170.384 E13.85448
G1 X175.642 Y170.448 E13.90955
G1 X172.891 Y170.646 E14.04716
G1 X170.227 Y170.914 E14.18074
G1 X167.51 Y171.266 E14.31742
G1 X164.875 Y171.682 E14.45051
G1 X162.191 Y172.185 E14.58675
G1 X159.602 Y172.746 E14.71891
G1 X156.945 Y173.399 E14.85541
G1 X155.621 Y173.746 E14.9237
G1 X155.039 Y173.857 E14.95326
G1 X154.331 Y173.897 E14.98864
G1 X153.45 Y173.891 E15.03259
G1 X152.859 Y173.843 E15.06217
G1 X152.28 Y173.716 E15.09175
G1 X151.723 Y173.512 E15.12134
G1 X151.199 Y173.236 E15.15089
G1 X150.716 Y172.891 E15.1805
G1 X150.284 Y172.485 E15.21008
G1 X149.911 Y172.024 E15.23966
G1 X149.603 Y171.517 E15.26926
G1 X149.366 Y170.973 E15.29886
G1 X149.205 Y170.403 E15.32841
G1 X149.111 Y169.61 E15.36825
G1 X149.1 Y161.141 E15.79077
G1 X149.109 Y160.452 E15.82515
G1 X149.157 Y159.86 E15.85478
G1 X149.284 Y159.281 E15.88435
G1 X149.487 Y158.724 E15.91393
G1 X149.764 Y158.2 E15.9435
G1 X150.108 Y157.717 E15.97309
G1 X150.514 Y157.285 E16.00266
G1 X150.975 Y156.912 E16.03225
G1 X151.482 Y156.604 E16.06184
G1 X152.025 Y156.367 E16.0914
G1 X152.596 Y156.205 E16.12101
G1 X153.381 Y156.111 E16.16046
G1 X153.883 Y156.1 E16.18551
G1 X154.556 Y156.11 E16.21909
G1 X155.147 Y156.159 E16.24867
G1 F1500 E9.74867
G1 F600 Z1.3
;MESH:Houder.stl
G0 F3600 X153.7 Y160.7 Z1.3
;TYPE:WALL-OUTER
G1 F600 Z0.3
G1 F1500 E16.24867
G1 F1800 X154.3 Y160.7 E16.27861
G1 X154.3 Y162.3 E16.35843
G1 X153.7 Y162.3 E16.38837
G1 X153.7 Y160.7 E16.46819
G0 F3600 X153.9 Y160.7
G0 X153.9 Y160.8
G0 X154.276 Y161.762
G0 X159.148 Y162.97
G0 X159.148 Y167.04
G0 X154.276 Y168.248
G0 X153.7 Y167.7
G1 F1800 X154.3 Y167.7 E16.49812
G1 X154.3 Y169.3 E16.57795
G1 X153.7 Y169.3 E16.60788
G1 X153.7 Y167.7 E16.68771
G0 F3600 X153.9 Y167.7
G0 X153.9 Y167.8
G0 X159.359 Y166.99
G0 X159.383 Y167.087
G1 F1800 X159.117 Y167.154 E16.70139
G1 X159.117 Y167.087
G1 X159.117 Y162.923 E16.90914
G1 X159.117 Y162.857 E16.91243
G1 X159.383 Y162.923 E16.92117
G1 X159.383 Y167.087 E17.05932
G0 F3600 X159.189 Y167.135
G0 X159.166 Y167.039
G0 X164.867 Y165.7
G0 X164.867 Y165.789
G1 F1800 X164.867 Y164.222 E17.1375
G1 X164.779 Y164.2 E17.14202
G1 X164.867 Y164.2 E17.14212
G1 X165.466 Y164.2 E17.172
G1 X165.466 Y165.8 E17.25183
G1 X164.867 Y165.8 E17.28171
G1 X164.823 Y165.8 E17.28391
G1 X164.867 Y165.789 E17.28399
G0 F3600 X164.867 Y165.589
G0 X164.889 Y165.681
G0 X170.617 Y165.7
G0 X170.617 Y165.8
G1 F1800 X170.617 Y164.2 E17.36381
G1 X170.883 Y164.2 E17.37708
G1 X170.883 Y165.8 E17.43017
G1 X170.617 Y165.8 E17.44344
G0 F3600 X170.617 Y165.6
G0 X170.717 Y165.6
G0 X175.701 Y165.7
G0 X175.701 Y165.8
G1 F1800 X175.701 Y164.2 E17.52326
G1 X176.3 Y164.2 E17.55315
G1 X176.3 Y165.8 E17.63297
G1 X175.701 Y165.8 E17.66286
G0 F3600 X175.701 Y165.6
G0 X175.982 Y165.517
;TYPE:SKIN
G1 F1800 X175.999 Y165.251 E17.67059
G1 X176.047 Y164.451 E17.69386
G0 F3600 X176.104 Y164.507
G0 X165.438 Y164.305
G0 X165.165 Y164.599
G1 F1800 X165.165 Y164.882 E17.70318
G1 X165.165 Y165.448 E17.72182
G0 F3600 X165.27 Y165.553
G0 X154.276 Y168.248
G0 X154.069 Y167.929
G1 F1800 X153.999 Y168.141 E17.72842
G1 X153.999 Y168.99 E17.75354
G0 F3600 X154.104 Y169.095
G0 X154.276 Y168.248
G0 X159.148 Y167.04
G0 X159.148 Y162.97
G0 X154.276 Y161.762
G0 X153.999 Y161.919
G1 F1800 X153.999 Y161.636 E17.76406
G1 X153.999 Y161.07 E17.7851
M104 S210
G0 F3600 X153.9 Y160.965
;MESH:NONMESH
G0 F600 X153.9 Y160.965 Z0.4
G0 F3600 X153.7 Y160.7
;TIME_ELAPSED:19.811868
;LAYER:1
M140 S48
M106 S255
;TYPE:WALL-OUTER
;MESH:Houder.stl
G1 F600 X154.3 Y160.7 E17.79508
G1 X154.3 Y162.3 E17.82168
G1 X153.7 Y162.3 E17.83166
G1 X153.7 Y160.7 E17.85827
G0 F5400 X153.9 Y160.7
G0 X153.9 Y160.8
G0 X154.276 Y161.762
G0 X159.148 Y162.97
G0 X159.148 Y167.04
G0 X154.276 Y168.248
G0 X153.7 Y167.7
G1 F600 X154.3 Y167.7 E17.86825
G1 X154.3 Y169.3 E17.89486
G1 X153.7 Y169.3 E17.90483
G1 X153.7 Y167.7 E17.93144
G0 F5400 X153.9 Y167.7
G0 X153.9 Y167.8
G0 X159.359 Y166.99
G0 X159.383 Y167.087
G1 F600 X159.117 Y167.154 E17.936
G1 X159.117 Y167.087
G1 X159.117 Y162.923 E18.00525
G1 X159.117 Y162.857 E18.00635
G1 X159.383 Y162.923 E18.00926
G1 X159.383 Y167.087 E18.05531
G0 F5400 X159.189 Y167.135
G0 X159.166 Y167.039
G0 X164.867 Y165.7
G0 X164.867 Y165.789
G1 F600 X164.867 Y164.222 E18.08137
G1 X164.779 Y164.2 E18.08288
G1 X164.867 Y164.2 E18.08291
G1 X165.466 Y164.2 E18.09287
G1 X165.466 Y165.8 E18.11948
G1 X164.867 Y165.8 E18.12944
G1 X164.823 Y165.8 E18.13018
G1 X164.867 Y165.789 E18.1302
G0 F5400 X164.867 Y165.589
G0 X164.889 Y165.681
G0 X170.617 Y165.7
G0 X170.617 Y165.8
G1 F600 X170.617 Y164.2 E18.15681
G1 X170.883 Y164.2 E18.16123
G1 X170.883 Y165.8 E18.17893
G1 X170.617 Y165.8 E18.18335
G0 F5400 X170.617 Y165.6
G0 X170.717 Y165.6
G0 X175.701 Y165.7
G0 X175.701 Y165.8
G1 F600 X175.701 Y164.2 E18.20996
G1 X176.3 Y164.2 E18.21992
G1 X176.3 Y165.8 E18.24653
G1 X175.701 Y165.8 E18.25649
G0 F5400 X175.701 Y165.6
G0 X175.999 Y165.39
;TYPE:SKIN
G1 F600 X175.999 Y165.108 E18.25995
G1 X175.999 Y164.542 E18.26688
G0 F5400 X176.104 Y164.438
G0 X176.104 Y165.569
G1 F600 X176.068 Y165.605 E18.2673
G0 F5400 X165.438 Y165.695
G0 X165.166 Y165.476
G1 F600 X165.166 Y165.193 E18.2699
G1 X165.089 Y164.422 E18.27701
G0 F5400 X165.062 Y164.449
G0 X154.276 Y161.762
G0 X153.999 Y161.934
G1 F600 X153.999 Y161.652 E18.28012
G1 X153.999 Y161.086 E18.28635
G0 F5400 X154.104 Y160.982
G0 X159.148 Y162.97
G0 X159.148 Y167.04
G0 X154.276 Y168.248
G0 X153.937 Y167.937
G1 F600 X153.999 Y168.158 E18.28869
G1 X154.002 Y169.002 E18.29729
G0 F5400 X154.1 Y168.9
;MESH:NONMESH
G0 F600 X154.1 Y168.9 Z0.5
G0 F5400 X159.148 Y167.04
G0 X159.148 Y162.97
G0 X154.276 Y161.762
G0 X153.77 Y160.77
G0 X153.7 Y160.7
;TIME_ELAPSED:24.791376
;LAYER:2
;TYPE:WALL-OUTER
;MESH:Houder.stl
G1 F600 X154.3 Y160.7 E18.30727
G1 X154.3 Y162.3 E18.33388
G1 X153.7 Y162.3 E18.34386
G1 X153.7 Y160.7 E18.37047
G0 F7200 X153.9 Y160.7
G0 X153.9 Y160.8
G0 X154.276 Y161.762
G0 X159.148 Y162.97
G0 X159.148 Y167.04
G0 X154.276 Y168.248
G0 X153.7 Y167.7
G1 F600 X154.3 Y167.7 E18.38045
G1 X154.3 Y169.3 E18.40705
G1 X153.7 Y169.3 E18.41703
G1 X153.7 Y167.7 E18.44364
G0 F7200 X153.9 Y167.7
G0 X153.9 Y167.8
G0 X159.359 Y166.99
G0 X159.383 Y167.087
G1 F600 X159.117 Y167.154 E18.4482
G1 X159.117 Y167.087
G1 X159.117 Y162.923 E18.51745
G1 X159.117 Y162.857 E18.51855
G1 X159.383 Y162.923 E18.52146
G1 X159.383 Y167.087 E18.56751
G0 F7200 X159.189 Y167.135
G0 X159.166 Y167.039
G0 X164.867 Y165.7
G0 X164.867 Y165.789
G1 F600 X164.867 Y164.222 E18.59357
G1 X164.779 Y164.2 E18.59508
G1 X164.867 Y164.2 E18.59511
G1 X165.466 Y164.2 E18.60507
G1 X165.466 Y165.8 E18.63168
G1 X164.867 Y165.8 E18.64164
G1 X164.823 Y165.8 E18.64237
G1 X164.867 Y165.789 E18.6424
G0 F7200 X164.867 Y165.589
G0 X164.889 Y165.681
G0 X170.617 Y165.7
G0 X170.617 Y165.8
G1 F600 X170.617 Y164.2 E18.66901
G1 X170.883 Y164.2 E18.67343
G1 X170.883 Y165.8 E18.69113
G1 X170.617 Y165.8 E18.69555
G0 F7200 X170.617 Y165.6
G0 X170.717 Y165.6
G0 X175.702 Y165.73
G0 X175.772 Y165.8
G1 F600 X175.701 Y165.8 E18.69673
G1 X175.701 Y165.599 E18.69979
G1 X175.701 Y164.2 E18.72305
G1 X175.772 Y164.2 E18.72423
G1 X175.773 Y165.599 E18.72839
G1 X175.772 Y165.8 E18.72899
G0 F7200 X175.701 Y165.8
G0 X175.701 Y165.671
G0 X175.771 Y165.737
G0 X165.438 Y165.695
G0 X165.165 Y165.448
;TYPE:SKIN
G1 F600 X165.165 Y165.165 E18.73246
G1 X165.165 Y164.599 E18.7394
G0 F7200 X165.061 Y164.495
G0 X154.276 Y161.762
G0 X153.999 Y161.919
G1 F600 X153.999 Y161.636 E18.74291
G1 X153.999 Y161.07 E18.74992
G0 F7200 X153.894 Y160.965
G0 X154.276 Y161.762
G0 X159.148 Y162.97
G0 X159.148 Y167.04
G0 X154.276 Y168.248
G0 X154.069 Y167.929
G1 F600 X153.999 Y168.141 E18.75216
G1 X153.999 Y168.99 E18.7607
G0 F7200 X154.1 Y169.095
G1 F1500 E12.2607
G1 F600 Z1.5
G0 F7200 X154.1 Y169.095 Z1.5
G0 X176.228 Y165.8
;TYPE:WALL-OUTER
G1 F600 Z0.5
G1 F1500 E18.7607
G1 F600 X176.222 Y165.235 E18.77009
G1 X176.216 Y164.2 E18.78731
G1 X176.3 Y164.2 E18.7887
G1 X176.3 Y165.235 E18.79219
G1 X176.3 Y165.8 E18.79395
G1 X176.228 Y165.8 E18.79515
G0 F7200 X176.226 Y165.6
G1 F1500 E12.29515
G1 F600 Z1.5
;MESH:NONMESH
G0 F7200 X153.7 Y160.7 Z1.5
;TIME_ELAPSED:31.197284
;LAYER:3
;MESH:Houder.stl
G0 X153.7 Y160.7 Z1.6
;TYPE:WALL-OUTER
G1 F600 Z0.6
G1 F1500 E18.79515
G1 F600 X154.3 Y160.7 E18.80512
G1 X154.3 Y162.3 E18.83173
G1 X153.7 Y162.3 E18.84171
G1 X153.7 Y160.7 E18.86832
G0 F7200 X153.9 Y160.7
G0 X153.9 Y160.8
G0 X154.276 Y161.762
G0 X159.148 Y162.97
G0 X159.148 Y167.04
G0 X154.276 Y168.248
G0 X153.7 Y167.7
G1 F600 X154.3 Y167.7 E18.8783
G1 X154.3 Y169.3 E18.90491
G1 X153.7 Y169.3 E18.91488
G1 X153.7 Y167.7 E18.94149
G0 F7200 X153.9 Y167.7
G0 X153.9 Y167.8
G0 X159.359 Y166.99
G0 X159.383 Y167.087
G1 F600 X159.117 Y167.154 E18.94605
G1 X159.117 Y167.087
G1 X159.117 Y162.923 E19.0153
G1 X159.117 Y162.857 E19.0164
G1 X159.383 Y162.923 E19.01931
G1 X159.383 Y167.087 E19.06536
G0 F7200 X159.189 Y167.135
G0 X159.166 Y167.039
G0 X164.867 Y165.7
G0 X164.867 Y165.789
G1 F600 X164.867 Y164.222 E19.09142
G1 X164.779 Y164.2 E19.09293
G1 X164.867 Y164.2 E19.09296
G1 X165.466 Y164.2 E19.10292
G1 X165.466 Y165.8 E19.12953
G1 X164.867 Y165.8 E19.13949
G1 X164.823 Y165.8 E19.14023
G1 X164.867 Y165.789 E19.14025
G0 F7200 X164.867 Y165.589
G0 X164.889 Y165.681
G0 X170.617 Y165.7
G0 X170.617 Y165.8
G1 F600 X170.617 Y164.2 E19.16686
G1 X170.883 Y164.2 E19.17128
G1 X170.883 Y165.8 E19.18898
G1 X170.617 Y165.8 E19.1934
G0 F7200 X170.617 Y165.6
G0 X170.717 Y165.6
G0 X175.701 Y165.7
G0 X175.701 Y165.8
G1 F600 X175.701 Y164.2 E19.22001
G1 X175.772 Y164.2 E19.22119
G1 X175.773 Y165.8 E19.22591
G1 X175.701 Y165.8 E19.22711
G0 F7200 X175.701 Y165.6
G0 X175.801 Y165.6
G0 X165.438 Y165.695
G0 X165.166 Y165.476
;TYPE:SKIN
G1 F600 X165.166 Y165.193 E19.22971
G1 X165.089 Y164.422 E19.23682
G0 F7200 X165.062 Y164.449
G0 X154.276 Y161.762
G0 X153.999 Y161.934
G1 F600 X153.999 Y161.652 E19.23993
G1 X153.999 Y161.086 E19.24616
G0 F7200 X154.104 Y160.982
G0 X159.148 Y162.97
G0 X159.148 Y167.04
G0 X154.276 Y168.248
G0 X153.937 Y167.937
G1 F600 X153.999 Y168.158 E19.2485
G1 X154.002 Y169.002 E19.2571
G0 F7200 X154.1 Y168.9
G1 F1500 E12.7571
G1 F600 Z1.6
G0 F7200 X154.1 Y168.9 Z1.6
G0 X176.229 Y165.8
;TYPE:WALL-OUTER
G1 F600 Z0.6
G1 F1500 E19.2571
G1 F600 X176.229 Y164.2 E19.28371
G1 X176.3 Y164.2 E19.28489
G1 X176.3 Y165.8 E19.28962
G1 X176.229 Y165.8 E19.2908
G0 F7200 X176.229 Y165.6
G1 F1500 E12.7908
G1 F600 Z1.6
;MESH:NONMESH
G0 F7200 X153.7 Y160.7 Z1.6
;TIME_ELAPSED:37.863025
;LAYER:4
;MESH:Houder.stl
G0 X153.7 Y160.7 Z1.7
;TYPE:WALL-OUTER
G1 F600 Z0.7
G1 F1500 E19.2908
G1 F600 X154.3 Y160.7 E19.30077
G1 X154.3 Y162.3 E19.32738
G1 X153.7 Y162.3 E19.33736
G1 X153.7 Y160.7 E19.36397
G0 F7200 X153.9 Y160.7
G0 X153.9 Y160.8
G0 X154.276 Y161.762
G0 X159.148 Y162.97
G0 X159.148 Y167.04
G0 X154.276 Y168.248
G0 X153.7 Y167.7
G1 F600 X154.3 Y167.7 E19.37395
G1 X154.3 Y169.3 E19.40056
G1 X153.7 Y169.3 E19.41053
G1 X153.7 Y167.7 E19.43714
G0 F7200 X153.9 Y167.7
G0 X153.9 Y167.8
G0 X159.359 Y166.99
G0 X159.383 Y167.087
G1 F600 X159.117 Y167.154 E19.4417
G1 X159.117 Y167.087
G1 X159.117 Y162.923 E19.51095
G1 X159.117 Y162.857 E19.51205
G1 X159.383 Y162.923 E19.51496
G1 X159.383 Y167.087 E19.56101
G0 F7200 X159.189 Y167.135
G0 X159.166 Y167.039
G0 X164.867 Y165.7
G0 X164.867 Y165.789
G1 F600 X164.867 Y164.222 E19.58707
G1 X164.779 Y164.2 E19.58858
G1 X164.867 Y164.2 E19.58861
G1 X165.466 Y164.2 E19.59857
G1 X165.466 Y165.8 E19.62518
G1 X164.867 Y165.8 E19.63514
G1 X164.823 Y165.8 E19.63587
G1 X164.867 Y165.789 E19.6359
G0 F7200 X164.867 Y165.589
G0 X164.889 Y165.681
G0 X170.617 Y165.7
G0 X170.617 Y165.8
G1 F600 X170.617 Y164.2 E19.66251
G1 X170.883 Y164.2 E19.66693
G1 X170.883 Y165.8 E19.68463
G1 X170.617 Y165.8 E19.68905
G0 F7200 X170.617 Y165.6
G0 X170.717 Y165.6
G0 X175.701 Y165.7
G0 X175.701 Y165.8
G1 F600 X175.701 Y164.2 E19.71566
G1 X176.3 Y164.2 E19.72562
G1 X176.3 Y165.8 E19.75223
G1 X175.701 Y165.8 E19.76219
G0 F7200 X175.701 Y165.6
G0 X175.982 Y165.517
;TYPE:SKIN
G1 F600 X175.999 Y165.251 E19.76477
G1 X176.047 Y164.451 E19.77253
G0 F7200 X176.104 Y164.507
G0 X165.438 Y164.305
G0 X165.165 Y164.599
G1 F600 X165.165 Y164.882 E19.77563
G1 X165.165 Y165.448 E19.78184
G0 F7200 X165.27 Y165.553
G0 X154.276 Y168.248
G0 X154.069 Y167.929
G1 F600 X153.999 Y168.141 E19.78405
G1 X153.999 Y168.99 E19.79242
G0 F7200 X154.104 Y169.095
G0 X154.276 Y168.248
G0 X159.148 Y167.04
G0 X159.148 Y162.97
G0 X154.276 Y161.762
G0 X153.999 Y161.919
G1 F600 X153.999 Y161.636 E19.79592
G1 X153.999 Y161.07 E19.80294
G0 F7200 X153.9 Y160.965
;MESH:NONMESH
G0 F600 X153.9 Y160.965 Z0.8
G0 F7200 X153.7 Y160.7
;TIME_ELAPSED:42.762878
;LAYER:5
;TYPE:WALL-OUTER
;MESH:Houder.stl
G1 F600 X154.3 Y160.7 E19.81292
G1 X154.3 Y162.3 E19.83952
G1 X153.7 Y162.3 E19.8495
G1 X153.7 Y160.7 E19.87611
G0 F7200 X153.9 Y160.7
G0 X153.9 Y160.8
G0 X154.276 Y161.762
G0 X159.148 Y162.97
G0 X159.148 Y167.04
G0 X154.276 Y168.248
G0 X153.7 Y167.7
G1 F600 X154.3 Y167.7 E19.88609
G1 X154.3 Y169.3 E19.9127
G1 X153.7 Y169.3 E19.92267
G1 X153.7 Y167.7 E19.94928
G0 F7200 X153.9 Y167.7
G0 X153.9 Y167.8
G0 X159.359 Y166.99
G0 X159.383 Y167.087
G1 F600 X159.117 Y167.154 E19.95384
G1 X159.117 Y167.087
G1 X159.117 Y162.923 E20.02309
G1 X159.117 Y162.857 E20.02419
G1 X159.383 Y162.923 E20.0271
G1 X159.383 Y167.087 E20.07315
G0 F7200 X159.189 Y167.135
G0 X159.166 Y167.039
G0 X164.867 Y165.7
G0 X164.867 Y165.789
G1 F600 X164.867 Y164.222 E20.09921
G1 X164.779 Y164.2 E20.10072
G1 X164.867 Y164.2 E20.10075
G1 X165.466 Y164.2 E20.11071
G1 X165.466 Y165.8 E20.13732
G1 X164.867 Y165.8 E20.14728
G1 X164.823 Y165.8 E20.14802
G1 X164.867 Y165.789 E20.14804
G0 F7200 X164.867 Y165.589
G0 X164.889 Y165.681
G0 X170.617 Y165.7
G0 X170.617 Y165.8
G1 F600 X170.617 Y164.2 E20.17465
G1 X170.883 Y164.2 E20.17907
G1 X170.883 Y165.8 E20.19677
G1 X170.617 Y165.8 E20.20119
G0 F7200 X170.617 Y165.6
G0 X170.717 Y165.6
G0 X175.701 Y165.7
G0 X175.701 Y165.8
G1 F600 X175.701 Y164.2 E20.2278
G1 X176.3 Y164.2 E20.23776
G1 X176.3 Y165.8 E20.26437
G1 X175.701 Y165.8 E20.27433
G0 F7200 X175.701 Y165.6
G0 X175.999 Y165.39
;TYPE:SKIN
G1 F600 X175.999 Y165.108 E20.27779
G1 X175.999 Y164.542 E20.28472
G0 F7200 X176.104 Y164.438
G0 X176.104 Y165.569
G1 F600 X176.068 Y165.605 E20.28514
G0 F7200 X165.438 Y165.695
G0 X165.166 Y165.476
G1 F600 X165.166 Y165.193 E20.28774
G1 X165.089 Y164.422 E20.29485
G0 F7200 X165.062 Y164.449
G0 X154.276 Y161.762
G0 X153.999 Y161.934
G1 F600 X153.999 Y161.652 E20.29796
G1 X153.999 Y161.086 E20.30419
G0 F7200 X154.104 Y160.982
G0 X159.148 Y162.97
G0 X159.148 Y167.04
G0 X154.276 Y168.248
G0 X153.937 Y167.937
G1 F600 X153.999 Y168.158 E20.30653
G1 X154.002 Y169.002 E20.31514
G0 F7200 X154.1 Y168.9
;MESH:NONMESH
G0 F600 X154.1 Y168.9 Z0.9
G0 F7200 X159.148 Y167.04
G0 X159.148 Y162.97
G0 X154.276 Y161.762
G0 X153.77 Y160.77
G0 X153.7 Y160.7
;TIME_ELAPSED:47.611527
;LAYER:6
;TYPE:WALL-OUTER
;MESH:Houder.stl
G1 F600 X154.3 Y160.7 E20.32511
G1 X154.3 Y162.3 E20.35172
G1 X153.7 Y162.3 E20.3617
G1 X153.7 Y160.7 E20.38831
G0 F7200 X153.9 Y160.7
G0 X153.9 Y160.8
G0 X154.276 Y161.762
G0 X159.148 Y162.97
G0 X159.148 Y167.04
G0 X154.276 Y168.248
G0 X153.7 Y167.7
G1 F600 X154.3 Y167.7 E20.39829
G1 X154.3 Y169.3 E20.42489
G1 X153.7 Y169.3 E20.43487
G1 X153.7 Y167.7 E20.46148
G0 F7200 X153.9 Y167.7
G0 X153.9 Y167.8
G0 X159.359 Y166.99
G0 X159.383 Y167.087
G1 F600 X159.117 Y167.154 E20.46604
G1 X159.117 Y167.087
G1 X159.117 Y162.923 E20.53529
G1 X159.117 Y162.857 E20.53639
G1 X159.383 Y162.923 E20.5393
G1 X159.383 Y167.087 E20.58535
G0 F7200 X159.189 Y167.135
G0 X159.166 Y167.039
G0 X164.867 Y165.7
G0 X164.867 Y165.789
G1 F600 X164.867 Y164.222 E20.61141
G1 X164.779 Y164.2 E20.61292
G1 X164.867 Y164.2 E20.61295
G1 X165.466 Y164.2 E20.62291
G1 X165.466 Y165.8 E20.64952
G1 X164.867 Y165.8 E20.65948
G1 X164.823 Y165.8 E20.66021
G1 X164.867 Y165.789 E20.66024
G0 F7200 X164.867 Y165.589
G0 X164.889 Y165.681
G0 X170.617 Y165.7
G0 X170.617 Y165.8
G1 F600 X170.617 Y164.2 E20.68685
G1 X170.883 Y164.2 E20.69127
G1 X170.883 Y165.8 E20.70897
G1 X170.617 Y165.8 E20.71339
G0 F7200 X170.617 Y165.6
G0 X170.717 Y165.6
G0 X175.701 Y165.7
G0 X175.701 Y165.8
G1 F600 X175.701 Y164.2 E20.74
G1 X176.3 Y164.2 E20.74996
G1 X176.3 Y165.8 E20.77657
G1 X175.701 Y165.8 E20.78653
G0 F7200 X175.701 Y165.6
G0 X175.982 Y165.517
;TYPE:SKIN
G1 F600 X175.999 Y165.251 E20.78911
G1 X176.047 Y164.451 E20.79686
G0 F7200 X176.104 Y164.507
G0 X165.438 Y164.305
G0 X165.165 Y164.599
G1 F600 X165.165 Y164.882 E20.79997
G1 X165.165 Y165.448 E20.80618
G0 F7200 X165.27 Y165.553
G0 X154.276 Y168.248
G0 X154.069 Y167.929
G1 F600 X153.999 Y168.141 E20.80838
G1 X153.999 Y168.99 E20.81676
G0 F7200 X154.104 Y169.095
G0 X154.276 Y168.248
G0 X159.148 Y167.04
G0 X159.148 Y162.97
G0 X154.276 Y161.762
G0 X153.999 Y161.919
G1 F600 X153.999 Y161.636 E20.82026
G1 X153.999 Y161.07 E20.82728
G0 F7200 X153.9 Y160.965
;MESH:NONMESH
G0 F600 X153.9 Y160.965 Z1
G0 F7200 X153.7 Y160.7
;TIME_ELAPSED:52.251818
;LAYER:7
;TYPE:WALL-OUTER
;MESH:Houder.stl
G1 F600 X154.3 Y160.7 E20.83725
G1 X154.3 Y162.3 E20.86386
G1 X153.7 Y162.3 E20.87384
G1 X153.7 Y160.7 E20.90045
G0 F7200 X153.9 Y160.7
G0 X153.9 Y160.8
G0 X154.276 Y161.762
G0 X159.148 Y162.97
G0 X159.148 Y167.04
G0 X154.276 Y168.248
G0 X153.7 Y167.7
G1 F600 X154.3 Y167.7 E20.91043
G1 X154.3 Y169.3 E20.93704
G1 X153.7 Y169.3 E20.94701
G1 X153.7 Y167.7 E20.97362
G0 F7200 X153.9 Y167.7
G0 X153.9 Y167.8
G0 X159.359 Y166.99
G0 X159.383 Y167.087
G1 F600 X159.117 Y167.154 E20.97818
G1 X159.117 Y167.087
G1 X159.117 Y162.923 E21.04743
G1 X159.117 Y162.857 E21.04853
G1 X159.383 Y162.923 E21.05144
G1 X159.383 Y167.087 E21.09749
G0 F7200 X159.189 Y167.135
G0 X159.166 Y167.039
G0 X164.867 Y165.7
G0 X164.867 Y165.789
G1 F600 X164.867 Y164.222 E21.12355
G1 X164.779 Y164.2 E21.12506
G1 X164.867 Y164.2 E21.12509
G1 X165.466 Y164.2 E21.13505
G1 X165.466 Y165.8 E21.16166
G1 X164.867 Y165.8 E21.17162
G1 X164.823 Y165.8 E21.17235
G1 X164.867 Y165.789 E21.17238
G0 F7200 X164.867 Y165.589
G0 X164.889 Y165.681
G0 X170.617 Y165.7
G0 X170.617 Y165.8
G1 F600 X170.617 Y164.2 E21.19899
G1 X170.883 Y164.2 E21.20341
G1 X170.883 Y165.8 E21.22111
G1 X170.617 Y165.8 E21.22553
G0 F7200 X170.617 Y165.6
G0 X170.717 Y165.6
G0 X175.701 Y165.7
G0 X175.701 Y165.8
G1 F600 X175.701 Y164.2 E21.25214
G1 X176.3 Y164.2 E21.2621
G1 X176.3 Y165.8 E21.28871
G1 X175.701 Y165.8 E21.29867
G0 F7200 X175.701 Y165.6
G0 X175.999 Y165.39
;TYPE:SKIN
G1 F600 X175.999 Y165.108 E21.30212
G1 X175.999 Y164.542 E21.30906
G0 F7200 X176.104 Y164.438
G0 X176.104 Y165.569
G1 F600 X176.068 Y165.605 E21.30948
G0 F7200 X165.438 Y165.695
G0 X165.166 Y165.476
G1 F600 X165.166 Y165.193 E21.31208
G1 X165.089 Y164.422 E21.31919
G0 F7200 X165.062 Y164.449
G0 X154.276 Y161.762
G0 X153.999 Y161.934
G1 F600 X153.999 Y161.652 E21.3223
G1 X153.999 Y161.086 E21.32853
G0 F7200 X154.104 Y160.982
G0 X159.148 Y162.97
G0 X159.148 Y167.04
G0 X154.276 Y168.248
G0 X153.937 Y167.937
G1 F600 X153.999 Y168.158 E21.33087
G1 X154.002 Y169.002 E21.33947
G0 F7200 X154.1 Y168.9
;TIME_ELAPSED:56.841454
G1 F1500 E14.83947
M140 S0
M107
M107 T0
M104 S0
M104 S0 T1
M140 S0
G92 E0
G91
G1 E-1 F300
G1 Z+0.5 E-5 X-20 Y-20 F9000
G28 X0 Y0
M84 ;steppers off
G90 ;absolute positioning
M104 S0
;G1 E-1 F300
;G28 X0 Y0
;M84
M82 ;absolute extrusion mode
M104 S0
;End of Gcode
;SETTING_3 {"extruder_quality": ["[general]\\nversion = 4\\nname = Test001\\ndef
;SETTING_3 inition = custom\\n\\n[metadata]\\nsetting_version = 13\\nintent_cate
;SETTING_3 gory = default\\nquality_type = draft\\nposition = 0\\ntype = quality
;SETTING_3 _changes\\n\\n[values]\\ngradual_infill_steps = 5\\ninfill_pattern = 
;SETTING_3 concentric\\ninfill_sparse_density = 20\\nmaterial_print_temperature 
;SETTING_3 = 210\\nretraction_hop_enabled = True\\nwall_line_count = 3\\n\\n", "
;SETTING_3 [general]\\nversion = 4\\nname = Test001\\ndefinition = fdmprinter\\n
;SETTING_3 \\n[metadata]\\nsetting_version = 13\\nintent_category = default\\nqu
;SETTING_3 ality_type = normal\\nposition = 1\\ntype = quality_changes\\n\\n[val
;SETTING_3 ues]\\n\\n", "[general]\\nversion = 4\\nname = Test001\\ndefinition =
;SETTING_3  fdmprinter\\n\\n[metadata]\\nsetting_version = 13\\nintent_category 
;SETTING_3 = default\\nquality_type = normal\\nposition = 2\\ntype = quality_cha
;SETTING_3 nges\\n\\n[values]\\n\\n", "[general]\\nversion = 4\\nname = Test001\
;SETTING_3 \ndefinition = fdmprinter\\n\\n[metadata]\\nsetting_version = 13\\nin
;SETTING_3 tent_category = default\\nquality_type = normal\\nposition = 3\\ntype
;SETTING_3  = quality_changes\\n\\n[values]\\n\\n", "[general]\\nversion = 4\\nn
;SETTING_3 ame = Test001\\ndefinition = fdmprinter\\n\\n[metadata]\\nsetting_ver
;SETTING_3 sion = 13\\nintent_category = default\\nquality_type = normal\\nposit
;SETTING_3 ion = 4\\ntype = quality_changes\\n\\n[values]\\n\\n", "[general]\\nv
;SETTING_3 ersion = 4\\nname = Test001\\ndefinition = fdmprinter\\n\\n[metadata]
;SETTING_3 \\nsetting_version = 13\\nintent_category = default\\nquality_type = 
;SETTING_3 normal\\nposition = 5\\ntype = quality_changes\\n\\n[values]\\n\\n", 
;SETTING_3 "[general]\\nversion = 4\\nname = Test001\\ndefinition = fdmprinter\\
;SETTING_3 n\\n[metadata]\\nsetting_version = 13\\nintent_category = default\\nq
;SETTING_3 uality_type = normal\\nposition = 6\\ntype = quality_changes\\n\\n[va
;SETTING_3 lues]\\n\\n", "[general]\\nversion = 4\\nname = Test001\\ndefinition 
;SETTING_3 = fdmprinter\\n\\n[metadata]\\nsetting_version = 13\\nintent_category
;SETTING_3  = default\\nquality_type = normal\\nposition = 7\\ntype = quality_ch
;SETTING_3 anges\\n\\n[values]\\n\\n"], "global_quality": "[general]\\nversion =
;SETTING_3  4\\nname = Test001\\ndefinition = custom\\n\\n[metadata]\\nsetting_v
;SETTING_3 ersion = 13\\nquality_type = draft\\ntype = quality_changes\\n\\n[val
;SETTING_3 ues]\\nadhesion_type = skirt\\nmaterial_bed_temperature = 48\\n\\n"}
