;FLAVOR:Marlin
;TIME:49
;Filament used: 0.0207037m
;Layer height: 0.1
;MINX:149.1
;MINY:156.1
;MINZ:0.3
;MAXX:180.9
;MAXY:173.897
;MAXZ:1.3
;POSTPROCESSED
;Generated with Cura_SteamEngine 4.6.1
M82 ;absolute extrusion mode
G21
G90
M82
M107 T0
M140 S48
M104 S210 T0
M190 S48
M109 S210 T0
G28
G92 E0
G1 Z15.0 F120
G0 E3 F200
G92 E0
G92 E0
G92 E0
G1 F1500 E-6.5
;LAYER_COUNT:8
;LAYER:0
M107
G1 F600 Z1.3
G0 F3600 X155.042 Y157.358 Z1.3
;TYPE:SKIRT
G1 F600 Z0.3
G1 F1500 E0
G1 F1800 X158.069 Y158.134 E0.1559
G1 X160.759 Y158.754 E0.29362
G1 X163.424 Y159.286 E0.4292
G1 X166.136 Y159.751 E0.56648
G1 X168.814 Y160.132 E0.70143
G1 X171.555 Y160.443 E0.83906
G1 X174.299 Y160.675 E0.97645
G1 X176.267 Y160.786 E1.07479
G1 X176.728 Y160.82 E1.09785
G1 X177.228 Y160.897 E1.12309
G1 X177.709 Y161.052 E1.1483
G1 X178.16 Y161.281 E1.17353
G1 X178.569 Y161.577 E1.19872
G1 X178.926 Y161.935 E1.22395
G1 X179.223 Y162.345 E1.2492
G1 X179.451 Y162.796 E1.27442
G1 X179.606 Y163.277 E1.29963
G1 X179.69 Y163.921 E1.33203
G1 X179.7 Y165.304 E1.40103
G1 X179.691 Y166.031 E1.4373
G1 X179.645 Y166.534 E1.4625
G1 X179.52 Y167.024 E1.48773
G1 X179.319 Y167.488 E1.51296
G1 X179.048 Y167.915 E1.53819
G1 X178.713 Y168.294 E1.56343
G1 X178.323 Y168.615 E1.58863
G1 X177.887 Y168.871 E1.61385
G1 X177.416 Y169.054 E1.63906
G1 X176.675 Y169.186 E1.67661
G1 X175.557 Y169.25 E1.73248
G1 X172.79 Y169.451 E1.87089
G1 X170.094 Y169.722 E2.00607
G1 X167.348 Y170.077 E2.14421
G1 X164.641 Y170.504 E2.28093
G1 X161.965 Y171.006 E2.41677
G1 X159.309 Y171.581 E2.55235
G1 X156.673 Y172.23 E2.68778
G1 X155.317 Y172.585 E2.75772
G1 X154.615 Y172.687 E2.79311
G1 X153.466 Y172.691 E2.85043
G1 X152.963 Y172.644 E2.87563
G1 X152.473 Y172.519 E2.90086
G1 X152.009 Y172.318 E2.92609
G1 X151.583 Y172.046 E2.95131
G1 X151.204 Y171.711 E2.97654
G1 X150.883 Y171.32 E3.00178
G1 X150.628 Y170.884 E3.02698
G1 X150.445 Y170.413 E3.05219
G1 X150.338 Y169.919 E3.07741
G1 X150.301 Y169.244 E3.11114
G1 X150.3 Y161.156 E3.51465
G1 X150.309 Y160.467 E3.54902
G1 X150.356 Y159.964 E3.57423
G1 X150.481 Y159.474 E3.59946
G1 X150.682 Y159.01 E3.62469
G1 X150.953 Y158.583 E3.64992
G1 X151.288 Y158.205 E3.67512
G1 X151.679 Y157.884 E3.70035
G1 X152.115 Y157.628 E3.72558
G1 X152.586 Y157.445 E3.75079
G1 X153.08 Y157.338 E3.77601
G1 X153.725 Y157.301 E3.80824
G1 X154.539 Y157.31 E3.84885
G1 X155.042 Y157.358 E3.87406
G0 F3600 X155.079 Y156.958
G1 F1800 X158.154 Y157.742 E4.03238
G1 X160.862 Y158.367 E4.17103
G1 X163.498 Y158.893 E4.30514
G1 X166.183 Y159.353 E4.44104
G1 X168.883 Y159.737 E4.5771
G1 X171.601 Y160.046 E4.71358
G1 X174.319 Y160.276 E4.84966
G1 X176.289 Y160.387 E4.9481
G1 X176.758 Y160.421 E4.97156
G1 X177.288 Y160.5 E4.9983
G1 X177.801 Y160.658 E5.02508
G1 X178.284 Y160.889 E5.05179
G1 X178.728 Y161.19 E5.07855
G1 X179.122 Y161.554 E5.10531
G1 X179.458 Y161.972 E5.13207
G1 X179.728 Y162.436 E5.15885
G1 X179.926 Y162.934 E5.18559
G1 X180.048 Y163.456 E5.21233
G1 X180.099 Y164.228 E5.25093
G1 X180.1 Y165.309 E5.30486
G1 X180.091 Y166.036 E5.34114
G1 X180.044 Y166.57 E5.36788
G1 X179.919 Y167.091 E5.39461
G1 X179.717 Y167.588 E5.42138
G1 X179.444 Y168.05 E5.44815
G1 X179.106 Y168.466 E5.47489
G1 X178.709 Y168.827 E5.50166
G1 X178.263 Y169.125 E5.52842
G1 X177.778 Y169.353 E5.55516
G1 X177.264 Y169.507 E5.58193
G1 X176.698 Y169.585 E5.61043
G1 X175.606 Y169.648 E5.665
G1 X172.822 Y169.849 E5.80426
G1 X170.114 Y170.122 E5.94005
G1 X167.425 Y170.47 E6.07532
G1 X164.712 Y170.898 E6.21235
G1 X162.052 Y171.396 E6.34736
G1 X159.419 Y171.967 E6.48178
G1 X156.762 Y172.621 E6.61829
G1 X155.419 Y172.972 E6.68754
G1 X154.629 Y173.087 E6.72737
G1 X153.461 Y173.091 E6.78564
G1 X152.927 Y173.044 E6.81239
G1 X152.405 Y172.918 E6.83918
G1 X151.909 Y172.716 E6.8659
G1 X151.447 Y172.442 E6.8927
G1 X151.032 Y172.103 E6.91943
G1 X150.671 Y171.706 E6.9462
G1 X150.374 Y171.26 E6.97293
G1 X150.146 Y170.775 E6.99967
G1 X149.992 Y170.261 E7.02644
G1 X149.91 Y169.588 E7.06027
G1 X149.9 Y161.151 E7.48119
G1 X149.909 Y160.462 E7.51557
G1 X149.956 Y159.928 E7.54231
G1 X150.082 Y159.406 E7.5691
G1 X150.284 Y158.91 E7.59582
G1 X150.557 Y158.448 E7.62259
G1 X150.896 Y158.033 E7.64933
G1 X151.293 Y157.672 E7.6761
G1 X151.739 Y157.374 E7.70286
G1 X152.224 Y157.146 E7.7296
G1 X152.738 Y156.992 E7.75637
G1 X153.404 Y156.911 E7.78984
G1 X153.871 Y156.9 E7.81314
G1 X154.544 Y156.91 E7.84672
G1 X155.079 Y156.958 E7.87352
G0 F3600 X155.114 Y156.559
G1 F1800 X155.497 Y156.638 E7.89303
G1 X158.273 Y157.359 E8.03612
G1 X160.933 Y157.972 E8.17231
G1 X163.566 Y158.498 E8.30626
G1 X166.275 Y158.963 E8.44339
G1 X168.913 Y159.338 E8.57633
G1 X171.644 Y159.647 E8.71345
G1 X174.341 Y159.876 E8.84848
G1 X176.311 Y159.987 E8.94692
G1 X176.787 Y160.022 E8.97074
G1 X177.347 Y160.104 E8.99897
G1 X177.889 Y160.263 E9.02715
G1 X178.403 Y160.498 E9.05535
G1 X178.88 Y160.802 E9.08357
G1 X179.308 Y161.171 E9.11176
G1 X179.68 Y161.597 E9.13998
G1 X179.989 Y162.07 E9.16816
G1 X180.227 Y162.583 E9.19638
G1 X180.391 Y163.124 E9.22458
G1 X180.489 Y163.898 E9.26351
G1 X180.5 Y165.314 E9.33415
G1 X180.491 Y166.041 E9.37043
G1 X180.444 Y166.604 E9.39861
G1 X180.318 Y167.155 E9.42681
G1 X180.116 Y167.683 E9.45501
G1 X179.841 Y168.177 E9.48322
G1 X179.499 Y168.627 E9.51142
G1 X179.097 Y169.025 E9.53964
G1 X178.644 Y169.362 E9.56781
G1 X178.147 Y169.632 E9.59603
G1 X177.617 Y169.829 E9.62424
G1 X177.065 Y169.95 E9.65243
G1 X175.635 Y170.047 E9.72394
G1 X172.855 Y170.248 E9.863
G1 X170.168 Y170.518 E9.99773
G1 X167.473 Y170.867 E10.1333
G1 X164.811 Y171.287 E10.26775
G1 X162.098 Y171.796 E10.40547
G1 X159.492 Y172.36 E10.53849
G1 X156.876 Y173.004 E10.6729
G1 X155.52 Y173.359 E10.74283
G1 X154.964 Y173.463 E10.77105
G1 X154.317 Y173.498 E10.80338
G1 X153.456 Y173.491 E10.84633
G1 X152.892 Y173.443 E10.87457
G1 X152.341 Y173.317 E10.90277
G1 X151.813 Y173.114 E10.93099
G1 X151.32 Y172.839 E10.95916
G1 X150.87 Y172.497 E10.98736
G1 X150.472 Y172.094 E11.01561
G1 X150.136 Y171.64 E11.04379
G1 X149.866 Y171.143 E11.07201
G1 X149.67 Y170.613 E11.1002
G1 X149.55 Y170.061 E11.12839
G1 X149.501 Y169.266 E11.16812
G1 X149.5 Y161.146 E11.57323
G1 X149.509 Y160.457 E11.60761
G1 X149.557 Y159.893 E11.63585
G1 X149.683 Y159.342 E11.66405
G1 X149.886 Y158.815 E11.69222
G1 X150.161 Y158.321 E11.72043
G1 X150.503 Y157.871 E11.74863
G1 X150.905 Y157.473 E11.77685
G1 X151.359 Y157.136 E11.80506
G1 X151.856 Y156.867 E11.83325
G1 X152.386 Y156.67 E11.86146
G1 X152.938 Y156.55 E11.88965
G1 X153.702 Y156.502 E11.92784
G1 X154.55 Y156.51 E11.97015
G1 X155.114 Y156.559 E11.99839
G0 F3600 X155.147 Y156.159
G1 F1800 X155.597 Y156.251 E12.02131
G1 X158.35 Y156.966 E12.16321
G1 X161.029 Y157.584 E12.30038
G1 X163.647 Y158.107 E12.43357
G1 X166.327 Y158.566 E12.56922
G1 X168.978 Y158.943 E12.70281
G1 X171.686 Y159.25 E12.83878
G1 X174.362 Y159.477 E12.97277
G1 X176.334 Y159.588 E13.0713
G1 X176.817 Y159.623 E13.09546
G1 X177.404 Y159.707 E13.12505
G1 X177.974 Y159.869 E13.15461
G1 X178.518 Y160.106 E13.18422
G1 X179.025 Y160.414 E13.21381
G1 X179.485 Y160.787 E13.24336
G1 X179.892 Y161.219 E13.27297
G1 X180.236 Y161.701 E13.30251
G1 X180.513 Y162.226 E13.33213
G1 X180.716 Y162.783 E13.3617
G1 X180.843 Y163.362 E13.39128
G1 X180.889 Y163.887 E13.41757
G1 X180.9 Y165.318 E13.48896
G1 X180.891 Y166.045 E13.52524
G1 X180.843 Y166.637 E13.55487
G1 X180.717 Y167.216 E13.58443
G1 X180.514 Y167.773 E13.61401
G1 X180.238 Y168.298 E13.6436
G1 X179.894 Y168.781 E13.67318
G1 X179.488 Y169.213 E13.70276
G1 X179.027 Y169.586 E13.73235
G1 X178.521 Y169.895 E13.76193
G1 X177.978 Y170.132 E13.79148
G1 X177.407 Y170.295 E13.82111
G1 X176.744 Y170.384 E13.85448
G1 X175.642 Y170.448 E13.90955
G1 X172.891 Y170.646 E14.04716
G1 X170.227 Y170.914 E14.18074
G1 X167.51 Y171.266 E14.31742
G1 X164.875 Y171.682 E14.45051
G1 X162.191 Y172.185 E14.58675
G1 X159.602 Y172.746 E14.71891
G1 X156.945 Y173.399 E14.85541
G1 X155.621 Y173.746 E14.9237
G1 X155.039 Y173.857 E14.95326
G1 X154.331 Y173.897 E14.98864
G1 X153.45 Y173.891 E15.03259
G1 X152.859 Y173.843 E15.06217
G1 X152.28 Y173.716 E15.09175
G1 X151.723 Y173.512 E15.12134
G1 X151.199 Y173.236 E15.15089
G1 X150.716 Y172.891 E15.1805
G1 X150.284 Y172.485 E15.21008
G1 X149.911 Y172.024 E15.23966
G1 X149.603 Y171.517 E15.26926
G1 X149.366 Y170.973 E15.29886
G1 X149.205 Y170.403 E15.32841
G1 X149.111 Y169.61 E15.36825
G1 X149.1 Y161.141 E15.79077
G1 X149.109 Y160.452 E15.82515
G1 X149.157 Y159.86 E15.85478
G1 X149.284 Y159.281 E15.88435
G1 X149.487 Y158.724 E15.91393
G1 X149.764 Y158.2 E15.9435
G1 X150.108 Y157.717 E15.97309
G1 X150.514 Y157.285 E16.00266
G1 X150.975 Y156.912 E16.03225
G1 X151.482 Y156.604 E16.06184
G1 X152.025 Y156.367 E16.0914
G1 X152.596 Y156.205 E16.12101
G1 X153.381 Y156.111 E16.16046
G1 X153.883 Y156.1 E16.18551
G1 X154.556 Y156.11 E16.21909
G1 X155.147 Y156.159 E16.24867
G1 F1500 E9.74867
G1 F600 Z1.3
;MESH:HouderZonderDrager.stl
G0 F3600 X153.9 Y161.64 Z1.3
;TYPE:WALL-OUTER
G1 F600 Z0.3
G1 F1500 E16.24867
G1 F1800 X153.7 Y161.64 E16.25865
G1 X153.7 Y161.44 E16.26511
G1 X153.7 Y160.7 E16.30203
G1 X154.3 Y160.7 E16.33197
G1 X154.3 Y161.639 E16.37881
G1 X153.9 Y161.64 E16.39877
G0 F3600 X153.7 Y161.64
G0 X153.77 Y161.57
G0 X159.148 Y162.949
G0 X159.123 Y167.068
G0 X159.139 Y167.139
G1 F1800 X159.117 Y166.964 E16.40757
G1 X159.117 Y162.902 E16.61022
G1 X159.117 Y162.836 E16.61351
G1 X159.383 Y162.902 E16.62226
G1 X159.383 Y166.964 E16.75702
G1 X159.383 Y167.108 E16.76133
G1 X159.166 Y167.161 E16.76813
G1 X159.142 Y167.167
G1 X159.139 Y167.139
G0 F3600 X159.117 Y166.964
G0 X159.117 Y166.94
G0 X159.217 Y166.94
G0 X154.269 Y168.538
G0 X153.77 Y169.23
G0 X153.7 Y169.3
G1 F1800 X153.7 Y168.36 E16.81503
G1 X154.3 Y168.36 E16.84496
G1 X154.3 Y169.3 E16.89186
G1 X153.7 Y169.3 E16.92179
G0 F3600 X153.7 Y169.1
G0 X153.8 Y169.1
G0 X158.445 Y167.328
G0 X164.867 Y165.7
G0 X164.867 Y165.8
G1 F1800 X164.867 Y164.2 E17.00162
G1 X165.466 Y164.2 E17.0315
G1 X165.466 Y165.8 E17.11132
G1 X164.867 Y165.8 E17.14121
G0 F3600 X164.867 Y165.6
G0 X164.967 Y165.6
G0 X170.617 Y165.7
G0 X170.617 Y165.8
G1 F1800 X170.617 Y164.2 E17.22103
G1 X170.883 Y164.2 E17.2343
G1 X170.883 Y165.8 E17.28739
G1 X170.617 Y165.8 E17.30066
G0 F3600 X170.617 Y165.6
G0 X170.717 Y165.6
G0 X175.701 Y165.7
G0 X175.701 Y165.8
G1 F1800 X175.701 Y164.2 E17.38048
G1 X176.3 Y164.2 E17.41037
G1 X176.3 Y165.8 E17.49019
G1 X175.701 Y165.8 E17.52007
G0 F3600 X175.701 Y165.6
G0 X175.982 Y165.517
;TYPE:SKIN
G1 F1800 X175.999 Y165.251 E17.52781
G1 X176.047 Y164.451 E17.55108
G0 F3600 X176.104 Y164.507
G0 X165.438 Y164.305
G0 X165.165 Y164.599
G1 F1800 X165.165 Y164.882 E17.5604
G1 X165.165 Y165.448 E17.57903
G0 F3600 X165.27 Y165.553
G0 X158.909 Y167.193
G0 X154.269 Y168.538
G0 X153.999 Y168.707
G1 F1800 X153.999 Y168.99 E17.5939
G0 F3600 X154.105 Y169.096
G0 X154.533 Y168.388
G0 X159.146 Y167.03
G0 X159.148 Y162.949
G0 X154.089 Y161.443
G0 X153.992 Y161.346
G1 F1800 X153.999 Y161.07 E17.6081
M104 S210
G0 F3600 X153.9 Y160.966
;MESH:NONMESH
G0 F600 X153.9 Y160.966 Z0.4
G0 F3600 X153.9 Y161.64
;TIME_ELAPSED:19.671816
;LAYER:1
M140 S48
M106 S255
;TYPE:WALL-OUTER
;MESH:HouderZonderDrager.stl
G1 F600 X153.7 Y161.64 E17.61143
G1 X153.7 Y161.44 E17.61358
G1 X153.7 Y160.7 E17.62589
G1 X154.3 Y160.7 E17.63586
G1 X154.3 Y161.639 E17.65148
G1 X153.9 Y161.64 E17.65813
G0 F5400 X153.7 Y161.64
G0 X153.77 Y161.57
G0 X159.148 Y162.949
G0 X159.123 Y167.068
G0 X159.139 Y167.139
G1 F600 X159.117 Y166.964 E17.66106
G1 X159.117 Y162.902 E17.72862
G1 X159.117 Y162.836 E17.72971
G1 X159.383 Y162.902 E17.73263
G1 X159.383 Y166.964 E17.77755
G1 X159.383 Y167.108 E17.77899
G1 X159.166 Y167.161 E17.78125
G1 X159.142 Y167.167
G1 X159.139 Y167.139
G0 F5400 X159.117 Y166.964
G0 X159.117 Y166.94
G0 X159.217 Y166.94
G0 X154.269 Y168.538
G0 X153.77 Y169.23
G0 X153.7 Y169.3
G1 F600 X153.7 Y168.36 E17.79688
G1 X154.3 Y168.36 E17.80686
G1 X154.3 Y169.3 E17.82249
G1 X153.7 Y169.3 E17.83247
G0 F5400 X153.7 Y169.1
G0 X153.8 Y169.1
G0 X158.445 Y167.328
G0 X164.867 Y165.7
G0 X164.867 Y165.8
G1 F600 X164.867 Y164.2 E17.85908
G1 X165.466 Y164.2 E17.86904
G1 X165.466 Y165.8 E17.89565
G1 X164.867 Y165.8 E17.90561
G0 F5400 X164.867 Y165.6
G0 X164.967 Y165.6
G0 X170.617 Y165.7
G0 X170.617 Y165.8
G1 F600 X170.617 Y164.2 E17.93222
G1 X170.883 Y164.2 E17.93664
G1 X170.883 Y165.8 E17.95434
G1 X170.617 Y165.8 E17.95876
G0 F5400 X170.617 Y165.6
G0 X170.717 Y165.6
G0 X175.701 Y165.7
G0 X175.701 Y165.8
G1 F600 X175.701 Y164.2 E17.98537
G1 X176.3 Y164.2 E17.99533
G1 X176.3 Y165.8 E18.02194
G1 X175.701 Y165.8 E18.0319
G0 F5400 X175.701 Y165.6
G0 X175.999 Y165.39
;TYPE:SKIN
G1 F600 X175.999 Y165.108 E18.03535
G1 X175.999 Y164.542 E18.04229
G0 F5400 X176.104 Y164.438
G0 X176.104 Y165.569
G1 F600 X176.068 Y165.605 E18.04271
G0 F5400 X165.438 Y165.695
G0 X165.166 Y165.476
G1 F600 X165.166 Y165.193 E18.04531
G1 X165.089 Y164.422 E18.05242
G0 F5400 X165.062 Y164.449
G0 X158.881 Y162.81
G0 X154.269 Y161.471
G0 X154.014 Y161.354
G1 F600 X153.999 Y161.086 E18.05698
G0 F5400 X154.104 Y160.982
G0 X159.148 Y162.949
G0 X159.146 Y167.03
G0 X154.104 Y168.618
G0 X153.999 Y168.723
G1 F600 X154.002 Y169.002 E18.06183
G0 F5400 X154.1 Y168.9
;MESH:NONMESH
G0 F600 X154.1 Y168.9 Z0.5
G0 F5400 X159.146 Y167.03
G0 X159.148 Y162.949
G0 X154.533 Y161.611
G0 X153.9 Y161.64
;TIME_ELAPSED:24.163018
;LAYER:2
;TYPE:WALL-OUTER
;MESH:HouderZonderDrager.stl
G1 F600 X153.7 Y161.64 E18.06516
G1 X153.7 Y161.44 E18.06731
G1 X153.7 Y160.7 E18.07962
G1 X154.3 Y160.7 E18.0896
G1 X154.3 Y161.639 E18.10521
G1 X153.9 Y161.64 E18.11186
G0 F7200 X153.7 Y161.64
G0 X153.77 Y161.57
G0 X159.148 Y162.949
G0 X159.145 Y167.063
G0 X159.167 Y167.16
G1 F600 X159.142 Y167.167 E18.1123
G1 X159.139 Y167.138 E18.11245
G1 X159.117 Y166.958 E18.11436
G1 X159.117 Y162.902 E18.18182
G1 X159.117 Y162.836 E18.18291
G1 X159.383 Y162.902 E18.18583
G1 X159.383 Y166.958 E18.23068
G1 X159.383 Y167.108 E18.23219
G1 X159.167 Y167.16 E18.23444
G0 F7200 X159.142 Y167.167
G0 X159.139 Y167.138
G0 X159.122 Y166.993
G0 X159.217 Y166.993
G0 X164.867 Y165.7
G0 X164.867 Y165.8
G1 F600 X164.867 Y164.2 E18.26104
G1 X165.466 Y164.2 E18.27101
G1 X165.466 Y165.8 E18.29761
G1 X164.867 Y165.8 E18.30758
G0 F7200 X164.867 Y165.6
G0 X164.967 Y165.6
G0 X170.617 Y165.7
G0 X170.617 Y165.8
G1 F600 X170.617 Y164.2 E18.33418
G1 X170.883 Y164.2 E18.33861
G1 X170.883 Y165.8 E18.3563
G1 X170.617 Y165.8 E18.36072
G0 F7200 X170.617 Y165.6
G0 X170.717 Y165.6
G0 X175.529 Y165.695
G0 X175.801 Y164.743
G0 X175.701 Y164.743
G1 F600 X175.701 Y164.2 E18.36976
G1 X176.3 Y164.2 E18.37972
G1 X176.3 Y164.743 E18.38875
G1 X175.701 Y164.743 E18.39871
G0 F7200 X175.701 Y164.543
G0 X175.801 Y164.543
G0 X175.529 Y165.695
G0 X164.659 Y165.774
G0 X158.909 Y167.193
G0 X154.269 Y168.538
G0 X153.77 Y169.23
G0 X153.7 Y169.3
G1 F600 X153.7 Y168.36 E18.41434
G1 X154.3 Y168.36 E18.42432
G1 X154.3 Y169.3 E18.43995
G1 X153.7 Y169.3 E18.44993
G0 F7200 X153.7 Y169.1
G0 X153.999 Y168.99
;TYPE:SKIN
G1 F600 X153.999 Y168.707 E18.45488
G0 F7200 X153.894 Y168.602
G0 X159.146 Y167.03
G0 X159.148 Y162.949
G0 X154.089 Y161.443
G0 X153.992 Y161.346
G1 F600 X153.999 Y161.07 E18.45962
G0 F7200 X153.895 Y160.966
G0 X158.881 Y162.81
G0 X164.898 Y164.362
G0 X165.165 Y164.599
G1 F600 X165.165 Y164.882 E18.46308
G1 X165.165 Y165.448 E18.47002
G0 F7200 X165.27 Y165.553
G0 X170.645 Y165.695
G0 X170.855 Y164.305
G0 X175.729 Y164.305
G0 X175.991 Y164.395
G1 F600 X176.104 Y164.508 E18.47135
G0 F7200 X176.101 Y164.508
;MESH:NONMESH
G0 F600 X176.101 Y164.508 Z0.6
G0 F7200 X164.618 Y164.226
G0 X158.881 Y162.81
G0 X155.889 Y161.865
G0 X153.9 Y161.539
G0 X153.9 Y161.64
;TIME_ELAPSED:28.388133
;LAYER:3
;TYPE:WALL-OUTER
;MESH:HouderZonderDrager.stl
G1 F600 X153.7 Y161.64 E18.47467
G1 X153.7 Y161.44 E18.47682
G1 X153.7 Y160.7 E18.48913
G1 X154.3 Y160.7 E18.49911
G1 X154.3 Y161.639 E18.51472
G1 X153.9 Y161.64 E18.52138
G0 F7200 X153.7 Y161.64
G0 X153.77 Y161.57
G0 X159.148 Y162.949
G0 X159.148 Y167.057
G0 X154.533 Y168.388
G0 X153.77 Y169.23
G0 X153.7 Y169.3
G1 F600 X153.7 Y168.36 E18.53701
G1 X154.3 Y168.36 E18.54699
G1 X154.3 Y169.3 E18.56262
G1 X153.7 Y169.3 E18.5726
G0 F7200 X153.7 Y169.1
G0 X153.8 Y169.1
G0 X159.361 Y167.011
G0 X159.383 Y167.108
G1 F600 X159.117 Y167.173 E18.57715
G1 X159.117 Y167.108
G1 X159.117 Y162.902 E18.6471
G1 X159.117 Y162.836 E18.64819
G1 X159.383 Y162.902 E18.65111
G1 X159.383 Y167.108 E18.69762
G0 F7200 X159.189 Y167.155
G0 X159.167 Y167.058
G0 X164.867 Y165.7
G0 X164.867 Y165.8
G1 F600 X164.867 Y164.2 E18.72423
G1 X165.466 Y164.2 E18.73419
G1 X165.466 Y165.8 E18.7608
G1 X164.867 Y165.8 E18.77076
G0 F7200 X164.867 Y165.6
G0 X164.967 Y165.6
G0 X170.617 Y165.7
G0 X170.617 Y165.8
G1 F600 X170.617 Y164.2 E18.79737
G1 X170.883 Y164.2 E18.80179
G1 X170.883 Y165.8 E18.81949
G1 X170.617 Y165.8 E18.82391
G0 F7200 X170.617 Y165.6
G0 X170.717 Y165.6
G0 X175.529 Y165.695
G0 X175.801 Y164.743
G0 X175.701 Y164.743
G1 F600 X175.701 Y164.2 E18.83294
G1 X176.3 Y164.2 E18.8429
G1 X176.3 Y164.743 E18.85193
G1 X175.701 Y164.743 E18.8619
G0 F7200 X175.701 Y164.543
G0 X175.994 Y164.547
;TYPE:SKIN
G1 F600 X176.104 Y164.438 E18.86318
G0 F7200 X165.438 Y164.305
G0 X165.166 Y164.627
G1 F600 X165.166 Y164.91 E18.86664
G1 X165.166 Y165.476 E18.87355
G0 F7200 X165.062 Y165.581
G0 X165.062 Y164.449
G1 F600 X165.116 Y164.395 E18.87419
G0 F7200 X158.881 Y162.81
G0 X154.269 Y161.471
G0 X154.014 Y161.354
G1 F600 X153.999 Y161.086 E18.87875
G0 F7200 X154.104 Y160.982
G0 X159.148 Y162.949
G0 X159.148 Y167.057
G0 X154.104 Y168.618
G0 X153.999 Y168.723
G1 F600 X154.002 Y169.002 E18.8836
G0 F7200 X154.1 Y168.9
;MESH:NONMESH
G0 F600 X154.1 Y168.9 Z0.7
G0 F7200 X159.148 Y167.057
G0 X159.148 Y162.949
G0 X154.533 Y161.611
G0 X153.9 Y161.64
;TIME_ELAPSED:32.492635
;LAYER:4
;TYPE:WALL-OUTER
;MESH:HouderZonderDrager.stl
G1 F600 X153.7 Y161.64 E18.88693
G1 X153.7 Y161.44 E18.88908
G1 X153.7 Y160.7 E18.90139
G1 X154.3 Y160.7 E18.91136
G1 X154.3 Y161.639 E18.92698
G1 X153.9 Y161.64 E18.93363
G0 F7200 X153.7 Y161.64
G0 X153.77 Y161.57
G0 X159.148 Y162.949
G0 X159.148 Y167.057
G0 X154.533 Y168.389
G0 X154.23 Y169.23
G0 X154.3 Y169.3
G1 F600 X153.7 Y169.3 E18.94361
G1 X153.7 Y168.56 E18.95592
G1 X153.7 Y168.36 E18.95924
G1 X153.9 Y168.36 E18.96139
G1 X154.3 Y168.361 E18.96805
G1 X154.3 Y169.3 E18.98366
G0 F7200 X154.1 Y169.3
G0 X154.1 Y169.2
G0 X159.361 Y167.011
G0 X159.383 Y167.108
G1 F600 X159.117 Y167.173 E18.98822
G1 X159.117 Y167.108
G1 X159.117 Y162.902 E19.05816
G1 X159.117 Y162.836 E19.05926
G1 X159.383 Y162.902 E19.06217
G1 X159.383 Y167.108 E19.10869
G0 F7200 X159.189 Y167.155
G0 X159.167 Y167.058
G0 X164.867 Y165.7
G0 X164.867 Y165.8
G1 F600 X164.867 Y164.2 E19.1353
G1 X165.466 Y164.2 E19.14526
G1 X165.466 Y165.8 E19.17187
G1 X164.867 Y165.8 E19.18183
G0 F7200 X164.867 Y165.6
G0 X164.967 Y165.6
G0 X170.617 Y165.7
G0 X170.617 Y165.8
G1 F600 X170.617 Y164.2 E19.20844
G1 X170.883 Y164.2 E19.21286
G1 X170.883 Y165.8 E19.23055
G1 X170.617 Y165.8 E19.23498
G0 F7200 X170.617 Y165.6
G0 X170.717 Y165.6
G0 X175.701 Y165.7
G0 X175.701 Y165.8
G1 F600 X175.701 Y164.2 E19.26159
G1 X176.3 Y164.2 E19.27155
G1 X176.3 Y165.8 E19.29815
G1 X175.701 Y165.8 E19.30812
G0 F7200 X175.701 Y165.6
G0 X175.982 Y165.517
;TYPE:SKIN
G1 F600 X175.999 Y165.251 E19.3107
G1 X176.047 Y164.451 E19.31845
G0 F7200 X176.104 Y164.507
G0 X165.438 Y164.305
G0 X165.165 Y164.599
G1 F600 X165.165 Y164.882 E19.32156
G1 X165.165 Y165.448 E19.32777
G0 F7200 X165.27 Y165.553
G0 X158.881 Y167.199
G0 X154.269 Y168.538
G0 X153.999 Y168.707
G1 F600 X153.999 Y168.99 E19.33269
G0 F7200 X154.104 Y169.095
G0 X154.533 Y168.389
G0 X159.148 Y167.057
G0 X159.148 Y162.949
G0 X154.089 Y161.443
G0 X153.992 Y161.346
G1 F600 X153.999 Y161.07 E19.33743
G0 F7200 X153.9 Y160.966
;MESH:NONMESH
G0 F600 X153.9 Y160.966 Z0.8
G0 F7200 X153.9 Y161.64
;TIME_ELAPSED:36.688630
;LAYER:5
;TYPE:WALL-OUTER
;MESH:HouderZonderDrager.stl
G1 F600 X153.7 Y161.64 E19.34075
G1 X153.7 Y161.44 E19.3429
G1 X153.7 Y160.7 E19.35521
G1 X154.3 Y160.7 E19.36519
G1 X154.3 Y161.639 E19.3808
G1 X153.9 Y161.64 E19.38746
G0 F7200 X153.7 Y161.64
G0 X153.77 Y161.57
G0 X159.148 Y162.949
G0 X159.148 Y167.057
G0 X154.533 Y168.388
G0 X153.77 Y169.23
G0 X153.7 Y169.3
G1 F600 X153.7 Y168.36 E19.40309
G1 X154.3 Y168.36 E19.41307
G1 X154.3 Y169.3 E19.4287
G1 X153.7 Y169.3 E19.43868
G0 F7200 X153.7 Y169.1
G0 X153.8 Y169.1
G0 X159.361 Y167.011
G0 X159.383 Y167.108
G1 F600 X159.117 Y167.173 E19.44323
G1 X159.117 Y167.108
G1 X159.117 Y162.902 E19.51318
G1 X159.117 Y162.836 E19.51427
G1 X159.383 Y162.902 E19.51719
G1 X159.383 Y167.108 E19.5637
G0 F7200 X159.189 Y167.155
G0 X159.167 Y167.058
G0 X164.867 Y165.7
G0 X164.867 Y165.8
G1 F600 X164.867 Y164.2 E19.59031
G1 X165.466 Y164.2 E19.60027
G1 X165.466 Y165.8 E19.62688
G1 X164.867 Y165.8 E19.63684
G0 F7200 X164.867 Y165.6
G0 X164.967 Y165.6
G0 X170.617 Y165.7
G0 X170.617 Y165.8
G1 F600 X170.617 Y164.2 E19.66345
G1 X170.883 Y164.2 E19.66787
G1 X170.883 Y165.8 E19.68557
G1 X170.617 Y165.8 E19.68999
G0 F7200 X170.617 Y165.6
G0 X170.717 Y165.6
G0 X175.701 Y165.7
G0 X175.701 Y165.8
G1 F600 X175.701 Y164.2 E19.7166
G1 X176.3 Y164.2 E19.72656
G1 X176.3 Y165.8 E19.75317
G1 X175.701 Y165.8 E19.76313
G0 F7200 X175.701 Y165.6
G0 X175.999 Y165.39
;TYPE:SKIN
G1 F600 X175.999 Y165.108 E19.76659
G1 X175.999 Y164.542 E19.77352
G0 F7200 X176.104 Y164.438
G0 X176.104 Y165.569
G1 F600 X176.068 Y165.605 E19.77394
G0 F7200 X165.438 Y165.695
G0 X165.166 Y165.476
G1 F600 X165.166 Y165.193 E19.77654
G1 X165.089 Y164.422 E19.78365
G0 F7200 X165.062 Y164.449
G0 X158.881 Y162.81
G0 X154.269 Y161.471
G0 X154.014 Y161.354
G1 F600 X153.999 Y161.086 E19.78822
G0 F7200 X154.104 Y160.982
G0 X159.148 Y162.949
G0 X159.148 Y167.057
G0 X154.104 Y168.618
G0 X153.999 Y168.723
G1 F600 X154.002 Y169.002 E19.79306
G0 F7200 X154.1 Y168.9
;MESH:NONMESH
G0 F600 X154.1 Y168.9 Z0.9
G0 F7200 X159.148 Y167.057
G0 X159.148 Y162.949
G0 X154.533 Y161.611
G0 X153.9 Y161.64
;TIME_ELAPSED:41.065092
;LAYER:6
;TYPE:WALL-OUTER
;MESH:HouderZonderDrager.stl
G1 F600 X153.7 Y161.64 E19.79639
G1 X153.7 Y161.44 E19.79854
G1 X153.7 Y160.7 E19.81085
G1 X154.3 Y160.7 E19.82083
G1 X154.3 Y161.639 E19.83644
G1 X153.9 Y161.64 E19.84309
G0 F7200 X153.7 Y161.64
G0 X153.77 Y161.57
G0 X159.148 Y162.949
G0 X159.148 Y167.057
G0 X154.533 Y168.388
G0 X153.77 Y169.23
G0 X153.7 Y169.3
G1 F600 X153.7 Y168.36 E19.85873
G1 X154.3 Y168.36 E19.86871
G1 X154.3 Y169.3 E19.88434
G1 X153.7 Y169.3 E19.89432
G0 F7200 X153.7 Y169.1
G0 X153.8 Y169.1
G0 X159.361 Y167.011
G0 X159.383 Y167.108
G1 F600 X159.117 Y167.173 E19.89887
G1 X159.117 Y167.108
G1 X159.117 Y162.902 E19.96882
G1 X159.117 Y162.836 E19.96991
G1 X159.383 Y162.902 E19.97283
G1 X159.383 Y167.108 E20.01934
G0 F7200 X159.189 Y167.155
G0 X159.167 Y167.058
G0 X164.867 Y165.7
G0 X164.867 Y165.8
G1 F600 X164.867 Y164.2 E20.04595
G1 X165.466 Y164.2 E20.05591
G1 X165.466 Y165.8 E20.08252
G1 X164.867 Y165.8 E20.09248
G0 F7200 X164.867 Y165.6
G0 X164.967 Y165.6
G0 X170.617 Y165.7
G0 X170.617 Y165.8
G1 F600 X170.617 Y164.2 E20.11909
G1 X170.883 Y164.2 E20.12351
G1 X170.883 Y165.8 E20.14121
G1 X170.617 Y165.8 E20.14563
G0 F7200 X170.617 Y165.6
G0 X170.717 Y165.6
G0 X175.701 Y165.7
G0 X175.701 Y165.8
G1 F600 X175.701 Y164.2 E20.17224
G1 X176.3 Y164.2 E20.1822
G1 X176.3 Y165.8 E20.20881
G1 X175.701 Y165.8 E20.21877
G0 F7200 X175.701 Y165.6
G0 X175.982 Y165.517
;TYPE:SKIN
G1 F600 X175.999 Y165.251 E20.22135
G1 X176.047 Y164.451 E20.2291
G0 F7200 X176.104 Y164.507
G0 X165.438 Y164.305
G0 X165.165 Y164.599
G1 F600 X165.165 Y164.882 E20.23221
G1 X165.165 Y165.448 E20.23842
G0 F7200 X165.27 Y165.553
G0 X158.881 Y167.199
G0 X154.269 Y168.538
G0 X153.999 Y168.707
G1 F600 X153.999 Y168.99 E20.24338
G0 F7200 X154.105 Y169.096
G0 X154.533 Y168.388
G0 X159.148 Y167.057
G0 X159.148 Y162.949
G0 X154.089 Y161.443
G0 X153.992 Y161.346
G1 F600 X153.999 Y161.07 E20.24811
G0 F7200 X153.9 Y160.966
;MESH:NONMESH
G0 F600 X153.9 Y160.966 Z1
G0 F7200 X153.9 Y161.64
;TIME_ELAPSED:45.256929
;LAYER:7
;TYPE:WALL-OUTER
;MESH:HouderZonderDrager.stl
G1 F600 X153.7 Y161.64 E20.25144
G1 X153.7 Y161.44 E20.25359
G1 X153.7 Y160.7 E20.2659
G1 X154.3 Y160.7 E20.27588
G1 X154.3 Y161.639 E20.29149
G1 X153.9 Y161.64 E20.29814
G0 F7200 X153.7 Y161.64
G0 X153.77 Y161.57
G0 X159.148 Y162.949
G0 X159.148 Y167.057
G0 X154.529 Y168.386
G0 X153.77 Y169.23
G0 X153.7 Y169.3
G1 F600 X153.7 Y168.36 E20.31378
G1 X154.3 Y168.36 E20.32375
G1 X154.3 Y169.3 E20.33939
G1 X153.7 Y169.3 E20.34936
G0 F7200 X153.7 Y169.1
G0 X153.8 Y169.1
G0 X159.361 Y167.011
G0 X159.383 Y167.108
G1 F600 X159.117 Y167.173 E20.35392
G1 X159.117 Y167.108
G1 X159.117 Y162.902 E20.42386
G1 X159.117 Y162.836 E20.42496
G1 X159.383 Y162.902 E20.42788
G1 X159.383 Y167.108 E20.47439
G0 F7200 X159.189 Y167.155
G0 X159.167 Y167.058
G0 X164.867 Y165.7
G0 X164.867 Y165.8
G1 F600 X164.867 Y164.2 E20.501
G1 X165.466 Y164.2 E20.51096
G1 X165.466 Y165.8 E20.53757
G1 X164.867 Y165.8 E20.54753
G0 F7200 X164.867 Y165.6
G0 X164.967 Y165.6
G0 X170.617 Y165.7
G0 X170.617 Y165.8
G1 F600 X170.617 Y164.2 E20.57414
G1 X170.883 Y164.2 E20.57856
G1 X170.883 Y165.8 E20.59625
G1 X170.617 Y165.8 E20.60068
G0 F7200 X170.617 Y165.6
G0 X170.717 Y165.6
G0 X175.701 Y165.7
G0 X175.701 Y165.8
G1 F600 X175.701 Y164.2 E20.62729
G1 X176.3 Y164.2 E20.63725
G1 X176.3 Y165.8 E20.66386
G1 X175.701 Y165.8 E20.67382
G0 F7200 X175.701 Y165.6
G0 X175.999 Y165.39
;TYPE:SKIN
G1 F600 X175.999 Y165.108 E20.67727
G1 X175.999 Y164.542 E20.6842
G0 F7200 X176.104 Y164.438
G0 X176.104 Y165.569
G1 F600 X176.068 Y165.605 E20.68463
G0 F7200 X165.438 Y165.695
G0 X165.166 Y165.476
G1 F600 X165.166 Y165.193 E20.68723
G1 X165.089 Y164.422 E20.69434
G0 F7200 X165.062 Y164.449
G0 X158.881 Y162.81
G0 X154.269 Y161.471
G0 X154.014 Y161.354
G1 F600 X153.999 Y161.086 E20.6989
G0 F7200 X154.104 Y160.982
G0 X159.148 Y162.949
G0 X159.148 Y167.057
G0 X154.104 Y168.618
G0 X153.999 Y168.723
G1 F600 X154.002 Y169.002 E20.70375
G0 F7200 X154.1 Y168.9
;TIME_ELAPSED:49.394083
G1 F1500 E14.20375
M140 S0
M107
M107 T0
M104 S0
M104 S0 T1
M140 S0
G92 E0
G91
G1 E-1 F300
G1 Z+0.5 E-5 X-20 Y-20 F9000
G28 X0 Y0
M84 ;steppers off
G90 ;absolute positioning
M104 S0
;G1 E-1 F300
;G28 X0 Y0
;M84
M82 ;absolute extrusion mode
M104 S0
;End of Gcode
;SETTING_3 {"extruder_quality": ["[general]\\nversion = 4\\nname = Test001\\ndef
;SETTING_3 inition = custom\\n\\n[metadata]\\nsetting_version = 13\\nintent_cate
;SETTING_3 gory = default\\nquality_type = draft\\nposition = 0\\ntype = quality
;SETTING_3 _changes\\n\\n[values]\\ngradual_infill_steps = 5\\ninfill_pattern = 
;SETTING_3 concentric\\ninfill_sparse_density = 20\\nmaterial_print_temperature 
;SETTING_3 = 210\\nretraction_hop_enabled = True\\nwall_line_count = 3\\n\\n", "
;SETTING_3 [general]\\nversion = 4\\nname = Test001\\ndefinition = fdmprinter\\n
;SETTING_3 \\n[metadata]\\nsetting_version = 13\\nintent_category = default\\nqu
;SETTING_3 ality_type = normal\\nposition = 1\\ntype = quality_changes\\n\\n[val
;SETTING_3 ues]\\n\\n", "[general]\\nversion = 4\\nname = Test001\\ndefinition =
;SETTING_3  fdmprinter\\n\\n[metadata]\\nsetting_version = 13\\nintent_category 
;SETTING_3 = default\\nquality_type = normal\\nposition = 2\\ntype = quality_cha
;SETTING_3 nges\\n\\n[values]\\n\\n", "[general]\\nversion = 4\\nname = Test001\
;SETTING_3 \ndefinition = fdmprinter\\n\\n[metadata]\\nsetting_version = 13\\nin
;SETTING_3 tent_category = default\\nquality_type = normal\\nposition = 3\\ntype
;SETTING_3  = quality_changes\\n\\n[values]\\n\\n", "[general]\\nversion = 4\\nn
;SETTING_3 ame = Test001\\ndefinition = fdmprinter\\n\\n[metadata]\\nsetting_ver
;SETTING_3 sion = 13\\nintent_category = default\\nquality_type = normal\\nposit
;SETTING_3 ion = 4\\ntype = quality_changes\\n\\n[values]\\n\\n", "[general]\\nv
;SETTING_3 ersion = 4\\nname = Test001\\ndefinition = fdmprinter\\n\\n[metadata]
;SETTING_3 \\nsetting_version = 13\\nintent_category = default\\nquality_type = 
;SETTING_3 normal\\nposition = 5\\ntype = quality_changes\\n\\n[values]\\n\\n", 
;SETTING_3 "[general]\\nversion = 4\\nname = Test001\\ndefinition = fdmprinter\\
;SETTING_3 n\\n[metadata]\\nsetting_version = 13\\nintent_category = default\\nq
;SETTING_3 uality_type = normal\\nposition = 6\\ntype = quality_changes\\n\\n[va
;SETTING_3 lues]\\n\\n", "[general]\\nversion = 4\\nname = Test001\\ndefinition 
;SETTING_3 = fdmprinter\\n\\n[metadata]\\nsetting_version = 13\\nintent_category
;SETTING_3  = default\\nquality_type = normal\\nposition = 7\\ntype = quality_ch
;SETTING_3 anges\\n\\n[values]\\n\\n"], "global_quality": "[general]\\nversion =
;SETTING_3  4\\nname = Test001\\ndefinition = custom\\n\\n[metadata]\\nsetting_v
;SETTING_3 ersion = 13\\nquality_type = draft\\ntype = quality_changes\\n\\n[val
;SETTING_3 ues]\\nadhesion_type = skirt\\nmaterial_bed_temperature = 48\\n\\n"}
