;FLAVOR:Marlin
;TIME:807
;Filament used: 0.40528m
;Layer height: 0.1
;MINX:96.801
;MINY:160.3
;MINZ:0.3
;MAXX:233.199
;MAXY:169.7
;MAXZ:4
;POSTPROCESSED
;Generated with Cura_SteamEngine 4.6.1
M82 ;absolute extrusion mode
G21
G90
M82
M107 T0
M140 S48
M104 S210 T0
M190 S48
M109 S210 T0
G28
G92 E0
G1 Z15.0 F120
G0 E3 F200
G92 E0
G92 E0
G92 E0
G1 F1500 E-6.5
;LAYER_COUNT:28
;LAYER:0
M107
G1 F600 Z1.3
G0 F3600 X230.539 Y160.357 Z1.3
;TYPE:SKIRT
G1 F600 Z0.3
G1 F1500 E0
G1 F1800 X231.029 Y160.483 E0.02524
G1 X231.493 Y160.685 E0.05049
G1 X231.919 Y160.957 E0.07571
G1 X232.297 Y161.292 E0.1009
G1 X232.617 Y161.683 E0.12611
G1 X232.872 Y162.12 E0.15135
G1 X233.055 Y162.591 E0.17656
G1 X233.162 Y163.085 E0.20178
G1 X233.198 Y163.74 E0.23451
G1 X233.199 Y165.804 E0.33748
G1 X233.189 Y166.537 E0.37405
G1 X233.141 Y167.041 E0.39931
G1 X233.015 Y167.53 E0.42451
G1 X232.814 Y167.994 E0.44973
G1 X232.542 Y168.42 E0.47495
G1 X232.206 Y168.798 E0.50018
G1 X231.815 Y169.119 E0.52542
G1 X231.379 Y169.374 E0.55062
G1 X230.907 Y169.556 E0.57586
G1 X230.413 Y169.663 E0.60107
G1 X229.759 Y169.699 E0.63375
G1 X100.667 Y169.7 E7.07418
G1 X99.969 Y169.691 E7.109
G1 X99.465 Y169.644 E7.13426
G1 X98.975 Y169.519 E7.15949
G1 X98.511 Y169.318 E7.18472
G1 X98.085 Y169.047 E7.2099
G1 X97.706 Y168.712 E7.23514
G1 X97.385 Y168.321 E7.26038
G1 X97.13 Y167.885 E7.28558
G1 X96.946 Y167.414 E7.31081
G1 X96.839 Y166.92 E7.33602
G1 X96.802 Y166.244 E7.3698
G1 X96.801 Y164.126 E7.47547
G1 X96.811 Y163.461 E7.50865
G1 X96.859 Y162.958 E7.53386
G1 X96.985 Y162.468 E7.5591
G1 X97.187 Y162.004 E7.58435
G1 X97.459 Y161.578 E7.60956
G1 X97.795 Y161.201 E7.63476
G1 X98.186 Y160.88 E7.66
G1 X98.623 Y160.626 E7.68521
G1 X99.094 Y160.443 E7.71042
G1 X99.589 Y160.337 E7.73568
G1 X100.241 Y160.301 E7.76826
G1 X229.338 Y160.3 E14.20893
G1 X230.036 Y160.31 E14.24376
G1 X230.539 Y160.357 E14.26896
G1 F1500 E7.76896
G1 F600 Z1.3
;MESH:Dwarsprofiel-120-2sporen.stl
G0 F3600 X100.201 Y164.3 Z1.3
;TYPE:WALL-OUTER
G1 F600 Z0.3
G1 F1500 E14.26896
G1 F1800 X100.201 Y163.7 E14.2989
G1 X229.799 Y163.7 E20.76457
G1 X229.799 Y164.3 E20.7945
G1 X100.201 Y164.3 E27.26017
G0 F3600 X100.201 Y164.1
G0 X100.43 Y164.069
;TYPE:SKIN
G1 F1800 X100.642 Y163.999 E27.266
G1 X166.262 Y163.999 E28.97926
G1 X229.336 Y163.999 E30.62605
G1 X229.558 Y163.938 E30.63206
G0 F3600 X229.514 Y163.9
G1 F1500 E24.13206
G1 F600 Z1.3
G0 F3600 X229.514 Y163.9 Z1.3
G0 X100.201 Y166.3
;TYPE:WALL-OUTER
G1 F600 Z0.3
G1 F1500 E30.63206
G1 F1800 X100.201 Y165.7 E30.66199
G1 X229.799 Y165.7 E37.12766
G1 X229.799 Y166.3 E37.1576
G1 X100.201 Y166.3 E43.62327
G0 F3600 X100.201 Y166.1
G0 X100.439 Y166.059
;TYPE:SKIN
G1 F1800 X100.662 Y165.999 E43.62928
G1 X166.282 Y165.999 E45.33857
G1 X229.356 Y165.999 E46.98154
G1 X229.568 Y165.929 E46.98735
M104 S210
G0 F3600 X229.534 Y165.9
G1 F1500 E40.48735
G1 F600 Z1.3
;MESH:NONMESH
G0 F3600 X229.534 Y165.9 Z1.3
G0 X100.201 Y164.3
;TIME_ELAPSED:49.482711
;LAYER:1
M140 S48
M106 S255
;MESH:Dwarsprofiel-120-2sporen.stl
G0 F5400 X100.201 Y164.3 Z1.4
;TYPE:WALL-OUTER
G1 F600 Z0.4
G1 F1500 E46.98735
G1 F1800 X100.201 Y163.7 E46.99733
G1 X229.799 Y163.7 E49.15256
G1 X229.799 Y164.3 E49.16253
G1 X100.201 Y164.3 E51.31776
G0 F5400 X100.201 Y164.1
G0 X100.479 Y163.977
;TYPE:SKIN
G1 F1800 X100.74 Y163.999 E51.32006
G1 X166.36 Y163.999 E51.89811
G1 X229.434 Y163.999 E52.45374
G0 F5400 X229.54 Y163.9
G1 F1500 E45.95374
G1 F600 Z1.4
G0 F5400 X229.54 Y163.9 Z1.4
G0 X100.201 Y166.3
;TYPE:WALL-OUTER
G1 F600 Z0.4
G1 F1500 E52.45374
G1 F1800 X100.201 Y165.7 E52.46372
G1 X229.799 Y165.7 E54.61894
G1 X229.799 Y166.3 E54.62892
G1 X100.201 Y166.3 E56.78414
G0 F5400 X100.201 Y166.1
G0 X100.469 Y165.967
;TYPE:SKIN
G1 F1800 X100.72 Y165.999 E56.78636
G1 X166.34 Y165.999 E57.36172
G1 X229.414 Y165.999 E57.91475
G0 F5400 X229.519 Y165.9
G1 F1500 E51.41475
G1 F600 Z1.4
;MESH:NONMESH
G0 F5400 X229.519 Y165.9 Z1.4
G0 X100.201 Y164.3
;TIME_ELAPSED:79.428125
;LAYER:2
;MESH:Dwarsprofiel-120-2sporen.stl
G0 F7200 X100.201 Y164.3 Z1.5
;TYPE:WALL-OUTER
G1 F600 Z0.5
G1 F1500 E57.91475
G1 F1800 X100.201 Y163.7 E57.92473
G1 X229.799 Y163.7 E60.07995
G1 X229.799 Y164.3 E60.08993
G1 X100.201 Y164.3 E62.24516
G0 F7200 X100.201 Y164.1
G0 X100.43 Y164.069
;TYPE:SKIN
G1 F1800 X100.642 Y163.999 E62.2471
G1 X166.262 Y163.999 E62.81819
G1 X229.336 Y163.999 E63.36711
G1 X229.558 Y163.938 E63.36912
G0 F7200 X229.514 Y163.9
G1 F1500 E56.86912
G1 F600 Z1.5
G0 F7200 X229.514 Y163.9 Z1.5
G0 X100.201 Y166.3
;TYPE:WALL-OUTER
G1 F600 Z0.5
G1 F1500 E63.36912
G1 F1800 X100.201 Y165.7 E63.3791
G1 X229.799 Y165.7 E65.53432
G1 X229.799 Y166.3 E65.5443
G1 X100.201 Y166.3 E67.69952
G0 F7200 X100.201 Y166.1
G0 X100.439 Y166.059
;TYPE:SKIN
G1 F1800 X100.662 Y165.999 E67.70153
G1 X166.282 Y165.999 E68.27129
G1 X229.356 Y165.999 E68.81894
G1 X229.568 Y165.929 E68.82088
G0 F7200 X229.534 Y165.9
G1 F1500 E62.32088
G1 F600 Z1.5
;MESH:NONMESH
G0 F7200 X229.534 Y165.9 Z1.5
G0 X100.201 Y164.3
;TIME_ELAPSED:108.675099
;LAYER:3
;MESH:Dwarsprofiel-120-2sporen.stl
G0 X100.201 Y164.3 Z1.6
;TYPE:WALL-OUTER
G1 F600 Z0.6
G1 F1500 E68.82088
G1 F1800 X100.201 Y163.7 E68.83086
G1 X229.799 Y163.7 E70.98608
G1 X229.799 Y164.3 E70.99606
G1 X100.201 Y164.3 E73.15129
G0 F7200 X100.201 Y164.1
G0 X100.479 Y163.977
;TYPE:SKIN
G1 F1800 X100.74 Y163.999 E73.15359
G1 X166.36 Y163.999 E73.73164
G1 X229.434 Y163.999 E74.28727
G0 F7200 X229.54 Y163.9
G1 F1500 E67.78727
G1 F600 Z1.6
G0 F7200 X229.54 Y163.9 Z1.6
G0 X100.201 Y166.3
;TYPE:WALL-OUTER
G1 F600 Z0.6
G1 F1500 E74.28727
G1 F1800 X100.201 Y165.7 E74.29724
G1 X229.799 Y165.7 E76.45247
G1 X229.799 Y166.3 E76.46245
G1 X100.201 Y166.3 E78.61767
G0 F7200 X100.201 Y166.1
G0 X100.469 Y165.967
;TYPE:SKIN
G1 F1800 X100.72 Y165.999 E78.61989
G1 X166.34 Y165.999 E79.19525
G1 X229.414 Y165.999 E79.74828
G0 F7200 X229.519 Y165.9
G1 F1500 E73.24828
G1 F600 Z1.6
;MESH:NONMESH
G0 F7200 X229.519 Y165.9 Z1.6
G0 X100.201 Y164.3
;TIME_ELAPSED:137.917525
;LAYER:4
;MESH:Dwarsprofiel-120-2sporen.stl
G0 X100.201 Y164.3 Z1.7
;TYPE:WALL-OUTER
G1 F600 Z0.7
G1 F1500 E79.74828
G1 F1800 X100.201 Y163.7 E79.75826
G1 X229.799 Y163.7 E81.91348
G1 X229.799 Y164.3 E81.92346
G1 X100.201 Y164.3 E84.07869
G0 F7200 X100.201 Y164.1
G0 X100.43 Y164.069
;TYPE:SKIN
G1 F1800 X100.642 Y163.999 E84.08063
G1 X166.262 Y163.999 E84.65171
G1 X229.336 Y163.999 E85.20064
G1 X229.558 Y163.938 E85.20265
G0 F7200 X229.514 Y163.9
G1 F1500 E78.70265
G1 F600 Z1.7
G0 F7200 X229.514 Y163.9 Z1.7
G0 X100.201 Y166.3
;TYPE:WALL-OUTER
G1 F600 Z0.7
G1 F1500 E85.20265
G1 F1800 X100.201 Y165.7 E85.21263
G1 X229.799 Y165.7 E87.36785
G1 X229.799 Y166.3 E87.37783
G1 X100.201 Y166.3 E89.53305
G0 F7200 X100.201 Y166.1
G0 X100.439 Y166.059
;TYPE:SKIN
G1 F1800 X100.662 Y165.999 E89.53506
G1 X166.282 Y165.999 E90.10482
G1 X229.356 Y165.999 E90.65247
G1 X229.568 Y165.929 E90.65441
G0 F7200 X229.534 Y165.9
G1 F1500 E84.15441
G1 F600 Z1.7
;MESH:NONMESH
G0 F7200 X229.534 Y165.9 Z1.7
G0 X100.201 Y164.3
;TIME_ELAPSED:167.164499
;LAYER:5
;MESH:Dwarsprofiel-120-2sporen.stl
G0 X100.201 Y164.3 Z1.8
;TYPE:WALL-OUTER
G1 F600 Z0.8
G1 F1500 E90.65441
G1 F1800 X100.201 Y163.7 E90.66439
G1 X229.799 Y163.7 E92.81961
G1 X229.799 Y164.3 E92.82959
G1 X100.201 Y164.3 E94.98482
G0 F7200 X100.201 Y164.1
G0 X100.479 Y163.977
;TYPE:SKIN
G1 F1800 X100.74 Y163.999 E94.98712
G1 X166.36 Y163.999 E95.56517
G1 X229.434 Y163.999 E96.1208
G0 F7200 X229.54 Y163.9
G1 F1500 E89.6208
G1 F600 Z1.8
G0 F7200 X229.54 Y163.9 Z1.8
G0 X100.201 Y166.3
;TYPE:WALL-OUTER
G1 F600 Z0.8
G1 F1500 E96.1208
G1 F1800 X100.201 Y165.7 E96.13077
G1 X229.799 Y165.7 E98.286
G1 X229.799 Y166.3 E98.29598
G1 X100.201 Y166.3 E100.4512
G0 F7200 X100.201 Y166.1
G0 X100.469 Y165.967
;TYPE:SKIN
G1 F1800 X100.72 Y165.999 E100.45342
G1 X166.34 Y165.999 E101.02878
G1 X229.414 Y165.999 E101.58181
G0 F7200 X229.519 Y165.9
G1 F1500 E95.08181
G1 F600 Z1.8
;MESH:NONMESH
G0 F7200 X229.519 Y165.9 Z1.8
G0 X100.201 Y164.3
;TIME_ELAPSED:196.406924
;LAYER:6
;MESH:Dwarsprofiel-120-2sporen.stl
G0 X100.201 Y164.3 Z1.9
;TYPE:WALL-OUTER
G1 F600 Z0.9
G1 F1500 E101.58181
G1 F1800 X100.201 Y163.7 E101.59179
G1 X229.799 Y163.7 E103.74701
G1 X229.799 Y164.3 E103.75699
G1 X100.201 Y164.3 E105.91221
G0 F7200 X100.201 Y164.1
G0 X100.43 Y164.069
;TYPE:SKIN
G1 F1800 X100.642 Y163.999 E105.91416
G1 X166.262 Y163.999 E106.48524
G1 X229.336 Y163.999 E107.03417
G1 X229.558 Y163.938 E107.03618
G0 F7200 X229.514 Y163.9
G1 F1500 E100.53618
G1 F600 Z1.9
G0 F7200 X229.514 Y163.9 Z1.9
G0 X100.201 Y166.3
;TYPE:WALL-OUTER
G1 F600 Z0.9
G1 F1500 E107.03618
G1 F1800 X100.201 Y165.7 E107.04616
G1 X229.799 Y165.7 E109.20138
G1 X229.799 Y166.3 E109.21136
G1 X100.201 Y166.3 E111.36658
G0 F7200 X100.201 Y166.1
G0 X100.439 Y166.059
;TYPE:SKIN
G1 F1800 X100.662 Y165.999 E111.36859
G1 X166.282 Y165.999 E111.93835
G1 X229.356 Y165.999 E112.486
G1 X229.568 Y165.929 E112.48794
G0 F7200 X229.534 Y165.9
G1 F1500 E105.98794
G1 F600 Z1.9
;MESH:NONMESH
G0 F7200 X229.534 Y165.9 Z1.9
G0 X100.201 Y164.3
;TIME_ELAPSED:225.653899
;LAYER:7
;MESH:Dwarsprofiel-120-2sporen.stl
G0 X100.201 Y164.3 Z2
;TYPE:WALL-OUTER
G1 F600 Z1
G1 F1500 E112.48794
G1 F1800 X100.201 Y163.7 E112.49792
G1 X229.799 Y163.7 E114.65314
G1 X229.799 Y164.3 E114.66312
G1 X100.201 Y164.3 E116.81835
G0 F7200 X100.201 Y164.1
G0 X100.479 Y163.977
;TYPE:SKIN
G1 F1800 X100.74 Y163.999 E116.82065
G1 X166.36 Y163.999 E117.3987
G1 X229.434 Y163.999 E117.95433
G0 F7200 X229.54 Y163.9
G1 F1500 E111.45433
G1 F600 Z2
G0 F7200 X229.54 Y163.9 Z2
G0 X100.201 Y166.3
;TYPE:WALL-OUTER
G1 F600 Z1
G1 F1500 E117.95433
G1 F1800 X100.201 Y165.7 E117.9643
G1 X229.799 Y165.7 E120.11953
G1 X229.799 Y166.3 E120.12951
G1 X100.201 Y166.3 E122.28473
G0 F7200 X100.201 Y166.1
G0 X100.469 Y165.967
;TYPE:SKIN
G1 F1800 X100.72 Y165.999 E122.28695
G1 X166.34 Y165.999 E122.86231
G1 X229.414 Y165.999 E123.41534
G0 F7200 X229.519 Y165.9
;MESH:NONMESH
G0 F600 X229.519 Y165.9 Z1.1
G0 F7200 X101.001 Y165.8
G0 X101.001 Y165.5
;TIME_ELAPSED:254.670229
;LAYER:8
;TYPE:WALL-INNER
;MESH:Dwarsprofiel-120-2sporen.stl
G1 F3600 X101.001 Y164.5 E123.43197
G1 X228.999 Y164.5 E125.56059
G1 X228.999 Y165.5 E125.57722
G1 X101.001 Y165.5 E127.70583
G0 F7200 X100.601 Y165.9
G1 F3600 X100.601 Y164.1 E127.73577
G1 X229.399 Y164.1 E129.87769
G1 X229.399 Y165.9 E129.90762
G1 X100.601 Y165.9 E132.04954
G0 F7200 X100.201 Y166.3
;TYPE:WALL-OUTER
G1 F1800 X100.201 Y163.7 E132.09278
G1 X229.799 Y163.7 E134.248
G1 X229.799 Y166.3 E134.29124
G1 X100.201 Y166.3 E136.44646
G0 F7200 X100.201 Y166.1
G0 X100.671 Y165.83
G0 X101.391 Y165.11
;TYPE:SKIN
G1 F1800 X101.391 Y164.89 E136.45012
G1 X228.609 Y164.89 E138.56577
G1 X228.609 Y165.11 E138.56942
G1 X101.391 Y165.11 E140.68507
;MESH:NONMESH
G0 F600 X101.391 Y165.11 Z1.2
G0 F7200 X101.001 Y165.5
;TIME_ELAPSED:280.861923
;LAYER:9
;TYPE:WALL-INNER
;MESH:Dwarsprofiel-120-2sporen.stl
G1 F3600 X101.001 Y164.5 E140.7017
G1 X228.999 Y164.5 E142.83031
G1 X228.999 Y165.5 E142.84694
G1 X101.001 Y165.5 E144.97556
G0 F7200 X100.601 Y165.9
G1 F3600 X100.601 Y164.1 E145.00549
G1 X229.399 Y164.1 E147.14741
G1 X229.399 Y165.9 E147.17735
G1 X100.601 Y165.9 E149.31927
G0 F7200 X100.201 Y166.3
;TYPE:WALL-OUTER
G1 F1800 X100.201 Y163.7 E149.3625
G1 X229.799 Y163.7 E151.51773
G1 X229.799 Y166.3 E151.56097
G1 X100.201 Y166.3 E153.71619
G0 F7200 X100.201 Y166.1
G0 X100.671 Y165.83
G0 X101.391 Y165.11
;TYPE:SKIN
G1 F1800 X101.391 Y164.89 E153.71985
G1 X228.609 Y164.89 E155.83549
G1 X228.609 Y165.11 E155.83915
G1 X101.391 Y165.11 E157.95479
;MESH:NONMESH
G0 F600 X101.391 Y165.11 Z1.3
G0 F7200 X101.001 Y165.5
;TIME_ELAPSED:307.053616
;TYPE:CUSTOM
;added code by post processing
;script: PauseAtHeight.py
;current layer: 10
M83 ; switch to relative E values for any needed retraction
G1 F300 Z2.3 ; move up a millimeter to get out of the way
G1 F9000 X190 Y190
G1 F300 Z15 ; too close to bed--move to at least 15mm
M104 S0 ; standby temperature
M0 ; Do the actual pause
M109 S210 ; resume temperature
G1 F300 Z2.3
G1 F9000 X101.001 Y164.5
G1 F300 Z1.3 ; move back down to resume height
G1 F1800 ; restore extrusion feedrate
M82 ; switch back to absolute E values
G92 E157.95479
;LAYER:10
;TYPE:WALL-INNER
;MESH:Dwarsprofiel-120-2sporen.stl
G1 F3600 X101.001 Y164.5 E157.97142
G1 X228.999 Y164.5 E160.10004
G1 X228.999 Y165.5 E160.11667
G1 X101.001 Y165.5 E162.24529
G0 F7200 X100.601 Y165.9
G1 F3600 X100.601 Y164.1 E162.27522
G1 X229.399 Y164.1 E164.41714
G1 X229.399 Y165.9 E164.44707
G1 X100.601 Y165.9 E166.58899
G0 F7200 X100.201 Y166.3
;TYPE:WALL-OUTER
G1 F1800 X100.201 Y163.7 E166.63223
G1 X229.799 Y163.7 E168.78745
G1 X229.799 Y166.3 E168.83069
G1 X100.201 Y166.3 E170.98592
G0 F7200 X100.201 Y166.1
G0 X100.671 Y165.83
G0 X101.391 Y165.11
;TYPE:SKIN
G1 F1800 X101.391 Y164.89 E170.98957
G1 X228.609 Y164.89 E173.10522
G1 X228.609 Y165.11 E173.10888
G1 X101.391 Y165.11 E175.22452
;MESH:NONMESH
G0 F600 X101.391 Y165.11 Z1.4
G0 F7200 X101.001 Y165.5
;TIME_ELAPSED:333.245310
;LAYER:11
;TYPE:WALL-INNER
;MESH:Dwarsprofiel-120-2sporen.stl
G1 F3600 X101.001 Y164.5 E175.24115
G1 X228.999 Y164.5 E177.36977
G1 X228.999 Y165.5 E177.3864
G1 X101.001 Y165.5 E179.51501
G0 F7200 X100.601 Y165.9
G1 F3600 X100.601 Y164.1 E179.54495
G1 X229.399 Y164.1 E181.68687
G1 X229.399 Y165.9 E181.7168
G1 X100.601 Y165.9 E183.85872
G0 F7200 X100.201 Y166.3
;TYPE:WALL-OUTER
G1 F1800 X100.201 Y163.7 E183.90196
G1 X229.799 Y163.7 E186.05718
G1 X229.799 Y166.3 E186.10042
G1 X100.201 Y166.3 E188.25564
G0 F7200 X100.201 Y166.1
G0 X100.671 Y165.83
G0 X101.391 Y165.11
;TYPE:SKIN
G1 F1800 X101.391 Y164.89 E188.2593
G1 X228.609 Y164.89 E190.37494
G1 X228.609 Y165.11 E190.3786
G1 X101.391 Y165.11 E192.49425
;MESH:NONMESH
G0 F600 X101.391 Y165.11 Z1.5
G0 F7200 X101.001 Y165.5
;TIME_ELAPSED:359.437004
;LAYER:12
;TYPE:WALL-INNER
;MESH:Dwarsprofiel-120-2sporen.stl
G1 F3600 X101.001 Y164.5 E192.51088
G1 X228.999 Y164.5 E194.63949
G1 X228.999 Y165.5 E194.65612
G1 X101.001 Y165.5 E196.78474
G0 F7200 X100.601 Y165.9
G1 F3600 X100.601 Y164.1 E196.81467
G1 X229.399 Y164.1 E198.95659
G1 X229.399 Y165.9 E198.98653
G1 X100.601 Y165.9 E201.12845
G0 F7200 X100.201 Y166.3
;TYPE:WALL-OUTER
G1 F1800 X100.201 Y163.7 E201.17168
G1 X229.799 Y163.7 E203.32691
G1 X229.799 Y166.3 E203.37015
G1 X100.201 Y166.3 E205.52537
G0 F7200 X100.201 Y166.1
G0 X100.671 Y165.83
G0 X101.391 Y165.11
;TYPE:SKIN
G1 F1800 X101.391 Y164.89 E205.52903
G1 X228.609 Y164.89 E207.64467
G1 X228.609 Y165.11 E207.64833
G1 X101.391 Y165.11 E209.76397
;MESH:NONMESH
G0 F600 X101.391 Y165.11 Z1.6
G0 F7200 X101.001 Y165.5
;TIME_ELAPSED:385.628697
;LAYER:13
;TYPE:WALL-INNER
;MESH:Dwarsprofiel-120-2sporen.stl
G1 F3600 X101.001 Y164.5 E209.7806
G1 X228.999 Y164.5 E211.90922
G1 X228.999 Y165.5 E211.92585
G1 X101.001 Y165.5 E214.05446
G0 F7200 X100.601 Y165.9
G1 F3600 X100.601 Y164.1 E214.0844
G1 X229.399 Y164.1 E216.22632
G1 X229.399 Y165.9 E216.25625
G1 X100.601 Y165.9 E218.39817
G0 F7200 X100.201 Y166.3
;TYPE:WALL-OUTER
G1 F1800 X100.201 Y163.7 E218.44141
G1 X229.799 Y163.7 E220.59663
G1 X229.799 Y166.3 E220.63987
G1 X100.201 Y166.3 E222.79509
G0 F7200 X100.201 Y166.1
G0 X100.671 Y165.83
G0 X101.391 Y165.11
;TYPE:SKIN
G1 F1800 X101.391 Y164.89 E222.79875
G1 X228.609 Y164.89 E224.9144
G1 X228.609 Y165.11 E224.91806
G1 X101.391 Y165.11 E227.0337
;MESH:NONMESH
G0 F600 X101.391 Y165.11 Z1.7
G0 F7200 X101.001 Y165.5
;TIME_ELAPSED:411.820391
;LAYER:14
;TYPE:WALL-INNER
;MESH:Dwarsprofiel-120-2sporen.stl
G1 F3600 X101.001 Y164.5 E227.05033
G1 X228.999 Y164.5 E229.17895
G1 X228.999 Y165.5 E229.19558
G1 X101.001 Y165.5 E231.32419
G0 F7200 X100.601 Y165.9
G1 F3600 X100.601 Y164.1 E231.35413
G1 X229.399 Y164.1 E233.49604
G1 X229.399 Y165.9 E233.52598
G1 X100.601 Y165.9 E235.6679
G0 F7200 X100.201 Y166.3
;TYPE:WALL-OUTER
G1 F1800 X100.201 Y163.7 E235.71114
G1 X229.799 Y163.7 E237.86636
G1 X229.799 Y166.3 E237.9096
G1 X100.201 Y166.3 E240.06482
G0 F7200 X100.201 Y166.1
G0 X100.671 Y165.83
G0 X101.391 Y165.11
;TYPE:SKIN
G1 F1800 X101.391 Y164.89 E240.06848
G1 X228.609 Y164.89 E242.18412
G1 X228.609 Y165.11 E242.18778
G1 X101.391 Y165.11 E244.30343
;MESH:NONMESH
G0 F600 X101.391 Y165.11 Z1.8
G0 F7200 X101.001 Y165.5
;TIME_ELAPSED:438.012084
;LAYER:15
;TYPE:WALL-INNER
;MESH:Dwarsprofiel-120-2sporen.stl
G1 F3600 X101.001 Y164.5 E244.32006
G1 X228.999 Y164.5 E246.44867
G1 X228.999 Y165.5 E246.4653
G1 X101.001 Y165.5 E248.59392
G0 F7200 X100.601 Y165.9
G1 F3600 X100.601 Y164.1 E248.62385
G1 X229.399 Y164.1 E250.76577
G1 X229.399 Y165.9 E250.79571
G1 X100.601 Y165.9 E252.93762
G0 F7200 X100.201 Y166.3
;TYPE:WALL-OUTER
G1 F1800 X100.201 Y163.7 E252.98086
G1 X229.799 Y163.7 E255.13609
G1 X229.799 Y166.3 E255.17932
G1 X100.201 Y166.3 E257.33455
G0 F7200 X100.201 Y166.1
G0 X100.671 Y165.83
G0 X101.391 Y165.11
;TYPE:SKIN
G1 F1800 X101.391 Y164.89 E257.33821
G1 X228.609 Y164.89 E259.45385
G1 X228.609 Y165.11 E259.45751
G1 X101.391 Y165.11 E261.57315
;MESH:NONMESH
G0 F600 X101.391 Y165.11 Z1.9
G0 F7200 X101.001 Y165.5
;TIME_ELAPSED:464.203778
;LAYER:16
;TYPE:WALL-INNER
;MESH:Dwarsprofiel-120-2sporen.stl
G1 F3600 X101.001 Y164.5 E261.58978
G1 X228.999 Y164.5 E263.7184
G1 X228.999 Y165.5 E263.73503
G1 X101.001 Y165.5 E265.86364
G0 F7200 X100.601 Y165.9
G1 F3600 X100.601 Y164.1 E265.89358
G1 X229.399 Y164.1 E268.0355
G1 X229.399 Y165.9 E268.06543
G1 X100.601 Y165.9 E270.20735
G0 F7200 X100.201 Y166.3
;TYPE:WALL-OUTER
G1 F1800 X100.201 Y163.7 E270.25059
G1 X229.799 Y163.7 E272.40581
G1 X229.799 Y166.3 E272.44905
G1 X100.201 Y166.3 E274.60427
G0 F7200 X100.201 Y166.1
G0 X100.671 Y165.83
G0 X101.391 Y165.11
;TYPE:SKIN
G1 F1800 X101.391 Y164.89 E274.60793
G1 X228.609 Y164.89 E276.72358
G1 X228.609 Y165.11 E276.72724
G1 X101.391 Y165.11 E278.84288
;MESH:NONMESH
G0 F600 X101.391 Y165.11 Z2
G0 F7200 X101.001 Y165.5
;TIME_ELAPSED:490.395472
;LAYER:17
;TYPE:WALL-INNER
;MESH:Dwarsprofiel-120-2sporen.stl
G1 F3600 X101.001 Y164.5 E278.85951
G1 X228.999 Y164.5 E280.98812
G1 X228.999 Y165.5 E281.00475
G1 X101.001 Y165.5 E283.13337
G0 F7200 X100.601 Y165.9
G1 F3600 X100.601 Y164.1 E283.1633
G1 X229.399 Y164.1 E285.30522
G1 X229.399 Y165.9 E285.33516
G1 X100.601 Y165.9 E287.47708
G0 F7200 X100.201 Y166.3
;TYPE:WALL-OUTER
G1 F1800 X100.201 Y163.7 E287.52032
G1 X229.799 Y163.7 E289.67554
G1 X229.799 Y166.3 E289.71878
G1 X100.201 Y166.3 E291.874
G0 F7200 X100.201 Y166.1
G0 X100.671 Y165.83
G0 X101.391 Y165.11
;TYPE:SKIN
G1 F1800 X101.391 Y164.89 E291.87766
G1 X228.609 Y164.89 E293.9933
G1 X228.609 Y165.11 E293.99696
G1 X101.391 Y165.11 E296.11261
;MESH:NONMESH
G0 F600 X101.391 Y165.11 Z2.1
G0 F7200 X100.701 Y164.3
G0 X100.201 Y164.3
;TIME_ELAPSED:516.609328
;LAYER:18
;TYPE:WALL-OUTER
;MESH:Dwarsprofiel-120-2sporen.stl
G1 F1800 X100.201 Y163.7 E296.12258
G1 X229.799 Y163.7 E298.27781
G1 X229.799 Y164.3 E298.28779
G1 X100.201 Y164.3 E300.44301
G0 F7200 X100.201 Y164.1
G0 X100.43 Y164.069
;TYPE:SKIN
G1 F1800 X100.642 Y163.999 E300.44495
G1 X166.262 Y163.999 E301.01604
G1 X229.336 Y163.999 E301.56497
G1 X229.558 Y163.938 E301.56697
G0 F7200 X229.514 Y163.9
G1 F1500 E295.06697
G1 F600 Z3.1
G0 F7200 X229.514 Y163.9 Z3.1
G0 X100.201 Y166.3
;TYPE:WALL-OUTER
G1 F600 Z2.1
G1 F1500 E301.56697
G1 F1800 X100.201 Y165.7 E301.57695
G1 X229.799 Y165.7 E303.73217
G1 X229.799 Y166.3 E303.74215
G1 X100.201 Y166.3 E305.89737
G0 F7200 X100.201 Y166.1
G0 X100.439 Y166.059
;TYPE:SKIN
G1 F1800 X100.662 Y165.999 E305.89938
G1 X166.282 Y165.999 E306.46914
G1 X229.356 Y165.999 E307.0168
G1 X229.568 Y165.929 E307.01874
G0 F7200 X229.534 Y165.9
G1 F1500 E300.51874
G1 F600 Z3.1
;MESH:NONMESH
G0 F7200 X229.534 Y165.9 Z3.1
G0 X100.201 Y164.3
;TIME_ELAPSED:545.599084
;LAYER:19
;MESH:Dwarsprofiel-120-2sporen.stl
G0 X100.201 Y164.3 Z3.2
;TYPE:WALL-OUTER
G1 F600 Z2.2
G1 F1500 E307.01874
G1 F1800 X100.201 Y163.7 E307.02871
G1 X229.799 Y163.7 E309.18394
G1 X229.799 Y164.3 E309.19392
G1 X100.201 Y164.3 E311.34914
G0 F7200 X100.201 Y164.1
G0 X100.479 Y163.977
;TYPE:SKIN
G1 F1800 X100.74 Y163.999 E311.35145
G1 X166.36 Y163.999 E311.9295
G1 X229.434 Y163.999 E312.48512
G0 F7200 X229.54 Y163.9
G1 F1500 E305.98512
G1 F600 Z3.2
G0 F7200 X229.54 Y163.9 Z3.2
G0 X100.201 Y166.3
;TYPE:WALL-OUTER
G1 F600 Z2.2
G1 F1500 E312.48512
G1 F1800 X100.201 Y165.7 E312.4951
G1 X229.799 Y165.7 E314.65032
G1 X229.799 Y166.3 E314.6603
G1 X100.201 Y166.3 E316.81552
G0 F7200 X100.201 Y166.1
G0 X100.469 Y165.967
;TYPE:SKIN
G1 F1800 X100.72 Y165.999 E316.81774
G1 X166.34 Y165.999 E317.3931
G1 X229.414 Y165.999 E317.94614
G0 F7200 X229.519 Y165.9
G1 F1500 E311.44614
G1 F600 Z3.2
;MESH:NONMESH
G0 F7200 X229.519 Y165.9 Z3.2
G0 X100.201 Y164.3
;TIME_ELAPSED:574.841509
;LAYER:20
;MESH:Dwarsprofiel-120-2sporen.stl
G0 X100.201 Y164.3 Z3.3
;TYPE:WALL-OUTER
G1 F600 Z2.3
G1 F1500 E317.94614
G1 F1800 X100.201 Y163.7 E317.95611
G1 X229.799 Y163.7 E320.11134
G1 X229.799 Y164.3 E320.12131
G1 X100.201 Y164.3 E322.27654
G0 F7200 X100.201 Y164.1
G0 X100.43 Y164.069
;TYPE:SKIN
G1 F1800 X100.642 Y163.999 E322.27848
G1 X166.262 Y163.999 E322.84957
G1 X229.336 Y163.999 E323.3985
G1 X229.558 Y163.938 E323.4005
G0 F7200 X229.514 Y163.9
G1 F1500 E316.9005
G1 F600 Z3.3
G0 F7200 X229.514 Y163.9 Z3.3
G0 X100.201 Y166.3
;TYPE:WALL-OUTER
G1 F600 Z2.3
G1 F1500 E323.4005
G1 F1800 X100.201 Y165.7 E323.41048
G1 X229.799 Y165.7 E325.5657
G1 X229.799 Y166.3 E325.57568
G1 X100.201 Y166.3 E327.7309
G0 F7200 X100.201 Y166.1
G0 X100.439 Y166.059
;TYPE:SKIN
G1 F1800 X100.662 Y165.999 E327.73291
G1 X166.282 Y165.999 E328.30267
G1 X229.356 Y165.999 E328.85033
G1 X229.568 Y165.929 E328.85227
G0 F7200 X229.534 Y165.9
G1 F1500 E322.35227
G1 F600 Z3.3
;MESH:NONMESH
G0 F7200 X229.534 Y165.9 Z3.3
G0 X100.201 Y164.3
;TIME_ELAPSED:604.088483
;LAYER:21
;MESH:Dwarsprofiel-120-2sporen.stl
G0 X100.201 Y164.3 Z3.4
;TYPE:WALL-OUTER
G1 F600 Z2.4
G1 F1500 E328.85227
G1 F1800 X100.201 Y163.7 E328.86224
G1 X229.799 Y163.7 E331.01747
G1 X229.799 Y164.3 E331.02745
G1 X100.201 Y164.3 E333.18267
G0 F7200 X100.201 Y164.1
G0 X100.479 Y163.977
;TYPE:SKIN
G1 F1800 X100.74 Y163.999 E333.18498
G1 X166.36 Y163.999 E333.76303
G1 X229.434 Y163.999 E334.31865
G0 F7200 X229.54 Y163.9
G1 F1500 E327.81865
G1 F600 Z3.4
G0 F7200 X229.54 Y163.9 Z3.4
G0 X100.201 Y166.3
;TYPE:WALL-OUTER
G1 F600 Z2.4
G1 F1500 E334.31865
G1 F1800 X100.201 Y165.7 E334.32863
G1 X229.799 Y165.7 E336.48385
G1 X229.799 Y166.3 E336.49383
G1 X100.201 Y166.3 E338.64905
G0 F7200 X100.201 Y166.1
G0 X100.469 Y165.967
;TYPE:SKIN
G1 F1800 X100.72 Y165.999 E338.65127
G1 X166.34 Y165.999 E339.22663
G1 X229.414 Y165.999 E339.77966
G0 F7200 X229.519 Y165.9
G1 F1500 E333.27966
G1 F600 Z3.4
;MESH:NONMESH
G0 F7200 X229.519 Y165.9 Z3.4
G0 X100.201 Y164.3
;TIME_ELAPSED:633.330909
;LAYER:22
;MESH:Dwarsprofiel-120-2sporen.stl
G0 X100.201 Y164.3 Z3.5
;TYPE:WALL-OUTER
G1 F600 Z2.5
G1 F1500 E339.77966
G1 F1800 X100.201 Y163.7 E339.78964
G1 X229.799 Y163.7 E341.94487
G1 X229.799 Y164.3 E341.95484
G1 X100.201 Y164.3 E344.11007
G0 F7200 X100.201 Y164.1
G0 X100.43 Y164.069
;TYPE:SKIN
G1 F1800 X100.642 Y163.999 E344.11201
G1 X166.262 Y163.999 E344.6831
G1 X229.336 Y163.999 E345.23203
G1 X229.558 Y163.938 E345.23403
G0 F7200 X229.514 Y163.9
G1 F1500 E338.73403
G1 F600 Z3.5
G0 F7200 X229.514 Y163.9 Z3.5
G0 X100.201 Y166.3
;TYPE:WALL-OUTER
G1 F600 Z2.5
G1 F1500 E345.23403
G1 F1800 X100.201 Y165.7 E345.24401
G1 X229.799 Y165.7 E347.39923
G1 X229.799 Y166.3 E347.40921
G1 X100.201 Y166.3 E349.56443
G0 F7200 X100.201 Y166.1
G0 X100.439 Y166.059
;TYPE:SKIN
G1 F1800 X100.662 Y165.999 E349.56644
G1 X166.282 Y165.999 E350.1362
G1 X229.356 Y165.999 E350.68386
G1 X229.568 Y165.929 E350.6858
G0 F7200 X229.534 Y165.9
G1 F1500 E344.1858
G1 F600 Z3.5
;MESH:NONMESH
G0 F7200 X229.534 Y165.9 Z3.5
G0 X100.201 Y164.3
;TIME_ELAPSED:662.577883
;LAYER:23
;MESH:Dwarsprofiel-120-2sporen.stl
G0 X100.201 Y164.3 Z3.6
;TYPE:WALL-OUTER
G1 F600 Z2.6
G1 F1500 E350.6858
G1 F1800 X100.201 Y163.7 E350.69577
G1 X229.799 Y163.7 E352.851
G1 X229.799 Y164.3 E352.86098
G1 X100.201 Y164.3 E355.0162
G0 F7200 X100.201 Y164.1
G0 X100.479 Y163.977
;TYPE:SKIN
G1 F1800 X100.74 Y163.999 E355.01851
G1 X166.36 Y163.999 E355.59656
G1 X229.434 Y163.999 E356.15218
G0 F7200 X229.54 Y163.9
G1 F1500 E349.65218
G1 F600 Z3.6
G0 F7200 X229.54 Y163.9 Z3.6
G0 X100.201 Y166.3
;TYPE:WALL-OUTER
G1 F600 Z2.6
G1 F1500 E356.15218
G1 F1800 X100.201 Y165.7 E356.16216
G1 X229.799 Y165.7 E358.31738
G1 X229.799 Y166.3 E358.32736
G1 X100.201 Y166.3 E360.48258
G0 F7200 X100.201 Y166.1
G0 X100.469 Y165.967
;TYPE:SKIN
G1 F1800 X100.72 Y165.999 E360.4848
G1 X166.34 Y165.999 E361.06016
G1 X229.414 Y165.999 E361.61319
G0 F7200 X229.519 Y165.9
G1 F1500 E355.11319
G1 F600 Z3.6
;MESH:NONMESH
G0 F7200 X229.519 Y165.9 Z3.6
G0 X100.201 Y164.3
;TIME_ELAPSED:691.820308
;LAYER:24
;MESH:Dwarsprofiel-120-2sporen.stl
G0 X100.201 Y164.3 Z3.7
;TYPE:WALL-OUTER
G1 F600 Z2.7
G1 F1500 E361.61319
G1 F1800 X100.201 Y163.7 E361.62317
G1 X229.799 Y163.7 E363.7784
G1 X229.799 Y164.3 E363.78837
G1 X100.201 Y164.3 E365.9436
G0 F7200 X100.201 Y164.1
G0 X100.43 Y164.069
;TYPE:SKIN
G1 F1800 X100.642 Y163.999 E365.94554
G1 X166.262 Y163.999 E366.51663
G1 X229.336 Y163.999 E367.06556
G1 X229.558 Y163.938 E367.06756
G0 F7200 X229.514 Y163.9
G1 F1500 E360.56756
G1 F600 Z3.7
G0 F7200 X229.514 Y163.9 Z3.7
G0 X100.201 Y166.3
;TYPE:WALL-OUTER
G1 F600 Z2.7
G1 F1500 E367.06756
G1 F1800 X100.201 Y165.7 E367.07754
G1 X229.799 Y165.7 E369.23276
G1 X229.799 Y166.3 E369.24274
G1 X100.201 Y166.3 E371.39796
G0 F7200 X100.201 Y166.1
G0 X100.439 Y166.059
;TYPE:SKIN
G1 F1800 X100.662 Y165.999 E371.39997
G1 X166.282 Y165.999 E371.96973
G1 X229.356 Y165.999 E372.51739
G1 X229.568 Y165.929 E372.51933
G0 F7200 X229.534 Y165.9
G1 F1500 E366.01933
G1 F600 Z3.7
;MESH:NONMESH
G0 F7200 X229.534 Y165.9 Z3.7
G0 X100.201 Y164.3
;TIME_ELAPSED:721.067283
;LAYER:25
;MESH:Dwarsprofiel-120-2sporen.stl
G0 X100.201 Y164.3 Z3.8
;TYPE:WALL-OUTER
G1 F600 Z2.8
G1 F1500 E372.51933
G1 F1800 X100.201 Y163.7 E372.5293
G1 X229.799 Y163.7 E374.68453
G1 X229.799 Y164.3 E374.6945
G1 X100.201 Y164.3 E376.84973
G0 F7200 X100.201 Y164.1
G0 X100.479 Y163.977
;TYPE:SKIN
G1 F1800 X100.74 Y163.999 E376.85204
G1 X166.36 Y163.999 E377.43009
G1 X229.434 Y163.999 E377.98571
G0 F7200 X229.54 Y163.9
G1 F1500 E371.48571
G1 F600 Z3.8
G0 F7200 X229.54 Y163.9 Z3.8
G0 X100.201 Y166.3
;TYPE:WALL-OUTER
G1 F600 Z2.8
G1 F1500 E377.98571
G1 F1800 X100.201 Y165.7 E377.99569
G1 X229.799 Y165.7 E380.15091
G1 X229.799 Y166.3 E380.16089
G1 X100.201 Y166.3 E382.31611
G0 F7200 X100.201 Y166.1
G0 X100.469 Y165.967
;TYPE:SKIN
G1 F1800 X100.72 Y165.999 E382.31833
G1 X166.34 Y165.999 E382.89369
G1 X229.414 Y165.999 E383.44672
G0 F7200 X229.519 Y165.9
G1 F1500 E376.94672
G1 F600 Z3.8
;MESH:NONMESH
G0 F7200 X229.519 Y165.9 Z3.8
G0 X100.201 Y164.3
;TIME_ELAPSED:750.309708
;LAYER:26
;MESH:Dwarsprofiel-120-2sporen.stl
G0 X100.201 Y164.3 Z3.9
;TYPE:WALL-OUTER
G1 F600 Z2.9
G1 F1500 E383.44672
G1 F1800 X100.201 Y163.7 E383.4567
G1 X229.799 Y163.7 E385.61193
G1 X229.799 Y164.3 E385.6219
G1 X100.201 Y164.3 E387.77713
G0 F7200 X100.201 Y164.1
G0 X100.43 Y164.069
;TYPE:SKIN
G1 F1800 X100.642 Y163.999 E387.77907
G1 X166.262 Y163.999 E388.35016
G1 X229.336 Y163.999 E388.89909
G1 X229.558 Y163.938 E388.90109
G0 F7200 X229.514 Y163.9
G1 F1500 E382.40109
G1 F600 Z3.9
G0 F7200 X229.514 Y163.9 Z3.9
G0 X100.201 Y166.3
;TYPE:WALL-OUTER
G1 F600 Z2.9
G1 F1500 E388.90109
G1 F1800 X100.201 Y165.7 E388.91107
G1 X229.799 Y165.7 E391.06629
G1 X229.799 Y166.3 E391.07627
G1 X100.201 Y166.3 E393.23149
G0 F7200 X100.201 Y166.1
G0 X100.439 Y166.059
;TYPE:SKIN
G1 F1800 X100.662 Y165.999 E393.2335
G1 X166.282 Y165.999 E393.80326
G1 X229.356 Y165.999 E394.35092
G1 X229.568 Y165.929 E394.35285
G0 F7200 X229.534 Y165.9
G1 F1500 E387.85285
G1 F600 Z3.9
;MESH:NONMESH
G0 F7200 X229.534 Y165.9 Z3.9
G0 X100.201 Y164.3
;TIME_ELAPSED:779.556682
;LAYER:27
;MESH:Dwarsprofiel-120-2sporen.stl
G0 X100.201 Y164.3 Z4
;TYPE:WALL-OUTER
G1 F600 Z3
G1 F1500 E394.35285
G1 F1800 X100.201 Y163.7 E394.36283
G1 X229.799 Y163.7 E396.51806
G1 X229.799 Y164.3 E396.52803
G1 X100.201 Y164.3 E398.68326
G0 F7200 X100.201 Y164.1
G0 X100.479 Y163.977
;TYPE:SKIN
G1 F1800 X100.74 Y163.999 E398.68557
G1 X166.36 Y163.999 E399.26362
G1 X229.434 Y163.999 E399.81924
G0 F7200 X229.54 Y163.9
G1 F1500 E393.31924
G1 F600 Z4
G0 F7200 X229.54 Y163.9 Z4
G0 X100.201 Y166.3
;TYPE:WALL-OUTER
G1 F600 Z3
G1 F1500 E399.81924
G1 F1800 X100.201 Y165.7 E399.82922
G1 X229.799 Y165.7 E401.98444
G1 X229.799 Y166.3 E401.99442
G1 X100.201 Y166.3 E404.14964
G0 F7200 X100.201 Y166.1
G0 X100.469 Y165.967
;TYPE:SKIN
G1 F1800 X100.72 Y165.999 E404.15186
G1 X166.34 Y165.999 E404.72722
G1 X229.414 Y165.999 E405.28025
G0 F7200 X229.519 Y165.9
;TIME_ELAPSED:807.421167
G1 F1500 E398.78025
M140 S0
M107
M107 T0
M104 S0
M104 S0 T1
M140 S0
G92 E0
G91
G1 E-1 F300
G1 Z+0.5 E-5 X-20 Y-20 F9000
G28 X0 Y0
M84 ;steppers off
G90 ;absolute positioning
M104 S0
;G1 E-1 F300
;G28 X0 Y0
;M84
M82 ;absolute extrusion mode
M104 S0
;End of Gcode
;SETTING_3 {"extruder_quality": ["[general]\\nversion = 4\\nname = Test001\\ndef
;SETTING_3 inition = custom\\n\\n[metadata]\\nsetting_version = 13\\nintent_cate
;SETTING_3 gory = default\\nquality_type = draft\\nposition = 0\\ntype = quality
;SETTING_3 _changes\\n\\n[values]\\ngradual_infill_steps = 5\\ninfill_pattern = 
;SETTING_3 concentric\\ninfill_sparse_density = 20\\nmaterial_print_temperature 
;SETTING_3 = 210\\nretraction_hop_enabled = True\\nwall_line_count = 3\\n\\n", "
;SETTING_3 [general]\\nversion = 4\\nname = Test001\\ndefinition = fdmprinter\\n
;SETTING_3 \\n[metadata]\\nsetting_version = 13\\nintent_category = default\\nqu
;SETTING_3 ality_type = normal\\nposition = 1\\ntype = quality_changes\\n\\n[val
;SETTING_3 ues]\\n\\n", "[general]\\nversion = 4\\nname = Test001\\ndefinition =
;SETTING_3  fdmprinter\\n\\n[metadata]\\nsetting_version = 13\\nintent_category 
;SETTING_3 = default\\nquality_type = normal\\nposition = 2\\ntype = quality_cha
;SETTING_3 nges\\n\\n[values]\\n\\n", "[general]\\nversion = 4\\nname = Test001\
;SETTING_3 \ndefinition = fdmprinter\\n\\n[metadata]\\nsetting_version = 13\\nin
;SETTING_3 tent_category = default\\nquality_type = normal\\nposition = 3\\ntype
;SETTING_3  = quality_changes\\n\\n[values]\\n\\n", "[general]\\nversion = 4\\nn
;SETTING_3 ame = Test001\\ndefinition = fdmprinter\\n\\n[metadata]\\nsetting_ver
;SETTING_3 sion = 13\\nintent_category = default\\nquality_type = normal\\nposit
;SETTING_3 ion = 4\\ntype = quality_changes\\n\\n[values]\\n\\n", "[general]\\nv
;SETTING_3 ersion = 4\\nname = Test001\\ndefinition = fdmprinter\\n\\n[metadata]
;SETTING_3 \\nsetting_version = 13\\nintent_category = default\\nquality_type = 
;SETTING_3 normal\\nposition = 5\\ntype = quality_changes\\n\\n[values]\\n\\n", 
;SETTING_3 "[general]\\nversion = 4\\nname = Test001\\ndefinition = fdmprinter\\
;SETTING_3 n\\n[metadata]\\nsetting_version = 13\\nintent_category = default\\nq
;SETTING_3 uality_type = normal\\nposition = 6\\ntype = quality_changes\\n\\n[va
;SETTING_3 lues]\\n\\n", "[general]\\nversion = 4\\nname = Test001\\ndefinition 
;SETTING_3 = fdmprinter\\n\\n[metadata]\\nsetting_version = 13\\nintent_category
;SETTING_3  = default\\nquality_type = normal\\nposition = 7\\ntype = quality_ch
;SETTING_3 anges\\n\\n[values]\\n\\n"], "global_quality": "[general]\\nversion =
;SETTING_3  4\\nname = Test001\\ndefinition = custom\\n\\n[metadata]\\nsetting_v
;SETTING_3 ersion = 13\\nquality_type = draft\\ntype = quality_changes\\n\\n[val
;SETTING_3 ues]\\nadhesion_type = skirt\\nmaterial_bed_temperature = 48\\n\\n"}
