;FLAVOR:Marlin
;TIME:1547
;Filament used: 0.788792m
;Layer height: 0.1
;MINX:35.134
;MINY:160.3
;MINZ:0.3
;MAXX:294.866
;MAXY:169.7
;MAXZ:4
;POSTPROCESSED
;Generated with Cura_SteamEngine 4.6.1
M82 ;absolute extrusion mode
G21
G90
M82
M107 T0
M140 S48
M104 S210 T0
M190 S48
M109 S210 T0
G28
G92 E0
G1 Z15.0 F120
G0 E3 F200
G92 E0
G92 E0
G92 E0
G1 F1500 E-6.5
;LAYER_COUNT:28
;LAYER:0
M107
G1 F600 Z1.3
G0 F3600 X292.206 Y160.357 Z1.3
;TYPE:SKIRT
G1 F600 Z0.3
G1 F1500 E0
G1 F1800 X292.696 Y160.483 E0.02524
G1 X293.16 Y160.685 E0.05049
G1 X293.586 Y160.957 E0.07571
G1 X293.964 Y161.292 E0.1009
G1 X294.284 Y161.683 E0.12611
G1 X294.539 Y162.12 E0.15135
G1 X294.722 Y162.591 E0.17656
G1 X294.829 Y163.085 E0.20178
G1 X294.865 Y163.74 E0.23451
G1 X294.866 Y165.804 E0.33748
G1 X294.856 Y166.537 E0.37405
G1 X294.808 Y167.041 E0.39931
G1 X294.682 Y167.53 E0.42451
G1 X294.481 Y167.994 E0.44973
G1 X294.209 Y168.42 E0.47495
G1 X293.873 Y168.798 E0.50018
G1 X293.482 Y169.119 E0.52542
G1 X293.046 Y169.374 E0.55062
G1 X292.574 Y169.556 E0.57586
G1 X292.08 Y169.663 E0.60107
G1 X291.426 Y169.699 E0.63375
G1 X39 Y169.7 E13.22734
G1 X38.302 Y169.691 E13.26216
G1 X37.798 Y169.644 E13.28742
G1 X37.308 Y169.519 E13.31265
G1 X36.844 Y169.318 E13.33787
G1 X36.418 Y169.047 E13.36306
G1 X36.039 Y168.712 E13.3883
G1 X35.718 Y168.321 E13.41354
G1 X35.463 Y167.885 E13.43874
G1 X35.279 Y167.414 E13.46396
G1 X35.172 Y166.92 E13.48918
G1 X35.135 Y166.244 E13.52296
G1 X35.134 Y164.126 E13.62863
G1 X35.144 Y163.461 E13.66181
G1 X35.192 Y162.958 E13.68701
G1 X35.318 Y162.468 E13.71226
G1 X35.52 Y162.004 E13.7375
G1 X35.792 Y161.578 E13.76272
G1 X36.128 Y161.201 E13.78791
G1 X36.519 Y160.88 E13.81315
G1 X36.956 Y160.626 E13.83837
G1 X37.427 Y160.443 E13.86358
G1 X37.922 Y160.337 E13.88884
G1 X38.574 Y160.301 E13.92141
G1 X291.005 Y160.3 E26.51525
G1 X291.703 Y160.31 E26.55007
G1 X292.206 Y160.357 E26.57528
G1 F1500 E20.07528
G1 F600 Z1.3
;MESH:Dwarsprofiel-243-4sporen.stl
G0 F3600 X38.534 Y164.3 Z1.3
;TYPE:WALL-OUTER
G1 F600 Z0.3
G1 F1500 E26.57528
G1 F1800 X38.534 Y163.7 E26.60521
G1 X291.466 Y163.7 E39.22404
G1 X291.466 Y164.3 E39.25398
G1 X38.534 Y164.3 E51.8728
G0 F3600 X38.534 Y164.1
G0 X38.766 Y164.066
;TYPE:SKIN
G1 F1800 X38.983 Y163.999 E51.87873
G1 X104.602 Y163.999 E53.59158
G1 X170.222 Y163.999 E55.30446
G1 X235.841 Y163.999 E57.01731
G1 X290.996 Y163.999 E58.45701
G1 X291.221 Y163.942 E58.46307
G0 F3600 X291.173 Y163.9
G1 F1500 E51.96307
G1 F600 Z1.3
G0 F3600 X291.173 Y163.9 Z1.3
G0 X38.534 Y166.3
;TYPE:WALL-OUTER
G1 F600 Z0.3
G1 F1500 E58.46307
G1 F1800 X38.534 Y165.7 E58.49301
G1 X291.466 Y165.7 E71.11184
G1 X291.466 Y166.3 E71.14177
G1 X38.534 Y166.3 E83.7606
G0 F3600 X38.534 Y166.1
G0 X38.776 Y166.056
;TYPE:SKIN
G1 F1800 X39.002 Y165.999 E83.76667
G1 X104.622 Y165.999 E85.47551
G1 X170.241 Y165.999 E87.18433
G1 X235.861 Y165.999 E88.89318
G1 X291.015 Y165.999 E90.32948
G1 X291.232 Y165.933 E90.33538
M104 S210
G0 F3600 X291.194 Y165.9
G1 F1500 E83.83538
G1 F600 Z1.3
;MESH:NONMESH
G0 F3600 X291.194 Y165.9 Z1.3
G0 X38.534 Y164.3
;TIME_ELAPSED:89.411014
;LAYER:1
M140 S48
M106 S255
;MESH:Dwarsprofiel-243-4sporen.stl
G0 F5400 X38.534 Y164.3 Z1.4
;TYPE:WALL-OUTER
G1 F600 Z0.4
G1 F1500 E90.33538
G1 F1800 X38.534 Y163.7 E90.34536
G1 X291.466 Y163.7 E94.55164
G1 X291.466 Y164.3 E94.56161
G1 X38.534 Y164.3 E98.76789
G0 F5400 X38.534 Y164.1
G0 X38.816 Y163.981
;TYPE:SKIN
G1 F1800 X39.081 Y163.999 E98.77023
G1 X104.7 Y163.999 E99.34757
G1 X170.32 Y163.999 E99.92492
G1 X235.939 Y163.999 E100.50226
G1 X291.094 Y163.999 E100.98754
G0 F5400 X291.2 Y163.9
G1 F1500 E94.48754
G1 F600 Z1.4
G0 F5400 X291.2 Y163.9 Z1.4
G0 X38.534 Y166.3
;TYPE:WALL-OUTER
G1 F600 Z0.4
G1 F1500 E100.98754
G1 F1800 X38.534 Y165.7 E100.99752
G1 X291.466 Y165.7 E105.20379
G1 X291.466 Y166.3 E105.21377
G1 X38.534 Y166.3 E109.42005
G0 F5400 X38.534 Y166.1
G0 X38.806 Y165.971
;TYPE:SKIN
G1 F1800 X39.06 Y165.999 E109.42229
G1 X104.68 Y165.999 E109.99704
G1 X170.299 Y165.999 E110.57179
G1 X235.919 Y165.999 E111.14655
G1 X291.073 Y165.999 E111.62964
G0 F5400 X291.179 Y165.9
G1 F1500 E105.12964
G1 F600 Z1.4
;MESH:NONMESH
G0 F5400 X291.179 Y165.9 Z1.4
G0 X38.534 Y164.3
;TIME_ELAPSED:146.763036
;LAYER:2
;MESH:Dwarsprofiel-243-4sporen.stl
G0 F7200 X38.534 Y164.3 Z1.5
;TYPE:WALL-OUTER
G1 F600 Z0.5
G1 F1500 E111.62964
G1 F1800 X38.534 Y163.7 E111.63962
G1 X291.466 Y163.7 E115.84589
G1 X291.466 Y164.3 E115.85587
G1 X38.534 Y164.3 E120.06215
G0 F7200 X38.534 Y164.1
G0 X38.766 Y164.066
;TYPE:SKIN
G1 F1800 X38.983 Y163.999 E120.06412
G1 X104.602 Y163.999 E120.63507
G1 X170.222 Y163.999 E121.20603
G1 X235.841 Y163.999 E121.77698
G1 X290.996 Y163.999 E122.25688
G1 X291.221 Y163.942 E122.2589
G0 F7200 X291.173 Y163.9
G1 F1500 E115.7589
G1 F600 Z1.5
G0 F7200 X291.173 Y163.9 Z1.5
G0 X38.534 Y166.3
;TYPE:WALL-OUTER
G1 F600 Z0.5
G1 F1500 E122.2589
G1 F1800 X38.534 Y165.7 E122.26888
G1 X291.466 Y165.7 E126.47516
G1 X291.466 Y166.3 E126.48514
G1 X38.534 Y166.3 E130.69141
G0 F7200 X38.534 Y166.1
G0 X38.776 Y166.056
;TYPE:SKIN
G1 F1800 X39.002 Y165.999 E130.69344
G1 X104.622 Y165.999 E131.26305
G1 X170.241 Y165.999 E131.83266
G1 X235.861 Y165.999 E132.40227
G1 X291.015 Y165.999 E132.88104
G1 X291.232 Y165.933 E132.88301
G0 F7200 X291.194 Y165.9
G1 F1500 E126.38301
G1 F600 Z1.5
;MESH:NONMESH
G0 F7200 X291.194 Y165.9 Z1.5
G0 X38.534 Y164.3
;TIME_ELAPSED:202.732272
;LAYER:3
;MESH:Dwarsprofiel-243-4sporen.stl
G0 X38.534 Y164.3 Z1.6
;TYPE:WALL-OUTER
G1 F600 Z0.6
G1 F1500 E132.88301
G1 F1800 X38.534 Y163.7 E132.89298
G1 X291.466 Y163.7 E137.09926
G1 X291.466 Y164.3 E137.10924
G1 X38.534 Y164.3 E141.31552
G0 F7200 X38.534 Y164.1
G0 X38.816 Y163.981
;TYPE:SKIN
G1 F1800 X39.081 Y163.999 E141.31785
G1 X104.7 Y163.999 E141.89519
G1 X170.32 Y163.999 E142.47255
G1 X235.939 Y163.999 E143.04989
G1 X291.094 Y163.999 E143.53517
G0 F7200 X291.2 Y163.9
G1 F1500 E137.03517
G1 F600 Z1.6
G0 F7200 X291.2 Y163.9 Z1.6
G0 X38.534 Y166.3
;TYPE:WALL-OUTER
G1 F600 Z0.6
G1 F1500 E143.53517
G1 F1800 X38.534 Y165.7 E143.54514
G1 X291.466 Y165.7 E147.75142
G1 X291.466 Y166.3 E147.7614
G1 X38.534 Y166.3 E151.96767
G0 F7200 X38.534 Y166.1
G0 X38.806 Y165.971
;TYPE:SKIN
G1 F1800 X39.06 Y165.999 E151.96991
G1 X104.68 Y165.999 E152.54467
G1 X170.299 Y165.999 E153.11942
G1 X235.919 Y165.999 E153.69418
G1 X291.073 Y165.999 E154.17726
G0 F7200 X291.179 Y165.9
G1 F1500 E147.67726
G1 F600 Z1.6
;MESH:NONMESH
G0 F7200 X291.179 Y165.9 Z1.6
G0 X38.534 Y164.3
;TIME_ELAPSED:258.696236
;LAYER:4
;MESH:Dwarsprofiel-243-4sporen.stl
G0 X38.534 Y164.3 Z1.7
;TYPE:WALL-OUTER
G1 F600 Z0.7
G1 F1500 E154.17726
G1 F1800 X38.534 Y163.7 E154.18724
G1 X291.466 Y163.7 E158.39352
G1 X291.466 Y164.3 E158.4035
G1 X38.534 Y164.3 E162.60977
G0 F7200 X38.534 Y164.1
G0 X38.766 Y164.066
;TYPE:SKIN
G1 F1800 X38.983 Y163.999 E162.61175
G1 X104.602 Y163.999 E163.1827
G1 X170.222 Y163.999 E163.75366
G1 X235.841 Y163.999 E164.32461
G1 X290.996 Y163.999 E164.80451
G1 X291.221 Y163.942 E164.80653
G0 F7200 X291.173 Y163.9
G1 F1500 E158.30653
G1 F600 Z1.7
G0 F7200 X291.173 Y163.9 Z1.7
G0 X38.534 Y166.3
;TYPE:WALL-OUTER
G1 F600 Z0.7
G1 F1500 E164.80653
G1 F1800 X38.534 Y165.7 E164.81651
G1 X291.466 Y165.7 E169.02278
G1 X291.466 Y166.3 E169.03276
G1 X38.534 Y166.3 E173.23904
G0 F7200 X38.534 Y166.1
G0 X38.776 Y166.056
;TYPE:SKIN
G1 F1800 X39.002 Y165.999 E173.24106
G1 X104.622 Y165.999 E173.81068
G1 X170.241 Y165.999 E174.38028
G1 X235.861 Y165.999 E174.9499
G1 X291.015 Y165.999 E175.42866
G1 X291.232 Y165.933 E175.43063
G0 F7200 X291.194 Y165.9
G1 F1500 E168.93063
G1 F600 Z1.7
;MESH:NONMESH
G0 F7200 X291.194 Y165.9 Z1.7
G0 X38.534 Y164.3
;TIME_ELAPSED:314.665472
;LAYER:5
;MESH:Dwarsprofiel-243-4sporen.stl
G0 X38.534 Y164.3 Z1.8
;TYPE:WALL-OUTER
G1 F600 Z0.8
G1 F1500 E175.43063
G1 F1800 X38.534 Y163.7 E175.44061
G1 X291.466 Y163.7 E179.64689
G1 X291.466 Y164.3 E179.65686
G1 X38.534 Y164.3 E183.86314
G0 F7200 X38.534 Y164.1
G0 X38.816 Y163.981
;TYPE:SKIN
G1 F1800 X39.081 Y163.999 E183.86548
G1 X104.7 Y163.999 E184.44282
G1 X170.32 Y163.999 E185.02017
G1 X235.939 Y163.999 E185.59751
G1 X291.094 Y163.999 E186.08279
G0 F7200 X291.2 Y163.9
G1 F1500 E179.58279
G1 F600 Z1.8
G0 F7200 X291.2 Y163.9 Z1.8
G0 X38.534 Y166.3
;TYPE:WALL-OUTER
G1 F600 Z0.8
G1 F1500 E186.08279
G1 F1800 X38.534 Y165.7 E186.09277
G1 X291.466 Y165.7 E190.29904
G1 X291.466 Y166.3 E190.30902
G1 X38.534 Y166.3 E194.5153
G0 F7200 X38.534 Y166.1
G0 X38.806 Y165.971
;TYPE:SKIN
G1 F1800 X39.06 Y165.999 E194.51754
G1 X104.68 Y165.999 E195.09229
G1 X170.299 Y165.999 E195.66704
G1 X235.919 Y165.999 E196.2418
G1 X291.073 Y165.999 E196.72489
G0 F7200 X291.179 Y165.9
G1 F1500 E190.22489
G1 F600 Z1.8
;MESH:NONMESH
G0 F7200 X291.179 Y165.9 Z1.8
G0 X38.534 Y164.3
;TIME_ELAPSED:370.629436
;LAYER:6
;MESH:Dwarsprofiel-243-4sporen.stl
G0 X38.534 Y164.3 Z1.9
;TYPE:WALL-OUTER
G1 F600 Z0.9
G1 F1500 E196.72489
G1 F1800 X38.534 Y163.7 E196.73487
G1 X291.466 Y163.7 E200.94114
G1 X291.466 Y164.3 E200.95112
G1 X38.534 Y164.3 E205.1574
G0 F7200 X38.534 Y164.1
G0 X38.766 Y164.066
;TYPE:SKIN
G1 F1800 X38.983 Y163.999 E205.15937
G1 X104.602 Y163.999 E205.73032
G1 X170.222 Y163.999 E206.30128
G1 X235.841 Y163.999 E206.87223
G1 X290.996 Y163.999 E207.35213
G1 X291.221 Y163.942 E207.35415
G0 F7200 X291.173 Y163.9
G1 F1500 E200.85415
G1 F600 Z1.9
G0 F7200 X291.173 Y163.9 Z1.9
G0 X38.534 Y166.3
;TYPE:WALL-OUTER
G1 F600 Z0.9
G1 F1500 E207.35415
G1 F1800 X38.534 Y165.7 E207.36413
G1 X291.466 Y165.7 E211.57041
G1 X291.466 Y166.3 E211.58039
G1 X38.534 Y166.3 E215.78666
G0 F7200 X38.534 Y166.1
G0 X38.776 Y166.056
;TYPE:SKIN
G1 F1800 X39.002 Y165.999 E215.78868
G1 X104.622 Y165.999 E216.3583
G1 X170.241 Y165.999 E216.92791
G1 X235.861 Y165.999 E217.49752
G1 X291.015 Y165.999 E217.97629
G1 X291.232 Y165.933 E217.97826
G0 F7200 X291.194 Y165.9
G1 F1500 E211.47826
G1 F600 Z1.9
;MESH:NONMESH
G0 F7200 X291.194 Y165.9 Z1.9
G0 X38.534 Y164.3
;TIME_ELAPSED:426.598673
;LAYER:7
;MESH:Dwarsprofiel-243-4sporen.stl
G0 X38.534 Y164.3 Z2
;TYPE:WALL-OUTER
G1 F600 Z1
G1 F1500 E217.97826
G1 F1800 X38.534 Y163.7 E217.98823
G1 X291.466 Y163.7 E222.19451
G1 X291.466 Y164.3 E222.20449
G1 X38.534 Y164.3 E226.41076
G0 F7200 X38.534 Y164.1
G0 X38.816 Y163.981
;TYPE:SKIN
G1 F1800 X39.081 Y163.999 E226.4131
G1 X104.7 Y163.999 E226.99044
G1 X170.32 Y163.999 E227.5678
G1 X235.939 Y163.999 E228.14514
G1 X291.094 Y163.999 E228.63041
G0 F7200 X291.2 Y163.9
G1 F1500 E222.13041
G1 F600 Z2
G0 F7200 X291.2 Y163.9 Z2
G0 X38.534 Y166.3
;TYPE:WALL-OUTER
G1 F600 Z1
G1 F1500 E228.63041
G1 F1800 X38.534 Y165.7 E228.64039
G1 X291.466 Y165.7 E232.84667
G1 X291.466 Y166.3 E232.85665
G1 X38.534 Y166.3 E237.06292
G0 F7200 X38.534 Y166.1
G0 X38.806 Y165.971
;TYPE:SKIN
G1 F1800 X39.06 Y165.999 E237.06516
G1 X104.68 Y165.999 E237.63992
G1 X170.299 Y165.999 E238.21467
G1 X235.919 Y165.999 E238.78943
G1 X291.073 Y165.999 E239.27251
G0 F7200 X291.179 Y165.9
;MESH:NONMESH
G0 F600 X291.179 Y165.9 Z1.1
G0 F7200 X39.334 Y165.8
G0 X39.334 Y165.5
;TIME_ELAPSED:482.336583
;LAYER:8
;TYPE:WALL-INNER
;MESH:Dwarsprofiel-243-4sporen.stl
G1 F3600 X39.334 Y164.5 E239.28914
G1 X290.666 Y164.5 E243.46881
G1 X290.666 Y165.5 E243.48544
G1 X39.334 Y165.5 E247.66511
G0 F7200 X38.934 Y165.9
G1 F3600 X38.934 Y164.1 E247.69504
G1 X291.066 Y164.1 E251.88802
G1 X291.066 Y165.9 E251.91795
G1 X38.934 Y165.9 E256.11092
G0 F7200 X38.534 Y166.3
;TYPE:WALL-OUTER
G1 F1800 X38.534 Y163.7 E256.15416
G1 X291.466 Y163.7 E260.36044
G1 X291.466 Y166.3 E260.40367
G1 X38.534 Y166.3 E264.60995
G0 F7200 X38.534 Y166.1
G0 X39.004 Y165.83
G0 X39.724 Y165.11
;TYPE:SKIN
G1 F1800 X39.724 Y164.89 E264.61361
G1 X290.276 Y164.89 E268.78031
G1 X290.276 Y165.11 E268.78397
G1 X39.724 Y165.11 E272.95066
;MESH:NONMESH
G0 F600 X39.724 Y165.11 Z1.2
G0 F7200 X39.334 Y165.5
;TIME_ELAPSED:533.195076
;LAYER:9
;TYPE:WALL-INNER
;MESH:Dwarsprofiel-243-4sporen.stl
G1 F3600 X39.334 Y164.5 E272.96729
G1 X290.666 Y164.5 E277.14696
G1 X290.666 Y165.5 E277.16359
G1 X39.334 Y165.5 E281.34326
G0 F7200 X38.934 Y165.9
G1 F3600 X38.934 Y164.1 E281.37319
G1 X291.066 Y164.1 E285.56616
G1 X291.066 Y165.9 E285.5961
G1 X38.934 Y165.9 E289.78907
G0 F7200 X38.534 Y166.3
;TYPE:WALL-OUTER
G1 F1800 X38.534 Y163.7 E289.83231
G1 X291.466 Y163.7 E294.03859
G1 X291.466 Y166.3 E294.08182
G1 X38.534 Y166.3 E298.2881
G0 F7200 X38.534 Y166.1
G0 X39.004 Y165.83
G0 X39.724 Y165.11
;TYPE:SKIN
G1 F1800 X39.724 Y164.89 E298.29176
G1 X290.276 Y164.89 E302.45845
G1 X290.276 Y165.11 E302.46211
G1 X39.724 Y165.11 E306.62881
;MESH:NONMESH
G0 F600 X39.724 Y165.11 Z1.3
G0 F7200 X39.334 Y165.5
;TIME_ELAPSED:584.053569
;TYPE:CUSTOM
;added code by post processing
;script: PauseAtHeight.py
;current layer: 10
M83 ; switch to relative E values for any needed retraction
G1 F300 Z2.3 ; move up a millimeter to get out of the way
G1 F9000 X190 Y190
G1 F300 Z15 ; too close to bed--move to at least 15mm
M104 S0 ; standby temperature
M0 ; Do the actual pause
M109 S210 ; resume temperature
G1 F300 Z2.3
G1 F9000 X39.334 Y164.5
G1 F300 Z1.3 ; move back down to resume height
G1 F1800 ; restore extrusion feedrate
M82 ; switch back to absolute E values
G92 E306.62881
;LAYER:10
;TYPE:WALL-INNER
;MESH:Dwarsprofiel-243-4sporen.stl
G1 F3600 X39.334 Y164.5 E306.64544
G1 X290.666 Y164.5 E310.82511
G1 X290.666 Y165.5 E310.84174
G1 X39.334 Y165.5 E315.02141
G0 F7200 X38.934 Y165.9
G1 F3600 X38.934 Y164.1 E315.05134
G1 X291.066 Y164.1 E319.24431
G1 X291.066 Y165.9 E319.27425
G1 X38.934 Y165.9 E323.46722
G0 F7200 X38.534 Y166.3
;TYPE:WALL-OUTER
G1 F1800 X38.534 Y163.7 E323.51046
G1 X291.466 Y163.7 E327.71673
G1 X291.466 Y166.3 E327.75997
G1 X38.534 Y166.3 E331.96625
G0 F7200 X38.534 Y166.1
G0 X39.004 Y165.83
G0 X39.724 Y165.11
;TYPE:SKIN
G1 F1800 X39.724 Y164.89 E331.96991
G1 X290.276 Y164.89 E336.1366
G1 X290.276 Y165.11 E336.14026
G1 X39.724 Y165.11 E340.30696
;MESH:NONMESH
G0 F600 X39.724 Y165.11 Z1.4
G0 F7200 X39.334 Y165.5
;TIME_ELAPSED:634.912062
;LAYER:11
;TYPE:WALL-INNER
;MESH:Dwarsprofiel-243-4sporen.stl
G1 F3600 X39.334 Y164.5 E340.32359
G1 X290.666 Y164.5 E344.50326
G1 X290.666 Y165.5 E344.51989
G1 X39.334 Y165.5 E348.69955
G0 F7200 X38.934 Y165.9
G1 F3600 X38.934 Y164.1 E348.72949
G1 X291.066 Y164.1 E352.92246
G1 X291.066 Y165.9 E352.9524
G1 X38.934 Y165.9 E357.14537
G0 F7200 X38.534 Y166.3
;TYPE:WALL-OUTER
G1 F1800 X38.534 Y163.7 E357.18861
G1 X291.466 Y163.7 E361.39488
G1 X291.466 Y166.3 E361.43812
G1 X38.534 Y166.3 E365.6444
G0 F7200 X38.534 Y166.1
G0 X39.004 Y165.83
G0 X39.724 Y165.11
;TYPE:SKIN
G1 F1800 X39.724 Y164.89 E365.64806
G1 X290.276 Y164.89 E369.81475
G1 X290.276 Y165.11 E369.81841
G1 X39.724 Y165.11 E373.98511
;MESH:NONMESH
G0 F600 X39.724 Y165.11 Z1.5
G0 F7200 X39.334 Y165.5
;TIME_ELAPSED:685.770555
;LAYER:12
;TYPE:WALL-INNER
;MESH:Dwarsprofiel-243-4sporen.stl
G1 F3600 X39.334 Y164.5 E374.00174
G1 X290.666 Y164.5 E378.18141
G1 X290.666 Y165.5 E378.19804
G1 X39.334 Y165.5 E382.3777
G0 F7200 X38.934 Y165.9
G1 F3600 X38.934 Y164.1 E382.40764
G1 X291.066 Y164.1 E386.60061
G1 X291.066 Y165.9 E386.63054
G1 X38.934 Y165.9 E390.82352
G0 F7200 X38.534 Y166.3
;TYPE:WALL-OUTER
G1 F1800 X38.534 Y163.7 E390.86675
G1 X291.466 Y163.7 E395.07303
G1 X291.466 Y166.3 E395.11627
G1 X38.534 Y166.3 E399.32254
G0 F7200 X38.534 Y166.1
G0 X39.004 Y165.83
G0 X39.724 Y165.11
;TYPE:SKIN
G1 F1800 X39.724 Y164.89 E399.3262
G1 X290.276 Y164.89 E403.4929
G1 X290.276 Y165.11 E403.49656
G1 X39.724 Y165.11 E407.66326
;MESH:NONMESH
G0 F600 X39.724 Y165.11 Z1.6
G0 F7200 X39.334 Y165.5
;TIME_ELAPSED:736.629047
;LAYER:13
;TYPE:WALL-INNER
;MESH:Dwarsprofiel-243-4sporen.stl
G1 F3600 X39.334 Y164.5 E407.67989
G1 X290.666 Y164.5 E411.85955
G1 X290.666 Y165.5 E411.87618
G1 X39.334 Y165.5 E416.05585
G0 F7200 X38.934 Y165.9
G1 F3600 X38.934 Y164.1 E416.08579
G1 X291.066 Y164.1 E420.27876
G1 X291.066 Y165.9 E420.30869
G1 X38.934 Y165.9 E424.50166
G0 F7200 X38.534 Y166.3
;TYPE:WALL-OUTER
G1 F1800 X38.534 Y163.7 E424.5449
G1 X291.466 Y163.7 E428.75118
G1 X291.466 Y166.3 E428.79442
G1 X38.534 Y166.3 E433.00069
G0 F7200 X38.534 Y166.1
G0 X39.004 Y165.83
G0 X39.724 Y165.11
;TYPE:SKIN
G1 F1800 X39.724 Y164.89 E433.00435
G1 X290.276 Y164.89 E437.17105
G1 X290.276 Y165.11 E437.17471
G1 X39.724 Y165.11 E441.3414
;MESH:NONMESH
G0 F600 X39.724 Y165.11 Z1.7
G0 F7200 X39.334 Y165.5
;TIME_ELAPSED:787.487540
;LAYER:14
;TYPE:WALL-INNER
;MESH:Dwarsprofiel-243-4sporen.stl
G1 F3600 X39.334 Y164.5 E441.35803
G1 X290.666 Y164.5 E445.5377
G1 X290.666 Y165.5 E445.55433
G1 X39.334 Y165.5 E449.734
G0 F7200 X38.934 Y165.9
G1 F3600 X38.934 Y164.1 E449.76393
G1 X291.066 Y164.1 E453.95691
G1 X291.066 Y165.9 E453.98684
G1 X38.934 Y165.9 E458.17981
G0 F7200 X38.534 Y166.3
;TYPE:WALL-OUTER
G1 F1800 X38.534 Y163.7 E458.22305
G1 X291.466 Y163.7 E462.42933
G1 X291.466 Y166.3 E462.47257
G1 X38.534 Y166.3 E466.67884
G0 F7200 X38.534 Y166.1
G0 X39.004 Y165.83
G0 X39.724 Y165.11
;TYPE:SKIN
G1 F1800 X39.724 Y164.89 E466.6825
G1 X290.276 Y164.89 E470.8492
G1 X290.276 Y165.11 E470.85286
G1 X39.724 Y165.11 E475.01955
;MESH:NONMESH
G0 F600 X39.724 Y165.11 Z1.8
G0 F7200 X39.334 Y165.5
;TIME_ELAPSED:838.346033
;LAYER:15
;TYPE:WALL-INNER
;MESH:Dwarsprofiel-243-4sporen.stl
G1 F3600 X39.334 Y164.5 E475.03618
G1 X290.666 Y164.5 E479.21585
G1 X290.666 Y165.5 E479.23248
G1 X39.334 Y165.5 E483.41215
G0 F7200 X38.934 Y165.9
G1 F3600 X38.934 Y164.1 E483.44208
G1 X291.066 Y164.1 E487.63505
G1 X291.066 Y165.9 E487.66499
G1 X38.934 Y165.9 E491.85796
G0 F7200 X38.534 Y166.3
;TYPE:WALL-OUTER
G1 F1800 X38.534 Y163.7 E491.9012
G1 X291.466 Y163.7 E496.10748
G1 X291.466 Y166.3 E496.15071
G1 X38.534 Y166.3 E500.35699
G0 F7200 X38.534 Y166.1
G0 X39.004 Y165.83
G0 X39.724 Y165.11
;TYPE:SKIN
G1 F1800 X39.724 Y164.89 E500.36065
G1 X290.276 Y164.89 E504.52735
G1 X290.276 Y165.11 E504.531
G1 X39.724 Y165.11 E508.6977
;MESH:NONMESH
G0 F600 X39.724 Y165.11 Z1.9
G0 F7200 X39.334 Y165.5
;TIME_ELAPSED:889.204526
;LAYER:16
;TYPE:WALL-INNER
;MESH:Dwarsprofiel-243-4sporen.stl
G1 F3600 X39.334 Y164.5 E508.71433
G1 X290.666 Y164.5 E512.894
G1 X290.666 Y165.5 E512.91063
G1 X39.334 Y165.5 E517.0903
G0 F7200 X38.934 Y165.9
G1 F3600 X38.934 Y164.1 E517.12023
G1 X291.066 Y164.1 E521.3132
G1 X291.066 Y165.9 E521.34314
G1 X38.934 Y165.9 E525.53611
G0 F7200 X38.534 Y166.3
;TYPE:WALL-OUTER
G1 F1800 X38.534 Y163.7 E525.57935
G1 X291.466 Y163.7 E529.78562
G1 X291.466 Y166.3 E529.82886
G1 X38.534 Y166.3 E534.03514
G0 F7200 X38.534 Y166.1
G0 X39.004 Y165.83
G0 X39.724 Y165.11
;TYPE:SKIN
G1 F1800 X39.724 Y164.89 E534.0388
G1 X290.276 Y164.89 E538.20549
G1 X290.276 Y165.11 E538.20915
G1 X39.724 Y165.11 E542.37585
;MESH:NONMESH
G0 F600 X39.724 Y165.11 Z2
G0 F7200 X39.334 Y165.5
;TIME_ELAPSED:940.063018
;LAYER:17
;TYPE:WALL-INNER
;MESH:Dwarsprofiel-243-4sporen.stl
G1 F3600 X39.334 Y164.5 E542.39248
G1 X290.666 Y164.5 E546.57215
G1 X290.666 Y165.5 E546.58878
G1 X39.334 Y165.5 E550.76845
G0 F7200 X38.934 Y165.9
G1 F3600 X38.934 Y164.1 E550.79838
G1 X291.066 Y164.1 E554.99135
G1 X291.066 Y165.9 E555.02129
G1 X38.934 Y165.9 E559.21426
G0 F7200 X38.534 Y166.3
;TYPE:WALL-OUTER
G1 F1800 X38.534 Y163.7 E559.2575
G1 X291.466 Y163.7 E563.46377
G1 X291.466 Y166.3 E563.50701
G1 X38.534 Y166.3 E567.71329
G0 F7200 X38.534 Y166.1
G0 X39.004 Y165.83
G0 X39.724 Y165.11
;TYPE:SKIN
G1 F1800 X39.724 Y164.89 E567.71695
G1 X290.276 Y164.89 E571.88364
G1 X290.276 Y165.11 E571.8873
G1 X39.724 Y165.11 E576.054
;MESH:NONMESH
G0 F600 X39.724 Y165.11 Z2.1
G0 F7200 X39.034 Y164.3
G0 X38.534 Y164.3
;TIME_ELAPSED:990.943674
;LAYER:18
;TYPE:WALL-OUTER
;MESH:Dwarsprofiel-243-4sporen.stl
G1 F1800 X38.534 Y163.7 E576.06398
G1 X291.466 Y163.7 E580.27025
G1 X291.466 Y164.3 E580.28023
G1 X38.534 Y164.3 E584.48651
G0 F7200 X38.534 Y164.1
G0 X38.766 Y164.066
;TYPE:SKIN
G1 F1800 X38.983 Y163.999 E584.48848
G1 X104.602 Y163.999 E585.05943
G1 X170.222 Y163.999 E585.63039
G1 X235.841 Y163.999 E586.20134
G1 X290.996 Y163.999 E586.68124
G1 X291.221 Y163.942 E586.68326
G0 F7200 X291.173 Y163.9
G1 F1500 E580.18326
G1 F600 Z3.1
G0 F7200 X291.173 Y163.9 Z3.1
G0 X38.534 Y166.3
;TYPE:WALL-OUTER
G1 F600 Z2.1
G1 F1500 E586.68326
G1 F1800 X38.534 Y165.7 E586.69324
G1 X291.466 Y165.7 E590.89952
G1 X291.466 Y166.3 E590.90949
G1 X38.534 Y166.3 E595.11577
G0 F7200 X38.534 Y166.1
G0 X38.776 Y166.056
;TYPE:SKIN
G1 F1800 X39.002 Y165.999 E595.11779
G1 X104.622 Y165.999 E595.68741
G1 X170.241 Y165.999 E596.25702
G1 X235.861 Y165.999 E596.82663
G1 X291.015 Y165.999 E597.3054
G1 X291.232 Y165.933 E597.30737
G0 F7200 X291.194 Y165.9
G1 F1500 E590.80737
G1 F600 Z3.1
;MESH:NONMESH
G0 F7200 X291.194 Y165.9 Z3.1
G0 X38.534 Y164.3
;TIME_ELAPSED:1046.655691
;LAYER:19
;MESH:Dwarsprofiel-243-4sporen.stl
G0 X38.534 Y164.3 Z3.2
;TYPE:WALL-OUTER
G1 F600 Z2.2
G1 F1500 E597.30737
G1 F1800 X38.534 Y163.7 E597.31734
G1 X291.466 Y163.7 E601.52362
G1 X291.466 Y164.3 E601.5336
G1 X38.534 Y164.3 E605.73987
G0 F7200 X38.534 Y164.1
G0 X38.816 Y163.981
;TYPE:SKIN
G1 F1800 X39.081 Y163.999 E605.74221
G1 X104.7 Y163.999 E606.31955
G1 X170.32 Y163.999 E606.8969
G1 X235.939 Y163.999 E607.47425
G1 X291.094 Y163.999 E607.95952
G0 F7200 X291.2 Y163.9
G1 F1500 E601.45952
G1 F600 Z3.2
G0 F7200 X291.2 Y163.9 Z3.2
G0 X38.534 Y166.3
;TYPE:WALL-OUTER
G1 F600 Z2.2
G1 F1500 E607.95952
G1 F1800 X38.534 Y165.7 E607.9695
G1 X291.466 Y165.7 E612.17578
G1 X291.466 Y166.3 E612.18576
G1 X38.534 Y166.3 E616.39203
G0 F7200 X38.534 Y166.1
G0 X38.806 Y165.971
;TYPE:SKIN
G1 F1800 X39.06 Y165.999 E616.39427
G1 X104.68 Y165.999 E616.96903
G1 X170.299 Y165.999 E617.54378
G1 X235.919 Y165.999 E618.11854
G1 X291.073 Y165.999 E618.60162
G0 F7200 X291.179 Y165.9
G1 F1500 E612.10162
G1 F600 Z3.2
;MESH:NONMESH
G0 F7200 X291.179 Y165.9 Z3.2
G0 X38.534 Y164.3
;TIME_ELAPSED:1102.619656
;LAYER:20
;MESH:Dwarsprofiel-243-4sporen.stl
G0 X38.534 Y164.3 Z3.3
;TYPE:WALL-OUTER
G1 F600 Z2.3
G1 F1500 E618.60162
G1 F1800 X38.534 Y163.7 E618.6116
G1 X291.466 Y163.7 E622.81788
G1 X291.466 Y164.3 E622.82785
G1 X38.534 Y164.3 E627.03413
G0 F7200 X38.534 Y164.1
G0 X38.766 Y164.066
;TYPE:SKIN
G1 F1800 X38.983 Y163.999 E627.03611
G1 X104.602 Y163.999 E627.60706
G1 X170.222 Y163.999 E628.17802
G1 X235.841 Y163.999 E628.74896
G1 X290.996 Y163.999 E629.22887
G1 X291.221 Y163.942 E629.23089
G0 F7200 X291.173 Y163.9
G1 F1500 E622.73089
G1 F600 Z3.3
G0 F7200 X291.173 Y163.9 Z3.3
G0 X38.534 Y166.3
;TYPE:WALL-OUTER
G1 F600 Z2.3
G1 F1500 E629.23089
G1 F1800 X38.534 Y165.7 E629.24087
G1 X291.466 Y165.7 E633.44714
G1 X291.466 Y166.3 E633.45712
G1 X38.534 Y166.3 E637.6634
G0 F7200 X38.534 Y166.1
G0 X38.776 Y166.056
;TYPE:SKIN
G1 F1800 X39.002 Y165.999 E637.66542
G1 X104.622 Y165.999 E638.23503
G1 X170.241 Y165.999 E638.80464
G1 X235.861 Y165.999 E639.37426
G1 X291.015 Y165.999 E639.85302
G1 X291.232 Y165.933 E639.85499
G0 F7200 X291.194 Y165.9
G1 F1500 E633.35499
G1 F600 Z3.3
;MESH:NONMESH
G0 F7200 X291.194 Y165.9 Z3.3
G0 X38.534 Y164.3
;TIME_ELAPSED:1158.588892
;LAYER:21
;MESH:Dwarsprofiel-243-4sporen.stl
G0 X38.534 Y164.3 Z3.4
;TYPE:WALL-OUTER
G1 F600 Z2.4
G1 F1500 E639.85499
G1 F1800 X38.534 Y163.7 E639.86497
G1 X291.466 Y163.7 E644.07124
G1 X291.466 Y164.3 E644.08122
G1 X38.534 Y164.3 E648.2875
G0 F7200 X38.534 Y164.1
G0 X38.816 Y163.981
;TYPE:SKIN
G1 F1800 X39.081 Y163.999 E648.28984
G1 X104.7 Y163.999 E648.86718
G1 X170.32 Y163.999 E649.44453
G1 X235.939 Y163.999 E650.02187
G1 X291.094 Y163.999 E650.50715
G0 F7200 X291.2 Y163.9
G1 F1500 E644.00715
G1 F600 Z3.4
G0 F7200 X291.2 Y163.9 Z3.4
G0 X38.534 Y166.3
;TYPE:WALL-OUTER
G1 F600 Z2.4
G1 F1500 E650.50715
G1 F1800 X38.534 Y165.7 E650.51713
G1 X291.466 Y165.7 E654.7234
G1 X291.466 Y166.3 E654.73338
G1 X38.534 Y166.3 E658.93966
G0 F7200 X38.534 Y166.1
G0 X38.806 Y165.971
;TYPE:SKIN
G1 F1800 X39.06 Y165.999 E658.9419
G1 X104.68 Y165.999 E659.51665
G1 X170.299 Y165.999 E660.0914
G1 X235.919 Y165.999 E660.66616
G1 X291.073 Y165.999 E661.14925
G0 F7200 X291.179 Y165.9
G1 F1500 E654.64925
G1 F600 Z3.4
;MESH:NONMESH
G0 F7200 X291.179 Y165.9 Z3.4
G0 X38.534 Y164.3
;TIME_ELAPSED:1214.552856
;LAYER:22
;MESH:Dwarsprofiel-243-4sporen.stl
G0 X38.534 Y164.3 Z3.5
;TYPE:WALL-OUTER
G1 F600 Z2.5
G1 F1500 E661.14925
G1 F1800 X38.534 Y163.7 E661.15923
G1 X291.466 Y163.7 E665.3655
G1 X291.466 Y164.3 E665.37548
G1 X38.534 Y164.3 E669.58176
G0 F7200 X38.534 Y164.1
G0 X38.766 Y164.066
;TYPE:SKIN
G1 F1800 X38.983 Y163.999 E669.58373
G1 X104.602 Y163.999 E670.15468
G1 X170.222 Y163.999 E670.72564
G1 X235.841 Y163.999 E671.29659
G1 X290.996 Y163.999 E671.77649
G1 X291.221 Y163.942 E671.77851
G0 F7200 X291.173 Y163.9
G1 F1500 E665.27851
G1 F600 Z3.5
G0 F7200 X291.173 Y163.9 Z3.5
G0 X38.534 Y166.3
;TYPE:WALL-OUTER
G1 F600 Z2.5
G1 F1500 E671.77851
G1 F1800 X38.534 Y165.7 E671.78849
G1 X291.466 Y165.7 E675.99477
G1 X291.466 Y166.3 E676.00474
G1 X38.534 Y166.3 E680.21102
G0 F7200 X38.534 Y166.1
G0 X38.776 Y166.056
;TYPE:SKIN
G1 F1800 X39.002 Y165.999 E680.21304
G1 X104.622 Y165.999 E680.78266
G1 X170.241 Y165.999 E681.35227
G1 X235.861 Y165.999 E681.92188
G1 X291.015 Y165.999 E682.40065
G1 X291.232 Y165.933 E682.40261
G0 F7200 X291.194 Y165.9
G1 F1500 E675.90261
G1 F600 Z3.5
;MESH:NONMESH
G0 F7200 X291.194 Y165.9 Z3.5
G0 X38.534 Y164.3
;TIME_ELAPSED:1270.522092
;LAYER:23
;MESH:Dwarsprofiel-243-4sporen.stl
G0 X38.534 Y164.3 Z3.6
;TYPE:WALL-OUTER
G1 F600 Z2.6
G1 F1500 E682.40261
G1 F1800 X38.534 Y163.7 E682.41259
G1 X291.466 Y163.7 E686.61887
G1 X291.466 Y164.3 E686.62885
G1 X38.534 Y164.3 E690.83512
G0 F7200 X38.534 Y164.1
G0 X38.816 Y163.981
;TYPE:SKIN
G1 F1800 X39.081 Y163.999 E690.83746
G1 X104.7 Y163.999 E691.4148
G1 X170.32 Y163.999 E691.99215
G1 X235.939 Y163.999 E692.5695
G1 X291.094 Y163.999 E693.05477
G0 F7200 X291.2 Y163.9
G1 F1500 E686.55477
G1 F600 Z3.6
G0 F7200 X291.2 Y163.9 Z3.6
G0 X38.534 Y166.3
;TYPE:WALL-OUTER
G1 F600 Z2.6
G1 F1500 E693.05477
G1 F1800 X38.534 Y165.7 E693.06475
G1 X291.466 Y165.7 E697.27103
G1 X291.466 Y166.3 E697.28101
G1 X38.534 Y166.3 E701.48728
G0 F7200 X38.534 Y166.1
G0 X38.806 Y165.971
;TYPE:SKIN
G1 F1800 X39.06 Y165.999 E701.48952
G1 X104.68 Y165.999 E702.06428
G1 X170.299 Y165.999 E702.63903
G1 X235.919 Y165.999 E703.21378
G1 X291.073 Y165.999 E703.69687
G0 F7200 X291.179 Y165.9
G1 F1500 E697.19687
G1 F600 Z3.6
;MESH:NONMESH
G0 F7200 X291.179 Y165.9 Z3.6
G0 X38.534 Y164.3
;TIME_ELAPSED:1326.486057
;LAYER:24
;MESH:Dwarsprofiel-243-4sporen.stl
G0 X38.534 Y164.3 Z3.7
;TYPE:WALL-OUTER
G1 F600 Z2.7
G1 F1500 E703.69687
G1 F1800 X38.534 Y163.7 E703.70685
G1 X291.466 Y163.7 E707.91313
G1 X291.466 Y164.3 E707.9231
G1 X38.534 Y164.3 E712.12938
G0 F7200 X38.534 Y164.1
G0 X38.766 Y164.066
;TYPE:SKIN
G1 F1800 X38.983 Y163.999 E712.13136
G1 X104.602 Y163.999 E712.70231
G1 X170.222 Y163.999 E713.27326
G1 X235.841 Y163.999 E713.84421
G1 X290.996 Y163.999 E714.32412
G1 X291.221 Y163.942 E714.32614
G0 F7200 X291.173 Y163.9
G1 F1500 E707.82614
G1 F600 Z3.7
G0 F7200 X291.173 Y163.9 Z3.7
G0 X38.534 Y166.3
;TYPE:WALL-OUTER
G1 F600 Z2.7
G1 F1500 E714.32614
G1 F1800 X38.534 Y165.7 E714.33611
G1 X291.466 Y165.7 E718.54239
G1 X291.466 Y166.3 E718.55237
G1 X38.534 Y166.3 E722.75865
G0 F7200 X38.534 Y166.1
G0 X38.776 Y166.056
;TYPE:SKIN
G1 F1800 X39.002 Y165.999 E722.76067
G1 X104.622 Y165.999 E723.33028
G1 X170.241 Y165.999 E723.89989
G1 X235.861 Y165.999 E724.46951
G1 X291.015 Y165.999 E724.94827
G1 X291.232 Y165.933 E724.95024
G0 F7200 X291.194 Y165.9
G1 F1500 E718.45024
G1 F600 Z3.7
;MESH:NONMESH
G0 F7200 X291.194 Y165.9 Z3.7
G0 X38.534 Y164.3
;TIME_ELAPSED:1382.455293
;LAYER:25
;MESH:Dwarsprofiel-243-4sporen.stl
G0 X38.534 Y164.3 Z3.8
;TYPE:WALL-OUTER
G1 F600 Z2.8
G1 F1500 E724.95024
G1 F1800 X38.534 Y163.7 E724.96022
G1 X291.466 Y163.7 E729.16649
G1 X291.466 Y164.3 E729.17647
G1 X38.534 Y164.3 E733.38275
G0 F7200 X38.534 Y164.1
G0 X38.816 Y163.981
;TYPE:SKIN
G1 F1800 X39.081 Y163.999 E733.38509
G1 X104.7 Y163.999 E733.96243
G1 X170.32 Y163.999 E734.53978
G1 X235.939 Y163.999 E735.11712
G1 X291.094 Y163.999 E735.6024
G0 F7200 X291.2 Y163.9
G1 F1500 E729.1024
G1 F600 Z3.8
G0 F7200 X291.2 Y163.9 Z3.8
G0 X38.534 Y166.3
;TYPE:WALL-OUTER
G1 F600 Z2.8
G1 F1500 E735.6024
G1 F1800 X38.534 Y165.7 E735.61238
G1 X291.466 Y165.7 E739.81865
G1 X291.466 Y166.3 E739.82863
G1 X38.534 Y166.3 E744.03491
G0 F7200 X38.534 Y166.1
G0 X38.806 Y165.971
;TYPE:SKIN
G1 F1800 X39.06 Y165.999 E744.03714
G1 X104.68 Y165.999 E744.6119
G1 X170.299 Y165.999 E745.18665
G1 X235.919 Y165.999 E745.76141
G1 X291.073 Y165.999 E746.2445
G0 F7200 X291.179 Y165.9
G1 F1500 E739.7445
G1 F600 Z3.8
;MESH:NONMESH
G0 F7200 X291.179 Y165.9 Z3.8
G0 X38.534 Y164.3
;TIME_ELAPSED:1438.419257
;LAYER:26
;MESH:Dwarsprofiel-243-4sporen.stl
G0 X38.534 Y164.3 Z3.9
;TYPE:WALL-OUTER
G1 F600 Z2.9
G1 F1500 E746.2445
G1 F1800 X38.534 Y163.7 E746.25447
G1 X291.466 Y163.7 E750.46075
G1 X291.466 Y164.3 E750.47073
G1 X38.534 Y164.3 E754.67701
G0 F7200 X38.534 Y164.1
G0 X38.766 Y164.066
;TYPE:SKIN
G1 F1800 X38.983 Y163.999 E754.67898
G1 X104.602 Y163.999 E755.24993
G1 X170.222 Y163.999 E755.82089
G1 X235.841 Y163.999 E756.39184
G1 X290.996 Y163.999 E756.87174
G1 X291.221 Y163.942 E756.87376
G0 F7200 X291.173 Y163.9
G1 F1500 E750.37376
G1 F600 Z3.9
G0 F7200 X291.173 Y163.9 Z3.9
G0 X38.534 Y166.3
;TYPE:WALL-OUTER
G1 F600 Z2.9
G1 F1500 E756.87376
G1 F1800 X38.534 Y165.7 E756.88374
G1 X291.466 Y165.7 E761.09002
G1 X291.466 Y166.3 E761.09999
G1 X38.534 Y166.3 E765.30627
G0 F7200 X38.534 Y166.1
G0 X38.776 Y166.056
;TYPE:SKIN
G1 F1800 X39.002 Y165.999 E765.30829
G1 X104.622 Y165.999 E765.87791
G1 X170.241 Y165.999 E766.44752
G1 X235.861 Y165.999 E767.01713
G1 X291.015 Y165.999 E767.4959
G1 X291.232 Y165.933 E767.49786
G0 F7200 X291.194 Y165.9
G1 F1500 E760.99786
G1 F600 Z3.9
;MESH:NONMESH
G0 F7200 X291.194 Y165.9 Z3.9
G0 X38.534 Y164.3
;TIME_ELAPSED:1494.388493
;LAYER:27
;MESH:Dwarsprofiel-243-4sporen.stl
G0 X38.534 Y164.3 Z4
;TYPE:WALL-OUTER
G1 F600 Z3
G1 F1500 E767.49786
G1 F1800 X38.534 Y163.7 E767.50784
G1 X291.466 Y163.7 E771.71412
G1 X291.466 Y164.3 E771.7241
G1 X38.534 Y164.3 E775.93037
G0 F7200 X38.534 Y164.1
G0 X38.816 Y163.981
;TYPE:SKIN
G1 F1800 X39.081 Y163.999 E775.93271
G1 X104.7 Y163.999 E776.51005
G1 X170.32 Y163.999 E777.0874
G1 X235.939 Y163.999 E777.66475
G1 X291.094 Y163.999 E778.15002
G0 F7200 X291.2 Y163.9
G1 F1500 E771.65002
G1 F600 Z4
G0 F7200 X291.2 Y163.9 Z4
G0 X38.534 Y166.3
;TYPE:WALL-OUTER
G1 F600 Z3
G1 F1500 E778.15002
G1 F1800 X38.534 Y165.7 E778.16
G1 X291.466 Y165.7 E782.36628
G1 X291.466 Y166.3 E782.37626
G1 X38.534 Y166.3 E786.58253
G0 F7200 X38.534 Y166.1
G0 X38.806 Y165.971
;TYPE:SKIN
G1 F1800 X39.06 Y165.999 E786.58477
G1 X104.68 Y165.999 E787.15953
G1 X170.299 Y165.999 E787.73428
G1 X235.919 Y165.999 E788.30903
G1 X291.073 Y165.999 E788.79212
G0 F7200 X291.179 Y165.9
;TIME_ELAPSED:1547.946832
G1 F1500 E782.29212
M140 S0
M107
M107 T0
M104 S0
M104 S0 T1
M140 S0
G92 E0
G91
G1 E-1 F300
G1 Z+0.5 E-5 X-20 Y-20 F9000
G28 X0 Y0
M84 ;steppers off
G90 ;absolute positioning
M104 S0
;G1 E-1 F300
;G28 X0 Y0
;M84
M82 ;absolute extrusion mode
M104 S0
;End of Gcode
;SETTING_3 {"extruder_quality": ["[general]\\nversion = 4\\nname = Test001\\ndef
;SETTING_3 inition = custom\\n\\n[metadata]\\nsetting_version = 13\\nintent_cate
;SETTING_3 gory = default\\nquality_type = draft\\nposition = 0\\ntype = quality
;SETTING_3 _changes\\n\\n[values]\\ngradual_infill_steps = 5\\ninfill_pattern = 
;SETTING_3 concentric\\ninfill_sparse_density = 20\\nmaterial_print_temperature 
;SETTING_3 = 210\\nretraction_hop_enabled = True\\nwall_line_count = 3\\n\\n", "
;SETTING_3 [general]\\nversion = 4\\nname = Test001\\ndefinition = fdmprinter\\n
;SETTING_3 \\n[metadata]\\nsetting_version = 13\\nintent_category = default\\nqu
;SETTING_3 ality_type = normal\\nposition = 1\\ntype = quality_changes\\n\\n[val
;SETTING_3 ues]\\n\\n", "[general]\\nversion = 4\\nname = Test001\\ndefinition =
;SETTING_3  fdmprinter\\n\\n[metadata]\\nsetting_version = 13\\nintent_category 
;SETTING_3 = default\\nquality_type = normal\\nposition = 2\\ntype = quality_cha
;SETTING_3 nges\\n\\n[values]\\n\\n", "[general]\\nversion = 4\\nname = Test001\
;SETTING_3 \ndefinition = fdmprinter\\n\\n[metadata]\\nsetting_version = 13\\nin
;SETTING_3 tent_category = default\\nquality_type = normal\\nposition = 3\\ntype
;SETTING_3  = quality_changes\\n\\n[values]\\n\\n", "[general]\\nversion = 4\\nn
;SETTING_3 ame = Test001\\ndefinition = fdmprinter\\n\\n[metadata]\\nsetting_ver
;SETTING_3 sion = 13\\nintent_category = default\\nquality_type = normal\\nposit
;SETTING_3 ion = 4\\ntype = quality_changes\\n\\n[values]\\n\\n", "[general]\\nv
;SETTING_3 ersion = 4\\nname = Test001\\ndefinition = fdmprinter\\n\\n[metadata]
;SETTING_3 \\nsetting_version = 13\\nintent_category = default\\nquality_type = 
;SETTING_3 normal\\nposition = 5\\ntype = quality_changes\\n\\n[values]\\n\\n", 
;SETTING_3 "[general]\\nversion = 4\\nname = Test001\\ndefinition = fdmprinter\\
;SETTING_3 n\\n[metadata]\\nsetting_version = 13\\nintent_category = default\\nq
;SETTING_3 uality_type = normal\\nposition = 6\\ntype = quality_changes\\n\\n[va
;SETTING_3 lues]\\n\\n", "[general]\\nversion = 4\\nname = Test001\\ndefinition 
;SETTING_3 = fdmprinter\\n\\n[metadata]\\nsetting_version = 13\\nintent_category
;SETTING_3  = default\\nquality_type = normal\\nposition = 7\\ntype = quality_ch
;SETTING_3 anges\\n\\n[values]\\n\\n"], "global_quality": "[general]\\nversion =
;SETTING_3  4\\nname = Test001\\ndefinition = custom\\n\\n[metadata]\\nsetting_v
;SETTING_3 ersion = 13\\nquality_type = draft\\ntype = quality_changes\\n\\n[val
;SETTING_3 ues]\\nadhesion_type = skirt\\nmaterial_bed_temperature = 48\\n\\n"}
